2.898,2.875,4.134,0.5204921438275899,-0.06522005692357065
2.893,2.818,4.13,0.5391289882386462,-0.0798578929983651
2.903,2.875,4.12,0.5229781785320565,-0.05594487358939593
2.907,2.889,4.13,0.5191558710499008,-0.05673914611409248
2.846,2.884,4.12,0.49729292969498023,-0.06844781904465108
2.87,2.87,4.125,0.5115869567386923,-0.0688305522793689
2.889,2.861,4.12,0.5224887863384113,-0.06346150099955603
2.861,2.823,4.134,0.5245833940505326,-0.08917338005345453
2.917,2.818,4.088,0.5501346687848605,-0.049675031866825405
2.851,2.842,4.12,0.5143457688148315,-0.07863921255197913
2.809,2.818,4.111,0.5067731591123227,-0.09108415766806673
2.889,2.912,4.116,0.5043017275736299,-0.04720274873181834
2.87,2.861,4.149,0.513936882312413,-0.08494898026753778
2.917,2.879,4.12,0.5270625485646013,-0.05116426308368299
2.893,2.879,4.139,0.516899706746153,-0.06828237638669353
2.884,2.903,4.144,0.5045392566051489,-0.06690854829603643
2.87,2.875,4.134,0.5094593214491491,-0.07257864950076748
2.903,2.814,4.12,0.5448729101274615,-0.07263385883274702
2.856,2.814,4.125,0.5261733489540438,-0.08782471969209325
2.818,2.846,4.12,0.49993304236838737,-0.08619172918427757
2.804,2.856,4.088,0.49202012845978293,-0.06893076269596367
2.884,2.875,4.102,0.516150536417688,-0.0507114077667116
2.898,2.828,4.134,0.537366617098377,-0.0780853510839982
2.907,2.856,4.111,0.531711182505271,-0.05498156028750112
2.823,2.875,4.125,0.491298825491746,-0.07978477843653053
2.879,2.832,4.125,0.5287745687497036,-0.07686739777020309
2.837,2.842,0,2.926,2.828,0,2.884,2.898,4.116,0.5073677707877774,-0.05235965841965956
2.879,2.795,4.13,0.5418556166567896,-0.08981721349455969
2.893,2.875,4.125,0.5188520398982157,-0.06141718832094865
2.875,2.832,4.092,0.528411075483176,-0.05916292885348922
2.856,2.846,4.106,0.5153924564841372,-0.06827507095091684
2.879,2.837,4.134,0.5266497291554771,-0.08061898958049135
2.837,2.879,4.125,0.49536583742447093,-0.07502083511714079
2.842,2.851,4.116,0.5077213939929984,-0.07626221678958879
2.851,2.898,4.111,0.49455762660268116,-0.058181008406527734
2.907,2.879,4.116,0.5232650484369229,-0.05152275003499155
2.846,2.851,4.12,0.509147844367807,-0.07748781836501327
2.893,2.832,4.12,0.5344750478732787,-0.07034499397345956
2.842,2.818,4.134,0.5188994525742925,-0.09552370872340359
2.846,2.856,4.111,0.5076835874342259,-0.07100269947365079
2.842,2.851,4.116,0.5077213939929984,-0.07626221678958879
2.842,2.861,4.116,0.5041305671848337,-0.07352465268088425
2.875,2.87,4.116,0.5138870941945405,-0.06240094853326574
2.907,2.851,4.13,0.5328084659693323,-0.06715114163553372
2.893,2.861,4.139,0.5233667932415619,-0.07321475203437627
2.903,2.846,4.125,0.5332097416668462,-0.06672874370601305
2.879,2.846,4.13,0.523566756673443,-0.07588161906776002
2.87,2.875,4.111,0.5103052013405611,-0.05950210511391132
2.889,2.875,4.144,0.5165766945950159,-0.07327506666453398
2.851,2.875,4.13,0.502126912075843,-0.07529012281826843
2.861,2.893,4.144,0.499077050968499,-0.07569417458308503
2.842,2.823,4.116,0.5177684428478385,-0.08391928567675028
2.809,2.818,4.116,0.5065892263592721,-0.093927331481467
2.907,2.875,4.134,0.5240409660697892,-0.06285231529776768
2.832,2.837,4.12,0.5086663258105543,-0.08498731125694832
2.889,2.879,4.102,0.516683317928405,-0.04830137568389443
2.926,2.846,4.102,0.5431273521259544,-0.047603322746223024
2.875,2.856,4.111,0.5190993330244185,-0.06339307914410904
2.931,2.893,4.125,0.5273708230263535,-0.046479894811764975
2.832,2.865,4.125,0.49842984300251264,-0.08016728906616315
2.912,2.846,4.111,0.5372733616654821,-0.056402568601819726
2.842,2.846,4.13,0.5090012808349512,-0.08559206614843551
2.846,2.832,4.134,0.5154517365347638,-0.09064832216405001
2.837,2.87,4.106,0.4992989050997206,-0.06668609612313209
2.87,2.846,4.116,0.520536536186985,-0.07028479590327315
2.898,2.889,4.125,0.5157909281688872,-0.05626403026761909
2.907,2.842,4.134,0.5358921473205964,-0.07188889898434427
2.832,2.846,4.12,0.5054363425833713,-0.08252540467060235
2.837,2.837,4.12,0.5106325454105107,-0.08367718102156095
2.856,2.846,4.073,0.5166044115614827,-0.04953283714464923
2.879,2.832,4.134,0.5284437272291311,-0.08198634825969885
2.846,2.879,4.125,0.49890607969286466,-0.07266153157412424
2.922,2.842,4.13,0.5419565862396406,-0.06566517953154548
2.898,2.87,4.116,0.5229503412519628,-0.056356459292508564
2.865,2.846,4.102,0.5190822038569363,-0.06364062967476737
2.884,2.832,4.111,0.5312588526432339,-0.06759437641528664
2.893,2.846,4.116,0.5295980303285879,-0.06424203075226254
2.837,2.851,4.134,0.5050924599885299,-0.08780982996620575
2.832,2.846,4.134,0.5049211288772433,-0.09048855157811243
2.922,2.903,4.097,0.5212508438652448,-0.03019902799667204
2.875,2.879,4.102,0.5111676831795752,-0.051979247177725695
2.884,2.837,4.12,0.5291342640606048,-0.0713433886499706
2.804,2.912,4.13,0.4703441023333906,-0.0774503991097158
2.865,2.879,4.12,0.5065680131093517,-0.06483399875947737
2.893,2.889,4.088,0.5151793998637775,-0.036558180727665666
2.945,2.842,4.078,0.5529439302929687,-0.03006441970649085
2.889,2.903,4.116,0.507539654737793,-0.04967351216722172
2.814,2.917,4.125,0.4726575061508059,-0.07061704976443994
2.898,2.823,4.125,0.5394906803903549,-0.07433325898459686
2.889,2.823,4.12,0.5361268120865863,-0.07385649336298769
2.861,2.879,4.139,0.5042941040422685,-0.07668920727827672
2.865,2.856,4.13,0.5144627622043071,-0.07682113996843697
2.917,2.861,4.106,0.534043597680964,-0.048140020762562574
2.898,2.856,4.125,0.5276481414231694,-0.06530689278379549
2.907,2.809,4.12,0.5482427066788629,-0.07294692646007227
2.889,2.879,4.111,0.5163526497389185,-0.05341479014196792
2.893,2.926,4.116,0.5008393383020331,-0.04230547027906917
2.879,2.875,4.134,0.5130042662560977,-0.07021466605780922
2.893,2.865,4.13,0.5222609898546393,-0.0670001824754068
2.884,2.846,4.125,0.5257205025120119,-0.07172438694273045
2.856,2.907,4.12,0.4929568560639747,-0.05951477551991432
2.814,2.856,4.116,0.4949182976057811,-0.08222728947125645
2.926,2.889,4.139,0.5263209772515448,-0.05685457941887153
2.903,2.861,4.134,0.5274931153959194,-0.06774050371326663
2.861,2.851,4.097,0.5158963140320794,-0.060481571955521285
2.865,2.842,4.12,0.5198563765465177,-0.07496583924469498
2.889,2.865,4.116,0.5211990730788949,-0.060092289833867725
2.851,2.861,4.125,0.5073403974515946,-0.0762820715776469
2.856,2.879,4.13,0.5026571860143526,-0.07288200623838663
2.917,2.889,4.111,0.5237985724360847,-0.04330802020109911
2.922,2.893,4.139,0.5233041525947227,-0.05681088156718514
0,2.818,0,2.865,2.879,4.111,0.5068989687442181,-0.05971839012699164
2.912,2.842,4.125,0.5381949225307298,-0.0654548936321076
2.893,2.851,4.125,0.5274724099139755,-0.06799038257387048
2.889,2.884,4.106,0.5147392645162642,-0.04920319948793148
2.917,2.828,4.13,0.5450070445974963,-0.07081038025156398
2.912,2.814,4.111,0.5487527385904798,-0.06514968715398373
2.893,2.814,4.13,0.5405631710617879,-0.08095060678488064
2.922,2.828,4.139,0.5466493247947886,-0.07461287739494483
2.875,2.87,4.125,0.5135561802381727,-0.06751748108924581
2.912,2.846,4.12,0.5369428694343804,-0.06151791773508869
2.801,2.856,4.125,0.4894803673854132,-0.09074650364219598
2.861,2.889,4.111,0.5017296556410309,-0.058026470211535564
2.889,2.837,4.116,0.5312515134577459,-0.06775533755419243
2.828,2.865,4.111,0.49737233201435305,-0.07325515229136707
2.846,2.903,4.13,0.4900926160844648,-0.06892146647359547
2.926,2.917,4.144,0.5160648870607498,-0.05201183910295435
2.884,2.912,4.106,0.5026991160382145,-0.04283486578128859
2.912,2.884,4.125,0.5231092326936896,-0.05395181716892814
2.851,2.856,4.116,0.509467026937993,-0.07253382629944526
2.903,2.931,4.111,0.5031652508741412,-0.03546071368368554
2.884,2.889,4.125,0.5102731057164435,-0.05994450916073175
2.814,2.832,4.106,0.5039002299616114,-0.08310770007113726
2.907,2.875,4.111,0.5248861917946149,-0.04977767449504611
2.87,2.846,4.102,0.5210509504164725,-0.06232819800232054
2.889,2.823,4.134,0.5356123910558123,-0.08181856014570661
2.861,2.842,4.106,0.5187961728090903,-0.06805747713708159
2.903,2.879,4.12,0.5215407074803723,-0.05484854278910648
2.804,2.828,4.111,0.5012229385110849,-0.08965962117220494
2.851,2.846,4.111,0.5132410009248602,-0.07242829459811828
2.931,2.851,4.139,0.5419473655315136,-0.06594997891961073
2.907,2.865,4.111,0.5284788953302036,-0.05251724245690318
2.893,2.889,4.116,0.5141507994025744,-0.052463040702895015
2.907,2.837,4.12,0.5382008249578617,-0.06529560168503926
2.846,2.861,4.125,0.5053730494257286,-0.07759332853206485
2.851,2.87,4.102,0.5049533275463889,-0.060743317911491235
2.832,2.87,4.102,0.49747984949258867,-0.06572303626724059
2.828,2.875,4.102,0.4941107115698937,-0.06540082181267368
2.861,2.865,4.116,0.5101705370539454,-0.06744596236662488
2.917,2.828,4.13,0.5450070445974963,-0.07081038025156398
2.898,2.912,4.106,0.5082167405794492,-0.03915497843040636
2.865,2.875,4.111,0.5083364213497111,-0.06081463946641296
2.828,2.814,4.116,0.5154900740293016,-0.09004626838526282
2.893,2.917,4.139,0.5032328409767853,-0.05785371085013489
2.846,2.837,4.116,0.5143198273095234,-0.07904360366103776
2.823,2.856,4.106,0.4988230695115625,-0.07418677811956527
2.856,2.856,4.12,0.511287639410407,-0.07349640304119891
2.856,2.865,4.111,0.5083862931014311,-0.06591581559647956
2.884,2.884,4.13,0.5118866964902803,-0.06415868158393441
2.907,2.851,4.111,0.5335064265990929,-0.056350094488419177
2.828,2.889,4.116,0.4885635492459747,-0.0695197765658518
2.898,2.87,4.088,0.5239785931621543,-0.04045071337465805
2.865,2.832,4.092,0.5244732620333129,-0.06178794359181732
2.823,2.837,4.12,0.5051281332315534,-0.0873445799919194
2.865,2.818,4.12,0.5284658971335784,-0.08152669882617362
2.875,2.879,4.12,0.510506032909213,-0.06220834722452926
0,2.903,0,2.907,2.818,4.106,0.5455300397857111,-0.06253132654876314
2.856,2.898,4.144,0.4953107101427732,-0.07563434621437175
2.861,2.889,4.116,0.5015457675933488,-0.060868198611845635
2.903,2.87,4.097,0.525619486583918,-0.044246608935056046
2.842,2.851,4.134,0.5070591340431357,-0.08649915105364936
2.828,2.856,4.144,0.4993898880383583,-0.09448962350193292
2.795,2.842,4.12,0.492334417852214,-0.093302743288689
2.87,2.903,4.116,0.5000546711693546,-0.05466479194203888
2.917,2.893,4.13,0.5216621830211124,-0.05300974486590778
2.865,2.875,4.116,0.5081525810935928,-0.06365647915664252
2.884,2.851,4.116,0.5242563428901889,-0.0652393239662688
2.879,2.832,4.125,0.5287745687497036,-0.07686739777020309
2.884,2.889,4.13,0.5100892044682696,-0.06278744359429432
2.861,2.832,4.12,0.521869861665086,-0.07875044180639747
2.828,2.889,4.125,0.4882322166742387,-0.07463691213846235
2.879,2.879,4.111,0.5124125321596306,-0.05604234341165063
2.903,2.875,4.12,0.5229781785320565,-0.05594487358939593
2.884,2.893,4.12,0.5090187557457979,-0.05600492809918294
2.889,0,4.102,2.917,2.907,4.102,0.517655602255093,-0.033256928596336874
2.837,2.865,4.092,0.5016097749789469,-0.06010154385527803
2.903,2.861,4.134,0.5274931153959194,-0.06774050371326663
2.846,2.912,4.125,0.4870387089248161,-0.06360730893508891
2.814,2.879,4.102,0.4871710346009912,-0.06796950730486828
2.842,2.879,4.13,0.4971484360025162,-0.07655379606520785
2.87,2.893,4.13,0.5031361125185849,-0.06536788904870254
2.851,2.865,4.12,0.5060876105244141,-0.07234347624909719
2.837,2.851,4.116,0.5057547934586996,-0.0775726817626186
2.917,2.879,4.102,0.5277236256511305,-0.040936830966232116
2.907,2.846,4.111,0.5353013331948787,-0.057718248181172625
2.832,2.87,4.111,0.49714881275016937,-0.0708378148198893
2.931,2.846,4.12,0.5444401798747608,-0.05651459545265392
2.818,2.851,4.092,0.4991680709838276,-0.06890896297609593
2.8,2.903,4.12,0.4723797213239678,-0.07528061157932488
2.818,2.851,4.116,0.4982853321645862,-0.08254895365313537
2.884,2.875,4.12,0.5154890445823778,-0.06094030564211303
2.8,2.828,4.12,0.4993208587971636,-0.09582370856805529
2.804,2.898,4.092,0.4767799663715649,-0.05969419227110647
2.875,2.837,4.092,0.5266171806457708,-0.05779607028882484
2.851,2.865,4.106,0.5066024437897706,-0.06438570059073664
2.898,2.893,4.102,0.5151979716604801,-0.04209699241596343
2.898,2.846,4.116,0.5315690030124648,-0.0629273380575719
2.898,2.842,4.116,0.5330046905048706,-0.0640216335867295
2.804,2.832,4.139,0.49875722532543976,-0.10449418704540446
2.893,2.898,4.12,0.5107674818451443,-0.052267544374112795
2.907,2.884,4.116,0.521467918423444,-0.050152043837790004
2.828,2.865,4.111,0.49737233201435305,-0.07325515229136707
2.889,2.832,4.097,0.5337431289631176,-0.058325428741098174
2.823,2.912,4.125,0.47799388213978,-0.06963417962174208
2.884,2.846,4.106,0.5264186112398969,-0.06092414571925794
2.912,2.879,4.116,0.5252370817688029,-0.050207016174737905
2.875,2.884,4.097,0.5095543056827992,-0.04776855108304554
2.926,2.851,4.111,0.541002152864246,-0.05134854259650604
2.851,2.861,4.097,0.508369928152605,-0.06036745010842307
2.814,2.889,4.078,0.4844591999956586,-0.05159701797104799
2.898,2.8,4.102,0.548580009078594,-0.06753963556653286
2.875,2.856,4.116,0.5189155762535262,-0.06623502267495501
2.893,2.851,4.111,0.5279867939260935,-0.060032018540799224
2.828,2.879,4.116,0.49215816497789405,-0.07226156376044601
2.893,2.818,4.12,0.5394963473292191,-0.07417108907307245
2.893,2.893,4.13,0.5121978329302979,-0.0593243972450197
2.814,2.842,4.12,0.49979693381687945,-0.08833302968579913
2.851,2.875,4.102,0.5031568325710233,-0.05937344727172974
2.879,2.851,4.116,0.5222864535562419,-0.06655296923992117
2.879,2.837,4.111,0.5274950334901259,-0.0675408815814245
2.851,2.846,4.12,0.5129100840946011,-0.07754487928856256
2.917,2.861,4.111,0.5338600251150257,-0.05098091655932266
2.879,2.842,4.111,0.5257007501005945,-0.06617341487388688
2.936,2.884,4.106,0.5332781314823974,-0.03683425432868042
2.879,2.865,4.13,0.5167441838359167,-0.0706797730521944
2.922,2.875,4.12,0.5304728325722052,-0.05094407717663709
2.922,2.846,4.102,0.5415488713066133,-0.04865664813038193
2.907,2.818,4.116,0.5451629905717593,-0.06821487771550476
2.837,2.865,4.092,0.5016097749789469,-0.06010154385527803
2.907,2.842,4.116,0.5365534136256047,-0.061654248418922454
2.879,2.865,4.111,0.5174426763152283,-0.05987816071292903
2.842,2.842,4.12,0.510804863739841,-0.08099909529925119
0,2.842,0,2.828,2.846,4.106,0.5043786220439619,-0.07561407777307282
2.912,2.87,4.092,0.52935225809251,-0.03903955865873326
2.875,2.861,4.102,0.5176344519179881,-0.056910099908948686
2.922,2.856,4.111,0.5376283961917186,-0.05103341030291154
2.87,2.823,4.125,0.5284579606895803,-0.08169128323156437
2.865,2.842,4.139,0.5191576320189307,-0.08577266557421892
2.912,2.879,4.106,0.5256043839100838,-0.04452500083244482
2.87,2.856,4.12,0.5167993392315685,-0.069821970443667
2.898,0,4.13,2.912,2.828,4.111,0.5437322295761008,-0.061324758574910564
2.922,2.828,4.106,0.5478609329827153,-0.05585105826586873
2.828,2.889,4.12,0.48841630521042073,-0.07179384891296768
2.832,2.856,4.106,0.5023611641632377,-0.07182981201916078
2.837,2.865,4.111,0.5009111831958389,-0.07089738712489069
2.851,2.851,4.139,0.5104161321062802,-0.08698366205157437
2.823,2.823,4.092,0.5111797915096512,-0.07525572387264702
2.875,2.884,4.092,0.509737986341899,-0.04492893378938179
2.804,2.889,4.106,0.47950096291693445,-0.07011705198891599
2.884,2.889,4.106,0.5109715947585942,-0.04914613856438258
2.851,2.87,4.106,0.5048062765129023,-0.06301616240217335
2.907,2.879,4.139,0.5224196122692735,-0.06459958711063687
2.907,2.842,4.12,0.5364065063159918,-0.06392802836210985
2.814,2.907,4.102,0.4771028670725774,-0.06028960493497304
2.823,2.856,4.111,0.49863914087247346,-0.07702880194245705
2.87,2.865,4.12,0.5135670307603712,-0.06735746556277988
2.889,2.875,4.12,0.5174593312348524,-0.05962624079883391
2.898,2.875,4.111,0.5213375259221907,-0.05214496109451608
2.87,2.865,4.116,0.5137140952482867,-0.06508356960868489
2.818,2.861,4.134,0.4940317915602214,-0.09004894317374919
2.903,2.851,4.106,0.532112682678272,-0.05456120754394902
2.898,2.842,4.116,0.5330046905048706,-0.0640216335867295
2.907,2.856,4.12,0.5313806139219881,-0.06009679694011504
2.898,2.856,4.13,0.5274643705939005,-0.06815004796445825
2.903,2.87,4.111,0.5251053717140696,-0.05219992342271493
2.907,2.865,4.116,0.5282952396330495,-0.0553587265951766
2.907,2.889,4.12,0.5195234613720453,-0.05105431086525927
2.907,2.879,4.106,0.5236323878477278,-0.04584062624069848
2.926,2.879,4.106,0.5311279955369946,-0.04083927838876009
2.823,2.865,4.106,0.495590809183645,-0.07172256393798974
2.889,2.884,4.125,0.5140408916749486,-0.06000157008428092
2.823,2.818,4.12,0.5119433283556966,-0.09253786625046863
2.893,2.879,4.134,0.5170836161614557,-0.0654384913157162
2.818,2.851,4.092,0.4991680709838276,-0.06890896297609593
2.823,2.823,4.13,0.5097823967394784,-0.09686005920745827
2.879,2.875,4.116,0.5136661987340484,-0.05998027318239509
2.832,2.832,4.106,0.5109751099145377,-0.07839501689592915
2.931,2.842,4.111,0.5462062408851943,-0.052493860764995647
2.884,2.865,4.102,0.5197431878824047,-0.053450771002468894
2.865,2.842,4.111,0.5201871758325283,-0.06984946158922788
2.875,2.842,4.13,0.523426787080837,-0.07802681979651503
2.889,2.893,4.116,0.5111360989595186,-0.052417391964056155
2.801,2.851,4.116,0.49160702247521515,-0.08699668897904932
2.856,2.884,4.111,0.5015590276830993,-0.060709348310915345
2.851,2.856,4.106,0.5098346931631645,-0.06684991477231218
2.823,2.846,4.134,0.5013828296722405,-0.0928461243996878
2.912,2.879,4.106,0.5256043839100838,-0.04452500083244482
2.879,2.907,4.102,0.502675255400041,-0.04324882538921404
2.917,2.898,4.111,0.5205623245248217,-0.04083923215183743
2.87,2.889,4.125,0.5047583024766245,-0.06362205451458659
2.922,2.875,4.102,0.5311338103490452,-0.04071667517945515
2.832,2.846,4.116,0.5055834932886988,-0.0802509765194127
2.907,2.893,4.111,0.5184159684233746,-0.04484266036604134
2.846,2.879,4.106,0.4996050519136274,-0.06186107657956632
2.898,2.907,4.106,0.5100156972455056,-0.040527664762208794
2.828,0,4.13,2.842,2.856,4.106,0.5062938891331058,-0.06920950179340059
2.842,2.931,4.106,0.4793252987028673,-0.04863720819880096
2.889,2.823,4.106,0.5366409469879106,-0.06589854653102661
2.875,2.837,4.12,0.5255887064591985,-0.07370776103267627
2.903,2.842,4.106,0.5353432457636287,-0.057023504227425435
2.912,2.875,4.139,0.5258292400245222,-0.06438010583774711
2.903,2.884,4.116,0.5198905671849622,-0.051204363750551575
2.903,2.865,4.088,0.527745966204818,-0.040505287697802095
2.903,2.842,4.106,0.5353432457636287,-0.057023504227425435
2.884,2.837,4.12,0.5291342640606048,-0.0713433886499706
2.917,2.851,4.097,0.5379647048530452,-0.04576486215825465
2.898,2.846,4.116,0.5315690030124648,-0.0629273380575719
2.842,2.875,4.088,0.5001306751739835,-0.05378053067404245
2.861,2.846,4.134,0.5163310332899335,-0.08288353330276549
2.861,2.875,4.111,0.5067616778790361,-0.06186439466773791
2.94,2.832,4.116,0.5531643044993412,-0.05569825273828186
2.87,2.861,4.125,0.5148198929227811,-0.07129584094788394
2.851,2.832,4.111,0.5182648795625634,-0.07625709363694282
2.851,2.879,4.12,0.5010574030600822,-0.06850737206676151
2.884,2.865,4.125,0.5188979702732681,-0.0665227626134102
2.936,2.856,4.134,0.5423096839539289,-0.0604196873938472
2.912,2.856,4.144,0.5324706677717214,-0.07242967740486138
2.922,2.851,4.13,0.5387258997169172,-0.06320237498633431
2.926,2.884,4.13,0.5284493046340869,-0.05310805305920239
2.875,2.856,4.116,0.5189155762535262,-0.06623502267495501
2.889,2.875,4.13,0.5170916682800445,-0.06531179031580013
2.823,2.898,4.106,0.483729827835687,-0.06267665377921179
2.917,2.832,4.106,0.5444532298120549,-0.05607408180513627
2.884,2.875,4.106,0.5160035795845185,-0.05298390602322397
2.861,2.818,4.125,0.5267073321042317,-0.08542003969159112
2.818,2.861,4.12,0.49454726816389444,-0.08208581296348809
2.795,2.865,4.134,0.483560409129346,-0.094970804610387
2.922,2.879,4.111,0.529365921530263,-0.04473327517103521
2.912,2.875,4.111,0.5268582076190738,-0.04846199491569322
2.837,2.889,4.116,0.49210245498928246,-0.06716190394928172
2.907,2.87,4.106,0.5268663413410414,-0.048306746394811806
2.936,2.818,4.083,0.557816301756309,-0.041832831976793834
2.828,2.828,4.106,0.5108373556711933,-0.08053605439161525
2.884,2.889,4.102,0.5111185770823863,-0.046873765686942744
2.893,2.851,4.116,0.5278031183135642,-0.0628738185162319
2.865,2.87,4.106,0.5103167269136883,-0.05934324268610212
2.818,2.837,4.125,0.5029790213542072,-0.09149742030317536
2.842,2.828,4.106,0.5163427212247677,-0.07686804978743157
