2.093,4.505,4.533,-0.4083574262281318,-0.03767843100420831
2.088,4.547,4.571,-0.42755932722093165,-0.048625707533602736
2.074,4.561,4.552,-0.4374734487992747,-0.03705627089567417
2.074,4.505,4.575,-0.417280846363496,-0.06671949141148574
2.107,4.505,4.547,-0.4035191821007538,-0.04225396222613539
2.131,4.571,4.524,-0.4182407507363765,-0.0036520729644369996
2.14,4.491,4.528,-0.3848252443012849,-0.02707233493907842
2.088,4.491,4.514,-0.40427556472545123,-0.0320459263421136
2.098,4.5,4.557,-0.40548410769772536,-0.05175227603604349
2.126,4.561,4.524,-0.4163996692943582,-0.00783348005797646
2.093,4.524,4.561,-0.41659169248342504,-0.04831025007213241
2.135,4.51,4.538,-0.39428205391028515,-0.02855756880093485
2.112,4.519,4.533,-0.40632321362592067,-0.028822260931048154
2.135,4.51,4.561,-0.39517082911198037,-0.041845040781535135
2.14,4.524,4.566,-0.3987062654621563,-0.03938684017023675
2.093,4.519,4.552,-0.41436125840089316,-0.044568388034293784
2.149,4.538,4.566,-0.4005079659063766,-0.03302915913929435
2.084,4.486,4.547,-0.4052076353640177,-0.053570198306473395
2.103,4.5,4.566,-0.40391104316646415,-0.055699912392701
2.126,4.514,4.505,-0.39797597734296564,-0.010602042112553667
2.088,4.552,4.561,-0.42905468057522733,-0.041381797328258384
2.112,4.496,4.552,-0.3984046402455616,-0.046515023782238006
2.098,4.514,4.557,-0.41075187141514297,-0.04766424837279689
2.088,4.5,4.51,-0.4075068912124718,-0.027109373331817326
2.112,4.496,4.528,-0.3974766064083191,-0.032650780128891034
2.079,4.486,4.552,-0.4073209139321574,-0.05771319557772869
2.145,4.557,4.524,-0.40757847153841625,-0.004224249727956246
2.098,4.557,4.524,-0.4256624782170239,-0.01603287031870763
2.084,4.557,4.543,-0.4317773316833226,-0.030518640866999142
2.135,4.519,4.566,-0.3987500723287913,-0.04210623822123275
2.098,4.51,4.566,-0.40959519867114697,-0.05403534229582337
2.093,4.524,4.561,-0.41659169248342504,-0.04831025007213241
2.159,4.533,4.514,-0.39276666417458067,-0.0019426921000235502
2.131,4.547,4.505,-0.4084711531943839,0.0002963555276506528
2.112,4.519,4.566,-0.40759974419639894,-0.047890751897497474
2.145,4.514,4.528,-0.39155097340231504,-0.019098751520179296
2.079,4.477,0,2.121,4.524,4.524,-0.40439567811642313,-0.019903966871538836
2.07,4.514,4.566,-0.4218544462072947,-0.05988792980099963
2.131,4.519,4.519,-0.3984737791601563,-0.01596482275684145
2.084,4.51,4.533,-0.41369557993379774,-0.038474301387775155
2.107,4.543,4.552,-0.4180140798664866,-0.03404226989827763
2.121,4.496,4.561,-0.3952917024292664,-0.04945449652272046
2.074,4.538,4.58,-0.4298970869215089,-0.05997221091813195
2.135,4.5,4.514,-0.3895939886153384,-0.017621590805003917
2.135,4.5,4.514,-0.3895939886153384,-0.017621590805003917
2.098,4.524,4.524,-0.4132384424187629,-0.02567733778652374
2.126,4.533,4.528,-0.4060135880304163,-0.018327533691745408
2.131,4.552,4.552,-0.4121684081897184,-0.02537925004554616
2.145,4.589,4.566,-0.42125043927077527,-0.019123030863997765
2.117,4.519,4.552,-0.40513503405089407,-0.03854261079938045
2.145,4.524,4.514,-0.39477299039181785,-0.008097123296915624
2.098,4.519,4.538,-0.4118981369664109,-0.035224292520862864
2.135,4.51,4.533,-0.394088949225752,-0.025670146023722234
2.126,4.496,4.538,-0.392479091720696,-0.034908586138239994
2.093,4.519,4.547,-0.41416767494575035,-0.041678727942203064
2.117,4.561,4.538,-0.4204037072052573,-0.018179734583190554
2.145,4.51,4.552,-0.3909729475428585,-0.03412711910945132
2.131,4.51,4.557,-0.39655576110506646,-0.04054009307022862
2.084,4.486,4.538,-0.4048591372413303,-0.04836941482500471
2.126,4.533,4.566,-0.40748245232022634,-0.04028088498304613
2.121,4.552,4.528,-0.41508953761036244,-0.014030904581140868
2.074,4.51,4.571,-0.41900740754388915,-0.06294578429761492
2.14,4.566,4.538,-0.4134330920164273,-0.010934150944297135
2.098,4.547,4.538,-0.4224383887000796,-0.027042703383277928
2.159,4.557,4.571,-0.40399861115267505,-0.02784403373945658
2.074,4.505,4.561,-0.4167379391744405,-0.05862277592024593
2.131,4.543,4.543,-0.408432646001386,-0.02281070955964652
2.112,4.528,4.51,-0.40882152988718734,-0.012913633250080362
2.074,4.505,4.533,-0.4156530167569512,-0.042439020182748
2.135,4.514,4.566,-0.39686893800917716,-0.043566612466183395
2.074,4.519,4.524,-0.4205737344291594,-0.03315130560663008
2.14,4.547,4.538,-0.40628014090515796,-0.01648932284213574
2.093,4.514,4.552,-0.4124795332059672,-0.04602875979338805
2.14,4.514,4.552,-0.3944028965323969,-0.034217914486286305
2.074,4.524,4.561,-0.4238892920639136,-0.053073647764305086
2.074,4.547,4.557,-0.43239425763366546,-0.044039861144636795
2.126,4.482,4.538,-0.3872140893475355,-0.03899466824333475
2.126,4.561,4.543,-0.4171337060347013,-0.018805922744117964
2.135,4.561,0,2.117,4.524,4.543,-0.40666854294308097,-0.03188207789347963
2.107,4.566,4.552,-0.4266747367608257,-0.027317937884977272
2.084,4.561,4.561,-0.43398117409947834,-0.03975341626056387
2.135,4.547,4.514,-0.4072787698069866,-0.003891615404122343
2.103,4.505,4.557,-0.40544371725249356,-0.049037371115995675
2.103,4.505,4.571,-0.4059858071264563,-0.05713103617059867
2.112,4.51,4.566,-0.40421324146964555,-0.05051928839293721
2.173,4.561,4.524,-0.3982928235079384,0.004000325802027545
2.098,4.51,4.557,-0.4092466655292561,-0.04883240913318395
2.088,4.514,4.575,-0.4152915171088473,-0.06058106545024766
2.112,4.538,4.538,-0.4136675271814094,-0.026159126189878812
2.098,4.5,4.552,-0.4052905317291276,-0.04886233104342452
2.154,4.547,4.538,-0.4008873924434834,-0.012964035216726547
2.093,4.552,4.519,-0.4255077608475306,-0.01586106538744862
2.103,4.528,4.566,-0.41444744973751685,-0.04752235203232317
2.121,4.514,4.547,-0.4015217033765253,-0.036108672867717274
2.121,4.496,4.552,-0.3949436058206694,-0.044253365668317536
2.107,4.524,4.575,-0.41175258785894364,-0.05289018837055252
2.107,4.538,4.557,-0.4163252743488148,-0.038393258816409724
2.107,4.566,4.566,-0.427216624313242,-0.03541014618299054
2.066,4.505,4.528,-0.41852926785538874,-0.04155255740863791
2.093,4.543,4.538,-0.42285385608727194,-0.029465953872642798
2.121,4.514,4.557,-0.4019084103836262,-0.04188695810540558
2.093,4.524,4.547,-0.41604956244083374,-0.04021816628639089
2.121,4.547,4.557,-0.4143281726804238,-0.03224498997269776
2.084,4.557,4.566,-0.4326683667308131,-0.04381404458435597
2.131,4.561,4.543,-0.41520905405385394,-0.017548526883203037
2.135,4.486,4.51,-0.3841746319399946,-0.019399723083233678
2.14,4.496,4.561,-0.38798021302387004,-0.0446739349439369
2.154,4.5,4.524,-0.3826649219155846,-0.01861160659374121
2.121,4.543,4.519,-0.41135370098079194,-0.011465486457074495
2.112,4.51,4.505,-0.40185491233617016,-0.015285633147065658
2.149,4.5,4.566,-0.3862121954639978,-0.04412872076368398
2.103,4.571,4.514,-0.4286266446535478,-0.004910832649116588
2.135,4.496,4.51,-0.3879352280700978,-0.016480946680840065
2.126,4.505,4.561,-0.396753551190673,-0.04556954815912954
2.145,4.505,4.557,-0.3892854084948653,-0.03847589068003365
2.098,4.538,4.51,-0.41796718226706103,-0.013503623662608785
2.084,4.547,4.575,-0.42925125084142085,-0.051942389720620076
2.098,4.505,4.538,-0.40662991826894385,-0.039312846984945415
2.121,4.496,4.552,-0.3949436058206694,-0.044253365668317536
2.088,4.519,4.528,-0.41535306720137344,-0.0319551296858552
2.135,4.51,4.533,-0.394088949225752,-0.025670146023722234
2.117,4.496,4.58,-0.39756558190594643,-0.061444975772973
2.126,4.51,4.528,-0.39735905341923566,-0.025046110214620703
2.103,4.496,4.557,-0.40205780840563626,-0.051664941273575384
2.117,4.5,4.547,-0.3977932707280307,-0.041201965986009594
2.145,4.524,4.533,-0.39550610725246527,-0.019064576772107416
2.117,4.528,4.547,-0.4083285656460098,-0.03302442455679729
2.103,4.538,4.524,-0.4165866256215777,-0.020332546669660667
2.164,4.547,4.561,-0.3979210439134247,-0.023727831823933492
2.098,4.51,4.552,-0.4090530891379071,-0.04594246621992337
2.145,4.547,4.547,-0.40470206975306816,-0.020428667331802635
2.093,4.491,4.571,-0.4045616577820419,-0.06372849062613402
2.145,4.5,4.538,-0.3866710511622018,-0.028960696489726916
2.103,4.5,4.561,-0.40371744365149415,-0.05280935725391774
2.107,4.561,4.519,-0.42351558400084094,-0.009718381998123915
2.126,4.552,4.561,-0.41444103429530715,-0.03183776214952675
2.103,4.5,4.561,-0.40371744365149415,-0.05280935725391774
2.126,4.51,4.543,-0.397938602661287,-0.033709062427710657
2.14,4.505,4.543,-0.390669714526994,-0.03164717849083554
2.145,4.482,4.566,-0.38098407417269203,-0.050390342980054736
2.112,4.547,4.538,-0.4170556600660922,-0.023528680591027456
2.074,4.552,4.5,-0.4320703527638881,-0.009650253716576943
2.107,4.538,4.566,-0.41667366461304,-0.04359576367968047
2.121,4.505,4.547,-0.3981357228840993,-0.03873685949853837
2.112,4.524,4.552,-0.4089396000669052,-0.03833833352515185
2.107,4.528,4.552,-0.41236765665038716,-0.038425551349034436
2.117,4.491,4.538,-0.3940600466278397,-0.038629950870087616
2.088,4.538,4.533,-0.4226988560310858,-0.029292205410937838
2.131,4.505,4.552,-0.3944815802892327,-0.03911102616767659
2.117,4.552,4.566,-0.4180978715065942,-0.03699088203860971
2.098,4.514,4.566,-0.41110040485998417,-0.05286718004533427
2.121,4.496,4.552,-0.3949436058206694,-0.044253365668317536
2.117,4.514,4.557,-0.40344705718729457,-0.042892433629655856
2.117,4.514,4.557,-0.40344705718729457,-0.042892433629655856
2.103,4.519,4.505,-0.40870088428845336,-0.014915018813152306
2.112,4.571,4.575,-0.4275248799389641,-0.037895238528706986
2.117,4.5,4.528,-0.3970588173387157,-0.03022738418496092
2.117,4.496,4.528,-0.39555419368620814,-0.03139511215954075
2.126,4.571,4.552,-0.4212473073306231,-0.02108099073112683
2.117,4.552,4.571,-0.4182913866221951,-0.03988147715727253
2.131,4.566,4.533,-0.4167054402238271,-0.010310913830603416
2.103,4.519,4.547,-0.4103247121920511,-0.03916959790569874
2.07,4.552,4.571,-0.4363560844979699,-0.05167615429052904
2.103,4.519,4.533,-0.40978313314897497,-0.03108147803972187
2.107,4.514,4.575,-0.4079893723324606,-0.05581113090242762
2.088,4.557,4.538,-0.4300470107847169,-0.026626957410602208
2.117,4.557,4.528,-0.41851101742070473,-0.013573973029007758
2.131,4.557,4.561,-0.41439876604054376,-0.02911809765665374
2.135,4.5,4.557,-0.3912546837901794,-0.04245341629936509
2.103,4.5,4.543,-0.40302079966893106,-0.04240676668072848
2.126,4.51,4.533,-0.3975521979826719,-0.02793334586054767
2.14,4.557,4.543,-0.4102376640639634,-0.01645359727598524
2.117,4.505,4.561,-0.40021572837496455,-0.04783248200783796
2.121,4.552,4.557,-0.4162105674026004,-0.030783366720177563
2.14,4.557,4.561,-0.41093314295053934,-0.026852765365425395
2.121,4.557,4.571,-0.41863477048998,-0.03741390296749525
2.149,4.491,4.557,-0.3824800080341502,-0.0415553484523881
2.121,4.533,4.566,-0.40940649027118164,-0.04153838885347557
2.112,4.524,4.547,-0.4087461860316493,-0.03544916736684526
2.112,4.552,4.552,-0.4194796443258624,-0.03015567954709771
2.126,4.496,4.524,-0.3919382771672609,-0.026824205931014717
2.103,4.51,4.528,-0.406203054954931,-0.030822178663186633
2.079,4.552,4.557,-0.43235714056744184,-0.04132549866241897
2.135,4.561,4.571,-0.4147513395340039,-0.032721753422708076
2.126,4.557,4.571,-0.41671035395679074,-0.03615627168819998
2.074,4.505,4.552,-0.4163890838405975,-0.05341944329275439
2.093,4.524,4.575,-0.4171341199925502,-0.05640555083840012
2.135,4.575,4.561,-0.41963647762592177,-0.022847397375955054
2.079,4.528,4.557,-0.4233202425674664,-0.04833956735765869
2.14,4.533,4.557,-0.4017450141387509,-0.031556354163011426
2.121,4.552,4.543,-0.4156692188552937,-0.022694237096710517
2.107,4.552,4.566,-0.42194451667273486,-0.039503692398300316
2.103,4.547,4.552,-0.4210580599888028,-0.03387740426596738
2.121,4.547,4.561,-0.41448289877273026,-0.03455676199579605
2.126,4.561,4.524,-0.4163996692943582,-0.00783348005797646
2.112,4.533,4.543,-0.41197880187035024,-0.03050864179241708
2.084,4.538,4.543,-0.4246224794335837,-0.036072521443387275
2.084,4.505,4.552,-0.4125497399152405,-0.050913742660885074
2.117,4.533,4.519,-0.4091282435154049,-0.015392561256035312
2.154,4.496,4.557,-0.38243436862742025,-0.03883592457404994
2.093,4.496,4.552,-0.40570667268028887,-0.051284516049725094
2.117,4.543,4.543,-0.41381989737114794,-0.026330211711490675
2.126,4.533,4.547,-0.4067477433227034,-0.029301230393822708
2.093,4.552,4.547,-0.42659111825639845,-0.03203551365088786
2.117,4.514,4.571,-0.4039888009016617,-0.050985082242217615
2.098,4.533,4.575,-0.41860021068774667,-0.05252099971861054
2.112,4.51,4.538,-0.4031300190147082,-0.03433879830744916
2.079,4.519,4.514,-0.4182673821858147,-0.026124445214069425
2.103,4.496,4.575,-0.40275483363632136,-0.062071680913843665
2.107,4.519,4.547,-0.40878704302142393,-0.03816540452782058
2.074,4.486,4.557,-0.4094338830660677,-0.06185638263347933
2.159,4.51,4.566,-0.3861207138906015,-0.038688069527324696
2.121,4.528,4.533,-0.40624869906216077,-0.02393233419268544
2.126,4.5,4.571,-0.39525957970484765,-0.05280972590181506
2.135,4.505,4.533,-0.3922081093966039,-0.027130171317666412
2.14,4.51,4.547,-0.392704993117281,-0.03249761895596189
2.098,4.557,4.571,-0.427481596258432,-0.04319285439688636
2.098,4.528,4.552,-0.41582733421951334,-0.040684785441916636
2.149,4.5,4.51,-0.3840505697944981,-0.011791231447092673
2.112,4.547,4.514,-0.416128142335833,-0.009670027248330179
2.079,4.519,4.538,-0.41919632412233093,-0.03998723662271986
2.135,0,4.575,2.126,4.51,4.552,-0.3982864980024532,-0.03890862246566196
2.117,4.505,4.543,-0.39951953041538113,-0.037431195299621765
2.084,4.557,4.547,-0.4319322361473639,-0.03283026018725991
2.145,4.524,4.519,-0.39496586144579426,-0.010982711518186675
2.093,4.538,4.538,-0.4209713544634666,-0.030927236822311837
2.079,4.557,4.557,-0.43424029318339974,-0.0398636870946926
2.149,4.533,4.528,-0.39715905756342434,-0.012541307500262833
2.098,4.528,4.575,-0.4167181024418647,-0.05398190718720256
2.121,4.51,4.547,-0.4000167578937641,-0.03727683228600761
2.098,4.543,4.538,-0.4209323287451965,-0.02821186603246025
2.149,4.505,4.566,-0.38809268059499963,-0.04266888071540028
2.121,4.514,4.524,-0.4006328594340225,-0.022824896403626654
2.135,4.547,4.561,-0.40909409748658226,-0.031034908126517102
2.088,4.5,4.538,-0.40859011095696474,-0.04328037076162846
2.14,4.51,4.552,-0.3928981619186407,-0.035386074534237255
2.135,4.505,4.524,-0.39186061839005265,-0.021933856890624215
2.131,4.552,4.557,-0.41236169403240774,-0.028268340924613538
2.131,4.519,4.538,-0.3992075040523814,-0.026935199426455798
2.145,4.571,4.533,-0.413196882051158,-0.005326035410507653
2.14,4.519,4.528,-0.3953571001226794,-0.018896735314583652
2.14,4.51,4.538,-0.39235738578554336,-0.027299440558557448
2.117,4.533,4.547,-0.4102104042823416,-0.031563520635313314
2.126,4.496,4.566,-0.3935616212536437,-0.05108708557731242
2.093,4.533,4.561,-0.4199794987717292,-0.045680757135616555
2.084,4.561,4.514,-0.4321615939368555,-0.012597734663822005
2.121,4.543,4.547,-0.41243566432904694,-0.027635873232162877
2.084,4.505,4.533,-0.411814018932054,-0.03993432668171933
2.098,4.514,4.538,-0.41001648365033566,-0.036684662605324214
2.135,4.5,4.561,-0.39140931101521553,-0.04476490949640791
2.131,4.552,4.543,-0.41182059032211704,-0.02017992376165582
2.079,4.505,4.514,-0.41299839834651536,-0.030212995700978462
2.079,4.547,4.514,-0.4288091652387435,-0.017942852127165548
2.14,4.575,4.557,-0.41755612075773874,-0.01927730260487892
2.084,4.505,4.538,-0.41200757612382904,-0.04282306716802442
2.103,4.528,4.533,-0.4131703901031843,-0.02845233179130857
2.131,4.547,4.561,-0.4106340946488461,-0.03204153270824084
2.093,4.519,4.528,-0.4134324073783621,-0.030701790505402487
2.074,4.561,4.557,-0.4376672431746333,-0.03994684169144458
2.093,4.514,4.552,-0.4124795332059672,-0.04602875979338805
2.112,4.552,4.561,-0.4198278865031848,-0.03535721219014987
2.121,4.486,4.557,-0.3913759882801899,-0.05006151146154029
2.093,4.528,4.561,-0.41809731947145096,-0.04714166242742923
2.088,4.519,4.543,-0.41593363083884566,-0.04062102992461306
2.14,4.505,4.51,-0.3893959700653297,-0.012595966112269763
2.14,4.5,4.571,-0.3898711693335855,-0.04928583299222041
2.126,4.552,4.514,-0.4126249698856325,-0.004692321833024741
2.103,4.557,4.547,-0.4246300224542239,-0.02806457194317591
2.103,4.524,4.552,-0.41239995094666787,-0.040598435094982545
2.14,4.524,4.538,-0.3976244116798519,-0.023210351116571992
2.126,4.538,4.543,-0.4084750124396521,-0.02552938837023037
2.145,4.547,4.51,-0.40327413643656307,0.0009320806556077551
2.084,4.524,4.514,-0.4182296510960089,-0.023411796081535468
2.093,4.528,4.552,-0.41774877281700135,-0.041939239063332266
2.074,4.51,4.561,-0.41861964631548254,-0.05716274597524399
2.145,4.547,4.557,-0.4050883607934887,-0.02620573270525095
2.14,4.486,4.561,-0.3842197510322985,-0.04759273059279715
2.107,4.496,4.571,-0.40106231804911197,-0.05875392239506513
2.131,4.505,4.538,-0.3939405860127225,-0.031023753890538353
2.149,4.524,4.524,-0.39361833377143157,-0.01286177193355135
2.079,4.533,4.561,-0.4253576498732301,-0.04919130944151954
2.14,4.496,4.533,-0.3868985785359307,-0.02849973115278137
2.066,4.533,4.505,-0.4281791273301745,-0.020090825839614263
2.056,4.524,4.552,-0.4304478369057562,-0.05237564994294922
2.098,4.528,4.538,-0.41528552218917514,-0.032595145818656635
2.145,4.543,4.528,-0.4024630064403159,-0.010625956047915497
2.131,4.514,4.543,-0.39751949319973473,-0.0312835075924505
2.07,4.566,4.538,-0.440350397686053,-0.028504145073300124
2.107,4.561,4.543,-0.42444349963186073,-0.023579654943182
2.098,4.538,4.543,-0.4192433684486226,-0.032561933985849056
2.117,4.491,4.543,-0.39425334656748956,-0.04151824961519246
2.145,4.533,4.571,-0.40036050408847695,-0.038387927641414264
2.107,4.552,4.538,-0.4208610417078658,-0.023322500333306812
2.098,4.505,4.538,-0.40662991826894385,-0.039312846984945415
2.079,4.524,4.547,-0.4214269954957344,-0.04372768643175573
2.131,4.528,4.557,-0.4033283348780343,-0.03528240961985326
2.098,4.524,4.552,-0.41432176462593534,-0.04185337217122331
2.159,4.482,4.519,-0.3737782164708445,-0.019720164957958808
2.107,4.528,4.552,-0.41236765665038716,-0.038425551349034436
2.117,4.514,4.547,-0.4030602798091658,-0.03711394361664736
2.149,4.538,4.557,-0.40016023531250466,-0.027828573875778306
2.084,4.557,4.566,-0.4326683667308131,-0.04381404458435597
2.117,4.514,4.552,-0.40325364942777714,-0.04000298255847471
2.07,4.543,4.533,-0.4314936089886711,-0.0323393691653194
2.117,4.51,4.524,-0.40066628393310544,-0.02499785347178581
2.154,4.505,4.533,-0.38489253384645866,-0.02234723147107261
2.135,4.528,4.514,-0.400127876275971,-0.009444062241496484
2.145,4.547,4.557,-0.4050883607934887,-0.02620573270525095
2.145,4.524,4.561,-0.3965875053002746,-0.035238053717202934
2.121,4.543,4.552,-0.41262899927621327,-0.030524807231167905
2.112,4.482,4.557,-0.39333253629521164,-0.053490702342243436
2.088,4.557,4.547,-0.4303954460273845,-0.031827539881604174
2.126,4.514,4.552,-0.39979138774857054,-0.03774046241771101
2.154,4.547,4.561,-0.40177541852759946,-0.02624930353520775
2.14,4.557,4.557,-0.41077854916593165,-0.024541378717717482
2.149,4.566,4.528,-0.4095803077832905,-0.002894592104678092
2.135,4.486,4.547,-0.3856032003260504,-0.04076235567113936
2.084,4.524,4.547,-0.4195068751640945,-0.04247472449397057
2.098,4.538,4.557,-0.4197852880199772,-0.040652726548934225
2.131,4.547,4.524,-0.4092044629968477,-0.010669591534147482
2.088,4.519,4.557,-0.4164758013263643,-0.048712560238916715
2.107,4.547,4.524,-0.4184371650028562,-0.01669838349221157
2.103,4.5,4.543,-0.40302079966893106,-0.04240676668072848
2.103,4.552,4.547,-0.4227472139769521,-0.029526383614383533
2.126,4.547,4.557,-0.4124040182271817,-0.03098771550070493
2.084,4.505,4.533,-0.411814018932054,-0.03993432668171933
2.126,4.524,4.519,-0.4022790589593017,-0.015761048542537976
2.098,4.5,4.533,-0.4045552909675052,-0.03788430737478684
2.112,4.561,4.557,-0.4230620382279713,-0.030413859479565392
2.107,4.519,4.538,-0.4084389146188577,-0.03296571288179536
2.093,4.486,4.533,-0.40120948072717866,-0.04322477543769817
2.131,4.561,4.557,-0.4157501576263461,-0.025636944723941513
2.126,4.543,4.552,-0.4107049444305137,-0.02926766023689842
2.149,4.519,4.561,-0.3931657091223295,-0.03569093219724181
2.098,4.51,4.566,-0.40959519867114697,-0.05403534229582337
2.121,4.51,4.528,-0.39928243722242734,-0.026302644987646635
2.145,4.519,4.561,-0.39470634631995366,-0.03669861727389941
2.107,4.524,4.543,-0.41051399187402793,-0.03439370380161444
2.131,4.5,4.566,-0.39314214047338497,-0.04866137158183333
2.145,4.5,4.51,-0.3855906484903975,-0.012797896566466386
2.084,4.524,4.561,-0.4200492327405676,-0.050567470389175494
2.135,4.547,4.519,-0.40747172697110384,-0.006777457127316255
2.107,4.524,4.557,-0.4110556859581762,-0.04248384515513418
2.14,4.514,4.566,-0.39494397229443007,-0.04230777884659176
2.117,4.514,4.528,-0.40232582502743774,-0.026139368664369982
2.14,4.51,4.519,-0.39162395812802625,-0.016329925606608658
2.107,4.547,4.561,-0.4198683594738826,-0.038074872372607205
2.112,4.519,4.514,-0.40558900159876043,-0.017851620335234058
2.079,4.496,4.519,-0.40980532673862907,-0.03572784553167263
2.103,4.514,4.528,-0.40770820324276474,-0.029654020877824278
2.135,4.528,4.547,-0.40140211253388475,-0.028498295522092338
2.14,4.505,4.557,-0.3912105972746141,-0.03973497151274674
2.131,4.514,4.552,-0.39786731022401095,-0.03648283802434941
2.088,4.543,4.547,-0.4251233861948572,-0.03592013727606632
2.084,4.561,4.58,-0.4347177092202304,-0.05074155373372058
2.168,4.528,4.533,-0.3881493385687543,-0.012100882340326543
2.088,4.519,4.585,-0.4175610336311062,-0.06490527101422043
2.131,4.514,4.519,-0.39659259048558315,-0.017425191879707407
2.088,4.528,4.557,-0.41986344526926106,-0.046083410103094836
2.107,4.496,4.533,-0.3995918987930769,-0.03679369008763803
2.121,4.519,4.543,-0.40324839168227067,-0.03233745033856076
2.107,4.491,4.557,-0.39863955503903153,-0.052120033393019516
2.103,4.528,4.557,-0.41409899583112164,-0.042319658583932496
2.084,4.547,4.557,-0.4285536040691089,-0.04153389562971088
2.135,4.528,4.557,-0.40178857588084743,-0.03427586594613019
2.112,4.51,4.561,-0.40401972137251635,-0.047628968254750714
2.149,4.505,4.552,-0.38755182269442773,-0.03457964200405902
2.103,4.561,4.505,-0.424512560671825,-0.002640387283160517
2.121,4.51,4.552,-0.4002100921954426,-0.040165769459931444
2.117,4.528,4.528,-0.40759411011459123,-0.022049853291974102
2.149,4.496,4.566,-0.38470792528127346,-0.04529645502052796
2.084,4.51,4.543,-0.4140827329259554,-0.044252195500867564
2.098,4.552,4.557,-0.4250564976889753,-0.036560656987568864
2.112,4.519,4.552,-0.4070579826029192,-0.039798895766806695
2.103,4.528,4.524,-0.41282239153811146,-0.023254543741379807
2.126,4.524,4.519,-0.4022790589593017,-0.015761048542537976
2.14,4.519,4.547,-0.39609079230207556,-0.029869088470177847
2.14,4.538,4.543,-0.4030858098941142,-0.022007477852373374
2.126,4.519,4.51,-0.4000502013274751,-0.012026987311179016
2.145,4.557,4.566,-0.4092004392902336,-0.028483061015240046
2.098,4.528,4.528,-0.4148986981227722,-0.026818818089029934
2.126,4.543,4.528,-0.4097774980233883,-0.015405156956994551
2.079,4.538,4.571,-0.42762786443637335,-0.05351297797319917
2.121,4.538,4.552,-0.41074689387353236,-0.03198609044293196
2.093,4.514,4.571,-0.4132154963107597,-0.05701322127266099
2.093,4.543,4.566,-0.4239380318574584,-0.045649186727563386
2.079,4.514,4.51,-0.41623071876327494,-0.025275283195014413
2.135,4.51,4.528,-0.39389588310834517,-0.02278313865086819
2.098,4.51,4.533,-0.4083178471547087,-0.03496444855977258
2.149,4.519,4.561,-0.3931657091223295,-0.03569093219724181
2.159,4.552,4.533,-0.40064958403011897,-0.007355658708989095
2.098,4.547,4.528,-0.4220515647789489,-0.0212663749391101
2.079,4.533,4.51,-0.4233829036863714,-0.019724863157558465
2.154,4.51,4.557,-0.38769958042018376,-0.034748325334782414
2.088,4.496,4.557,-0.4078208840551662,-0.05542869279273773
2.098,4.51,4.547,-0.4088595508356893,-0.043052935417101056
2.145,4.533,4.543,-0.39927867668062583,-0.022209841685015535
2.145,4.557,4.557,-0.40885264648965824,-0.023282297885004393
2.079,4.528,4.571,-0.423862940224,-0.05643498070794225
2.154,4.533,4.514,-0.3946930517664118,-0.0032020280032713324
2.088,4.561,4.561,-0.43244423656194414,-0.0387504010533087
2.098,4.496,4.547,-0.40359215426494255,-0.04714052888430168
2.098,4.533,4.543,-0.417361099461574,-0.03402302745691358
2.084,4.561,4.538,-0.433090315188911,-0.02645990267962887
2.112,4.505,4.519,-0.40051449936509337,-0.024826598074794332
2.14,4.505,4.514,-0.38955027334626763,-0.014904235862929549
2.149,4.486,4.557,-0.3805999829906685,-0.04301464905577568
2.107,4.533,4.538,-0.4137080490370832,-0.028875662709684297
2.098,4.538,4.561,-0.41994017714884563,-0.042964973781696836
2.145,4.552,4.543,-0.4064296590314864,-0.016656679466291385
2.121,4.5,4.519,-0.39517289038383147,-0.02402629678058062
2.14,4.519,4.533,-0.3955501230464262,-0.021783616029104353
2.088,4.571,4.543,-0.43551388363514265,-0.025421930997451825
2.084,4.491,4.547,-0.40708857404334275,-0.05211090038719931
2.107,4.51,4.557,-0.4057873683883584,-0.04657294140065945
2.079,4.491,4.538,-0.4086596359398274,-0.048162842885303925
2.093,4.514,4.566,-0.413021768809921,-0.054121999221642625
2.117,4.552,4.543,-0.41720819304824963,-0.023699425913499977
2.07,4.552,4.557,-0.4358131553192673,-0.0435800778550565
2.145,4.51,4.519,-0.3896990283622777,-0.015071798379342916
2.145,4.524,4.552,-0.39623978208766336,-0.03003802506075126
2.093,4.528,4.557,-0.4179423946260452,-0.044829309885882296
2.088,4.533,4.552,-0.42155202930147223,-0.04173230381994127
2.149,4.552,4.524,-0.40415550421632923,-0.0046791179554969515
2.093,4.519,4.547,-0.41416767494575035,-0.041678727942203064
2.14,4.486,4.547,-0.38367878551859835,-0.039504000626868506
2.126,4.552,4.519,-0.4128180053913894,-0.007578392626285975
2.126,4.557,4.566,-0.41651691772928484,-0.033265906587284864
2.145,4.486,4.561,-0.38229478889811136,-0.046333549448908475
2.14,4.491,4.552,-0.38575210151337136,-0.04093316220965796
2.075,4.496,4.543,-0.41226987903927226,-0.0505945763078226
