6.252,6.861,1.063,0.5086749962500922,3.7042678038383214
6.229,6.847,1.077,0.5038916560159737,3.6858702372826015
6.229,6.842,1.049,0.5066762305525764,3.698299452716235
6.214,6.847,1.073,0.49765992904846906,3.683333812461042
6.2,6.866,1.105,0.4834310179234938,3.6690624017043363
6.243,6.871,1.063,0.5010093742551831,3.704703367280325
6.233,6.833,1.054,0.5116840852294041,3.6941666463099825
6.191,6.852,1.063,0.48629773700815576,3.682957023474497
6.224,6.852,1.082,0.4996942841204799,3.683432007833504
6.257,6.842,1.073,0.517803927370557,3.6947696886340426
6.243,6.871,1.082,0.5004259207563321,3.695184423504871
6.247,6.852,1.101,0.508853044133926,3.680861872124177
6.186,6.824,1.105,0.4936758724441821,3.651569869716244
6.243,6.856,1.087,0.5060493247361736,3.687938589996257
6.233,6.871,1.063,0.4967721429217781,3.701675552708822
6.238,6.847,1.087,0.5073970426514324,3.6835827437703954
6.224,6.838,1.068,0.505515736385222,3.686019198934487
6.233,6.833,1.077,0.5109777036024244,3.682657962694153
6.205,6.847,1.082,0.49357166826418775,3.6761041543327404
6.238,6.842,1.063,0.5100604071285835,3.6940235790290976
6.21,6.819,1.096,0.5060412511840258,3.6617591529539495
6.238,6.847,1.091,0.5072739050679372,3.6815771701223667
6.266,6.828,1.068,0.527163278089187,3.695575641310429
6.247,6.824,1.049,0.521236156607168,3.6980617632350175
6.247,6.861,1.082,0.5059722499704971,3.693235504730797
6.243,6.871,1.058,0.5011627123522837,3.7072061253136686
6.243,6.824,1.082,0.518526144519748,3.680337064392358
6.238,6.847,1.082,0.5075508896496049,3.6860888791922193
6.247,6.852,1.091,0.5091612994724404,3.685879477472673
6.224,6.838,1.087,0.5049320643252191,3.6765042482930888
6.247,6.847,1.087,0.5112100509188299,3.6863061354689237
6.252,6.828,1.068,0.5212304522194361,3.691336279969716
6.233,6.856,1.063,0.5025498319882281,3.6969343210980163
6.247,6.861,1.058,0.5067096674905054,3.7052562608424573
6.233,6.856,1.096,0.5015358979697764,3.680399169797426
6.243,6.852,1.087,0.5075898039779924,3.6866750582639973
6.224,6.861,1.091,0.4959516235166486,3.681763756853735
6.243,6.828,1.068,0.5174168293595994,3.688611328103607
6.243,6.866,1.073,0.502628323687027,3.698114949175807
6.229,6.852,1.073,0.5020888511656969,3.689453299682645
6.214,6.838,1.049,0.5018612076505266,3.692492332672595
6.229,6.866,1.087,0.4962668820221397,3.6868615361568637
6.196,6.847,1.087,0.48960652387869646,3.670877299903772
6.224,6.819,1.077,0.5125558095986361,3.6755119582664846
6.224,6.842,1.077,0.5036990038245565,3.682777460085074
6.247,6.819,1.058,0.5228850398404382,3.6919819213963776
6.266,6.847,1.054,0.5202770630941594,3.708587383745556
6.186,6.828,1.068,0.4932700507601752,3.6713597646841953
6.233,6.838,1.082,0.5088984945098384,3.6817328095658675
6.247,6.842,1.082,0.5132895419656532,3.687233173434432
6.182,6.856,1.054,0.4812196907478805,3.685996526852142
6.224,6.819,1.082,0.5124020377158349,3.673008340852315
6.219,6.875,1.087,0.48856433235681007,3.6866795337153504
6.229,6.861,1.091,0.49806964948514304,3.6832763114923956
6.252,6.852,1.105,0.510847852892661,3.680366186789406
6.243,6.842,1.077,0.5117486553880858,3.688527813114684
6.21,6.842,1.082,0.4976150364426988,3.6760372820942955
6.219,6.838,1.077,0.5031212807932447,3.680000747488593
6.238,6.833,1.091,0.5126650255596715,3.677155745695266
6.219,6.842,1.073,0.5017036355047143,3.683267143167516
6.238,6.852,1.073,0.5059019546610343,3.692177448425687
6.257,6.842,1.077,0.517680732357246,3.692765708344268
6.224,6.814,1.077,0.5144810293597409,3.6739326922391213
6.233,6.838,1.101,0.5083134499666682,3.6722065916038162
6.243,6.8,1.049,0.5287827811166335,3.689264953368241
6.214,6.856,1.077,0.4940710712101722,3.68417464111551
6.214,6.838,1.073,0.5011259632944741,3.680490235282854
6.271,6.852,1.063,0.5201935957978795,3.7071775967687812
6.252,6.838,1.082,0.5169484301878794,3.6874829698990763
6.233,6.833,1.101,0.510238724007161,3.6706279322173074
6.233,6.833,1.101,0.510238724007161,3.6706279322173074
6.252,6.852,1.073,0.5118339746180008,3.696415565059059
6.229,6.842,1.096,0.5052328160606111,3.674767961056288
6.229,6.852,1.087,0.5016587492889296,3.6824389855436137
6.229,6.833,1.082,0.5091293368495463,3.6789430643222407
6.214,6.828,1.077,0.5048540886227301,3.675328808330731
6.257,6.852,1.101,0.5130896438315938,3.6838870519961873
6.158,6.875,1.077,0.4630362279412559,3.6732392266431275
6.233,6.88,1.101,0.49213872183694357,3.685470031095427
6.261,6.842,1.082,0.5192216041838327,3.6914706863717406
6.243,6.828,1.096,0.5165543433396832,3.6745822753297084
6.229,6.828,1.087,0.5109008305748626,3.6748587093598366
6.21,6.866,1.101,0.4877888721794717,3.6740928797605474
6.233,6.828,1.068,0.5131797806104449,3.6855839282244567
6.238,6.847,1.096,0.5071199082619738,3.679069372955238
6.238,6.824,1.087,0.5162537632898013,3.676318594799808
6.238,6.852,1.073,0.5059019546610343,3.692177448425687
6.229,6.838,1.049,0.5082168028048538,3.6970349650340757
6.214,6.866,1.077,0.4902195273649051,3.6873343803539087
6.247,6.838,1.082,0.5148299116628339,3.685969649481457
6.247,6.833,1.063,0.517340052259469,3.693904638290445
6.247,6.852,1.091,0.5091612994724404,3.685879477472673
6.229,6.847,1.077,0.5038916560159737,3.6858702372826015
6.21,6.88,1.073,0.48325499779993875,3.6925516905300717
6.243,6.871,1.105,0.4997180177132455,3.6836436733457405
6.252,6.856,1.068,0.5104471614008839,3.70018394472268
6.261,6.861,1.058,0.5126427055946682,3.709496543346327
6.238,6.856,1.058,0.5048217775421285,3.700950189478243
6.252,6.81,1.077,0.5278841361762713,3.681143966006045
6.2,6.852,1.058,0.4902628361387746,3.688181010438974
6.238,6.805,1.073,0.524000628760284,3.6773294440870568
6.214,6.852,1.101,0.494874593770877,3.670881246146674
6.233,6.866,1.105,0.4974076207347919,3.6790403352046916
6.219,6.833,1.082,0.504893139784348,3.67591730283289
6.233,6.871,1.068,0.49661886286850726,3.6991722796679802
6.219,6.828,1.082,0.5068184978574538,3.6743380272763946
6.219,6.875,1.077,0.48887099552762986,3.691691332401954
6.247,6.866,1.063,0.5046303085268472,3.7043341113571415
6.224,6.852,1.077,0.49984781275094575,3.685936821717165
6.275,6.861,1.082,0.5178370593217041,3.7017111997849526
6.233,6.833,1.082,0.5108239076792206,3.680153465855111
6.229,6.833,1.087,0.5089755139512319,3.6764378039485024
6.205,6.819,1.073,0.5046301258136286,3.6717644463133308
6.21,6.838,1.077,0.49930885288847254,3.6772774871193743
6.238,6.856,1.04,0.5053732359413677,3.709949658821246
6.252,6.875,1.077,0.5028522876649929,3.7016790134568622
6.224,6.861,1.077,0.496381531199872,3.6887804779990603
6.214,6.847,1.105,0.4966769940751086,3.6672955391534696
6.252,6.833,1.091,0.5185963112387131,3.6813917961165696
6.247,6.861,1.068,0.5064026449819586,3.7002502105133885
6.196,6.852,1.068,0.48826272305449187,3.681969124227686
6.238,6.847,1.091,0.5072739050679372,3.6815771701223667
6.257,6.866,1.063,0.5088679902265069,3.7073624022995353
6.243,6.852,1.063,0.5083276696522671,3.6986979087202685
6.219,6.819,1.063,0.5108676034975342,3.6810034973197987
6.229,6.838,1.087,0.5070501356848359,3.6780169668767804
6.214,6.852,1.03,0.4970492844118867,3.7064064741704144
6.229,6.856,1.082,0.5002719189135812,3.6862086077184646
6.238,6.842,1.049,0.5104899435445862,3.7010253995852005
6.224,6.833,1.073,0.5072877400180804,3.6819368970086317
6.2,6.828,1.068,0.49919984670349526,3.6755959488373455
6.252,6.866,1.087,0.5060111264781046,3.693821155619233
6.233,6.828,1.063,0.5133333791713727,3.6880856346423343
6.247,6.856,1.101,0.5073126479642637,3.6821250025404857
6.252,6.856,1.082,0.5100164655437139,3.6931691695845434
6.233,6.856,1.101,0.5013819535155978,3.677890333500278
6.233,6.819,1.082,0.5162147366256251,3.675731666458675
6.243,6.833,1.087,0.5149065440003523,3.680673876668886
6.214,6.856,1.101,0.49333418504793314,3.672144376562983
6.238,6.871,1.073,0.4985839306916289,3.6981815278516046
6.233,6.833,1.068,0.5112543254715266,3.687163713161759
6.243,6.842,1.082,0.5115947844699237,3.6860225788998187
6.224,6.866,1.054,0.4951603996151621,3.7018728750384526
6.214,6.828,1.091,0.5044238989897138,3.6683165757899654
6.229,6.838,1.087,0.5070501356848359,3.6780169668767804
6.214,6.875,1.058,0.4873343787747794,3.6996897725778566
6.219,6.838,1.058,0.5037040411016201,3.689507825971106
6.214,6.856,1.077,0.4940710712101722,3.68417464111551
6.219,6.861,1.082,0.49410999779731196,3.684762501792987
6.233,6.81,1.073,0.5199570925682716,3.6773952826819163
6.233,6.842,1.101,0.5067731863402588,3.6734695686005314
6.238,6.856,1.082,0.5040847963927807,3.6889320888611423
6.229,6.861,1.063,0.4989291992063259,3.697303634785014
6.243,6.833,1.082,0.5150605642202197,3.6831797112360873
6.219,6.819,1.077,0.5104376877773101,3.6739989145153054
6.238,6.833,1.082,0.5129421950097363,3.681666545464919
6.229,6.852,1.044,0.5029776691867488,3.703959718229875
6.214,6.856,1.096,0.4934878632497277,3.67465243808223
6.224,6.833,1.077,0.5071648656910579,3.679934266246241
6.238,6.842,1.077,0.509630211457626,3.6870144418542403
6.191,6.856,1.096,0.483747101402401,3.6676975621569903
6.229,6.856,1.096,0.49984147611259494,3.6791892268672126
6.182,6.847,1.077,0.4839836681548988,3.6716502433653084
6.275,6.824,1.049,0.53310349496578,3.7065450837560228
6.252,6.847,1.058,0.5142208010115756,3.7023452661441465
6.247,6.833,1.073,0.5170324473164518,3.688898767884337
6.21,6.903,1.058,0.4748527413748784,3.7073320440542417
6.219,6.856,1.082,0.49603570000147085,3.683182846229114
6.224,6.842,1.082,0.5035454016551805,3.680273007912483
6.257,6.833,1.087,0.5208382156391992,3.6849106252443806
6.219,6.852,1.073,0.49785238066604615,3.6864267948879887
6.229,6.847,1.077,0.5038916560159737,3.6858702372826015
6.214,6.833,1.077,0.5029286912939966,3.67690826535622
6.229,6.847,1.096,0.5033073928232962,3.676346923113375
6.229,6.828,1.04,0.5123437976625926,3.6983696080750916
6.229,6.852,1.082,0.5018124327197663,3.6849449319069936
6.214,6.847,1.035,0.49882264611312926,3.7023296363447424
6.229,6.814,1.087,0.5162913884895696,3.6704376091826743
6.224,6.838,1.063,0.5056691320989705,3.688520896928717
6.243,6.856,1.058,0.5069404982565237,3.7024643472796286
6.233,6.842,1.073,0.5076347726648414,3.687504346366838
6.247,6.856,1.077,0.5080517632835053,3.6941617538014344
6.233,6.852,1.058,0.5042437922573985,3.698171743813244
6.252,6.861,1.073,0.5083676638091766,3.699259481911641
6.224,6.866,1.077,0.4944557336122197,3.6903603812439285
6.219,6.852,1.058,0.4983120416975142,3.6939327943472247
6.261,6.833,1.077,0.522841560304618,3.6911334646747327
6.243,6.838,1.058,0.5138731164010418,3.6967750059555384
6.21,6.847,1.096,0.4952596251087796,3.6706004569906816
6.2,6.824,1.082,0.5003108899730352,3.6673266672738314
6.219,6.842,1.073,0.5017036355047143,3.683267143167516
6.247,6.856,1.054,0.5087582777891254,3.7056769655075326
6.21,6.847,1.096,0.4952596251087796,3.6706004569906816
6.233,6.833,1.082,0.5108239076792206,3.680153465855111
6.247,6.856,1.091,0.5076208450878207,3.687142894227119
6.238,6.852,1.054,0.5064850948132449,3.7016866302821394
6.247,6.824,1.082,0.520220895548751,3.6815476589269713
6.247,6.828,1.101,0.518094594749463,3.6732840107250175
6.233,6.828,1.044,0.5139162858852862,3.69758357340557
6.21,6.861,1.087,0.49014432876917075,3.6795341250578484
6.214,6.828,1.091,0.5044238989897138,3.6683165757899654
6.247,6.828,1.077,0.5188346942785803,3.6853159210166555
6.224,6.824,1.091,0.5101998596645839,3.67007831297822
6.233,6.852,1.049,0.5045195833718547,3.7026723564919983
6.238,6.856,1.091,0.5038079303757911,3.6844197966148955
6.233,6.856,1.068,0.5023964411480769,3.694431592977421
6.252,6.828,1.082,0.520799177787083,3.684324350631824
6.243,6.847,1.044,0.5108363028818986,3.7066198659185
6.224,6.866,1.091,0.49402592828223374,3.6833431566603694
6.229,6.871,1.073,0.4947708108567929,3.695457379108562
6.238,6.833,1.068,0.5133728112810504,3.6886773703331515
6.243,6.838,1.091,0.5128579256804041,3.6802475618062886
6.224,6.847,1.077,0.5017734389663991,3.6843571070969077
6.219,6.861,1.063,0.4946924345609461,3.6942762993326923
6.243,6.847,1.082,0.5096692652664981,3.6876020449633877
6.219,6.833,1.058,0.5056296386560307,3.6879276075144283
6.219,6.852,1.096,0.49714608763152146,3.67490134022681
6.219,6.861,1.082,0.49410999779731196,3.684762501792987
6.219,6.866,1.082,0.49218423440728704,3.6863422247929027
6.247,6.838,1.077,0.5149838684770353,3.6884749030356763
6.243,6.847,1.063,0.5102533903817006,3.6971176853030343
6.229,6.828,1.091,0.5107776828391026,3.6728539783582312
6.196,6.824,1.091,0.49834053804133394,3.661609620880357
6.238,6.847,1.077,0.507704653163081,3.688594088866074
6.229,6.866,1.058,0.49715647578547273,3.701386038864392
6.243,6.828,1.101,0.5164000552181113,3.6720740357740564
6.243,6.833,1.077,0.51521450145253,3.6856846192758517
6.243,6.838,1.082,0.5131351556189432,3.6847590549468436
6.261,6.828,1.091,0.5243348918657921,3.6825363777625264
6.214,6.88,1.087,0.48452050720098966,3.6867467209784146
6.21,6.828,1.058,0.5037422661244375,3.6836227721402537
6.257,6.852,1.063,0.5142603150051165,3.7029374209218857
6.233,6.852,1.096,0.5030763284397466,3.679135896409275
6.238,6.861,1.049,0.5031717072164809,3.7070322977564754
6.252,6.838,1.073,0.5172256196441224,3.6919921282909183
6.214,6.833,1.068,0.5032048263090446,3.681412599108769
6.243,6.847,1.073,0.5099461066205601,3.69211112493473
6.247,6.828,1.077,0.5188346942785803,3.6853159210166555
6.238,6.833,1.091,0.5126650255596715,3.677155745695266
6.238,6.833,1.087,0.5127882451934652,3.6791609157678096
6.275,6.847,1.063,0.5238146416276027,3.7068089735274143
6.219,6.842,1.077,0.501580871241543,3.6812644163338937
6.238,6.856,1.058,0.5048217775421285,3.700950189478243
6.247,6.847,1.073,0.5116409676544219,3.6933220154434756
6.233,6.814,1.063,0.5187244300795321,3.6836620846382098
6.229,6.833,1.082,0.5091293368495463,3.6789430643222407
6.233,6.828,1.096,0.5123180847374633,3.6715571747290614
6.196,6.852,1.077,0.4879873038375435,3.6774648950384123
6.247,6.847,1.082,0.5113640245888655,3.688812639498001
6.233,6.847,1.087,0.5052788193332128,3.682069869251704
6.233,6.847,1.073,0.5057091825419052,3.6890841384973583
6.219,6.885,1.073,0.48514150455131677,3.696855550922391
6.2,6.856,1.073,0.48826341437454096,3.6819413256039404
6.243,6.833,1.082,0.5150605642202197,3.6831797112360873
6.266,6.847,1.073,0.5196922685260694,3.6990744906200397
6.238,6.833,1.077,0.5130960616256681,3.684171248015408
6.238,6.852,1.077,0.5057790335571474,3.690173803486332
6.243,6.842,1.049,0.5126087868907424,3.702539933120512
6.238,6.852,1.087,0.5054714964454806,3.685162097362921
6.243,6.88,1.101,0.49637488950979264,3.688494725184674
6.205,6.842,1.082,0.4954972055161351,3.6745246882691713
6.243,6.856,1.058,0.5069404982565237,3.7024643472796286
6.238,6.842,1.054,0.5103366136193096,3.6985255918598416
6.229,6.88,1.049,0.49203884623360494,3.7103142050063536
6.219,6.842,1.082,0.501427339979288,3.6787601704966217
6.238,6.828,1.044,0.5160351135975607,3.6990982321227617
6.219,6.819,1.082,0.5102839868016301,3.671495503436454
6.257,6.88,1.082,0.5028912329843871,3.7022655363129324
6.229,6.852,1.101,0.5012279905441308,3.675417423002506
6.247,6.861,1.091,0.5056952219939759,3.6887222262673967
6.196,6.828,1.068,0.49750555308603195,3.674385540827372
6.233,6.852,1.068,0.5039370358840417,3.6931675116247717
6.238,6.861,1.082,0.5021591033119099,3.6905117444250153
6.238,6.875,1.091,0.49649022133279413,3.6904216184776604
6.224,6.833,1.058,0.5077480383997653,3.6894414410618253
6.219,6.842,1.082,0.501427339979288,3.6787601704966217
6.266,6.838,1.077,0.5230349396016049,3.6942267539896996
6.247,6.852,1.068,0.5098690263211839,3.6974059671384407
6.224,6.833,1.049,0.5080238518635647,3.693940119533418
6.252,6.842,1.101,0.5148221170336624,3.6792167843271373
6.233,6.852,1.068,0.5039370358840417,3.6931675116247717
6.229,6.842,1.068,0.5060936182223956,3.688796632359191
6.28,6.833,1.068,0.5311713045562709,3.701395450544157
6.21,6.828,1.082,0.50300620634163,3.6716151388740683
6.233,6.847,1.077,0.505586288672582,3.68708080354482
6.214,6.828,1.096,0.5042701004221821,3.6658104430138656
6.238,6.861,1.068,0.5025891416021857,3.6975254121711116
6.219,6.833,1.087,0.5047394581954247,3.6734124536607027
6.238,6.842,1.077,0.509630211457626,3.6870144418542403
6.238,6.88,1.063,0.4954238458497868,3.706034443706565
6.224,6.814,1.101,0.5137419875879399,3.6619077290197004
6.229,6.819,1.101,0.5139348104814061,3.6649982725732086
6.238,6.842,1.091,0.5091993606105447,3.679998028509827
6.243,6.847,1.068,0.5100997903959237,3.694614870251312
6.219,6.814,1.063,0.5127929297003575,3.6794237190234753
6.275,6.852,1.082,0.5213032325271604,3.6988678684096086
6.257,6.875,1.082,0.5048171488664275,3.7006856251677243
6.247,6.833,1.063,0.517340052259469,3.693904638290445
6.247,6.814,1.058,0.5248103908752094,3.6904019591809836
6.243,6.852,1.068,0.5081741067020941,3.696194911503921
6.196,6.8,1.058,0.5085935277212382,3.670537331317258
6.238,6.861,1.082,0.5021591033119099,3.6905117444250153
6.243,6.852,1.058,0.508481148524589,3.7011999743316566
6.247,6.805,1.063,0.5281219806961444,3.6850576908091903
6.168,6.833,1.063,0.4838741241092788,3.669993206083184
6.2,6.852,1.068,0.48995702617295817,3.6831795322376593
6.21,6.856,1.105,0.49151711164759143,3.668927880846097
6.243,6.824,1.073,0.5188032913822956,3.684844641678918
6.2,6.856,1.091,0.4877118915703793,3.672925377529797
6.191,6.838,1.058,0.49184250714802474,3.681031947840998
6.238,6.842,1.077,0.509630211457626,3.6870144418542403
6.224,6.88,1.063,0.4894920292193378,3.701795838285914
6.247,6.861,1.058,0.5067096674905054,3.7052562608424573
6.247,6.842,1.068,0.51372032881577,3.6942459519056334
6.238,6.866,1.077,0.500386973168361,3.6945973630130955
6.252,6.852,1.054,0.5124178726838727,3.7059269523971903
6.243,6.875,1.068,0.49931517538349784,3.7034639641347717
6.214,6.833,1.096,0.5023448427502086,3.667389213118703
6.219,6.838,1.063,0.503550801726866,3.687007272104355
6.233,6.866,1.082,0.49811504632680514,3.690578387815124
6.266,6.824,1.054,0.5291348510142396,3.701317703491135
6.224,6.842,1.087,0.5033917155046126,3.677767627753352
6.219,6.842,1.087,0.5012737245215534,3.6762549960492445
6.243,6.866,1.068,0.5027818673167094,3.700619383817866
6.219,6.828,1.044,0.5079840018895291,3.69334297972215
6.224,6.833,1.096,0.506580480239155,3.6704136516394574
6.233,6.852,1.087,0.5033532707863234,3.6836492228442297
6.247,6.824,1.077,0.5203749556560826,3.684052404419967
6.247,6.838,1.091,0.514552580563412,3.681457861969017
6.233,6.842,1.049,0.5083711815279898,3.6995109507234294
6.257,6.833,1.063,0.5215777040034483,3.696932929232839
6.219,6.842,1.049,0.5024390815765555,3.695270945861204
6.233,6.842,1.082,0.50735811968261,3.6829963335188425
6.243,6.833,1.054,0.5159215386262176,3.697195210491884
6.21,6.847,1.054,0.4965472587727368,3.69162743422471
6.243,6.856,1.082,0.5062031761960448,3.6904452546323108
6.214,6.847,1.058,0.49811948642031734,3.6908386404670943
6.247,6.828,1.077,0.5188346942785803,3.6853159210166555
6.219,6.842,1.082,0.501427339979288,3.6787601704966217
6.21,6.842,1.073,0.4978911016013307,3.6805435844121273
6.229,6.852,1.087,0.5016587492889296,3.6824389855436137
6.243,6.856,1.101,0.5056180982407814,3.6809150275895255
6.205,6.866,1.091,0.4859781711877463,3.67759624451057
6.21,6.824,1.077,0.5046999879446324,3.672854988503665
6.224,6.828,1.082,0.5089365529411083,3.6758508646922556
6.224,6.866,1.063,0.4948848752492146,3.6973703347360427
6.21,6.833,1.073,0.5013570286582848,3.6777001289835085
6.224,6.838,1.073,0.5053622562481155,3.6835165673895816
6.238,6.871,1.077,0.49846112131179776,3.69617733338238
6.229,6.866,1.058,0.49715647578547273,3.701386038864392
6.196,6.842,1.091,0.4914093362695718,3.6672939646105243
6.205,6.824,1.068,0.5028581183173598,3.675845257866197
6.233,6.842,1.063,0.5079418458831082,3.6925097143988186
6.243,6.833,1.044,0.5162283926060934,3.702193642679738
6.205,6.828,1.101,0.500304558037684,3.6605820578541852
6.238,6.842,1.077,0.509630211457626,3.6870144418542403
6.243,6.833,1.077,0.51521450145253,3.6856846192758517
6.214,6.847,1.063,0.49796638579661434,3.6883379662728983
6.238,6.856,1.035,0.505526223149075,3.712447352280304
6.219,6.838,1.087,0.5028140752388371,3.6749916165889807
6.21,6.861,1.068,0.4907266016086929,3.6890500387150715
6.257,6.856,1.077,0.5122890390183473,3.697188890264725
6.252,6.861,1.101,0.5075053606937404,3.6852165236723384
6.257,6.838,1.073,0.519344346569334,3.693505903586374
6.21,6.828,1.082,0.50300620634163,3.6716151388740683
6.2,6.842,1.073,0.49365526589955805,3.677517737726474
6.219,6.871,1.077,0.4904117283256224,3.690427307862033
6.247,6.828,0,6.233,6.861,0,6.238,6.866,1.068,0.500663284535642,3.6991056411101098
6.252,6.856,1.063,0.5106008227435903,3.7026874599889106
6.224,6.847,1.087,0.501466224121673,3.6793469133673966
6.229,6.842,1.063,0.5062470556825288,3.6912986842364055
6.219,6.842,1.101,0.5008431549079986,3.669235583000623
6.233,6.833,1.044,0.5119906513350477,3.6991642408017014
6.247,6.838,1.077,0.5149838684770353,3.6884749030356763
6.196,6.842,0,6.229,6.852,0,6.257,6.81,1.087,0.5296941033643279,3.677647357994817
6.219,6.847,1.049,0.5005133064304682,3.69685161546861
6.2,6.833,1.063,0.4974274648716201,3.6796762481657304
6.182,6.819,1.082,0.4946129791888176,3.6603032173046395
6.252,6.861,0,6.229,6.852,0,6.247,6.847,1.082,0.5113640245888655,3.688812639498001
6.233,6.856,1.049,0.5029788757163295,3.7039369932547683
6.247,6.847,1.073,0.5116409676544219,3.6933220154434756
6.243,6.828,1.073,0.5172630048895038,3.6861082748130816
6.261,6.819,1.087,0.5279237875612236,3.68169995621486
6.261,6.856,1.073,0.5141071979791247,3.700404358024952
6.2,6.828,1.063,0.49935297277774815,3.6780962803483455
6.229,6.852,1.082,0.5018124327197663,3.6849449319069936
6.224,6.824,1.063,0.5110605393909825,3.68409696824248
6.219,6.833,1.077,0.5050467373607511,3.6784212224950608
6.243,6.842,1.091,0.5113176073509029,3.681510825959322
6.233,6.824,1.082,0.5142894961180612,3.6773108190113817
6.252,6.852,1.082,0.5115569707608342,3.6919054937730724
6.233,6.819,1.096,0.5157833768684447,3.6687155620068572
6.224,6.856,1.073,0.49843000626461853,3.689203940314716
6.238,6.856,1.054,0.5049444188727829,3.7029511203194048
6.247,6.856,1.044,0.5090649025392318,3.71067742527026
6.252,6.828,1.096,0.5203672565237389,3.677305162083376
6.191,6.852,1.082,0.4857165690240201,3.6734488906889546
6.186,6.856,1.058,0.48279193048316005,3.6852080248694663
6.247,6.856,1.077,0.5080517632835053,3.6941617538014344
6.229,6.852,1.058,0.5025489410297468,3.696960547018058
6.224,6.828,1.082,0.5089365529411083,3.6758508646922556
6.238,6.856,1.082,0.5040847963927807,3.6889320888611423
6.205,6.861,1.077,0.4883330299822177,3.6830313730917097
6.261,6.861,1.058,0.5126427055946682,3.709496543346327
6.233,6.838,1.049,0.5099117522894869,3.69824646304127
6.214,6.852,1.087,0.495304762098264,3.677901090609785
6.224,6.842,1.04,0.504833031477406,3.7012813844984382
6.233,6.866,1.073,0.4983913817259546,3.6950879627384356
6.233,6.847,1.077,0.505586288672582,3.68708080354482
6.229,6.842,1.073,0.505940096472794,3.6862936479621715
6.243,6.828,1.087,0.516831854250492,3.6790947820802202
6.252,6.875,1.087,0.5025446927544441,3.69666450346552
6.229,6.847,1.058,0.5044747054457117,3.695380140932766
6.229,6.856,1.063,0.5008550365037592,3.6957232909356037
6.247,6.847,1.073,0.5116409676544219,3.6933220154434756
6.224,6.842,1.058,0.5042819228614445,3.69228588261979
6.229,6.842,1.101,0.5050788257299311,3.6722597885190686
6.21,6.847,1.082,0.4956895016378464,3.6776167481578645
6.243,6.847,1.101,0.5090839376961581,3.6780730456860966
6.2,6.852,1.096,0.4890989383628936,3.6691555399950637
6.229,6.861,1.077,0.4984997549550734,3.690293608184754
6.243,6.856,1.087,0.5060493247361736,3.687938589996257
6.233,6.838,1.058,0.509635773099563,3.6937467754371256
6.21,6.852,1.068,0.49419301484156347,3.6862057953401233
6.233,6.824,1.087,0.5141355505280586,3.6748057202811175
6.238,6.842,1.082,0.5094764111558421,3.68450941312865
6.224,6.838,1.105,0.5043779966036555,3.6674777411732404
6.224,6.838,1.04,0.5063736596687568,3.7000166309154054
6.214,6.861,1.063,0.4925741750634505,3.692762760488794
6.229,6.852,1.073,0.5020888511656969,3.689453299682645
6.229,6.856,1.096,0.49984147611259494,3.6791892268672126
6.247,6.847,1.068,0.5117947081752493,3.6958259258858313
6.224,6.871,1.082,0.4923764856516119,3.6894348525175347
6.229,6.833,1.063,0.5097130999932088,3.6884545722973052
6.233,6.861,1.073,0.5003172043517617,3.6935079149398926
6.233,6.838,1.058,0.509635773099563,3.6937467754371256
6.229,6.828,1.063,0.5116385941516003,3.6868746044799217
6.219,6.842,1.096,0.5009970051209777,3.671743347804036
6.266,6.861,1.096,0.513591299756908,3.6919624670463933
6.196,6.866,1.058,0.48317590690316853,3.6913957591091595
6.257,6.833,1.082,0.5209924325860272,3.687417032274818
6.247,6.861,1.101,0.5053870975724614,3.68370397698594
6.205,6.866,1.096,0.48582477680192265,3.6750891170262925
6.261,6.833,1.101,0.5221006960097206,3.6790979498390146
6.247,6.824,1.082,0.520220895548751,3.6815476589269713
