4.055,5.779,2.903,-0.05131959634145178,1.772094059910864
4.073,5.788,2.95,-0.048978798818225124,1.7543290908572151
4.073,5.774,2.889,-0.04159360234905607,1.7831642550556985
4.069,5.77,2.926,-0.04295277291516401,1.760795384939252
4.102,5.761,2.968,-0.027466968280637733,1.7444490519962297
4.073,5.761,2.912,-0.03742235894748599,1.7667740530994953
4.088,5.779,2.959,-0.03973074901082011,1.7508883681035041
4.078,5.788,2.973,-0.04771497702318387,1.7432237636696304
4.022,5.774,2.936,-0.06400129090814954,1.743533471612347
4.069,5.784,2.964,-0.04956437681045648,1.7444040918314982
4.097,5.774,2.94,-0.033507752737818364,1.7621948686993665
4.083,5.77,2.94,-0.03770657683753823,1.7570919651672459
4.064,5.761,2.959,-0.042686579056055995,1.7387759329782415
4.078,5.756,2.884,-0.03253423556461029,1.7818146093868925
4.097,5.747,2.954,-0.023710716748293097,1.7464309398472082
4.078,5.779,2.945,-0.04334260062006401,1.7557105594917737
4.083,5.765,2.959,-0.03644730926698477,1.7452647645106438
4.092,5.77,2.945,-0.03419831598291401,1.756880673703984
4.031,5.765,2.912,-0.056094296135575296,1.7563192951842204
4.097,5.77,2.964,-0.032798424571274985,1.7479529757890908
4.092,5.742,2.907,-0.022263375604208102,1.7690203702287783
4.055,5.77,2.884,-0.0472555745508626,1.7796576238614004
4.078,5.77,2.968,-0.040696974271948926,1.7404976441793492
4.116,5.77,2.884,-0.022329594752269328,1.7966247286914039
4.088,5.747,2.964,-0.027727021770286964,1.7384972343542184
4.069,5.793,2.936,-0.05204224293647941,1.7623292025107478
4.083,5.76,2.982,-0.03532497115948948,1.7312543774454054
4.097,5.765,2.884,-0.028194195811393336,1.789822745104306
4.092,5.733,2.968,-0.020903936634888282,1.733205381986388
4.064,5.747,2.968,-0.03766600891146088,1.7296551660837611
4.083,5.761,2.898,-0.03286497565762203,1.7771385033759384
4.031,5.755,2.945,-0.05340338554075574,1.735401271639588
4.055,5.742,2.903,-0.03724288252750333,1.760901930414632
4.069,5.76,2.954,-0.04009482984134172,1.7425777174564352
4.069,5.755,2.917,-0.03694239933109681,1.7611379034150696
4.069,5.742,2.973,-0.03389179839858958,1.7268161725485534
4.078,5.76,2.964,-0.0367572286706415,1.739647416934033
4.083,5.774,2.945,-0.03939749360565814,1.75558806651403
4.05,5.756,2.893,-0.04427353923767374,1.7691618411905337
4.102,5.793,2.968,-0.039641517477150646,1.754126086133338
4.088,5.765,2.95,-0.03409976943235563,1.7515420417931449
4.083,5.774,2.973,-0.040345607710375174,1.7403794865240891
4.069,5.751,2.978,-0.037484483065050665,1.726818717294788
4.069,5.765,2.945,-0.04169248100842563,1.7489753607737761
4.083,5.765,2.893,-0.0342183436585359,1.7810560917606242
4.078,5.774,2.945,-0.041440203299538125,1.7541982322098144
4.097,5.761,2.903,-0.02731254609180811,1.7783245744935703
4.088,5.751,2.964,-0.029248428484603333,1.7397062819833238
4.097,5.774,2.912,-0.03256197987931223,1.7773806164901302
4.097,5.779,2.917,-0.034633120556021114,1.776183061320881
4.088,5.755,2.959,-0.03060049067821909,1.743631356180295
4.064,5.76,2.959,-0.04230616343212098,1.738473593641274
4.031,5.774,2.959,-0.06110540282955431,1.7335465099478478
4.088,5.742,2.94,-0.02501266180017625,1.750015905691847
4.064,5.751,2.95,-0.038577975604530766,1.7406393419228874
4.064,5.779,2.922,-0.048284423486923,1.7642976127560015
4.078,5.761,2.94,-0.03632535309695676,1.752980320422249
4.092,5.755,2.912,-0.027376980510900022,1.7702424277713018
4.078,5.77,2.959,-0.04039212056086453,1.7453869636987902
4.083,5.784,2.931,-0.04272921032913494,1.7662100184669838
4.069,5.765,2.959,-0.04216619364241092,1.7413742944500858
4.078,5.76,2.964,-0.0367572286706415,1.739647416934033
4.078,5.77,2.889,-0.0380289144568973,1.783344045632842
4.069,5.742,2.879,-0.030716994913400703,1.777782925711023
4.073,5.788,2.968,-0.049588041858723786,1.7445518388329624
4.073,5.76,2.954,-0.038461016946837824,1.743689108005371
4.088,5.756,2.968,-0.03128585442250239,1.739044499780248
4.078,5.77,2.968,-0.040696974271948926,1.7404976441793492
4.097,5.761,2.936,-0.028426830583511364,1.7604337809542139
4.102,5.751,2.912,-0.021768605357859554,1.7718148411505235
4.102,5.77,2.917,-0.029165308545790136,1.7748514259494088
4.055,5.76,2.968,-0.0462861632588597,1.7310854871104924
4.097,5.77,2.945,-0.03215507575485732,1.7582712485224399
4.102,5.756,2.964,-0.02542945446260536,1.7451108592983804
4.078,5.755,2.936,-0.033907675385093206,1.753336330222553
4.078,5.765,2.926,-0.03737401905367207,1.7617844379030247
4.008,5.751,2.959,-0.06174007333382384,1.7202149304726821
4.102,5.779,2.968,-0.03431464395669733,1.7498916852481166
4.064,5.755,2.922,-0.0391533333536768,1.757038225967903
4.078,5.76,2.912,-0.034999332051660205,1.7678615004856433
4.078,5.774,2.95,-0.04160932961156357,1.7514839297438807
4.111,5.784,2.884,-0.02970073062376773,1.7994693786967346
4.102,5.784,2.94,-0.035269068330712305,1.7666106853017662
4.106,5.798,2.95,-0.03929971750350673,1.7665302320709586
4.059,5.77,2.898,-0.046093082350049684,1.773190141434595
4.088,5.774,2.978,-0.03847235556883192,1.7390513434158394
4.055,5.77,2.931,-0.04883927842481824,1.7541944902067674
4.027,5.756,2.922,-0.054639852576131576,1.7470679769085855
4.097,5.77,2.912,-0.031040108043103753,1.7761704985687656
4.073,5.765,2.917,-0.039112803525640026,1.7652740897409167
4.069,5.77,2.954,-0.04389916504964997,1.7456014937146271
4.059,5.774,2.893,-0.047446769473615445,1.7771077936870991
4.092,5.802,2.973,-0.04732248028865926,1.7513500910614717
4.069,5.756,2.95,-0.03843784350024034,1.7435400010518716
4.088,5.793,2.926,-0.04394215211901006,1.7730356124452291
4.083,5.765,2.875,-0.03361262474354543,1.7907977370798196
4.102,5.747,2.964,-0.022006272484433615,1.74239037627306
4.027,5.755,2.884,-0.0529799282625781,1.767344512436127
4.106,5.765,2.903,-0.02515572446587111,1.7820390905527663
4.045,5.751,2.973,-0.047114737439468736,1.7228723382231987
4.106,5.755,2.922,-0.02199290186280019,1.7687168335986827
4.069,5.761,2.968,-0.040949344410878274,1.735275936183358
4.073,5.779,2.964,-0.04602807060915881,1.7440031882203535
4.092,5.756,2.964,-0.029515912010460443,1.742329833001499
4.078,5.76,2.898,-0.03452737588761812,1.7754456695790186
4.078,5.755,2.931,-0.033738696536373326,1.7560485828306287
4.092,5.761,2.968,-0.03155342791686241,1.7416681059045747
4.069,5.755,2.973,-0.038836429784063355,1.7307452340460294
4.083,5.755,2.964,-0.032812680940010996,1.7395255122051232
4.078,5.779,0,4.078,5.76,2.954,-0.03641857546156394,1.745078585467933
4.083,5.774,2.912,-0.038282931476014914,1.7734867029574817
4.092,5.733,2.903,-0.01870542796403596,1.7684659478523452
4.102,5.733,2.903,-0.014618667740883237,1.7712482501494862
4.059,5.756,2.917,-0.041407036810544175,1.7586618367842515
4.106,5.76,2.922,-0.023894893733626816,1.7702289413048318
4.064,5.737,2.978,-0.03420172862960754,1.7211991946960736
4.088,5.779,2.973,-0.04020509279330283,1.7432812616249365
4.097,5.774,2.893,-0.03192148526021791,1.7876736922344867
4.088,5.76,2.95,-0.03219769909007009,1.75003017020639
4.073,5.798,2.926,-0.0519735035149936,1.7703786273037554
4.055,5.76,2.945,-0.04550778742651403,1.7435746460509527
4.073,5.751,2.931,-0.03425962452449275,1.7534493815099592
4.088,5.756,0,4.064,5.755,0,4.059,5.802,2.94,-0.059686860171391985,1.760103944619581
4.064,5.774,2.907,-0.04587611124768972,1.770914699890697
4.069,5.761,2.959,-0.0406445027496544,1.7401648813676704
4.055,5.784,2.954,-0.05494348109290814,1.7459471912675235
4.088,5.755,2.964,-0.03076990032286649,1.74091541912302
4.069,5.788,2.926,-0.04980187001080442,1.7662409301104125
4.078,5.755,2.954,-0.034516587355426544,1.7435669063736317
4.097,5.77,2.926,-0.031512745998487156,1.7685802983778
4.045,5.756,2.936,-0.04776491018763548,1.7444718771513619
4.097,5.761,2.917,-0.027784892977505637,1.7707379762768094
4.088,5.751,2.898,-0.02701777750606023,1.7755043121883276
4.069,5.76,2.94,-0.03962127814901099,1.750176806342064
4.059,5.774,2.968,-0.04997898985568975,1.7364290946152459
4.064,5.76,2.926,-0.04119047429984205,1.7563815747459801
4.055,5.765,2.94,-0.047240972421558225,1.7477998921716136
4.078,5.76,2.978,-0.03723181496451603,1.7320395113790295
4.083,5.761,2.95,-0.03462095218682101,1.7489424851816204
4.078,5.77,2.912,-0.03880384220499348,1.7708864058774736
4.059,5.774,2.879,-0.04697589791720613,1.784684974823488
4.073,5.788,2.954,-0.04911410679596395,1.7521570809395062
4.088,5.774,2.95,-0.03752375124177013,1.7542637612717285
4.092,5.742,2.898,-0.02195985609468813,1.7738951500966984
4.088,5.755,2.959,-0.03060049067821909,1.743631356180295
4.073,5.793,2.964,-0.05135521883306252,1.7482377362566197
4.097,5.76,2.926,-0.02770842697759975,1.7655557730467828
4.092,5.747,2.94,-0.025279981037172328,1.7526397184830251
4.088,5.784,2.945,-0.04115942499237035,1.7600029588935573
4.083,5.761,2.945,-0.03445177318929508,1.7516566656335224
4.073,5.755,2.945,-0.03625447431650978,1.7470630874205375
4.088,5.76,2.954,-0.03233310927238442,1.7478583358290631
4.111,5.765,2.922,-0.02375313853419303,1.7731327411111426
4.073,5.798,2.959,-0.05308872001945356,1.7524666906382975
4.022,5.784,2.926,-0.06746925155671435,1.7519819966794874
4.073,5.774,2.931,-0.04300959298051706,1.7604051585245972
4.059,5.788,2.982,-0.05578030246425366,1.733053280285537
4.045,5.779,2.907,-0.05553766867535145,1.7671499457477349
4.083,5.755,2.945,-0.03216936415660835,1.749842490485362
4.059,5.751,2.973,-0.04139873250749578,1.7267588377088103
4.102,5.751,2.95,-0.023053309294695623,1.751202692111831
4.027,5.761,2.973,-0.058265746169445465,1.7209012812715543
4.036,5.761,2.922,-0.0528686143466233,1.7510775057837733
4.073,5.774,2.95,-0.04365182742356163,1.7500944118378035
4.069,5.774,2.926,-0.04447468137083591,1.7620053508302724
4.036,5.761,2.959,-0.05411858423260226,1.7310027687834981
4.064,5.784,2.936,-0.05065962555576087,1.7582170176808545
4.073,5.793,2.926,-0.050070656471680484,1.768865519851156
4.041,5.77,2.959,-0.05550165832542938,1.7351115203786653
4.045,5.774,2.945,-0.05491719503862432,1.745032012313099
4.088,5.755,2.94,-0.029957375285503574,1.753946101474943
4.069,5.76,2.978,-0.0409079221312029,1.7295390717484826
4.078,5.76,2.954,-0.03641857546156394,1.745078585467933
4.083,5.755,2.931,-0.031695994466707234,1.7574385616365449
4.083,5.77,2.968,-0.038654356293361114,1.7418872467658815
4.092,5.76,2.964,-0.031037455590883778,1.7435390818562995
4.078,5.761,2.945,-0.036494443656054996,1.7502668313293068
4.073,5.765,2.95,-0.040227764095125074,1.7473726923592194
4.064,5.761,2.907,-0.04092996949486272,1.7669819644160787
4.097,5.784,2.968,-0.03826040292278391,1.7500132424007466
4.106,5.765,2.931,-0.026101101944248344,1.76685998429369
4.097,5.788,2.903,-0.0375855878942856,1.7864939087496736
4.078,5.755,2.959,-0.03468589218674619,1.740851706680245
4.102,5.779,2.968,-0.03431464395669733,1.7498916852481166
4.102,5.755,2.898,-0.02281791236341187,1.7806092393606268
4.092,5.774,2.959,-0.03619399632823036,1.7504883823787025
4.069,5.751,2.954,-0.03667127542604772,1.7398567956423951
4.083,5.784,2.926,-0.04256036438353802,1.768922070172076
4.073,5.76,2.954,-0.038461016946837824,1.743689108005371
4.088,5.755,2.898,-0.028539393834070115,1.7767141600203746
4.111,5.756,2.959,-0.02158149638377808,1.7503308629710765
4.111,5.779,2.987,-0.0312807358598041,1.7420651151250828
4.092,5.765,2.968,-0.033075044099156514,1.742877424251743
4.05,5.755,2.903,-0.04422982814614237,1.763444653658257
4.031,5.751,2.893,-0.05012816049932478,1.7623741590167794
4.083,5.76,2.959,-0.034545248154488895,1.7437530120912612
4.116,5.77,2.922,-0.02361126281565577,1.7760369424809699
4.073,5.765,2.954,-0.04036312169935533,1.745200926536117
4.036,5.761,2.954,-0.05394943932761801,1.7337176293626742
4.092,5.76,2.968,-0.031173034009799244,1.7413657902506188
4.078,5.761,2.936,-0.036190131831035664,1.7551506497727931
4.073,5.751,2.889,-0.032843097373403,1.7762058390967448
4.073,5.755,2.926,-0.035612314253178824,1.757370426170027
4.088,5.765,2.959,-0.034404481439006505,1.7466547215867536
4.097,5.761,2.898,-0.02714398729073268,1.7810328408065572
4.031,5.76,2.94,-0.0551366131887823,1.7396260695510053
4.078,5.76,2.903,-0.0346958665462657,1.7727376234398482
4.078,5.765,2.954,-0.038320665080652426,1.746590403998679
4.064,5.77,2.964,-0.046279789384602456,1.7387813426648797
4.116,5.755,2.922,-0.01790507111548989,1.771500201233123
4.069,5.779,2.907,-0.04573633979901096,1.7738170257945038
4.078,5.793,2.945,-0.04866984943684072,1.7599458121237748
4.111,5.76,2.954,-0.02293359942647455,1.7542557649173807
4.069,5.756,2.968,-0.039047346246011215,1.7337644137024206
4.059,5.765,2.954,-0.0460809627257146,1.7413118060470965
4.036,5.761,2.907,-0.05236300007608252,1.7592058163574251
4.078,5.755,2.973,-0.03516031958442437,1.7332457617977621
4.097,5.751,2.926,-0.024284886724480887,1.7628341771296376
4.088,5.765,2.945,-0.0339305836996621,1.7542563265555418
4.041,5.774,2.907,-0.05526816756101571,1.7645265287031695
4.055,5.765,2.926,-0.046768156733603385,1.7553937297522602
4.073,5.77,2.964,-0.04260389293711131,1.7412815519178928
4.078,5.788,2.903,-0.04534965439547223,1.7812094477924265
4.073,5.77,2.922,-0.04118382969953157,1.764075947521566
4.092,5.76,2.954,-0.030698705560045097,1.7489705321355107
4.097,5.788,2.922,-0.03822648163997259,1.7761951829605265
4.059,5.779,2.95,-0.05127222616244761,1.747717439351536
4.041,5.77,2.954,-0.055332520649530315,1.737826549331429
4.088,5.76,2.922,-0.03125109633034465,1.7652215327021026
4.055,5.765,2.968,-0.04818828553981669,1.732597121111617
4.059,5.774,2.959,-0.04967427205725813,1.7413181694370234
4.073,5.779,2.893,-0.0436307939125404,1.7825117325695015
4.031,5.761,2.973,-0.05663330215288446,1.722010719322811
4.036,5.747,2.959,-0.04879289350273808,1.7267705262989563
4.088,5.765,2.945,-0.0339305836996621,1.7542563265555418
4.078,5.784,2.94,-0.04507607073192954,1.7599368215361586
4.078,5.76,2.973,-0.03706225686789277,1.7347571909138964
4.102,5.77,2.889,-0.028221214831835224,1.7900205249406225
4.069,5.774,2.973,-0.046064434738772496,1.7364894056350382
4.102,5.779,2.978,-0.034653752544899295,1.7444559876455823
4.069,5.774,2.917,-0.044170980999225784,1.766884911646988
4.073,5.779,2.926,-0.044743219841467674,1.7646295532494747
4.064,5.779,2.936,-0.04875706008307209,1.7567044315041473
4.092,5.76,2.95,-0.03056328418492582,1.7511423990832051
4.078,5.765,2.964,-0.03865929145474104,1.7411591034732588
4.083,5.755,2.959,-0.03264328853223079,1.7422413991041852
4.092,5.765,2.884,-0.030237645551505026,1.7884315172649607
4.083,5.774,2.973,-0.040345607710375174,1.7403794865240891
4.097,5.77,2.973,-0.03310352171107874,1.7430621735041043
4.078,5.779,2.959,-0.0438162950119599,1.7481087186034543
4.064,5.756,2.95,-0.04047993560549482,1.742150962345348
4.088,5.756,2.959,-0.0309808714823101,1.743933667611606
4.078,5.77,2.968,-0.040696974271948926,1.7404976441793492
4.083,5.77,2.954,-0.03818018989084474,1.7494921045224163
4.069,5.755,2.907,-0.03660512366886407,1.7665566586297852
4.069,5.779,2.94,-0.046850005271634375,1.7559231646935667
4.069,5.747,2.922,-0.034067992987576345,1.7560084709565082
4.083,5.76,2.931,-0.03359802996382114,1.7589505478243552
4.073,5.779,2.931,-0.044912043624911746,1.761917673353172
4.083,5.737,2.945,-0.02532301645265785,1.7444011735771288
4.064,5.774,2.893,-0.04540461290681974,1.778497161489504
4.092,5.779,2.94,-0.03745339135398151,1.762316636306755
4.092,5.755,2.879,-0.026264983862969677,1.7881117654513348
4.083,5.76,2.931,-0.03359802996382114,1.7589505478243552
4.083,5.774,2.893,-0.03764263518630947,1.7837792015756353
4.059,5.76,2.917,-0.04292876240707252,1.7598715883902372
4.078,5.779,2.945,-0.04334260062006401,1.7557105594917737
4.073,5.761,2.973,-0.03948503599814812,1.7336702052251989
4.092,5.77,2.907,-0.032914822820285496,1.7774890808258466
4.088,5.779,2.912,-0.03814236656920204,1.776389920145984
4.088,5.755,2.945,-0.03012651743373196,1.7512325897668326
4.05,5.765,2.982,-0.050704238640382426,1.7236002672146695
4.064,5.765,2.879,-0.04150922208357832,1.783351036094814
4.078,5.765,2.959,-0.03848994303081817,1.7438750720867036
4.088,5.77,2.879,-0.03360639596407918,1.7915374446044936
4.097,5.756,2.875,-0.024467378342520996,1.7919696780886991
3.998,5.761,2.95,-0.0693193527379371,1.7253526562668051
4.106,5.779,2.893,-0.030145258685622307,1.791691422648423
4.078,5.76,2.898,-0.03452737588761812,1.7754456695790186
4.059,5.76,2.94,-0.04370536095593891,1.7473987929416566
4.073,5.747,2.964,-0.03385470871914239,1.7343283077708698
4.064,5.793,2.907,-0.053106316623214155,1.7766642305563385
4.102,5.784,2.968,-0.03621700824583648,1.7514038468830648
4.083,5.76,2.954,-0.03437593945286991,1.7464683282642242
4.088,5.774,2.917,-0.03640859972651737,1.772166984721126
4.097,5.76,2.907,-0.02706702077986382,1.7758550144380338
4.064,5.774,0,4.064,5.765,0,4.092,5.788,2.968,-0.0418255926537752,1.7498327296725869
4.092,5.77,2.926,-0.03355605425832675,1.7671895255910812
4.097,5.755,2.968,-0.027228009913587908,1.7412446372830317
4.097,5.76,2.926,-0.02770842697759975,1.7655557730467828
4.078,5.784,2.936,-0.04494089957758407,1.762107397367261
4.088,5.793,2.954,-0.044888570016566355,1.7578389037230533
4.088,5.784,2.875,-0.03879907006272254,1.7979388532784666
4.092,5.76,2.884,-0.028335404759422127,1.7869187485212963
4.064,5.765,2.903,-0.042316994056041245,1.770358777129448
4.102,5.76,2.893,-0.024551474310736232,1.7848293313036303
4.073,5.751,2.898,-0.03314620931619838,1.7713333229073591
4.059,5.756,2.964,-0.04299571467412999,1.7331599495518866
4.083,5.765,2.936,-0.03566913632557289,1.7577502345816072
4.069,5.793,2.95,-0.05251538453940859,1.754730316052303
4.111,5.76,2.94,-0.022459633722129224,1.7618560585522571
4.088,5.76,2.954,-0.03233310927238442,1.7478583358290631
4.059,5.77,2.875,-0.045319422325633164,1.7856384106017733
4.078,5.756,2.945,-0.03459241092291213,1.748755004748696
4.073,5.793,2.945,-0.05071242257643686,1.7585562433631658
4.073,5.788,2.945,-0.048809727862011064,1.7570435287848178
4.069,5.765,2.978,-0.04280997495019164,1.7310505750476508
4.083,5.747,2.926,-0.02848400180293346,1.7577312271973204
4.045,5.779,2.926,-0.05617815759337282,1.756851811019148
4.041,5.765,2.936,-0.0528218651364328,1.7460831461292052
4.078,5.742,2.964,-0.029910644313196937,1.7342065015797574
4.102,5.733,2.964,-0.016681978824093575,1.738159416250209
4.031,5.774,2.964,-0.06127456749437332,1.7308308873045604
4.059,5.76,2.987,-0.045297011271561126,1.721868731005447
4.097,5.77,2.907,-0.030871444849700096,1.778880056466506
4.116,5.77,2.945,-0.02438900452089769,1.7635578302777797
4.111,5.76,2.903,-0.021209674281583008,1.7819183420418703
4.083,5.761,2.945,-0.03445177318929508,1.7516566656335224
4.078,5.784,2.903,-0.043827490852226224,1.7799989210008678
4.05,5.756,2.884,-0.04397073907702331,1.774032851399532
4.055,5.755,2.954,-0.04391013199837087,1.7371775157856897
4.022,5.77,2.898,-0.06119869126492524,1.7629176132298057
4.059,5.765,2.884,-0.04371953132722036,1.7792560949618454
4.078,5.742,2.945,-0.029267260523254717,1.7445226339542057
4.088,5.755,2.945,-0.03012651743373196,1.7512325897668326
4.059,5.76,2.945,-0.04387438759750598,1.744685511096308
4.088,5.756,2.926,-0.02986455325171322,1.7618429183168847
4.055,5.728,2.945,-0.03333622222747742,1.7339015544040908
4.083,5.747,2.95,-0.029295596730240292,1.7447099090636478
4.045,5.77,2.907,-0.0521130557320502,1.7644269325526745
4.064,5.756,2.907,-0.039027789912756274,1.7654696245630992
4.078,5.761,2.936,-0.036190131831035664,1.7551506497727931
4.073,5.765,2.931,-0.039585436673949426,1.7576829817205077
4.078,5.761,2.903,-0.03507630431672415,1.7730401135363234
4.069,5.784,2.931,-0.04844853120302054,1.7623187481808247
4.069,5.793,2.959,-0.052819842240862225,1.749842673519928
4.088,5.774,2.936,-0.03705027793834966,1.7618624825288547
4.111,5.765,2.907,-0.02324673732866019,1.7812636016755417
4.041,5.755,2.959,-0.04979508913414069,1.7305762633601203
4.088,5.77,2.903,-0.03441453368658609,1.778543592630675
4.022,5.765,2.903,-0.05946444376759271,1.7586973828855508
4.036,5.788,2.898,-0.06233407351477671,1.7722496897777231
4.083,5.755,2.959,-0.03264328853223079,1.7422413991041852
4.078,5.751,2.912,-0.031575620068502196,1.765139562534232
4.069,5.788,2.936,-0.05013951149807272,1.760816367563501
4.097,5.77,2.94,-0.03198594241987707,1.760985053363914
0,5.779,0,4.059,5.755,2.884,-0.039914951579198554,1.7762306969408748
4.069,5.76,2.917,-0.038844515620167296,1.7626500789621937
4.073,5.76,2.936,-0.03785221687459258,1.7534585880867557
4.083,5.761,2.912,-0.03333697583898835,1.7695541451123455
4.078,5.755,2.964,-0.03485526739775709,1.7381358698227134
4.102,5.751,2.912,-0.021768605357859554,1.7718148411505235
4.069,5.761,2.907,-0.03888770868386604,1.7683714497024194
4.092,5.779,2.94,-0.03745339135398151,1.762316636306755
4.102,5.755,2.94,-0.02423632402560305,1.7578399289286117
4.083,5.77,2.926,-0.037233520952204925,1.764686801229936
4.092,5.77,2.954,-0.03450290206327881,1.7519943083937026
4.041,5.765,2.936,-0.0528218651364328,1.7460831461292052
4.069,5.765,2.898,-0.04010626304550202,1.7744563229185852
4.073,5.765,2.945,-0.040058630910759264,1.7500868242092464
4.073,5.765,2.959,-0.040532382379282396,1.7424856448794632
4.069,5.774,2.968,-0.0458950143423276,1.7392065463179078
4.05,5.765,2.959,-0.04992508931297505,1.7360977118005378
4.097,5.765,2.936,-0.02994850389941021,1.7616434388675504
4.008,5.788,2.964,-0.07598715167424593,1.7286877522036506
4.05,5.765,2.964,-0.05009434218651058,1.7333820212327857
4.078,5.761,2.945,-0.036494443656054996,1.7502668313293068
4.078,5.774,2.94,-0.04127114803282291,1.756911894893113
4.064,5.755,2.94,-0.0397613488914678,1.7472758005822275
4.078,5.737,2.936,-0.027061185642993795,1.74789458016341
4.073,5.784,2.889,-0.04539883785303356,1.7861905706980343
4.088,5.77,2.954,-0.03613732969264738,1.750882112087255
4.078,5.756,2.95,-0.034761585929611094,1.7460409417940965
4.088,5.76,2.898,-0.03044150570643552,1.7782265955317846
4.097,5.779,2.959,-0.036053095673553893,1.7533909559681142
4.083,5.779,2.903,-0.03988200057329675,1.7798761627917372
4.083,5.761,2.954,-0.03475634624940993,1.7467706808231374
4.083,5.77,2.922,-0.037098465003084856,1.7668558276406001
4.102,5.779,2.912,-0.032420830956196155,1.7802845747112042
4.102,5.802,2.926,-0.041645681564211445,1.7796535422685007
4.097,5.779,2.954,-0.035883789370621755,1.7561066650447046
4.102,5.755,2.959,-0.024879626527664105,1.7475246391573898
4.088,5.798,2.926,-0.04584495353903373,1.7745487198978285
4.078,5.76,2.94,-0.03594493571200278,1.752677930594633
4.083,5.774,2.95,-0.03956663743386731,1.7528737130770897
4.12,5.779,2.964,-0.02682127016757045,1.7570737461390376
4.102,5.793,2.94,-0.038693713324373546,1.7693335923174949
4.064,5.76,2.898,-0.04024628332865432,1.7715541659835339
4.092,5.788,2.87,-0.038518513369714014,1.802967488304236
4.069,5.788,2.95,-0.05061269110260299,1.7532176680210678
4.097,5.779,2.954,-0.035883789370621755,1.7561066650447046
4.083,5.751,2.917,-0.029701597282400776,1.7638199450468737
4.106,5.779,2.936,-0.031596445646356774,1.7683818086569032
4.036,5.774,2.95,-0.05876023591396473,1.7398202843084078
4.102,5.826,2.898,-0.049836754398138026,1.8020988028564453
4.078,5.798,2.907,-0.049290104767296526,1.7820688287833581
4.055,5.793,2.893,-0.05631081327241616,1.7817467554680186
4.064,5.756,2.926,-0.039668780780955926,1.7551719206951137
4.083,5.779,2.94,-0.04113081647714648,1.7598141745557208
4.088,5.793,2.931,-0.0441109913827887,1.7703233870030857
4.05,5.784,2.931,-0.05620801966931599,1.757041087777462
4.078,5.774,2.936,-0.04113595508965447,1.7590823635529442
4.069,5.788,2.893,-0.048689705870129774,1.7841236395409463
4.069,5.798,2.912,-0.05313535187347074,1.7768574413339115
4.088,5.784,2.95,-0.04132855932016488,1.7572884212892161
