2.267,3.586,4.242,0.012021428029203113,-0.0912682439327162
2.295,3.6,4.233,0.01797562919267102,-0.07507136404867924
2.271,3.619,4.233,0.0017395202439012363,-0.07575289799768829
2.3,3.6,4.209,0.020807424350536147,-0.06009306895687664
2.239,3.643,4.233,-0.019408598532715593,-0.0770169443331243
2.29,3.591,4.224,0.019706878951748368,-0.07374478295750264
2.224,3.624,4.228,-0.017967498861787057,-0.08333166098883955
2.314,3.591,4.228,0.028796847711558927,-0.06995152480941602
2.281,3.619,4.209,0.006493462937787797,-0.059510892753681786
2.253,3.591,4.238,0.00495112874281925,-0.09109918261716432
2.248,3.619,4.195,-0.005661487109713287,-0.05984683392054283
2.239,3.605,4.219,-0.004864500079380894,-0.07979812462083131
2.328,3.605,4.228,0.029035864529928308,-0.062430897926176364
2.267,3.605,4.247,0.0048317538551805594,-0.08874121760468019
2.3,3.591,4.233,0.023215862296238583,-0.07635672341028288
2.332,3.586,4.205,0.03844357133816223,-0.05366624218991171
2.29,3.586,4.252,0.020489347671980535,-0.09117026554631458
2.351,3.614,4.219,0.03493240176140658,-0.04889542519711506
2.304,3.614,4.205,0.01734012434063356,-0.0528254957611742
2.29,3.6,4.261,0.014991548336426852,-0.09235006247425596
2.243,3.619,4.209,-0.008111303368809284,-0.06910395062326972
2.276,3.605,4.186,0.010599272809826199,-0.0516137133818572
2.281,3.619,4.224,0.0059263334602370765,-0.06808064766774014
2.253,3.633,4.172,-0.008034310750999094,-0.041484880969479554
2.323,3.591,4.242,0.03173622470087641,-0.07567033457835741
2.295,3.61,4.233,0.014290952828790024,-0.07223527045718121
2.229,3.605,4.191,-0.0076420809260286104,-0.06632024419531417
2.318,3.614,4.219,0.02220492831875605,-0.057273284135319256
2.224,3.624,4.205,-0.01709584062326956,-0.07018551945022904
2.29,3.596,4.242,0.017184329688222682,-0.08261659204307155
2.29,3.643,4.252,-0.0005194068175511565,-0.07499775091930594
2.267,3.61,4.195,0.004956437217264113,-0.05760631169828297
2.309,3.614,4.214,0.01892607738114564,-0.05669860536155743
2.285,3.643,4.228,-0.0015357816160597542,-0.06254156261550751
2.323,3.61,4.2,0.0263228886054394,-0.046290849993612625
2.257,3.596,4.167,0.007330768231455444,-0.048119443805579275
2.285,3.614,4.186,0.010744089901329273,-0.04678676619034664
2.323,3.591,4.2,0.03332168778643488,-0.051677982026697045
2.29,3.614,4.205,0.011950504028170947,-0.05636897646336344
2.234,3.614,4.214,-0.009912110625659462,-0.07564762032248862
2.3,3.591,4.214,0.023933817402152818,-0.06550022221454861
2.243,3.619,4.228,-0.0088308445226755,-0.07996296655712361
2.285,3.596,4.2,0.016848128835204524,-0.05988296205587729
2.304,3.619,4.177,0.01655382519221002,-0.03542706543947782
2.332,3.61,4.214,0.029264526221691733,-0.0520007083070555
2.281,3.61,4.238,0.008714012768203142,-0.07863654794027279
2.257,3.614,4.224,-0.0014581245272706673,-0.07556293070039981
2.253,3.605,4.214,0.0007009873743934562,-0.07341029237888941
2.323,3.591,4.2,0.03332168778643488,-0.051677982026697045
2.318,3.61,4.266,0.021902512661197072,-0.08527670167354628
2.267,3.586,4.252,0.011642681834281216,-0.09698830763599335
2.281,3.614,4.2,0.008676593217802231,-0.05578973016393903
2.3,3.61,4.209,0.01712289577700259,-0.05725716803463924
2.253,3.614,4.224,-0.0029949897421213123,-0.0765724553987488
2.253,3.614,4.224,-0.0029949897421213123,-0.0765724553987488
2.21,3.605,4.228,-0.016330443828533974,-0.09224532510510568
2.328,3.596,4.224,0.032502036595734696,-0.0626976177838563
2.248,3.629,4.252,-0.01150776335818704,-0.08958983085583354
2.309,3.586,4.247,0.027993965505707614,-0.08349712636685817
2.309,3.614,4.261,0.017149453740410187,-0.08356437526354295
2.314,3.591,4.209,0.029514253462012353,-0.0590980450896208
2.248,3.605,4.209,-0.0010302424453194718,-0.07181465037692625
2.271,3.6,4.2,0.009990342588666748,-0.062287004713402205
2.271,3.596,4.256,0.009345142446432855,-0.09543095404143682
2.342,3.586,4.214,0.04196074284481071,-0.056266102960648635
2.257,3.624,4.224,-0.005145014690593391,-0.0727253745375838
2.304,3.614,4.214,0.017000268313201294,-0.057965233682270134
2.234,3.619,4.228,-0.01228613769376008,-0.08223166989930071
2.257,3.643,4.238,-0.012683026949539064,-0.0753346964569983
2.243,3.6,4.252,-0.0027365752602664384,-0.09907958596200483
2.257,3.596,4.219,0.005365042396081145,-0.07781006049745472
2.337,3.6,4.209,0.03506518386395996,-0.050712414597816426
2.239,3.61,4.219,-0.006707582852844868,-0.07837999680278052
2.314,3.591,4.205,0.0296652102193689,-0.0568140140708893
2.337,3.619,4.205,0.028216067289691088,-0.04303970742023618
2.309,3.624,4.256,0.013652840091969367,-0.0778664489829447
2.29,3.596,4.195,0.018960674767079484,-0.05576386232939057
2.248,3.638,4.242,-0.014448341954518079,-0.08131391491481665
2.328,3.633,4.247,0.017999179334920113,-0.06534447777060019
2.239,3.619,4.247,-0.011086977683773916,-0.09183795044806882
2.239,3.61,4.252,-0.00795839794466204,-0.09725228409400848
2.239,3.605,4.2,-0.004145166076216983,-0.06894194170069105
2.271,3.591,4.228,0.012247309203658399,-0.08083565501968841
2.267,3.582,4.224,0.014176038087794107,-0.08211055746725097
2.29,3.577,4.224,0.024862640059707713,-0.0777119654116784
2.243,3.619,4.219,-0.008489934533967791,-0.07481833217834155
2.342,3.605,4.256,0.03337821264043576,-0.07487991468399617
2.314,3.61,4.233,0.021608694993529142,-0.06742125154139993
2.281,3.633,4.256,-0.0004467000948942627,-0.08240358705025379
2.253,0,4.242,2.323,3.596,4.224,0.030574601303681337,-0.06396625330818995
2.243,3.624,4.238,-0.01105353140754406,-0.08426212828180535
2.314,3.624,4.224,0.016789090204842205,-0.058306219147085524
2.314,3.596,4.2,0.02801233088366145,-0.05254214401751045
2.314,3.633,4.242,0.012790989312942619,-0.06603827113357959
2.29,3.614,4.252,0.010173245255083915,-0.08323030323838487
2.314,3.624,4.242,0.01610891607987931,-0.0685931311550219
2.356,3.647,4.247,0.023642710613452012,-0.054252777548646804
2.262,3.638,4.228,-0.008537951483833073,-0.0697749191230224
2.281,3.605,4.247,0.010215990040195208,-0.08520131302029554
2.281,3.591,4.209,0.016811305204380178,-0.06745141195927089
2.318,3.591,4.247,0.02962019394411569,-0.07979753472277118
2.285,3.6,4.233,0.014127085789688002,-0.07760230552202596
2.234,3.652,4.177,-0.022528979875668802,-0.04372918359251673
2.224,3.619,4.205,-0.015251901076397956,-0.07160436112530355
2.332,3.61,4.261,0.027489510696007958,-0.07886204040982159
2.257,3.6,4.252,0.0026412887477136513,-0.09554582782354366
2.285,3.605,4.252,0.011565742639726104,-0.08704902080823156
2.285,3.6,4.214,0.014845496447656675,-0.06674470204701122
2.206,3.605,4.247,-0.018584875174306553,-0.10412085603280023
2.253,3.596,4.233,0.003298282720517585,-0.08682257051447877
2.271,3.596,4.252,0.009496668791184196,-0.09314248712520778
2.323,3.614,4.252,0.022885426305724932,-0.07486517286678447
2.309,3.605,4.238,0.021335659994380196,-0.07296484936387644
2.304,3.619,4.2,0.01568609475911692,-0.048552233014299194
2.253,3.61,4.191,-0.0002719112733568692,-0.05885525182181909
2.239,3.624,4.256,-0.013272161070832298,-0.0955686522341979
2.29,3.661,4.238,-0.006630450790793681,-0.06187803954289128
2.239,3.596,4.205,-0.0010175019743699127,-0.0743499715046021
2.309,3.61,4.209,0.020588875840845084,-0.05497777298491402
2.314,3.624,4.256,0.01557952539270882,-0.07659844710683172
2.243,3.6,4.256,-0.002888278310007301,-0.10136854552271764
2.295,3.619,4.214,0.011692086060848187,-0.058825363928278786
2.318,3.629,4.214,0.01686503452818716,-0.05016085235065604
2.323,3.605,4.256,0.026050300918992863,-0.07970577328995328
2.332,3.591,4.214,0.03626301142680614,-0.05738805209362282
2.281,3.596,4.219,0.014591394714853526,-0.07174695411155667
2.295,3.629,4.252,0.006568551614679147,-0.07770710262816231
2.276,3.596,4.228,0.012327928717335485,-0.07815447996968235
2.253,3.591,4.2,0.006389473314185499,-0.06938166721195815
2.356,3.605,4.224,0.03998943644763981,-0.05303264820879287
2.337,3.596,4.233,0.03563289114360585,-0.06555488137494285
2.337,3.61,4.224,0.030815567812762817,-0.05644277189029678
2.239,3.633,4.247,-0.016250221653034812,-0.087864049195628
2.21,3.629,4.256,-0.02624416798838854,-0.10145542414479365
2.29,3.61,4.2,0.01361352808211333,-0.054648599270234764
2.229,3.624,4.238,-0.016428151794988032,-0.08779118277805527
2.318,3.629,4.238,0.015958534094216038,-0.06387292722161182
2.342,3.61,4.228,0.03259349030712163,-0.05745782842961441
2.229,3.572,4.261,0.0018638490758531672,-0.1156965905855385
2.285,3.614,4.209,0.00987537727821188,-0.059918055679552294
2.285,3.619,4.209,0.008032382291504103,-0.058499472817566366
2.318,3.619,4.256,0.018964122439612974,-0.0770027501051842
2.262,3.614,4.247,-0.0004075882458348205,-0.08745152738692326
2.29,3.619,4.252,0.008330270734104916,-0.08181154972505662
2.276,3.61,4.214,0.007698595096986523,-0.0661842218150384
2.3,3.614,4.247,0.014212473957569971,-0.0778381506486544
2.257,3.624,4.238,-0.005675197543165904,-0.0807292616238584
2.281,3.624,4.242,0.0034019765749849586,-0.07695122357312933
2.239,3.638,4.195,-0.01612473883986305,-0.056722146440878994
2.276,3.605,4.219,0.009352180886468248,-0.07045908065188837
2.318,3.633,4.224,0.015012755446323994,-0.05473729192842617
2.314,3.586,4.242,0.030109178629244827,-0.0793705580175919
2.314,3.619,4.242,0.017951867133205113,-0.0700121169127594
2.346,3.6,4.266,0.03638563380404176,-0.08100036496099772
2.3,3.624,4.27,0.009655962394978726,-0.08815763979858356
2.332,3.61,4.233,0.02854740172873571,-0.06285432559890265
2.267,3.572,4.247,0.01698790548094693,-0.09809471356253278
2.281,3.629,4.224,0.0022394955444883604,-0.06524254510478404
2.29,3.577,4.228,0.02471142490936733,-0.07999796365028122
2.257,3.596,4.228,0.005024362898787077,-0.08295428815691137
2.309,3.605,4.252,0.02080630137136356,-0.08096958790144888
2.239,3.591,4.209,0.0006734614864391623,-0.07805262943492892
2.229,3.6,4.252,-0.008110716320454986,-0.10260954402513185
2.346,3.624,4.252,0.028072182207796153,-0.06618509690079573
2.234,3.638,4.233,-0.0194835666132598,-0.0796972380158754
2.323,3.61,4.195,0.02651145511399905,-0.043437023393608255
2.314,3.624,4.205,0.017506471509901856,-0.047454741538224966
2.304,3.61,4.242,0.01741615655530047,-0.0751005360196944
2.351,3.624,4.228,0.030908086250966426,-0.05119828654666647
2.323,3.596,4.238,0.03004587118852195,-0.07196641509106198
2.257,3.629,4.247,-0.007860030785363023,-0.08445737071818331
2.253,3.614,4.252,-0.00405580615350858,-0.09258480281352673
2.276,3.6,4.219,0.011194593574433096,-0.07187693333768026
2.239,3.577,4.205,0.005982199962493588,-0.07973423231286862
2.3,3.6,4.219,0.020429695041282437,-0.06580506464104359
2.3,3.605,4.205,0.019116331989039975,-0.056391029587432584
2.351,3.596,4.252,0.04031744939945687,-0.07285676323352457
2.285,3.61,4.233,0.010442190105833268,-0.07476621193052795
2.271,3.586,4.214,0.014618652846472865,-0.07425209546011986
2.262,3.591,4.242,0.008257735425964549,-0.09111429689831811
2.304,3.61,4.247,0.017227062771889613,-0.07795940970988657
2.323,3.624,4.2,0.02116360377280338,-0.042318838237430066
2.3,3.614,4.261,0.013682702537539707,-0.08584578831688867
2.304,3.629,4.256,0.00988329851089532,-0.07771466734870998
2.323,3.596,4.2,0.03148024475278872,-0.05026070285249529
2.3,0,4.247,2.332,3.6,4.252,0.03151360657441551,-0.07655128502745896
2.239,3.619,4.219,-0.01002575384167915,-0.07582667507769784
2.337,3.619,4.195,0.028593054209450557,-0.037332212428826485
2.323,3.61,4.238,0.024888428081012964,-0.06799613450687969
2.314,3.614,4.224,0.02047471858308954,-0.061143775309901525
2.285,3.614,4.219,0.009497400784789093,-0.06563059404260856
2.239,3.6,4.186,-0.0017727082928503484,-0.06236497695438192
2.332,3.605,4.256,0.02952059983206451,-0.07742067696011319
2.328,3.6,4.247,0.030160084341103167,-0.07470811081558264
2.267,3.582,4.242,0.013494718870703498,-0.09240178586994023
2.281,3.614,4.242,0.0070883534126104375,-0.07978892234423925
2.196,3.6,4.209,-0.019131050201614746,-0.08631903701954347
2.342,3.619,4.242,0.02874885250703559,-0.06290432788382598
2.332,3.596,4.233,0.03370456990405716,-0.06682454875655985
2.314,3.624,4.233,0.016449069660555343,-0.0634488798736104
2.267,3.624,4.27,-0.0030438278729592225,-0.09651102002306626
2.248,3.624,4.242,-0.009284719018370755,-0.08528852161721572
2.239,3.605,4.205,-0.004334406137673201,-0.07179813605570155
2.262,3.629,4.205,-0.0043482678909939525,-0.059188114748529475
2.351,3.638,4.224,0.02589854007747307,-0.04493906501784976
2.318,3.629,4.214,0.01686503452818716,-0.05016085235065604
2.257,3.591,4.27,0.00527499735414184,-0.10839927653695562
2.234,3.624,4.252,-0.015040082687100128,-0.09454044659904955
2.356,3.629,4.205,0.03186274500545994,-0.035374970403543905
2.304,3.619,4.261,0.013380467667245072,-0.08341322469449042
2.248,3.624,4.247,-0.009474251116255605,-0.08814858089047688
2.328,3.657,4.242,0.009337185275512425,-0.055668958838620296
2.337,3.624,4.209,0.026222543124479653,-0.043904405278644774
2.234,3.61,4.228,-0.008967847921729222,-0.08478505561782068
2.281,3.638,4.242,-0.001760593642422185,-0.07297661687073027
2.3,3.633,4.224,0.008078015200980651,-0.0592987779969684
2.262,3.633,4.228,-0.006693753201513737,-0.07119461203578763
2.281,3.643,4.209,-0.0023565323537677783,-0.05269788933798003
2.248,3.624,4.233,-0.008943664599133353,-0.08014164895154334
2.239,3.605,4.224,-0.00505389819450978,-0.08265620459592893
2.257,3.624,4.256,-0.006357333886623674,-0.09102561758339027
2.323,3.619,4.242,0.02142077107098587,-0.06772906945075363
2.285,3.624,4.209,0.006189141906809729,-0.05708061589600022
2.285,3.619,4.256,0.006254422276082787,-0.08536534136817364
2.234,3.624,4.256,-0.015191858733135786,-0.09682949266889414
2.234,3.619,4.252,-0.013196224486833755,-0.09595947245902296
2.337,3.605,4.242,0.03197805848962252,-0.0681463564524657
2.328,3.61,4.219,0.027533502073973027,-0.0558713947536145
2.323,3.647,4.242,0.011097646353943466,-0.05977925095479627
2.253,3.605,4.252,-0.0007383227762090457,-0.09513787116431001
2.248,3.624,4.242,-0.009284719018370755,-0.08528852161721572
2.267,3.6,4.256,0.006333331630040379,-0.0953079267057428
2.285,3.624,4.233,0.005281682302599344,-0.07079384026273843
2.276,3.633,4.256,-0.0023704432291120903,-0.08366846826438985
2.346,3.624,4.224,0.02912916471555276,-0.0501842611725886
2.248,3.61,4.224,-0.0034410824266124054,-0.07896864005916264
2.351,3.614,4.247,0.03387589220272816,-0.06489315971748193
2.295,3.61,4.242,0.013950566304728212,-0.07738036000496414
2.3,3.629,4.261,0.008153350596857512,-0.08158860173062406
2.337,3.624,4.256,0.02444814383732503,-0.07075961769831414
2.342,3.61,4.228,0.03259349030712163,-0.05745782842961441
2.328,3.605,4.224,0.029186874453522266,-0.06014564492408166
2.257,3.633,4.242,-0.009145802555653337,-0.08046193337741041
2.243,3.638,4.214,-0.015308045222927743,-0.06656771205443941
2.337,3.614,4.256,0.02813334030063296,-0.07359742958510089
2.29,3.633,4.219,0.004416984603581485,-0.058973451441238445
2.21,3.661,4.228,-0.0369909414674263,-0.07634631620707148
2.337,3.6,4.233,0.03415965311083563,-0.06442075180878366
2.295,3.596,4.238,0.019260147435804415,-0.07906373795921477
2.309,3.638,4.205,0.010418531459414154,-0.04474744059242538
2.248,3.629,4.214,-0.010068009032197142,-0.06786211417151296
2.295,3.586,4.205,0.024190529275467148,-0.06304276325471729
2.309,3.596,4.219,0.025369078279482742,-0.06465936570369875
2.314,3.638,4.224,0.011627569840452656,-0.0543318073006667
2.314,3.619,4.247,0.017762839741283804,-0.0728707393395391
2.271,3.624,4.247,-0.0006339834811402156,-0.08233942892421849
2.21,3.605,4.233,-0.016520148387492068,-0.09510496852425658
2.253,3.661,4.256,-0.021544995501497067,-0.08152640110095173
2.281,3.6,4.219,0.013117687303710065,-0.07061287041302244
2.267,3.6,4.242,0.006863655617846308,-0.08729945683797054
2.304,3.633,4.228,0.009467386335070447,-0.060571218907226276
2.304,3.619,4.214,0.015157477157728296,-0.05654663144923996
2.328,3.638,4.228,0.01687344687343258,-0.053065963134101946
2.243,3.586,4.219,0.0036724629826364783,-0.0841761537230498
2.262,3.629,4.252,-0.006127643351743613,-0.0860547214882292
2.3,3.61,4.214,0.016934043758354517,-0.0601128784279813
2.337,3.591,4.205,0.03853053447053111,-0.05098013827782599
2.304,3.614,4.209,0.017189093844963643,-0.0551096252585509
2.248,3.591,4.242,0.002879054007406299,-0.09464877250255699
2.3,3.586,4.247,0.024527943077690424,-0.08577799550779149
2.309,3.633,4.205,0.01226218998306521,-0.046167047292462536
2.314,3.614,4.256,0.019265205761795457,-0.07943625899361846
2.262,3.619,4.242,-0.0020614528999742623,-0.08317303177071433
2.271,3.61,4.195,0.006494142483534564,-0.05659622104300125
2.304,3.61,4.256,0.016886591472283635,-0.08310661249832411
2.281,3.605,4.252,0.010026687203793211,-0.08806119793431107
2.309,3.605,4.252,0.02080630137136356,-0.08096958790144888
2.257,3.629,4.242,-0.007670564829968529,-0.08159753541652708
2.285,3.596,4.209,0.01650811820244234,-0.0650226766287018
2.314,3.629,4.238,0.014416919827758853,-0.06488735903660962
2.253,3.605,0,2.309,3.614,0,2.304,3.605,4.214,0.020316672865339103,-0.06051802589743305
2.253,3.624,4.242,-0.0073638067275765455,-0.08402664383918752
2.318,3.619,4.2,0.021079380646596185,-0.04500531774238085
2.262,3.61,4.209,0.0025053599781771074,-0.06686417603371668
2.234,3.619,4.219,-0.011945099793395614,-0.0770866633055423
2.239,3.61,4.247,-0.007768765737074089,-0.09439147362994955
2.342,3.61,4.256,0.03153622925583884,-0.07346163608128653
2.248,3.61,4.191,-0.0021922638771120404,-0.060115971742438136
2.314,3.638,4.252,0.010569230038557134,-0.07033610716683791
2.234,3.61,4.2,-0.007907323597770272,-0.06878343975340755
2.257,3.619,4.219,-0.003112178210885913,-0.07128667456999511
2.248,3.605,4.247,-0.002469536523183028,-0.09353935112846057
2.314,3.624,4.224,0.016789090204842205,-0.058306219147085524
2.276,3.629,4.205,0.0010345150631300704,-0.055652174594647254
2.257,3.605,4.261,0.00045745497921272543,-0.09927782579030615
2.314,3.596,4.209,0.027672708195663448,-0.05768072969516713
2.318,3.605,4.238,0.0248034194556619,-0.0706828013905404
2.332,3.586,4.242,0.03704721456106877,-0.07480294593619523
2.234,3.619,4.252,-0.013196224486833755,-0.09595947245902296
2.314,3.661,4.252,0.0020853669407543685,-0.06380161843001153
2.281,3.619,4.228,0.005775036013605951,-0.07036666634836101
2.346,3.6,4.242,0.03729214756924048,-0.06727739071894508
2.309,3.614,4.233,0.01820830358769443,-0.06755401602920041
2.229,3.586,4.242,-0.0025723515300316857,-0.10085665419072039
2.281,3.619,4.27,0.004184831153980893,-0.09438878278775494
2.29,3.61,4.228,0.012555423173672428,-0.07064317478576461
2.323,3.61,4.238,0.024888428081012964,-0.06799613450687969
2.295,3.614,4.233,0.012816806354931634,-0.0711005258563564
2.253,3.586,4.205,0.008042319640993964,-0.07365462027338628
2.253,3.614,4.233,-0.003335826035305347,-0.08171760275599675
2.304,3.643,4.214,0.006308678118360694,-0.04973353781755604
2.234,3.614,4.228,-0.010442544793722789,-0.08365032703669661
2.3,3.596,4.195,0.02280949171120014,-0.05323362106379655
2.253,3.643,4.214,-0.013311340217331352,-0.06262580429901239
2.253,3.6,4.242,0.0014833648553215413,-0.09083528360701187
2.342,3.605,4.224,0.0345863798011711,-0.05659097352060264
2.337,3.624,4.238,0.025128128798270716,-0.060469522128266284
2.271,3.6,4.233,0.00874225737697984,-0.08114241317217057
2.243,3.614,4.214,-0.006457121964838146,-0.07337949592334414
2.309,3.629,4.238,0.012490313431583447,-0.06615497519494788
2.309,3.6,4.205,0.024424202661274142,-0.055529586339690594
2.253,3.61,4.224,-0.0015204724623405867,-0.0777071712354253
2.224,3.596,4.261,-0.008896525908398003,-0.1101549291895388
2.271,3.61,4.242,0.004716336514798747,-0.08345236039589699
2.262,3.605,4.247,0.0029097023211356043,-0.09000455867470951
2.314,3.633,4.205,0.014188596718530353,-0.04490013716562572
2.304,3.605,4.214,0.020316672865339103,-0.06051802589743305
2.295,3.591,4.242,0.020950634451191136,-0.0827681384345762
2.234,3.596,4.224,-0.0036560816977123656,-0.08646828077815945
2.318,3.605,4.224,0.025332272666748413,-0.06268244584544376
2.318,3.582,4.205,0.03452038168011131,-0.05835058436659816
2.243,3.629,4.205,-0.011647573138246112,-0.06398079653818656
2.262,3.61,4.238,0.0014077733952445326,-0.0834390318798172
2.253,3.619,4.205,-0.0041192403067078125,-0.06429716735416247
2.257,3.61,4.256,-0.0011958900985521899,-0.09499824902590574
2.304,3.629,4.266,0.00950481156251943,-0.08343547472223027
2.295,3.605,4.214,0.016851555282419217,-0.06279675837647188
2.323,3.614,4.233,0.02360340251480077,-0.06400380406034878
2.323,3.614,4.191,0.02518839867519203,-0.04001970831213486
2.281,3.605,4.233,0.010745820988991869,-0.07719623835261498
2.314,3.577,4.195,0.03519745695184707,-0.05507217829922154
2.328,3.605,4.214,0.029564283964877574,-0.05443389441518098
2.243,3.624,4.191,-0.009273892880647496,-0.057404285074882856
2.332,3.61,4.209,0.02945314415088235,-0.04914567909949493
2.3,3.619,4.205,0.013957035087695885,-0.05241973342492982
2.3,3.638,4.247,0.005364512229199499,-0.07102575007597911
2.314,3.61,4.219,0.022137526692043264,-0.05942209202957601
2.328,3.619,4.167,0.026177497973719127,-0.023644447555697685
2.243,3.6,4.2,-0.0007668240443856056,-0.06935172412130464
2.29,3.605,4.228,0.014397935298012374,-0.07206133866076632
2.309,3.596,4.256,0.023970569416971076,-0.08580957057758694
2.318,3.652,4.219,0.008194710820440246,-0.04648491999932395
2.29,3.6,4.252,0.015332265595509839,-0.08720135976296946
2.346,3.633,4.242,0.025132500235556753,-0.057913890929678434
2.342,3.6,4.247,0.03555990798473979,-0.07115209176069408
2.271,3.643,4.214,-0.006392158995323379,-0.05808131267977745
2.271,3.629,4.195,-0.0005103502545037442,-0.051205184473461784
2.22,3.643,4.233,-0.02670108106578123,-0.08180352021282611
2.276,3.582,4.2,0.01854339692287833,-0.0661255493851441
2.295,3.596,4.186,0.021224515723787973,-0.04936217561149625
2.318,3.614,4.242,0.021336083314470945,-0.070416329868354
2.323,3.652,4.195,0.011027897333838854,-0.03151471253501955
2.323,3.605,4.233,0.026919470405827078,-0.06655673274126521
2.295,3.614,4.261,0.011757373807317765,-0.0871125807124656
2.304,3.605,4.2,0.02084525948365325,-0.05252347506805255
2.243,3.582,4.261,0.003554166132004405,-0.10933280489587667
2.267,3.614,4.219,0.002574545196545819,-0.0701803533870633
2.309,3.629,4.205,0.01373694153100588,-0.04730253629576205
2.253,3.619,4.233,-0.005179201502003304,-0.0802989257738373
2.304,3.619,4.233,0.014439547766266195,-0.06740237592560172
2.243,3.591,4.256,0.00042817190845156894,-0.10392026319360907
2.314,3.633,4.205,0.014188596718530353,-0.04490013716562572
2.295,3.629,4.242,0.006946945095750973,-0.07198862956690928
2.22,3.619,4.181,-0.01587743202725291,-0.05890392027440076
2.276,3.633,4.219,-0.0009698796915044439,-0.06251403606061501
2.314,3.633,4.186,0.014905401650680947,-0.03405595923321699
2.262,3.624,4.247,-0.004094401243525993,-0.0846137884367258
2.328,3.638,4.238,0.01649575437641232,-0.058780212822036014
2.281,3.605,4.238,0.010556632453782189,-0.08005475234868557
2.276,3.605,4.2,0.010070425686653737,-0.05960606724476292
2.318,3.605,4.219,0.025521070742048197,-0.05982611194897928
