2.353,3.622,4.212,0.033020544551626514,-0.04212017626576692
2.283,3.627,4.212,0.0042001570189830195,-0.058448468665109964
2.316,3.603,4.207,0.025940183360991288,-0.054047073851709704
2.274,3.631,4.226,-0.0012663979490094939,-0.06758751530355807
2.321,3.622,4.221,0.020337341984477092,-0.055385000933953786
2.274,3.58,4.221,0.017717106806321197,-0.07919397046551784
2.302,3.599,4.207,0.02202138348039941,-0.058728054057225476
2.274,3.627,4.193,0.0014562884325202048,-0.04987328761872908
2.292,3.622,4.198,0.010035818796431497,-0.04959637298420446
2.274,3.613,4.249,0.004499226960319532,-0.08584636094203668
2.269,3.608,4.24,0.004760165849267149,-0.08338146148959773
2.302,3.599,4.212,0.02183257177781116,-0.06158356639477628
2.288,3.627,4.198,0.006653072489435641,-0.049189158452062176
2.26,3.641,4.226,-0.010337658799749858,-0.06828480189881699
2.255,3.594,4.216,0.005447119533404164,-0.07716737354251742
2.283,3.575,4.216,0.02320840455735255,-0.07547813737424076
2.325,3.613,4.235,0.024667368061205296,-0.06492298636730394
2.302,3.58,4.184,0.029886905545134308,-0.05098368949227069
2.306,3.599,4.24,0.022314951395400823,-0.07657001073048668
2.264,3.641,4.198,-0.007740753745418706,-0.051278673449088506
2.297,3.58,4.207,0.027094236519245463,-0.06537878962276555
2.283,3.622,4.212,0.006043568885571189,-0.05986750118676406
2.236,3.613,4.207,-0.008510715078243886,-0.07142757874426246
2.321,3.613,0,2.292,3.58,0,2.306,3.627,4.226,0.012525486901640412,-0.06062495815222332
2.274,3.608,4.235,0.006872114561075208,-0.0792587517183357
2.316,3.636,4.235,0.012720218972998817,-0.06067814693260424
2.292,3.603,4.212,0.01650933959351329,-0.06298073444131218
2.349,3.599,4.226,0.03942196369904568,-0.057656102323636126
2.297,3.608,4.202,0.016969251510846977,-0.05458662951807355
2.283,3.599,4.216,0.014368905132340274,-0.06867661659155078
2.33,3.641,4.212,0.017142474233988292,-0.042567861539571004
2.288,3.636,4.202,0.0031833418193115506,-0.04891808997268902
2.278,3.622,4.254,0.002530780342755834,-0.08514101523246372
2.33,3.589,4.212,0.0363038201962503,-0.05732036384946204
2.278,3.589,4.226,0.015751433700600687,-0.07848998203987705
2.311,3.589,4.216,0.028830900542073896,-0.06442306812059184
2.316,3.589,4.235,0.030039539781594366,-0.07401171093962611
2.297,3.613,4.221,0.014408957584240517,-0.06402030298658497
2.283,3.627,4.226,0.003670802919538437,-0.0664473891504086
2.316,3.575,4.207,0.03625145356078982,-0.061982594544245484
2.288,0,4.23,2.269,3.599,4.202,0.009514351604266983,-0.06421781170583955
2.278,3.627,4.193,0.0029946595663756237,-0.048862689903391154
2.302,3.622,4.212,0.013356999237880168,-0.0550595492099392
2.274,3.617,4.23,0.0037440467017387236,-0.07384718689707977
2.283,3.613,4.212,0.009361092330490947,-0.06242106983762915
2.306,3.631,4.23,0.010899606009367716,-0.06177519602618875
2.344,3.65,4.188,0.020129131774186227,-0.022760310821426488
2.339,3.608,4.23,0.03209744738476208,-0.05992984820449121
2.306,3.603,4.212,0.02189928991884832,-0.059436294668220535
2.283,3.622,4.202,0.006421471617367234,-0.05415632534910497
2.325,3.608,4.212,0.027377981117480927,-0.05320204066581854
2.321,3.622,4.202,0.02105442844235043,-0.044535188434358476
2.278,3.636,4.221,-0.001382570933256703,-0.062299478858005464
2.316,3.617,4.23,0.01991317000746574,-0.06321380971784234
2.292,3.599,4.212,0.01798306448259651,-0.06411492797659624
2.339,3.608,4.212,0.032776567598028834,-0.049648859621961784
2.278,3.613,4.188,0.00834455376655735,-0.04998100143761771
2.302,3.575,4.226,0.030142226634704377,-0.07638335676613499
2.325,3.599,4.235,0.0298251592361731,-0.0688936936833386
2.311,3.636,4.198,0.012190735076358159,-0.04081247399603253
2.311,3.641,4.202,0.010195998621633858,-0.04167610119619677
2.306,3.608,4.235,0.01918809971452574,-0.07115946990385465
2.302,3.617,4.216,0.015048866826984697,-0.05876301819374374
2.306,3.617,4.184,0.0177971569108409,-0.0394816517886443
2.311,3.627,4.24,0.013922615611036582,-0.06735896155442507
2.302,3.641,4.207,0.0065403743620262396,-0.04681042319005946
2.278,3.631,4.24,-0.0002575829684824671,-0.07457938023679023
2.283,3.622,4.249,0.00464388920553017,-0.08101602137074015
2.297,3.594,4.226,0.021220479578113304,-0.07226540911060415
2.269,3.613,4.202,0.004354930535149719,-0.06024747337670008
2.269,3.608,4.216,0.005668425529624053,-0.06966292070715456
2.288,3.617,4.212,0.009810618137518212,-0.0600216792847991
2.321,3.641,4.221,0.013332622020979484,-0.049991096834087125
2.288,3.594,4.216,0.01813459931274781,-0.06882945767487085
2.283,3.575,4.221,0.023019396288640737,-0.0783350553818063
2.321,3.641,4.23,0.012992714340042547,-0.05513284116278139
2.302,3.617,4.226,0.014671023979107837,-0.0644761774216781
2.283,3.575,4.23,0.022679077776703322,-0.08347875404952683
2.292,3.613,4.249,0.011425211482203906,-0.0812918038638611
2.302,3.631,4.226,0.009510093361644175,-0.06050281232807816
2.288,3.603,4.235,0.014100459723485207,-0.0771357988600165
2.306,3.636,4.24,0.00867794894680704,-0.06607119848774919
2.316,3.641,4.221,0.0114053723308243,-0.05125901012917263
2.297,3.603,4.216,0.018282793298676343,-0.06400013293319777
2.274,3.584,4.221,0.016243972972667314,-0.07806058846008242
2.288,3.599,4.254,0.01485525936861301,-0.08913528018362686
2.33,3.617,4.226,0.025461107314241237,-0.057376594840060524
2.264,3.65,4.249,-0.01299149932241663,-0.07786928167591567
2.311,3.603,4.24,0.02276739636873078,-0.07416834976594851
2.325,3.599,4.221,0.030353786839492414,-0.06089451182822314
2.264,3.617,4.23,-0.00010091038503843668,-0.07637397374783332
2.321,3.603,4.226,0.027149740934322774,-0.06363143472633577
0,3.57,4.207,2.297,3.622,4.221,0.011091698527141916,-0.061466671296614095
2.274,3.613,4.216,0.005748102292059677,-0.06698131735633754
2.25,3.631,4.249,-0.011363292743695843,-0.08680090860787364
2.278,3.603,4.198,0.011652114273695105,-0.05852582166192429
2.33,3.627,4.198,0.022831958771352606,-0.0385503940981462
2.306,3.599,4.216,0.023221837999889212,-0.06285518630479973
2.269,3.594,4.212,0.010978460294451237,-0.07134728014840752
2.316,3.622,4.216,0.01859909615783087,-0.053796901084502156
2.344,3.617,4.207,0.03157810896901872,-0.04297134752822659
2.306,3.613,4.226,0.017685748322038092,-0.0645977115723995
2.297,3.613,4.207,0.014937870448518789,-0.05602347195492041
2.316,3.599,4.198,0.02775326916349115,-0.050043122317767676
2.311,3.613,4.23,0.01946069176200238,-0.06561630968720585
2.255,3.594,4.24,0.004538396863163818,-0.09088769808103629
2.302,3.608,4.221,0.01817668532942443,-0.06417248946670095
2.306,3.603,4.23,0.021219320317606316,-0.06971986979811147
2.274,3.617,4.226,0.0038953986448027242,-0.07156088039715802
2.274,3.627,4.212,0.0007381422794728957,-0.06072350339871224
2.325,3.613,4.207,0.0257243642868957,-0.04892880929683774
2.236,3.622,4.249,-0.013420905550227782,-0.0928872916367686
2.25,3.617,4.24,-0.005859558404546948,-0.08562645263489155
2.292,3.617,4.23,0.010669673289001202,-0.06929413613184969
2.297,3.622,4.235,0.01056244152628305,-0.06946727418107816
2.325,3.622,4.216,0.022068044654553354,-0.051514508894219525
2.302,3.599,4.254,0.02024492856308673,-0.08558935020998926
2.306,3.631,4.235,0.010710608318198192,-0.06463276729549645
2.306,3.659,4.226,0.0007234395559636841,-0.05153637342061124
2.302,3.589,4.216,0.025364900580018796,-0.06670307628421845
2.288,3.599,4.254,0.01485525936861301,-0.08913528018362686
2.292,3.622,4.259,0.007729272073968174,-0.08445799599189285
2.335,3.589,4.226,0.037703540755720764,-0.06404754480690293
2.325,3.584,4.221,0.03587780703632034,-0.06514627260880856
2.311,3.613,4.216,0.019989522764483476,-0.057617832260608494
2.269,3.617,4.245,0.0012534151480071605,-0.08368760413834782
2.26,3.627,4.235,-0.005514835902901148,-0.07740481715554541
2.26,3.603,4.212,0.004203176816535527,-0.07106819508315927
2.321,3.636,4.23,0.014836409047891611,-0.05655270450790454
2.297,3.617,4.23,0.012594525956612201,-0.06802830229030554
2.283,3.589,4.207,0.01839285945794598,-0.0663702620191446
2.316,3.603,4.235,0.02488286527823171,-0.07004254311596791
0,3.631,4.23,2.297,3.617,4.245,0.012027242800746777,-0.07660323575759313
2.306,3.594,4.202,0.02559218975901269,-0.05627758616389004
2.269,3.599,4.202,0.009514351604266983,-0.06421781170583955
2.288,3.641,4.245,-0.0002866496632624449,-0.07206883781809441
2.288,3.65,4.24,-0.0034173478632244423,-0.06665343030308361
2.302,3.58,4.24,0.027772166012451648,-0.08296901690105578
2.274,3.636,4.23,-0.003261724919258968,-0.06845418626758053
2.325,3.603,4.24,0.028162824937932446,-0.07061719377577746
2.311,3.613,4.245,0.018893729787717722,-0.07419038522790944
2.302,3.58,4.226,0.028301335822316087,-0.07496685797492848
2.292,3.645,4.23,0.0003452718869212575,-0.061345186381347304
2.283,3.608,4.249,0.009804220745006911,-0.08498826747420925
2.288,3.613,4.216,0.011133758641346608,-0.06344145503105092
2.306,3.613,4.216,0.018063525519531998,-0.05888469329494839
2.274,3.627,4.221,0.000397757527750342,-0.06586558002857874
2.274,3.627,4.235,-0.00013199645110495428,-0.0738675423450977
2.297,3.594,4.193,0.022466853798063013,-0.0534181933151943
2.283,3.594,4.207,0.01655107996953688,-0.06495306548614939
2.283,3.594,4.212,0.016362130134312796,-0.0678090118143666
2.353,3.584,4.216,0.04686602282728041,-0.055179800713374104
2.311,3.627,4.212,0.014980477902136765,-0.05136066325438027
2.306,3.57,4.207,0.03424052214734233,-0.0659325450102745
2.255,3.655,4.207,-0.016705752525645056,-0.0547132636815472
2.283,3.599,4.226,0.01399080684510079,-0.07439074774836374
2.321,3.636,4.216,0.01536508571647957,-0.048555072664585176
2.288,3.594,4.207,0.018474671026719503,-0.06368859434979131
2.297,3.599,4.24,0.018849269740750407,-0.07885009748005097
2.297,3.641,4.221,0.0040859956782753615,-0.05607276719674744
2.302,3.65,4.207,0.0032207762416959773,-0.04425413909996164
2.306,3.58,4.221,0.030030459200699272,-0.07109664727201881
2.306,3.627,4.216,0.012903286265532258,-0.05491204890319649
2.316,3.603,4.216,0.0256004722208463,-0.05918678430082891
2.269,3.594,4.221,0.010638054419724605,-0.07648979145778238
2.316,3.617,4.226,0.020064270768972648,-0.06092823414065037
2.292,3.613,4.226,0.012295202477499304,-0.06814300026119365
2.311,3.584,4.23,0.030143371977443285,-0.07383883283431159
2.325,3.627,4.212,0.02037604649327379,-0.047811174445213954
2.316,3.636,4.226,0.013060259703086061,-0.055535292443150995
2.339,3.631,4.235,0.0234328202556858,-0.05626010885520172
2.288,3.631,4.202,0.005027130213334692,-0.05033757653838614
2.264,3.613,4.207,0.0022438782011273972,-0.06436579593688467
2.278,3.603,4.259,0.00934446631064654,-0.09339212143906299
2.283,3.622,4.254,0.004454571115064236,-0.08387598772528577
2.25,3.584,4.254,0.005771156519143598,-0.10299330068220776
2.325,3.599,4.216,0.030542504302738516,-0.05803859848219247
2.321,3.599,4.249,0.027754275294945268,-0.07791186928566525
2.278,3.636,4.249,-0.0024422702666493934,-0.07830655863473242
2.297,3.608,4.235,0.01572230994731934,-0.07343936201292152
2.297,3.613,4.202,0.015126688926171417,-0.05316840346632482
0,3.603,4.221,2.353,3.584,4.198,0.047544297972511564,-0.04490449658730814
2.321,3.575,4.221,0.037649572878804334,-0.0687108018701748
2.306,3.584,4.212,0.02889749403761427,-0.06482213825875667
2.306,3.617,4.193,0.017457639385731954,-0.044617524491858185
2.255,3.608,4.198,0.0009688720056628686,-0.06291509529350055
2.321,3.622,4.216,0.020526107025951434,-0.05252909400952507
2.325,3.641,4.193,0.015931216743095795,-0.032990603530842155
2.288,3.627,4.221,0.00578395629642688,-0.0623254091353184
2.25,3.631,4.24,-0.011022153028010231,-0.08165293381334886
2.302,3.636,4.226,0.007666440296421347,-0.05908323572417873
2.335,3.575,4.212,0.0433858544073763,-0.06001805464734259
2.325,3.659,4.221,0.008235624980972411,-0.04386279863940068
2.302,3.608,4.24,0.017458514344278354,-0.07503118419721795
2.311,3.636,4.193,0.012379392241088777,-0.037958689309437944
2.283,3.65,4.226,-0.004812080234851357,-0.059916089357293166
2.292,3.603,4.23,0.015828994866158463,-0.07326540116489166
2.292,3.641,4.202,0.0028789023664825275,-0.04648649591174233
2.339,3.622,4.221,0.027278485181362166,-0.0508166219826773
2.306,3.589,4.216,0.026905160075294032,-0.06568992915493173
2.325,3.575,4.24,0.038473722065574444,-0.07855348250474577
2.292,3.589,4.226,0.02113760429493894,-0.07494843034875005
2.278,3.589,4.212,0.016280807793114287,-0.07049032933343306
2.316,3.594,4.216,0.02891567162462012,-0.06173850030644368
2.306,3.655,4.216,0.0025770787478890944,-0.046960351893462225
2.288,3.608,4.207,0.013316523073482698,-0.05971897326496186
2.321,3.617,4.23,0.021840230037144286,-0.06194570513740379
2.274,3.594,4.212,0.012900777202776575,-0.07008404654796889
2.321,3.627,4.245,0.017587671281782336,-0.06768104300406315
2.292,3.627,4.221,0.007323539041018318,-0.06131324225724022
2.33,3.603,4.198,0.03167561421646439,-0.04535899131033183
2.288,3.636,4.24,0.0017466330997842245,-0.07062983597500978
2.321,3.627,4.226,0.018305525283679947,-0.056822314870206315
2.288,3.599,4.221,0.01610362825509082,-0.07026865678623666
2.292,3.608,4.212,0.01466696106459229,-0.06156274449070964
2.292,3.584,4.226,0.02297905222985852,-0.07636542825573318
2.269,3.645,4.212,-0.007823414898220018,-0.05687596237809452
2.325,3.608,4.188,0.028283122858266906,-0.03950264693035125
2.321,3.622,4.235,0.01980858049156245,-0.06338416192107703
2.297,3.641,4.221,0.0040859956782753615,-0.05607276719674744
2.316,3.603,4.249,0.024353723950354816,-0.078046063363166
2.316,3.636,4.207,0.013777683507211175,-0.044683398009612595
2.283,3.594,4.24,0.015303248221363317,-0.08381145213866692
2.311,3.617,4.235,0.017797618068861026,-0.0673389620607157
2.245,3.603,4.23,-0.002240340157213666,-0.08514081016921045
2.288,3.589,4.226,0.019598325118654874,-0.07596068464050428
2.306,3.622,4.221,0.014557574141009916,-0.05918732387645298
2.306,3.627,4.207,0.013243163861571677,-0.0497721212932359
2.288,3.636,4.188,0.0037120483462121934,-0.040926241416271436
2.311,3.617,4.226,0.018137697834634075,-0.06219578226218381
2.311,3.631,4.221,0.0131659257504844,-0.055365838495491516
2.325,3.599,4.202,0.031070693178151493,-0.05004467783736651
2.274,3.636,4.259,-0.004359899718453806,-0.08503885506036075
2.339,3.631,4.249,0.02290408157510143,-0.0642619555818047
2.278,3.613,4.202,0.007815684658866026,-0.057973705101263616
2.292,3.594,4.249,0.018425989629314993,-0.08668031851047082
2.335,3.636,4.207,0.02110306460675579,-0.039863947955203795
2.339,3.594,4.207,0.03812174682636927,-0.05076378811448331
2.302,3.631,4.24,0.00898080538925978,-0.06850439005587901
2.306,3.636,4.221,0.009396092199041056,-0.05521324919298846
2.292,3.641,4.216,0.002349940981256793,-0.05448194687661112
2.302,3.627,4.212,0.011513796076244726,-0.0536405166882851
2.321,3.622,4.23,0.01999746090001551,-0.06052687608100715
2.33,3.608,4.24,0.028248636261643877,-0.06792993036495783
2.288,3.603,4.202,0.015347819336446486,-0.058281639913314066
2.325,3.594,4.263,0.030608569013360298,-0.08632128978291354
2.269,3.636,4.212,-0.004503585611114812,-0.05943179059390432
2.302,3.589,4.216,0.025364900580018796,-0.06670307628421845
2.292,3.636,4.235,0.003475556504448298,-0.06675899097874038
2.306,3.608,4.216,0.01990600183377898,-0.06030297408236126
2.297,3.599,4.193,0.020624990414923754,-0.052000775681549594
2.306,3.669,4.216,-0.0025888641474337004,-0.04298132203138768
2.283,3.617,4.254,0.00629777172368325,-0.08529491281956252
2.292,3.631,4.254,0.004600364723852973,-0.07904299017426464
2.306,3.641,4.226,0.007363312196191786,-0.05665006795859399
2.302,3.599,4.249,0.020434084828396926,-0.08272970393765496
2.306,3.603,4.226,0.021370470823956923,-0.06743407800835277
2.321,3.622,4.24,0.019619659093748725,-0.06624193826048741
2.255,3.57,4.23,0.013757011000891209,-0.09196998815124328
2.288,3.599,4.198,0.016972642524697008,-0.05713190477894762
2.349,3.594,4.226,0.041263308611470616,-0.05907365278445601
2.302,3.608,4.226,0.01798775050108059,-0.0670293516074723
2.349,3.603,4.245,0.037231695554489276,-0.0673787304346574
2.283,3.636,4.235,1.154359211823682e-05,-0.06903648831719804
2.33,3.622,4.212,0.024146806954745654,-0.04796163635938951
2.297,3.631,4.207,0.008302598600694886,-0.05091551687231018
2.283,3.636,4.198,0.001410446863113729,-0.04789857966848928
2.269,3.584,4.23,0.013981174723690445,-0.08446821052131619
2.274,3.584,4.207,0.016773304797813332,-0.07006201721729872
2.274,3.599,4.202,0.011436648123606619,-0.0629548004303081
2.316,3.622,4.245,0.017503474068605095,-0.07036862770351075
2.292,3.645,4.202,0.0014035374523929112,-0.045350492721286995
2.344,3.599,4.212,0.0380206111094967,-0.050931159580160666
2.292,3.575,4.207,0.027010940951293434,-0.06806054189183978
2.306,3.659,4.207,0.0014412077331094342,-0.040683985225823394
2.288,3.641,4.202,0.001339310000736819,-0.04749833084908602
2.306,3.622,4.226,0.014368657711101249,-0.062044044546153754
2.297,3.613,4.226,0.014219981505643658,-0.06687725347200531
2.288,3.65,4.24,-0.0034173478632244423,-0.06665343030308361
2.302,3.594,4.216,0.023523320611794924,-0.06528584306805503
2.321,3.575,4.216,0.037838299176694005,-0.06585470438018799
2.33,3.599,4.202,0.03299818344031616,-0.048776317619141106
2.255,3.627,4.202,-0.00618723667119811,-0.05980883049645991
2.306,3.631,4.207,0.011768463219358751,-0.04863671367589658
2.245,3.599,4.235,-0.0009556167321584837,-0.08913411379522536
2.311,3.636,4.23,0.01098234131862763,-0.05908844265788556
2.278,3.641,4.221,-0.0032267285696175874,-0.060879649441603324
2.335,3.608,4.226,0.03070551135452308,-0.058660435204691885
2.302,3.622,4.245,0.01210968440562892,-0.07391771299733078
2.288,3.627,4.226,0.005594901674712531,-0.06518250113277169
2.302,3.613,4.249,0.015275575344785223,-0.07875883552518974
2.25,3.599,4.249,0.0004341370537945903,-0.09588032367585086
2.288,3.575,4.216,0.025131854997876058,-0.07421346882359225
2.302,3.641,4.235,0.0054823106675770394,-0.06280674863446627
2.255,3.575,4.216,0.01244577593790431,-0.08255138469123884
2.306,3.613,4.207,0.018403383409600637,-0.05374466875850681
2.292,3.589,4.212,0.02166668262872549,-0.06694963828183169
2.292,3.627,4.221,0.007323539041018318,-0.06131324225724022
2.33,3.617,4.24,0.024932424921237862,-0.06537665504516159
2.302,3.627,4.193,0.01223114256675418,-0.042792627876618604
2.306,3.603,4.226,0.021370470823956923,-0.06743407800835277
2.316,3.631,4.216,0.015281420277488347,-0.05124241847573363
2.278,3.631,4.24,-0.0002575829684824671,-0.07457938023679023
2.344,3.575,4.221,0.046517613461068814,-0.06287235251762384
2.283,3.599,4.249,0.013120557459065013,-0.08754072222028726
2.316,3.622,4.235,0.01788143084945265,-0.0646523728197433
2.297,3.589,4.212,0.023591095594328277,-0.0656841960160535
2.325,3.594,4.221,0.032195374796140284,-0.0623120418134823
2.292,3.603,4.221,0.016169234095005713,-0.06812226740116627
2.306,3.631,4.216,0.011428580097843699,-0.053776614108058264
2.316,3.599,4.254,0.025638213964354006,-0.08203972351232518
2.302,3.599,4.212,0.02183257177781116,-0.06158356639477628
2.278,3.613,4.24,0.006378538454886534,-0.07968779748318629
2.316,3.636,4.226,0.013060259703086061,-0.055535292443150995
2.278,3.622,4.249,0.002720136386821318,-0.08228093843530075
2.302,3.613,4.245,0.015426880539900498,-0.07647151633159895
2.316,3.613,4.212,0.022066985373453585,-0.05406601519902576
2.311,3.627,4.216,0.01482943404408473,-0.0536451878688566
2.335,3.617,4.207,0.028106258572420228,-0.04525661387227017
2.255,3.622,4.221,-0.005062488344515133,-0.07208312618456632
2.311,3.603,4.216,0.023674121852911918,-0.06045411889881366
2.278,3.613,4.226,0.006908291022531173,-0.07168455195232064
2.288,3.617,4.23,0.009130124564267816,-0.0703064603722287
2.288,3.589,4.216,0.019976331302657736,-0.07024669089103426
2.302,3.594,4.254,0.022086788673169534,-0.0870070176059448
2.288,3.617,4.226,0.00928139163260198,-0.06802040085249905
2.321,3.622,4.221,0.020337341984477092,-0.055385000933953786
2.288,3.631,4.249,0.003249835892257228,-0.07719591391252685
2.283,3.613,4.212,0.009361092330490947,-0.06242106983762915
2.288,3.622,4.193,0.008685235681278677,-0.04775380457789269
2.306,3.636,4.216,0.009584978133495662,-0.052357075371886906
2.316,3.603,4.235,0.02488286527823171,-0.07004254311596791
2.302,3.631,4.23,0.00935890114289653,-0.06278858457368046
2.297,3.594,4.216,0.021598359315792365,-0.06655184893881254
2.302,3.58,4.259,0.027053496926505115,-0.09383523777816398
2.288,3.599,4.207,0.01663269815488595,-0.06227112103329865
2.316,3.608,4.23,0.0232296321014199,-0.06576701262132068
2.288,3.617,4.216,0.009659443702815712,-0.06230663280055956
2.292,3.627,4.245,0.006415845514459497,-0.07503134640737397
2.325,3.617,4.23,0.023382206876488437,-0.06093088306950811
2.339,3.641,4.212,0.020614022735317993,-0.04028325110319279
2.306,3.617,4.212,0.016740434582108,-0.055465229915070045
2.306,3.589,4.235,0.026187317975834633,-0.07654672019189408
2.297,3.608,4.235,0.01572230994731934,-0.07343936201292152
2.33,3.631,4.254,0.019243264627906338,-0.06940687791290845
2.33,3.608,4.235,0.02843748089315472,-0.06507228793515245
2.325,3.636,4.193,0.017774841193774926,-0.034410329996537224
2.335,3.608,4.221,0.03089420517743059,-0.05580427437477098
2.297,3.627,4.207,0.009777377525861858,-0.05205092448964951
2.278,3.608,4.24,0.0082213410118874,-0.08110617437812917
2.311,3.641,4.221,0.009478579073350998,-0.05252645147154459
2.306,3.622,4.245,0.01365040025100924,-0.07290406556229849
2.33,3.613,4.235,0.026595243484300285,-0.06365393129739365
2.33,3.641,4.249,0.015745255847563505,-0.06370835801811918
2.302,3.603,4.235,0.019489852785554984,-0.07359102718622516
2.316,3.613,4.221,0.021727185234196162,-0.059206545919010166
2.302,3.589,4.226,0.024987103618352807,-0.07241646120968333
2.288,3.608,4.226,0.012598393270618014,-0.07057357503829324
2.302,3.613,4.235,0.015805029264485775,-0.07075458808408512
2.283,3.636,4.221,0.000541125798762245,-0.06103517976212077
2.321,3.617,4.235,0.021651353649037947,-0.06480301075209234
2.255,3.603,4.24,0.0012219522435828651,-0.08833580490693733
2.353,3.627,4.226,0.03064995514024126,-0.0486958975694192
2.26,3.622,4.226,-0.0033303668039152134,-0.07367877848637676
2.311,3.603,4.202,0.024202605941826143,-0.05245941026042481
2.325,3.603,4.23,0.02854053745204625,-0.06490214810255009
2.339,3.631,4.226,0.02377255414620084,-0.05111809232842768
2.283,3.603,4.235,0.012176558394691164,-0.07840088450056171
2.325,3.636,4.226,0.016529606861366352,-0.05325251854823584
2.297,3.641,4.207,0.004614969164637245,-0.048076234342995315
2.278,3.617,4.212,0.005963319133355978,-0.06255036073976306
2.311,3.603,0,2.297,3.641,4.23,0.003745769505921407,-0.061215438315683136
2.311,3.627,4.198,0.015508921569466714,-0.043367326605329125
2.283,3.622,4.24,0.004984558986433398,-0.07586931199369733
2.274,3.589,4.212,0.01474266063271846,-0.07150126341043887
2.335,3.594,4.221,0.036050982350998025,-0.05977405270549815
2.316,3.613,4.216,0.02191597963967006,-0.056350497662623754
2.316,3.594,4.212,0.029066665024274258,-0.05945395717576322
2.288,3.645,4.221,-0.0008541710267789085,-0.05721451318963925
2.335,3.608,4.235,0.030365759012816417,-0.06380276538010143
