0/version,0/alive,0/tagId,0/success,0/timestamp,0/data/tagData/gyro/x,0/data/tagData/gyro/y,0/data/tagData/gyro/z,0/data/tagData/magnetic/x,0/data/tagData/magnetic/y,0/data/tagData/magnetic/z,0/data/tagData/quaternion/x,0/data/tagData/quaternion/y,0/data/tagData/quaternion/z,0/data/tagData/quaternion/w,0/data/tagData/linearAcceleration/x,0/data/tagData/linearAcceleration/y,0/data/tagData/linearAcceleration/z,0/data/tagData/pressure,0/data/tagData/maxLinearAcceleration,0/data/coordinates/x,0/data/coordinates/y,0/data/coordinates/z,0/data/acceleration/x,0/data/acceleration/y,0/data/acceleration/z,0/data/orientation/yaw,0/data/orientation/roll,0/data/orientation/pitch,0/data/metrics/latency,0/data/metrics/rates/update,0/data/metrics/rates/success,0/errorCode
1,true,26459,true,1581440320.278,-0.1875,-0.125,-0.0625,3.875,-27.5,-38.5,0.13623046875,0.019287109375,0.01483154296875,0.9903564453125,-10,2,4,0,0,988,-134,1614,-42,266,945,6.253,-0.034,-0.274,137.4,5.429,5.43,
1,true,26459,true,1581440320.419,-0.1875,-0.125,-0.0625,3.875,-27.5,-38.5,0.13623046875,0.019287109375,0.01483154296875,0.9903564453125,-10,2,4,0,0,1009,-156,1614,-42,266,945,6.253,-0.034,-0.274,209.5,5.345,5.345,
1,true,26459,true,1581440320.655,-0.1875,-0.125,-0.0625,3.875,-27.5,-38.5,0.13623046875,0.019287109375,0.01483154296875,0.9903564453125,-10,2,4,0,0,999,-150,1614,-42,266,945,6.253,-0.034,-0.274,214.4,5.197,5.197,
1,true,26459,true,1581440320.878,-0.1875,-0.125,-0.0625,3.875,-27.5,-38.5,0.13623046875,0.019287109375,0.01483154296875,0.9903564453125,-10,2,4,0,0,1009,-145,1614,-42,266,945,6.253,-0.034,-0.274,136.7,5.328,5.328,
1,true,26459,true,1581440321.025,-0.1875,-0.125,-0.0625,3.875,-27.5,-38.5,0.13623046875,0.019287109375,0.01483154296875,0.9903564453125,-10,2,4,0,0,991,-115,1614,-42,266,945,6.253,-0.034,-0.274,203.9,5.253,5.253,
1,true,26459,true,1581440321.235,-0.1875,-0.125,-0.0625,3.875,-27.5,-38.5,0.13623046875,0.019287109375,0.01483154296875,0.9903564453125,-10,2,4,0,0,988,-165,1614,-42,266,945,6.253,-0.034,-0.274,140.9,5.376,5.376,
1,true,26459,true,1581440321.379,-0.1875,-0.125,-0.0625,3.875,-27.5,-38.5,0.13623046875,0.019287109375,0.01483154296875,0.9903564453125,-10,2,4,0,0,951,-96,1614,-42,266,945,6.253,-0.034,-0.274,211.3,5.295,5.295,
1,true,26459,true,1581440321.61,-0.1875,-0.125,-0.0625,3.875,-27.5,-38.5,0.13623046875,0.019287109375,0.01483154296875,0.9903564453125,-10,2,4,0,0,977,-109,1614,-42,266,945,6.253,-0.034,-0.274,137.7,5.384,5.384,
1,true,26459,true,1581440321.754,-0.1875,-0.125,-0.0625,3.875,-27.5,-38.5,0.13623046875,0.019287109375,0.01483154296875,0.9903564453125,-10,2,4,0,0,1005,-148,1614,-42,266,945,6.253,-0.034,-0.274,194.6,5.341,5.341,
1,true,26459,true,1581440321.954,-0.1875,-0.125,-0.0625,3.875,-27.5,-38.5,0.13623046875,0.019287109375,0.01483154296875,0.9903564453125,-10,2,4,0,0,974,-143,1614,-42,266,945,6.253,-0.034,-0.274,142.1,5.456,5.456,
1,true,26459,true,1581440322.107,-0.1875,-0.125,-0.0625,3.875,-27.5,-38.5,0.13623046875,0.019287109375,0.01483154296875,0.9903564453125,-10,2,4,0,0,980,-168,1614,-42,266,945,6.253,-0.034,-0.274,206.6,5.357,5.357,
1,true,26459,true,1581440322.318,-0.1875,-0.125,-0.0625,3.875,-27.5,-38.5,0.13623046875,0.019287109375,0.01483154296875,0.9903564453125,-10,2,4,0,0,962,-123,1614,-42,266,945,6.253,-0.034,-0.274,176.4,5.373,5.373,
1,true,26459,true,1581440322.498,-0.1875,-0.125,-0.0625,3.875,-27.5,-38.5,0.13623046875,0.019287109375,0.01483154296875,0.9903564453125,-10,2,4,0,0,969,-112,1614,-42,266,945,6.253,-0.034,-0.274,168.5,5.414,5.414,
1,true,26459,true,1581440322.686,-0.1875,-0.125,-0.0625,3.875,-27.5,-38.5,0.13623046875,0.019287109375,0.01483154296875,0.9903564453125,-10,2,4,0,0,1020,-165,1614,-42,266,945,6.253,-0.034,-0.274,142.3,5.483,5.483,
1,true,26459,true,1581440322.834,-0.1875,-0.125,-0.0625,3.875,-27.5,-38.5,0.13623046875,0.019287109375,0.01483154296875,0.9903564453125,-10,2,4,0,0,990,-100,1614,-42,266,945,6.253,-0.034,-0.274,193.7,5.432,5.432,
1,true,26459,true,1581440323.038,-0.1875,-0.125,-0.0625,3.875,-27.5,-38.5,0.13623046875,0.019287109375,0.01483154296875,0.9903564453125,-10,2,4,0,0,1032,-54,1614,-42,266,945,6.253,-0.034,-0.274,128,5.569,5.569,
1,true,26459,true,1581440323.171,-0.1875,-0.125,-0.0625,3.875,-27.5,-38.5,0.13623046875,0.019287109375,0.01483154296875,0.9903564453125,-10,2,4,0,0,968,-162,1614,-42,266,945,6.253,-0.034,-0.274,140.3,5.678,5.678,
1,true,26459,true,1581440323.316,-0.1875,-0.125,-0.0625,3.875,-27.5,-38.5,0.13623046875,0.019287109375,0.01483154296875,0.9903564453125,-10,2,4,0,0,995,-151,1614,-42,266,945,6.253,-0.034,-0.274,192,5.613,5.613,
1,true,26459,true,1581440323.519,-0.1875,-0.125,-0.0625,3.875,-27.5,-38.5,0.13623046875,0.019287109375,0.01483154296875,0.9903564453125,-10,2,4,0,0,1000,-134,1614,-42,266,945,6.253,-0.034,-0.274,137.2,5.71,5.71,
1,true,26459,true,1581440323.668,-0.1875,-0.125,-0.0625,3.875,-27.5,-38.5,0.13623046875,0.019287109375,0.01483154296875,0.9903564453125,-10,2,4,0,0,989,-173,1614,-42,266,945,6.253,-0.034,-0.274,201.5,5.586,5.586,
1,true,26459,true,1581440323.875,-0.1875,-0.125,-0.0625,3.875,-27.5,-38.5,0.13623046875,0.019287109375,0.01483154296875,0.9903564453125,-10,2,4,0,0,1043,-132,1614,-42,266,945,6.253,-0.034,-0.274,143,5.684,5.684,
1,true,26459,true,1581440324.031,-0.1875,-0.125,-0.0625,3.875,-27.5,-38.5,0.13623046875,0.019287109375,0.01483154296875,0.9903564453125,-10,2,4,0,0,968,-174,1614,-42,266,945,6.253,-0.034,-0.274,199.6,5.569,5.569,
1,true,26459,true,1581440324.236,-0.1875,-0.125,-0.0625,3.875,-27.5,-38.5,0.13623046875,0.019287109375,0.01483154296875,0.9903564453125,-10,2,4,0,0,1024,-83,1614,-42,266,945,6.253,-0.034,-0.274,139.2,5.678,5.678,
1,true,26459,true,1581440324.379,-0.1875,-0.125,-0.0625,3.875,-27.5,-38.5,0.13623046875,0.019287109375,0.01483154296875,0.9903564453125,-10,2,4,0,0,981,-151,1614,-42,266,945,6.253,-0.034,-0.274,208.9,5.563,5.563,
1,true,26459,true,1581440324.617,-0.1875,-0.125,-0.0625,3.875,-27.5,-38.5,0.13623046875,0.019287109375,0.01483154296875,0.9903564453125,-10,2,4,0,0,998,-127,1614,-42,266,945,6.253,-0.034,-0.274,211.3,5.381,5.381,
1,true,26459,true,1581440324.836,-0.1875,-0.125,-0.0625,3.875,-27.5,-38.5,0.13623046875,0.019287109375,0.01483154296875,0.9903564453125,-10,2,4,0,0,978,-135,1614,-42,266,945,6.253,-0.034,-0.274,136.6,5.506,5.506,
1,true,26459,true,1581440324.975,-0.1875,-0.125,-0.0625,3.875,-27.5,-38.5,0.13623046875,0.019287109375,0.01483154296875,0.9903564453125,-10,2,4,0,0,966,-138,1614,-42,266,945,6.253,-0.034,-0.274,210.8,5.41,5.41,
1,true,26459,true,1581440325.199,-0.1875,-0.125,-0.0625,3.875,-27.5,-38.5,0.13623046875,0.019287109375,0.01483154296875,0.9903564453125,-10,2,4,0,0,986,-138,1614,-42,266,945,6.253,-0.034,-0.274,148.2,5.481,5.481,
1,true,26459,true,1581440325.353,-0.1875,-0.125,-0.0625,3.875,-27.5,-38.5,0.13623046875,0.019287109375,0.01483154296875,0.9903564453125,-10,2,4,0,0,1001,-174,1614,-42,266,945,6.253,-0.034,-0.274,192.6,5.434,5.434,
1,true,26459,true,1581440325.556,-0.1875,-0.125,-0.0625,3.875,-27.5,-38.5,0.13623046875,0.019287109375,0.01483154296875,0.9903564453125,-10,2,4,0,0,988,-141,1614,-42,266,945,6.253,-0.034,-0.274,140.7,5.531,5.531,
1,true,26459,true,1581440325.714,-0.1875,-0.125,-0.0625,3.875,-27.5,-38.5,0.13623046875,0.019287109375,0.01483154296875,0.9903564453125,-10,2,4,0,0,975,-135,1614,-42,266,945,6.253,-0.034,-0.274,191.5,5.446,5.446,
1,true,26459,true,1581440325.911,-0.1875,-0.125,-0.0625,3.875,-27.5,-38.5,0.13623046875,0.019287109375,0.01483154296875,0.9903564453125,-10,2,4,0,0,995,-137,1614,-42,266,945,6.253,-0.034,-0.274,140.7,5.56,5.56,
1,true,26459,true,1581440326.064,-0.1875,-0.125,-0.0625,3.875,-27.5,-38.5,0.13623046875,0.019287109375,0.01483154296875,0.9903564453125,-10,2,4,0,0,1067,-438,1614,-42,266,945,6.253,-0.034,-0.274,202.5,5.453,5.453,
1,true,26459,true,1581440326.273,-0.1875,-0.125,-0.0625,3.875,-27.5,-38.5,0.13623046875,0.019287109375,0.01483154296875,0.9903564453125,-10,2,4,0,0,961,-132,1614,-42,266,945,6.253,-0.034,-0.274,143.9,5.556,5.556,
1,true,26459,true,1581440326.424,-0.1875,-0.125,-0.0625,3.875,-27.5,-38.5,0.13623046875,0.019287109375,0.01483154296875,0.9903564453125,-10,2,4,0,0,1008,-176,1614,-42,266,945,6.253,-0.034,-0.274,203.4,5.461,5.461,
1,true,26459,true,1581440326.645,-0.1875,-0.125,-0.0625,3.875,-27.5,-38.5,0.13623046875,0.019287109375,0.01483154296875,0.9903564453125,-10,2,4,0,0,1002,-136,1614,-42,266,945,6.253,-0.034,-0.274,142.5,5.531,5.531,
1,true,26459,true,1581440326.794,-0.1875,-0.125,-0.0625,3.875,-27.5,-38.5,0.13623046875,0.019287109375,0.01483154296875,0.9903564453125,-10,2,4,0,0,1004,-118,1614,-42,266,945,6.253,-0.034,-0.274,193.9,5.472,5.472,
1,true,26459,true,1581440326.999,-0.1875,-0.125,-0.0625,3.875,-27.5,-38.5,0.13623046875,0.019287109375,0.01483154296875,0.9903564453125,-10,2,4,0,0,962,-156,1614,-42,266,945,6.253,-0.034,-0.274,147.8,5.546,5.546,
1,true,26459,true,1581440327.152,-0.1875,-0.125,-0.0625,3.875,-27.5,-38.5,0.13623046875,0.019287109375,0.01483154296875,0.9903564453125,-10,2,4,0,0,992,-152,1614,-42,266,945,6.253,-0.034,-0.274,202.9,5.459,5.459,
1,true,26459,true,1581440327.359,-0.1875,-0.125,-0.0625,3.875,-27.5,-38.5,0.13623046875,0.019287109375,0.01483154296875,0.9903564453125,-10,2,4,0,0,999,-122,1614,-42,266,945,6.253,-0.034,-0.274,149,5.55,5.55,
1,true,26459,true,1581440327.519,-0.1875,-0.125,-0.0625,3.875,-27.5,-38.5,0.13623046875,0.019287109375,0.01483154296875,0.9903564453125,-10,2,4,0,0,950,-132,1614,-42,266,945,6.253,-0.034,-0.274,186.8,5.498,5.499,
1,true,26459,true,1581440327.719,-0.1875,-0.125,-0.0625,3.875,-27.5,-38.5,0.13623046875,0.019287109375,0.01483154296875,0.9903564453125,-10,2,4,0,0,983,-179,1614,-42,266,945,6.253,-0.034,-0.274,146.9,5.563,5.563,
1,true,26459,true,1581440327.871,-0.1875,-0.125,-0.0625,3.875,-27.5,-38.5,0.13623046875,0.019287109375,0.01483154296875,0.9903564453125,-10,2,4,0,0,999,-143,1614,-42,266,945,6.253,-0.034,-0.274,193.6,5.507,5.507,
1,true,26459,true,1581440328.078,-0.1875,-0.125,-0.0625,3.875,-27.5,-38.5,0.13623046875,0.019287109375,0.01483154296875,0.9903564453125,-10,2,4,0,0,939,-133,1614,-42,266,945,6.253,-0.034,-0.274,136.4,5.606,5.606,
1,true,26459,true,1581440328.22,-0.1875,-0.125,-0.0625,3.875,-27.5,-38.5,0.13623046875,0.019287109375,0.01483154296875,0.9903564453125,-10,2,4,0,0,954,-108,1614,-42,266,945,6.253,-0.034,-0.274,208.3,5.497,5.497,
1,true,26459,true,1581440328.432,-0.1875,-0.125,-0.0625,3.875,-27.5,-38.5,0.13623046875,0.019287109375,0.01483154296875,0.9903564453125,-10,2,4,0,0,1006,-152,1614,-42,266,945,6.253,-0.034,-0.274,142.6,5.606,5.606,
1,true,26459,true,1581440328.591,-0.1875,-0.125,-0.0625,3.875,-27.5,-38.5,0.13623046875,0.019287109375,0.01483154296875,0.9903564453125,-10,2,4,0,0,980,-147,1614,-42,266,945,6.253,-0.034,-0.274,192.9,5.51,5.51,
1,true,26459,true,1581440328.79,-0.1875,-0.125,-0.0625,3.875,-27.5,-38.5,0.13623046875,0.019287109375,0.01483154296875,0.9903564453125,-10,2,4,0,0,972,-107,1614,-42,266,945,6.253,-0.034,-0.274,143.1,5.608,5.608,
1,true,26459,true,1581440328.936,-0.1875,-0.125,-0.0625,3.875,-27.5,-38.5,0.13623046875,0.019287109375,0.01483154296875,0.9903564453125,-10,2,4,0,0,1090,-438,1614,-42,266,945,6.253,-0.034,-0.274,211,5.501,5.501,
1,true,26459,true,1581440329.164,-0.1875,-0.125,-0.0625,3.875,-27.5,-38.5,0.13623046875,0.019287109375,0.01483154296875,0.9903564453125,-10,2,4,0,0,984,-114,1614,-42,266,945,6.253,-0.034,-0.274,145.6,5.559,5.559,
1,true,26459,true,1581440329.315,-0.1875,-0.125,-0.0625,3.875,-27.5,-38.5,0.13623046875,0.019287109375,0.01483154296875,0.9903564453125,-10,2,4,0,0,953,-97,1614,-42,266,945,6.253,-0.034,-0.274,191.3,5.507,5.507,
1,true,26459,true,1581440329.518,-0.1875,-0.125,-0.0625,3.875,-27.5,-38.5,0.13623046875,0.019287109375,0.01483154296875,0.9903564453125,-10,2,4,0,0,974,-126,1614,-42,266,945,6.253,-0.034,-0.274,146.5,5.577,5.577,
1,true,26459,true,1581440329.678,-0.1875,-0.125,-0.0625,3.875,-27.5,-38.5,0.13623046875,0.019287109375,0.01483154296875,0.9903564453125,-10,2,4,0,0,1012,-147,1614,-42,266,945,6.253,-0.034,-0.274,186.2,5.516,5.516,
1,true,26459,true,1581440329.868,-0.1875,-0.125,-0.0625,3.875,-27.5,-38.5,0.13623046875,0.019287109375,0.01483154296875,0.9903564453125,-10,2,4,0,0,964,-125,1614,-42,266,945,6.253,-0.034,-0.274,142.7,5.622,5.622,
1,true,26459,true,1581440330.023,-0.1875,-0.125,-0.0625,3.875,-27.5,-38.5,0.13623046875,0.019287109375,0.01483154296875,0.9903564453125,-10,2,4,0,0,953,-134,1614,-42,266,945,6.253,-0.034,-0.274,203.9,5.503,5.503,
1,true,26459,true,1581440330.235,-0.1875,-0.125,-0.0625,3.875,-27.5,-38.5,0.13623046875,0.019287109375,0.01483154296875,0.9903564453125,-10,2,4,0,0,981,-121,1614,-42,266,945,6.253,-0.034,-0.274,144.5,5.596,5.596,
1,true,26459,true,1581440330.383,-0.1875,-0.125,-0.0625,3.875,-27.5,-38.5,0.13623046875,0.019287109375,0.01483154296875,0.9903564453125,-10,2,4,0,0,837,-38,1614,-42,266,945,6.253,-0.034,-0.274,199.8,5.519,5.519,
1,true,26459,true,1581440330.599,-0.1875,-0.125,-0.0625,3.875,-27.5,-38.5,0.13623046875,0.019287109375,0.01483154296875,0.9903564453125,-10,2,4,0,0,991,-142,1614,-42,266,945,6.253,-0.034,-0.274,147.8,5.57,5.57,
1,true,26459,true,1581440330.754,-0.1875,-0.125,-0.0625,3.875,-27.5,-38.5,0.13623046875,0.019287109375,0.01483154296875,0.9903564453125,-10,2,4,0,0,989,-131,1614,-42,266,945,6.253,-0.034,-0.274,204.3,5.475,5.475,
1,true,26459,true,1581440330.961,-0.1875,-0.125,-0.0625,3.875,-27.5,-38.5,0.13623046875,0.019287109375,0.01483154296875,0.9903564453125,-10,2,4,0,0,964,-112,1614,-42,266,945,6.253,-0.034,-0.274,149.2,5.566,5.566,
1,true,26459,true,1581440331.12,-0.1875,-0.125,-0.0625,3.875,-27.5,-38.5,0.13623046875,0.019287109375,0.01483154296875,0.9903564453125,-10,2,4,0,0,837,-56,1614,-42,266,945,6.253,-0.034,-0.274,183.8,5.524,5.524,
1,true,26459,true,1581440331.31,-0.1875,-0.125,-0.0625,3.875,-27.5,-38.5,0.13623046875,0.019287109375,0.01483154296875,0.9903564453125,-10,2,4,0,0,973,-157,1614,-42,266,945,6.253,-0.034,-0.274,163,5.561,5.561,
1,true,26459,true,1581440331.479,-0.1875,-0.125,-0.0625,3.875,-27.5,-38.5,0.13623046875,0.019287109375,0.01483154296875,0.9903564453125,-10,2,4,0,0,989,-131,1614,-42,266,945,6.253,-0.034,-0.274,184.6,5.528,5.528,
1,true,26459,true,1581440331.682,-0.1875,-0.125,-0.0625,3.875,-27.5,-38.5,0.13623046875,0.019287109375,0.01483154296875,0.9903564453125,-10,2,4,0,0,1024,-66,1614,-42,266,945,6.253,-0.034,-0.274,136.2,5.609,5.609,
1,true,26459,true,1581440331.825,-0.1875,-0.125,-0.0625,3.875,-27.5,-38.5,0.13623046875,0.019287109375,0.01483154296875,0.9903564453125,-10,2,4,0,0,958,-156,1614,-42,266,945,6.253,-0.034,-0.274,198.2,5.527,5.527,
1,true,26459,true,1581440332.033,-0.1875,-0.125,-0.0625,3.875,-27.5,-38.5,0.13623046875,0.019287109375,0.01483154296875,0.9903564453125,-10,2,4,0,0,972,-171,1614,-42,266,945,6.253,-0.034,-0.274,137.4,5.631,5.631,
1,true,26459,true,1581440332.176,-0.1875,-0.125,-0.0625,3.875,-27.5,-38.5,0.13623046875,0.019287109375,0.01483154296875,0.9903564453125,-10,2,4,0,0,979,-147,1614,-42,266,945,6.253,-0.034,-0.274,208.8,5.518,5.518,
1,true,26459,true,1581440332.391,-0.1875,-0.125,-0.0625,3.875,-27.5,-38.5,0.13623046875,0.019287109375,0.01483154296875,0.9903564453125,-10,2,4,0,0,973,-161,1614,-42,266,945,6.253,-0.034,-0.274,138.9,5.63,5.63,
1,true,26459,true,1581440332.54,-0.1875,-0.125,-0.0625,3.875,-27.5,-38.5,0.13623046875,0.019287109375,0.01483154296875,0.9903564453125,-10,2,4,0,0,971,-146,1614,-42,266,945,6.253,-0.034,-0.274,201.7,5.523,5.523,
1,true,26459,true,1581440332.755,-0.1875,-0.125,-0.0625,3.875,-27.5,-38.5,0.13623046875,0.019287109375,0.01483154296875,0.9903564453125,-10,2,4,0,0,1010,-158,1614,-42,266,945,6.253,-0.034,-0.274,134.4,5.626,5.626,
1,true,26459,true,1581440332.895,-0.1875,-0.125,-0.0625,3.875,-27.5,-38.5,0.13623046875,0.019287109375,0.01483154296875,0.9903564453125,-10,2,4,0,0,990,-153,1614,-42,266,945,6.253,-0.034,-0.274,208.4,5.514,5.514,
1,true,26459,true,1581440333.114,-0.1875,-0.125,-0.0625,3.875,-27.5,-38.5,0.13623046875,0.019287109375,0.01483154296875,0.9903564453125,-10,2,4,0,0,986,-147,1614,-42,266,945,6.253,-0.034,-0.274,134.8,5.626,5.626,
1,true,26459,true,1581440333.254,-0.1875,-0.125,-0.0625,3.875,-27.5,-38.5,0.13623046875,0.019287109375,0.01483154296875,0.9903564453125,-10,2,4,0,0,1030,-131,1614,-42,266,945,6.253,-0.034,-0.274,212.8,5.5,5.5,
1,true,26459,true,1581440333.47,-0.1875,-0.125,-0.0625,3.875,-27.5,-38.5,0.13623046875,0.019287109375,0.01483154296875,0.9903564453125,-10,2,4,0,0,974,-152,1614,-42,266,945,6.253,-0.034,-0.274,141.2,5.615,5.615,
1,true,26459,true,1581440333.63,-0.1875,-0.125,-0.0625,3.875,-27.5,-38.5,0.13623046875,0.019287109375,0.01483154296875,0.9903564453125,-10,2,4,0,0,991,-179,1614,-42,266,945,6.253,-0.034,-0.274,194.9,5.508,5.508,
1,true,26459,true,1581440333.831,-0.1875,-0.125,-0.0625,3.875,-27.5,-38.5,0.13623046875,0.019287109375,0.01483154296875,0.9903564453125,-10,2,4,0,0,958,-172,1614,-42,266,945,6.253,-0.034,-0.274,139.3,5.618,5.618,
1,true,26459,true,1581440333.973,-0.1875,-0.125,-0.0625,3.875,-27.5,-38.5,0.13623046875,0.019287109375,0.01483154296875,0.9903564453125,-10,2,4,0,0,1032,-106,1614,-42,266,945,6.253,-0.034,-0.274,220.5,5.478,5.478,
1,true,26459,true,1581440334.206,-0.1875,-0.125,-0.0625,3.875,-27.5,-38.5,0.13623046875,0.019287109375,0.01483154296875,0.9903564453125,-10,2,4,0,0,1023,-79,1614,-42,266,945,6.253,-0.034,-0.274,135.9,5.582,5.582,
1,true,26459,true,1581440334.348,-0.1875,-0.125,-0.0625,3.875,-27.5,-38.5,0.13623046875,0.019287109375,0.01483154296875,0.9903564453125,-10,2,4,0,0,1033,-180,1614,-42,266,945,6.253,-0.034,-0.274,198.9,5.505,5.505,
1,true,26459,false,1581440334.673,,,,,,,,,,,,,,,,,,,,,,,,,,,,NO ERROR
1,true,26459,true,1581440334.678,-0.1875,-0.125,-0.0625,3.875,-27.5,-38.5,0.13623046875,0.019287109375,0.01483154296875,0.9903564453125,-10,2,4,0,0,975,-126,1614,-42,266,945,6.253,-0.034,-0.274,147.1,5.755,5.226,
1,true,26459,true,1581440334.828,-0.1875,-0.125,-0.0625,3.875,-27.5,-38.5,0.13623046875,0.019287109375,0.01483154296875,0.9903564453125,-10,2,4,0,0,964,-95,1614,-42,266,945,6.253,-0.034,-0.274,194.5,5.68,5.211,
1,true,26459,true,1581440335.032,-0.1875,-0.125,-0.0625,3.875,-27.5,-38.5,0.13623046875,0.019287109375,0.01483154296875,0.9903564453125,-10,2,4,0,0,989,-164,1614,-42,266,945,6.253,-0.034,-0.274,135.9,5.78,5.34,
1,true,26459,true,1581440335.173,-0.1875,-0.125,-0.0625,3.875,-27.5,-38.5,0.13623046875,0.019287109375,0.01483154296875,0.9903564453125,-10,2,4,0,0,995,-145,1614,-42,266,945,6.253,-0.034,-0.274,217.2,5.62,5.242,
1,true,26459,true,1581440335.398,-0.1875,-0.125,-0.0625,3.875,-27.5,-38.5,0.13623046875,0.019287109375,0.01483154296875,0.9903564453125,-10,2,4,0,0,983,-111,1614,-42,266,945,6.253,-0.034,-0.274,144.1,5.702,5.349,
1,true,26459,true,1581440335.554,-0.1875,-0.125,-0.0625,3.875,-27.5,-38.5,0.13623046875,0.019287109375,0.01483154296875,0.9903564453125,-10,2,4,0,0,973,-109,1614,-42,266,945,6.253,-0.034,-0.274,185.9,5.631,5.319,
1,true,26459,true,1581440335.753,-0.1875,-0.125,-0.0625,3.875,-27.5,-38.5,0.13623046875,0.019287109375,0.01483154296875,0.9903564453125,-10,2,4,0,0,986,-174,1614,-42,266,945,6.253,-0.034,-0.274,135.6,5.725,5.434,
1,true,26459,true,1581440335.893,-0.1875,-0.125,-0.0625,3.875,-27.5,-38.5,0.13623046875,0.019287109375,0.01483154296875,0.9903564453125,-10,2,4,0,0,980,-114,1614,-42,266,945,6.253,-0.034,-0.274,206.9,5.607,5.354,
1,true,26459,true,1581440336.11,-0.1875,-0.125,-0.0625,3.875,-27.5,-38.5,0.13623046875,0.019287109375,0.01483154296875,0.9903564453125,-10,2,4,0,0,985,-98,1614,-42,266,945,6.253,-0.034,-0.274,137.7,5.703,5.467,
1,true,26459,true,1581440336.253,-0.1875,-0.125,-0.0625,3.875,-27.5,-38.5,0.13623046875,0.019287109375,0.01483154296875,0.9903564453125,-10,2,4,0,0,986,-128,1614,-42,266,945,6.253,-0.034,-0.274,207.6,5.584,5.379,
1,true,26459,true,1581440336.464,-0.1875,-0.125,-0.0625,3.875,-27.5,-38.5,0.13623046875,0.019287109375,0.01483154296875,0.9903564453125,-10,2,4,0,0,1012,-136,1614,-42,266,945,6.253,-0.034,-0.274,156.3,5.645,5.456,
1,true,26459,true,1581440336.644,-0.1875,-0.125,-0.0625,3.875,-27.5,-38.5,0.13623046875,0.019287109375,0.01483154296875,0.9903564453125,-10,2,4,0,0,1056,-74,1614,-42,266,945,6.253,-0.034,-0.274,175.8,5.576,5.41,
1,true,26459,true,1581440336.826,-0.1875,-0.125,-0.0625,3.875,-27.5,-38.5,0.13623046875,0.019287109375,0.01483154296875,0.9903564453125,-10,2,4,0,0,1010,-143,1614,-42,266,945,6.253,-0.034,-0.274,140.4,5.679,5.523,
1,true,26459,true,1581440336.969,-0.1875,-0.125,-0.0625,3.875,-27.5,-38.5,0.13623046875,0.019287109375,0.01483154296875,0.9903564453125,-10,2,4,0,0,951,-118,1614,-42,266,945,6.253,-0.034,-0.274,213.1,5.554,5.419,
1,true,26459,true,1581440337.193,-0.1875,-0.125,-0.0625,3.875,-27.5,-38.5,0.13623046875,0.019287109375,0.01483154296875,0.9903564453125,-10,2,4,0,0,938,-115,1614,-42,266,945,6.253,-0.034,-0.274,135.3,5.661,5.535,
1,true,26459,true,1581440337.334,-0.1875,-0.125,-0.0625,3.875,-27.5,-38.5,0.13623046875,0.019287109375,0.01483154296875,0.9903564453125,-10,2,4,0,0,975,-140,1614,-42,266,945,6.253,-0.034,-0.274,210.6,5.536,5.428,
1,true,26459,true,1581440337.555,-0.1875,-0.125,-0.0625,3.875,-27.5,-38.5,0.13623046875,0.019287109375,0.01483154296875,0.9903564453125,-10,2,4,0,0,1006,-148,1614,-42,266,945,6.253,-0.034,-0.274,143.9,5.617,5.516,
1,true,26459,true,1581440337.714,-0.1875,-0.125,-0.0625,3.875,-27.5,-38.5,0.13623046875,0.019287109375,0.01483154296875,0.9903564453125,-10,2,4,0,0,998,-182,1614,-42,266,945,6.253,-0.034,-0.274,186.2,5.546,5.457,
1,true,26459,true,1581440337.906,-0.1875,-0.125,-0.0625,3.875,-27.5,-38.5,0.13623046875,0.019287109375,0.01483154296875,0.9903564453125,-10,2,4,0,0,980,-126,1614,-42,266,945,6.253,-0.034,-0.274,141.3,5.651,5.568,
1,true,26459,true,1581440338.057,-0.1875,-0.125,-0.0625,3.875,-27.5,-38.5,0.13623046875,0.019287109375,0.01483154296875,0.9903564453125,-10,2,4,0,0,969,-151,1614,-42,266,945,6.253,-0.034,-0.274,204.8,5.532,5.46,
1,true,26459,true,1581440338.268,-0.1875,-0.125,-0.0625,3.875,-27.5,-38.5,0.13623046875,0.019287109375,0.01483154296875,0.9903564453125,-10,2,4,0,0,971,-127,1614,-42,266,945,6.253,-0.034,-0.274,139.3,5.643,5.575,
1,true,26459,true,1581440338.41,-0.1875,-0.125,-0.0625,3.875,-27.5,-38.5,0.13623046875,0.019287109375,0.01483154296875,0.9903564453125,-10,2,4,0,0,976,-137,1614,-42,266,945,6.253,-0.034,-0.274,210,5.53,5.472,
1,true,26459,true,1581440338.637,-0.1875,-0.125,-0.0625,3.875,-27.5,-38.5,0.13623046875,0.019287109375,0.01483154296875,0.9903564453125,-10,2,4,0,0,861,-79,1614,-42,266,945,6.253,-0.034,-0.274,129,5.641,5.587,
1,true,26459,true,1581440338.773,-0.1875,-0.125,-0.0625,3.875,-27.5,-38.5,0.13623046875,0.019287109375,0.01483154296875,0.9903564453125,-10,2,4,0,0,985,-144,1614,-42,266,945,6.253,-0.034,-0.274,206,5.528,5.48,
1,true,26459,true,1581440338.982,-0.1875,-0.125,-0.0625,3.875,-27.5,-38.5,0.13623046875,0.019287109375,0.01483154296875,0.9903564453125,-10,2,4,0,0,995,-131,1614,-42,266,945,6.253,-0.034,-0.274,145,5.631,5.587,
1,true,26459,true,1581440339.138,-0.1875,-0.125,-0.0625,3.875,-27.5,-38.5,0.13623046875,0.019287109375,0.01483154296875,0.9903564453125,-10,2,4,0,0,988,-152,1614,-42,266,945,6.253,-0.034,-0.274,214,5.487,5.449,
1,true,26459,true,1581440339.36,-0.1875,-0.125,-0.0625,3.875,-27.5,-38.5,0.13623046875,0.019287109375,0.01483154296875,0.9903564453125,-10,2,4,0,0,990,-110,1614,-42,266,945,6.253,-0.034,-0.274,144.8,5.576,5.541,
1,true,26459,true,1581440339.508,-0.1875,-0.125,-0.0625,3.875,-27.5,-38.5,0.13623046875,0.019287109375,0.01483154296875,0.9903564453125,-10,2,4,0,0,985,-118,1614,-42,266,945,6.253,-0.034,-0.274,189.8,5.532,5.501,
1,true,26459,true,1581440339.715,-0.1875,-0.125,-0.0625,3.875,-27.5,-38.5,0.13623046875,0.019287109375,0.01483154296875,0.9903564453125,-10,2,4,0,0,984,-95,1614,-42,266,945,6.253,-0.034,-0.274,144.9,5.59,5.561,
1,true,26459,true,1581440339.866,-0.1875,-0.125,-0.0625,3.875,-27.5,-38.5,0.13623046875,0.019287109375,0.01483154296875,0.9903564453125,-10,2,4,0,0,1070,-462,1614,-42,266,945,6.253,-0.034,-0.274,192.5,5.528,5.503,
1,true,26459,true,1581440340.07,-0.1875,-0.125,-0.0625,3.875,-27.5,-38.5,0.13623046875,0.019287109375,0.01483154296875,0.9903564453125,-10,2,4,0,0,1006,-136,1614,-42,266,945,6.253,-0.034,-0.274,135.9,5.633,5.61,
1,true,26459,true,1581440340.212,-0.1875,-0.125,-0.0625,3.875,-27.5,-38.5,0.13623046875,0.019287109375,0.01483154296875,0.9903564453125,-10,2,4,0,0,962,-126,1614,-42,266,945,6.253,-0.034,-0.274,206.8,5.523,5.503,
1,true,26459,true,1581440340.422,-0.1875,-0.125,-0.0625,3.875,-27.5,-38.5,0.13623046875,0.019287109375,0.01483154296875,0.9903564453125,-10,2,4,0,0,1067,-414,1614,-42,266,945,6.253,-0.034,-0.274,145.4,5.624,5.605,
1,true,26459,true,1581440340.586,-0.1875,-0.125,-0.0625,3.875,-27.5,-38.5,0.13623046875,0.019287109375,0.01483154296875,0.9903564453125,-10,2,4,0,0,1005,-126,1614,-42,266,945,6.253,-0.034,-0.274,192.7,5.521,5.504,
1,true,26459,true,1581440340.787,-0.1875,-0.125,-0.0625,3.875,-27.5,-38.5,0.13623046875,0.019287109375,0.01483154296875,0.9903564453125,-10,2,4,0,0,977,-152,1614,-42,266,945,6.253,-0.034,-0.274,137.7,5.629,5.614,
1,true,26459,true,1581440340.927,-0.1875,-0.125,-0.0625,3.875,-27.5,-38.5,0.13623046875,0.019287109375,0.01483154296875,0.9903564453125,-10,2,4,0,0,997,-128,1614,-42,266,945,6.253,-0.034,-0.274,212.2,5.515,5.502,
1,true,26459,true,1581440341.153,-0.1875,-0.125,-0.0625,3.875,-27.5,-38.5,0.13623046875,0.019287109375,0.01483154296875,0.9903564453125,-10,2,4,0,0,997,-113,1614,-42,266,945,6.253,-0.034,-0.274,145.3,5.582,5.57,
1,true,26459,true,1581440341.305,-0.1875,-0.125,-0.0625,3.875,-27.5,-38.5,0.13623046875,0.019287109375,0.01483154296875,0.9903564453125,-10,2,4,0,0,1002,-176,1614,-42,266,945,6.253,-0.034,-0.274,194.6,5.515,5.504,
1,true,26459,true,1581440341.503,-0.1875,-0.125,-0.0625,3.875,-27.5,-38.5,0.13623046875,0.019287109375,0.01483154296875,0.9903564453125,-10,2,4,0,0,976,-120,1614,-42,266,945,6.253,-0.034,-0.274,142,5.628,5.618,
1,true,26459,true,1581440341.664,-0.1875,-0.125,-0.0625,3.875,-27.5,-38.5,0.13623046875,0.019287109375,0.01483154296875,0.9903564453125,-10,2,4,0,0,994,-165,1614,-42,266,945,6.253,-0.034,-0.274,194.6,5.517,5.508,
1,true,26459,true,1581440341.865,-0.1875,-0.125,-0.0625,3.875,-27.5,-38.5,0.13623046875,0.019287109375,0.01483154296875,0.9903564453125,-10,2,4,0,0,969,-130,1614,-42,266,945,6.253,-0.034,-0.274,140.2,5.623,5.614,
1,true,26459,true,1581440342.015,-0.1875,-0.125,-0.0625,3.875,-27.5,-38.5,0.13623046875,0.019287109375,0.01483154296875,0.9903564453125,-10,2,4,0,0,983,-131,1614,-42,266,945,6.253,-0.034,-0.274,203.1,5.513,5.506,
1,true,26459,true,1581440342.224,-0.1875,-0.125,-0.0625,3.875,-27.5,-38.5,0.13623046875,0.019287109375,0.01483154296875,0.9903564453125,-10,2,4,0,0,982,-157,1614,-42,266,945,6.253,-0.034,-0.274,146.1,5.606,5.599,
1,true,26459,true,1581440342.376,-0.1875,-0.125,-0.0625,3.875,-27.5,-38.5,0.13623046875,0.019287109375,0.01483154296875,0.9903564453125,-10,2,4,0,0,990,-134,1614,-42,266,945,6.253,-0.034,-0.274,203.2,5.509,5.503,
1,true,26459,true,1581440342.599,-0.1875,-0.125,-0.0625,3.875,-27.5,-38.5,0.13623046875,0.019287109375,0.01483154296875,0.9903564453125,-10,2,4,0,0,967,-138,1614,-42,266,945,6.253,-0.034,-0.274,138.8,5.58,5.575,
1,true,26459,true,1581440342.745,-0.1875,-0.125,-0.0625,3.875,-27.5,-38.5,0.13623046875,0.019287109375,0.01483154296875,0.9903564453125,-10,2,4,0,0,1039,-87,1614,-42,266,945,6.253,-0.034,-0.274,193.4,5.516,5.511,
1,true,26459,true,1581440342.943,-0.1875,-0.125,-0.0625,3.875,-27.5,-38.5,0.13623046875,0.019287109375,0.01483154296875,0.9903564453125,-10,2,4,0,0,987,-156,1614,-42,266,945,6.253,-0.034,-0.274,141,5.627,5.622,
1,true,26459,true,1581440343.096,-0.1875,-0.125,-0.0625,3.875,-27.5,-38.5,0.13623046875,0.019287109375,0.01483154296875,0.9903564453125,-10,2,4,0,0,988,-126,1614,-42,266,945,6.253,-0.034,-0.274,208.3,5.497,5.493,
1,true,26459,true,1581440343.311,-0.1875,-0.125,-0.0625,3.875,-27.5,-38.5,0.13623046875,0.019287109375,0.01483154296875,0.9903564453125,-10,2,4,0,0,1003,-138,1614,-42,266,945,6.253,-0.034,-0.274,160.9,5.538,5.535,
1,true,26459,true,1581440343.475,-0.1875,-0.125,-0.0625,3.875,-27.5,-38.5,0.13623046875,0.019287109375,0.01483154296875,0.9903564453125,-10,2,4,0,0,959,-137,1614,-42,266,945,6.253,-0.034,-0.274,183.6,5.518,5.515,
1,true,26459,true,1581440343.678,-0.1875,-0.125,-0.0625,3.875,-27.5,-38.5,0.13623046875,0.019287109375,0.01483154296875,0.9903564453125,-10,2,4,0,0,969,-141,1614,-42,266,945,6.253,-0.034,-0.274,141.3,5.582,5.579,
1,true,26459,true,1581440343.826,-0.1875,-0.125,-0.0625,3.875,-27.5,-38.5,0.13623046875,0.019287109375,0.01483154296875,0.9903564453125,-10,2,4,0,0,962,-136,1614,-42,266,945,6.253,-0.034,-0.274,191.6,5.523,5.52,
1,true,26459,true,1581440344.03,-0.1875,-0.125,-0.0625,3.875,-27.5,-38.5,0.13623046875,0.019287109375,0.01483154296875,0.9903564453125,-10,2,4,0,0,1010,-164,1614,-42,266,945,6.253,-0.034,-0.274,135.4,5.627,5.625,
1,true,26459,true,1581440344.17,-0.1875,-0.125,-0.0625,3.875,-27.5,-38.5,0.13623046875,0.019287109375,0.01483154296875,0.9903564453125,-10,2,4,0,0,989,-168,1614,-42,266,945,6.253,-0.034,-0.274,207.3,5.522,5.52,
1,true,26459,true,1581440344.381,-0.1875,-0.125,-0.0625,3.875,-27.5,-38.5,0.13623046875,0.019287109375,0.01483154296875,0.9903564453125,-10,2,4,0,0,992,-132,1614,-42,266,945,6.253,-0.034,-0.274,145.8,5.617,5.616,
1,true,26459,true,1581440344.538,-0.1875,-0.125,-0.0625,3.875,-27.5,-38.5,0.13623046875,0.019287109375,0.01483154296875,0.9903564453125,-10,2,4,0,0,983,-152,1614,-42,266,945,6.253,-0.034,-0.274,199.8,5.516,5.515,
1,true,26459,true,1581440344.752,-0.1875,-0.125,-0.0625,3.875,-27.5,-38.5,0.13623046875,0.019287109375,0.01483154296875,0.9903564453125,-10,2,4,0,0,965,-123,1614,-42,266,945,6.253,-0.034,-0.274,144.5,5.586,5.585,
1,true,26459,true,1581440344.901,-0.1875,-0.125,-0.0625,3.875,-27.5,-38.5,0.13623046875,0.019287109375,0.01483154296875,0.9903564453125,-10,2,4,0,0,941,-120,1614,-42,266,945,6.253,-0.034,-0.274,204.8,5.494,5.492,
1,true,26459,true,1581440345.119,-0.1875,-0.125,-0.0625,3.875,-27.5,-38.5,0.13623046875,0.019287109375,0.01483154296875,0.9903564453125,-10,2,4,0,0,1010,-129,1614,-42,266,945,6.253,-0.034,-0.274,139.4,5.584,5.582,
1,true,26459,true,1581440345.264,-0.1875,-0.125,-0.0625,3.875,-27.5,-38.5,0.13623046875,0.019287109375,0.01483154296875,0.9903564453125,-10,2,4,0,0,982,-132,1614,-42,266,945,6.253,-0.034,-0.274,208.8,5.478,5.477,
1,true,26459,true,1581440345.479,-0.1875,-0.125,-0.0625,3.875,-27.5,-38.5,0.13623046875,0.019287109375,0.01483154296875,0.9903564453125,-10,2,4,0,0,1004,-149,1614,-42,266,945,6.253,-0.034,-0.274,137.3,5.594,5.593,
1,true,26459,true,1581440345.633,-0.1875,-0.125,-0.0625,3.875,-27.5,-38.5,0.13623046875,0.019287109375,0.01483154296875,0.9903564453125,-10,2,4,0,0,962,-110,1614,-42,266,945,6.253,-0.034,-0.274,183.1,5.529,5.528,
1,true,26459,true,1581440345.823,-0.1875,-0.125,-0.0625,3.875,-27.5,-38.5,0.13623046875,0.019287109375,0.01483154296875,0.9903564453125,-10,2,4,0,0,1000,-143,1614,-42,266,945,6.253,-0.034,-0.274,140.7,5.633,5.632,
1,true,26459,true,1581440345.966,-0.1875,-0.125,-0.0625,3.875,-27.5,-38.5,0.13623046875,0.019287109375,0.01483154296875,0.9903564453125,-10,2,4,0,0,990,-147,1614,-42,266,945,6.253,-0.034,-0.274,209.5,5.526,5.525,
1,true,26459,true,1581440346.188,-0.1875,-0.125,-0.0625,3.875,-27.5,-38.5,0.13623046875,0.019287109375,0.01483154296875,0.9903564453125,-10,2,4,0,0,987,-132,1614,-42,266,945,6.253,-0.034,-0.274,144,5.604,5.603,
1,true,26459,true,1581440346.338,-0.1875,-0.125,-0.0625,3.875,-27.5,-38.5,0.13623046875,0.019287109375,0.01483154296875,0.9903564453125,-10,2,4,0,0,960,-135,1614,-42,266,945,6.253,-0.034,-0.274,198.9,5.521,5.521,
1,true,26459,true,1581440346.548,-0.1875,-0.125,-0.0625,3.875,-27.5,-38.5,0.13623046875,0.019287109375,0.01483154296875,0.9903564453125,-10,2,4,0,0,998,-140,1614,-42,266,945,6.253,-0.034,-0.274,135.3,5.63,5.629,
1,true,26459,true,1581440346.696,-0.1875,-0.125,-0.0625,3.875,-27.5,-38.5,0.13623046875,0.019287109375,0.01483154296875,0.9903564453125,-10,2,4,0,0,960,-132,1614,-42,266,945,6.253,-0.034,-0.274,199.9,5.52,5.519,
1,true,26459,true,1581440346.901,-0.1875,-0.125,-0.0625,3.875,-27.5,-38.5,0.13623046875,0.019287109375,0.01483154296875,0.9903564453125,-10,2,4,0,0,982,-167,1614,-42,266,945,6.253,-0.034,-0.274,141.5,5.626,5.626,
1,true,26459,true,1581440347.052,-0.1875,-0.125,-0.0625,3.875,-27.5,-38.5,0.13623046875,0.019287109375,0.01483154296875,0.9903564453125,-10,2,4,0,0,992,-122,1614,-42,266,945,6.253,-0.034,-0.274,211.1,5.493,5.493,
1,true,26459,true,1581440347.272,-0.1875,-0.125,-0.0625,3.875,-27.5,-38.5,0.13623046875,0.019287109375,0.01483154296875,0.9903564453125,-10,2,4,0,0,1071,-414,1614,-42,266,945,6.253,-0.034,-0.274,139,5.604,5.603,
1,true,26459,true,1581440347.414,-0.1875,-0.125,-0.0625,3.875,-27.5,-38.5,0.13623046875,0.019287109375,0.01483154296875,0.9903564453125,-10,2,4,0,0,979,-119,1614,-42,266,945,6.253,-0.034,-0.274,200.8,5.521,5.521,
1,true,26459,true,1581440347.633,-0.1875,-0.125,-0.0625,3.875,-27.5,-38.5,0.13623046875,0.019287109375,0.01483154296875,0.9903564453125,-10,2,4,0,0,990,-159,1614,-42,266,945,6.253,-0.034,-0.274,145.2,5.576,5.576,
1,true,26459,true,1581440347.785,-0.1875,-0.125,-0.0625,3.875,-27.5,-38.5,0.13623046875,0.019287109375,0.01483154296875,0.9903564453125,-10,2,4,0,0,818,-47,1614,-42,266,945,6.253,-0.034,-0.274,191,5.521,5.52,
1,true,26459,true,1581440347.979,-0.1875,-0.125,-0.0625,3.875,-27.5,-38.5,0.13623046875,0.019287109375,0.01483154296875,0.9903564453125,-10,2,4,0,0,1047,-125,1614,-42,266,945,6.253,-0.034,-0.274,128.9,5.672,5.672,
1,true,26459,true,1581440348.119,-0.1875,-0.125,-0.0625,3.875,-27.5,-38.5,0.13623046875,0.019287109375,0.01483154296875,0.9903564453125,-10,2,4,0,0,977,-145,1614,-42,266,945,6.253,-0.034,-0.274,141.7,5.751,5.751,
1,true,26459,true,1581440348.267,-0.1875,-0.125,-0.0625,3.875,-27.5,-38.5,0.13623046875,0.019287109375,0.01483154296875,0.9903564453125,-10,2,4,0,0,989,-133,1614,-42,266,945,6.253,-0.034,-0.274,194.5,5.663,5.663,
1,true,26459,true,1581440348.465,-0.1875,-0.125,-0.0625,3.875,-27.5,-38.5,0.13623046875,0.019287109375,0.01483154296875,0.9903564453125,-10,2,4,0,0,965,-186,1614,-42,266,945,6.253,-0.034,-0.274,140.4,5.768,5.768,
1,true,26459,true,1581440348.623,-0.1875,-0.125,-0.0625,3.875,-27.5,-38.5,0.13623046875,0.019287109375,0.01483154296875,0.9903564453125,-10,2,4,0,0,981,-139,1614,-42,266,945,6.253,-0.034,-0.274,193.7,5.647,5.647,
1,true,26459,true,1581440348.827,-0.1875,-0.125,-0.0625,3.875,-27.5,-38.5,0.13623046875,0.019287109375,0.01483154296875,0.9903564453125,-10,2,4,0,0,1017,-137,1614,-42,266,945,6.253,-0.034,-0.274,148.6,5.704,5.704,
1,true,26459,true,1581440348.979,-0.1875,-0.125,-0.0625,3.875,-27.5,-38.5,0.13623046875,0.019287109375,0.01483154296875,0.9903564453125,-10,2,4,0,0,969,-176,1614,-42,266,945,6.253,-0.034,-0.274,198.8,5.619,5.619,
1,true,26459,true,1581440349.189,-0.1875,-0.125,-0.0625,3.875,-27.5,-38.5,0.13623046875,0.019287109375,0.01483154296875,0.9903564453125,-10,2,4,0,0,1014,-174,1614,-42,266,945,6.253,-0.034,-0.274,154.7,5.657,5.657,
1,true,26459,true,1581440349.356,-0.1875,-0.125,-0.0625,3.875,-27.5,-38.5,0.13623046875,0.019287109375,0.01483154296875,0.9903564453125,-10,2,4,0,0,985,-125,1614,-42,266,945,6.253,-0.034,-0.274,181.8,5.6,5.6,
1,true,26459,true,1581440349.55,-0.1875,-0.125,-0.0625,3.875,-27.5,-38.5,0.13623046875,0.019287109375,0.01483154296875,0.9903564453125,-10,2,4,0,0,953,-151,1614,-42,266,945,6.253,-0.034,-0.274,145.5,5.667,5.667,
1,true,26459,true,1581440349.71,-0.1875,-0.125,-0.0625,3.875,-27.5,-38.5,0.13623046875,0.019287109375,0.01483154296875,0.9903564453125,-10,2,4,0,0,996,-130,1614,-42,266,945,6.253,-0.034,-0.274,186.8,5.59,5.59,
1,true,26459,true,1581440349.901,-0.1875,-0.125,-0.0625,3.875,-27.5,-38.5,0.13623046875,0.019287109375,0.01483154296875,0.9903564453125,-10,2,4,0,0,961,-127,1614,-42,266,945,6.253,-0.034,-0.274,140.1,5.699,5.699,
1,true,26459,true,1581440350.051,-0.1875,-0.125,-0.0625,3.875,-27.5,-38.5,0.13623046875,0.019287109375,0.01483154296875,0.9903564453125,-10,2,4,0,0,973,-108,1614,-42,266,945,6.253,-0.034,-0.274,215.8,5.54,5.54,
1,true,26459,true,1581440350.273,-0.1875,-0.125,-0.0625,3.875,-27.5,-38.5,0.13623046875,0.019287109375,0.01483154296875,0.9903564453125,-10,2,4,0,0,998,-170,1614,-42,266,945,6.253,-0.034,-0.274,143,5.638,5.638,
1,true,26459,true,1581440350.42,-0.1875,-0.125,-0.0625,3.875,-27.5,-38.5,0.13623046875,0.019287109375,0.01483154296875,0.9903564453125,-10,2,4,0,0,986,-172,1614,-42,266,945,6.253,-0.034,-0.274,194.2,5.572,5.572,
1,true,26459,true,1581440350.634,-0.1875,-0.125,-0.0625,3.875,-27.5,-38.5,0.13623046875,0.019287109375,0.01483154296875,0.9903564453125,-10,2,4,0,0,974,-134,1614,-42,266,945,6.253,-0.034,-0.274,145.6,5.618,5.618,
1,true,26459,true,1581440350.786,-0.1875,-0.125,-0.0625,3.875,-27.5,-38.5,0.13623046875,0.019287109375,0.01483154296875,0.9903564453125,-10,2,4,0,0,985,-150,1614,-42,266,945,6.253,-0.034,-0.274,188.4,5.566,5.566,
1,true,26459,true,1581440350.977,-0.1875,-0.125,-0.0625,3.875,-27.5,-38.5,0.13623046875,0.019287109375,0.01483154296875,0.9903564453125,-10,2,4,0,0,994,-148,1614,-42,266,945,6.253,-0.034,-0.274,144.7,5.669,5.669,
1,true,26459,true,1581440351.133,-0.1875,-0.125,-0.0625,3.875,-27.5,-38.5,0.13623046875,0.019287109375,0.01483154296875,0.9903564453125,-10,2,4,0,0,972,-123,1614,-42,266,945,6.253,-0.034,-0.274,202.6,5.549,5.549,
1,true,26459,true,1581440351.34,-0.1875,-0.125,-0.0625,3.875,-27.5,-38.5,0.13623046875,0.019287109375,0.01483154296875,0.9903564453125,-10,2,4,0,0,975,-123,1614,-42,266,945,6.253,-0.034,-0.274,163.6,5.586,5.586,
1,true,26459,true,1581440351.512,-0.1875,-0.125,-0.0625,3.875,-27.5,-38.5,0.13623046875,0.019287109375,0.01483154296875,0.9903564453125,-10,2,4,0,0,994,-149,1614,-42,266,945,6.253,-0.034,-0.274,183.2,5.547,5.547,
1,true,26459,true,1581440351.722,-0.1875,-0.125,-0.0625,3.875,-27.5,-38.5,0.13623046875,0.019287109375,0.01483154296875,0.9903564453125,-10,2,4,0,0,972,-131,1614,-42,266,945,6.253,-0.034,-0.274,226.7,5.333,5.332,
1,true,26459,true,1581440351.957,-0.1875,-0.125,-0.0625,3.875,-27.5,-38.5,0.13623046875,0.019287109375,0.01483154296875,0.9903564453125,-10,2,4,0,0,976,-119,1614,-42,266,945,6.253,-0.034,-0.274,146.4,5.425,5.425,
1,true,26459,true,1581440352.115,-0.1875,-0.125,-0.0625,3.875,-27.5,-38.5,0.13623046875,0.019287109375,0.01483154296875,0.9903564453125,-10,2,4,0,0,1037,-56,1614,-42,266,945,6.253,-0.034,-0.274,182.7,5.398,5.398,
1,true,26459,true,1581440352.304,-0.1875,-0.125,-0.0625,3.875,-27.5,-38.5,0.13623046875,0.019287109375,0.01483154296875,0.9903564453125,-10,2,4,0,0,1004,-135,1614,-42,266,945,6.253,-0.034,-0.274,140.6,5.511,5.511,
1,true,26459,true,1581440352.449,-0.1875,-0.125,-0.0625,3.875,-27.5,-38.5,0.13623046875,0.019287109375,0.01483154296875,0.9903564453125,-10,2,4,0,0,979,-119,1614,-42,266,945,6.253,-0.034,-0.274,203.4,5.432,5.432,
1,true,26459,true,1581440352.674,-0.1875,-0.125,-0.0625,3.875,-27.5,-38.5,0.13623046875,0.019287109375,0.01483154296875,0.9903564453125,-10,2,4,0,0,984,-164,1614,-42,266,945,6.253,-0.034,-0.274,142.8,5.489,5.489,
1,true,26459,true,1581440352.824,-0.1875,-0.125,-0.0625,3.875,-27.5,-38.5,0.13623046875,0.019287109375,0.01483154296875,0.9903564453125,-10,2,4,0,0,980,-141,1614,-42,266,945,6.253,-0.034,-0.274,201.3,5.414,5.414,
1,true,26459,true,1581440353.029,-0.1875,-0.125,-0.0625,3.875,-27.5,-38.5,0.13623046875,0.019287109375,0.01483154296875,0.9903564453125,-10,2,4,0,0,987,-139,1614,-42,266,945,6.253,-0.034,-0.274,151,5.503,5.503,
1,true,26459,true,1581440353.191,-0.1875,-0.125,-0.0625,3.875,-27.5,-38.5,0.13623046875,0.019287109375,0.01483154296875,0.9903564453125,-10,2,4,0,0,997,-156,1614,-42,266,945,6.253,-0.034,-0.274,184,5.463,5.463,
1,true,26459,true,1581440353.381,-0.1875,-0.125,-0.0625,3.875,-27.5,-38.5,0.13623046875,0.019287109375,0.01483154296875,0.9903564453125,-10,2,4,0,0,981,-113,1614,-42,266,945,6.253,-0.034,-0.274,226.7,5.333,5.318,
1,true,26459,true,1581440353.666,-0.1875,-0.125,-0.0625,3.875,-27.5,-38.5,0.13623046875,0.019287109375,0.01483154296875,0.9903564453125,-10,2,4,0,0,1008,-154,1614,-42,266,945,6.253,-0.034,-0.274,294.2,4.903,4.904,
1,true,26459,true,1581440353.996,-0.1875,-0.125,-0.0625,3.875,-27.5,-38.5,0.13623046875,0.019287109375,0.01483154296875,0.9903564453125,-10,2,4,0,0,986,-148,1614,-42,266,945,6.253,-0.034,-0.274,145.2,4.944,4.945,
1,true,26459,true,1581440354.146,-0.1875,-0.125,-0.0625,3.875,-27.5,-38.5,0.13623046875,0.019287109375,0.01483154296875,0.9903564453125,-10,2,4,0,0,1003,-185,1614,-42,266,945,6.253,-0.034,-0.274,211.7,4.91,4.911,
