0/version,0/alive,0/tagId,0/success,0/timestamp,0/data/tagData/gyro/x,0/data/tagData/gyro/y,0/data/tagData/gyro/z,0/data/tagData/magnetic/x,0/data/tagData/magnetic/y,0/data/tagData/magnetic/z,0/data/tagData/quaternion/x,0/data/tagData/quaternion/y,0/data/tagData/quaternion/z,0/data/tagData/quaternion/w,0/data/tagData/linearAcceleration/x,0/data/tagData/linearAcceleration/y,0/data/tagData/linearAcceleration/z,0/data/tagData/pressure,0/data/tagData/maxLinearAcceleration,0/data/coordinates/x,0/data/coordinates/y,0/data/coordinates/z,0/data/acceleration/x,0/data/acceleration/y,0/data/acceleration/z,0/data/orientation/yaw,0/data/orientation/roll,0/data/orientation/pitch,0/data/metrics/latency,0/data/metrics/rates/update,0/data/metrics/rates/success,0/errorCode
1,true,26459,true,1581439467.806,-0.1875,-0.125,-0.0625,3.875,-27.5,-38.5,0.13623046875,0.019287109375,0.01483154296875,0.9903564453125,-10,2,4,0,0,-219,1051,1614,-42,266,945,6.253,-0.034,-0.274,150.4,5.385,5.385,
1,true,26459,true,1581439467.96,-0.1875,-0.125,-0.0625,3.875,-27.5,-38.5,0.13623046875,0.019287109375,0.01483154296875,0.9903564453125,-10,2,4,0,0,-256,1064,1614,-42,266,945,6.253,-0.034,-0.274,129.6,5.544,5.544,
1,true,26459,true,1581439468.111,-0.1875,-0.125,-0.0625,3.875,-27.5,-38.5,0.13623046875,0.019287109375,0.01483154296875,0.9903564453125,-10,2,4,0,0,-237,1055,1614,-42,266,945,6.253,-0.034,-0.274,215.1,5.376,5.376,
1,true,26459,true,1581439468.341,-0.1875,-0.125,-0.0625,3.875,-27.5,-38.5,0.13623046875,0.019287109375,0.01483154296875,0.9903564453125,-10,2,4,0,0,-242,1047,1614,-42,266,945,6.253,-0.034,-0.274,150.1,5.437,5.437,
1,true,26459,true,1581439468.496,-0.1875,-0.125,-0.0625,3.875,-27.5,-38.5,0.13623046875,0.019287109375,0.01483154296875,0.9903564453125,-10,2,4,0,0,-271,1083,1614,-42,266,945,6.253,-0.034,-0.274,187.2,5.413,5.413,
1,true,26459,true,1581439468.689,-0.1875,-0.125,-0.0625,3.875,-27.5,-38.5,0.13623046875,0.019287109375,0.01483154296875,0.9903564453125,-10,2,4,0,0,-234,1076,1614,-42,266,945,6.253,-0.034,-0.274,140,5.529,5.529,
1,true,26459,true,1581439468.832,-0.1875,-0.125,-0.0625,3.875,-27.5,-38.5,0.13623046875,0.019287109375,0.01483154296875,0.9903564453125,-10,2,4,0,0,-211,1047,1614,-42,266,945,6.253,-0.034,-0.274,212,5.428,5.428,
1,true,26459,true,1581439469.047,-0.1875,-0.125,-0.0625,3.875,-27.5,-38.5,0.13623046875,0.019287109375,0.01483154296875,0.9903564453125,-10,2,4,0,0,-241,1066,1614,-42,266,945,6.253,-0.034,-0.274,133.6,5.57,5.57,
1,true,26459,true,1581439469.189,-0.1875,-0.125,-0.0625,3.875,-27.5,-38.5,0.13623046875,0.019287109375,0.01483154296875,0.9903564453125,-10,2,4,0,0,-197,1062,1614,-42,266,945,6.253,-0.034,-0.274,144.6,5.656,5.656,
1,true,26459,true,1581439469.343,-0.1875,-0.125,-0.0625,3.875,-27.5,-38.5,0.13623046875,0.019287109375,0.01483154296875,0.9903564453125,-10,2,4,0,0,-237,1052,1614,-42,266,945,6.253,-0.034,-0.274,192.2,5.577,5.577,
1,true,26459,true,1581439469.539,-0.1875,-0.125,-0.0625,3.875,-27.5,-38.5,0.13623046875,0.019287109375,0.01483154296875,0.9903564453125,-10,2,4,0,0,-236,1063,1614,-42,266,945,6.253,-0.034,-0.274,150.4,5.657,5.657,
1,true,26459,true,1581439469.701,-0.1875,-0.125,-0.0625,3.875,-27.5,-38.5,0.13623046875,0.019287109375,0.01483154296875,0.9903564453125,-10,2,4,0,0,-258,1052,1614,-42,266,945,6.253,-0.034,-0.274,183.8,5.597,5.597,
1,true,26459,true,1581439469.891,-0.1875,-0.125,-0.0625,3.875,-27.5,-38.5,0.13623046875,0.019287109375,0.01483154296875,0.9903564453125,-10,2,4,0,0,-267,1066,1614,-42,266,945,6.253,-0.034,-0.274,131.1,5.729,5.729,
1,true,26459,true,1581439470.024,-0.1875,-0.125,-0.0625,3.875,-27.5,-38.5,0.13623046875,0.019287109375,0.01483154296875,0.9903564453125,-10,2,4,0,0,-253,1043,1614,-42,266,945,6.253,-0.034,-0.274,142.4,5.831,5.831,
1,true,26459,true,1581439470.185,-0.1875,-0.125,-0.0625,3.875,-27.5,-38.5,0.13623046875,0.019287109375,0.01483154296875,0.9903564453125,-10,2,4,0,0,-257,1037,1614,-42,266,945,6.253,-0.034,-0.274,168.5,5.779,5.779,
1,true,26459,true,1581439470.355,-0.1875,-0.125,-0.0625,3.875,-27.5,-38.5,0.13623046875,0.019287109375,0.01483154296875,0.9903564453125,-10,2,4,0,0,-231,1061,1614,-42,266,945,6.253,-0.034,-0.274,144.6,5.871,5.871,
1,true,26459,true,1581439470.502,-0.1875,-0.125,-0.0625,3.875,-27.5,-38.5,0.13623046875,0.019287109375,0.01483154296875,0.9903564453125,-10,2,4,0,0,-251,1070,1614,-42,266,945,6.253,-0.034,-0.274,136.3,5.98,5.98,
1,true,26459,true,1581439470.643,-0.1875,-0.125,-0.0625,3.875,-27.5,-38.5,0.13623046875,0.019287109375,0.01483154296875,0.9903564453125,-10,2,4,0,0,-237,1066,1614,-42,266,945,6.253,-0.034,-0.274,190.4,5.88,5.88,
1,true,26459,true,1581439470.838,-0.1875,-0.125,-0.0625,3.875,-27.5,-38.5,0.13623046875,0.019287109375,0.01483154296875,0.9903564453125,-10,2,4,0,0,-218,1041,1614,-42,266,945,6.253,-0.034,-0.274,129.3,6.009,6.009,
1,true,26459,true,1581439470.969,-0.1875,-0.125,-0.0625,3.875,-27.5,-38.5,0.13623046875,0.019287109375,0.01483154296875,0.9903564453125,-10,2,4,0,0,-227,1071,1614,-42,266,945,6.253,-0.034,-0.274,142.7,6.091,6.091,
1,true,26459,true,1581439471.134,-0.1875,-0.125,-0.0625,3.875,-27.5,-38.5,0.13623046875,0.019287109375,0.01483154296875,0.9903564453125,-10,2,4,0,0,-235,1151,1614,-42,266,945,6.253,-0.034,-0.274,179.9,5.952,5.953,
1,true,26459,true,1581439471.317,-0.1875,-0.125,-0.0625,3.875,-27.5,-38.5,0.13623046875,0.019287109375,0.01483154296875,0.9903564453125,-10,2,4,0,0,-250,1056,1614,-42,266,945,6.253,-0.034,-0.274,142.1,6.035,6.035,
1,true,26459,true,1581439471.461,-0.1875,-0.125,-0.0625,3.875,-27.5,-38.5,0.13623046875,0.019287109375,0.01483154296875,0.9903564453125,-10,2,4,0,0,-209,1053,1614,-42,266,945,6.253,-0.034,-0.274,136.4,6.137,6.137,
1,true,26459,true,1581439471.609,-0.1875,-0.125,-0.0625,3.875,-27.5,-38.5,0.13623046875,0.019287109375,0.01483154296875,0.9903564453125,-10,2,4,0,0,-248,1050,1614,-42,266,945,6.253,-0.034,-0.274,184.4,6.012,6.012,
1,true,26459,true,1581439471.795,-0.1875,-0.125,-0.0625,3.875,-27.5,-38.5,0.13623046875,0.019287109375,0.01483154296875,0.9903564453125,-10,2,4,0,0,-242,1080,1614,-42,266,945,6.253,-0.034,-0.274,139.8,6.105,6.105,
1,true,26459,true,1581439471.939,-0.1875,-0.125,-0.0625,3.875,-27.5,-38.5,0.13623046875,0.019287109375,0.01483154296875,0.9903564453125,-10,2,4,0,0,-243,1047,1614,-42,266,945,6.253,-0.034,-0.274,131.7,6.209,6.209,
1,true,26459,true,1581439472.081,-0.1875,-0.125,-0.0625,3.875,-27.5,-38.5,0.13623046875,0.019287109375,0.01483154296875,0.9903564453125,-10,2,4,0,0,-231,1046,1614,-42,266,945,6.253,-0.034,-0.274,190.6,6.061,6.061,
1,true,26459,true,1581439472.278,-0.1875,-0.125,-0.0625,3.875,-27.5,-38.5,0.13623046875,0.019287109375,0.01483154296875,0.9903564453125,-10,2,4,0,0,-249,1043,1614,-42,266,945,6.253,-0.034,-0.274,135.2,6.149,6.149,
1,true,26459,true,1581439472.415,-0.1875,-0.125,-0.0625,3.875,-27.5,-38.5,0.13623046875,0.019287109375,0.01483154296875,0.9903564453125,-10,2,4,0,0,-238,1058,1614,-42,266,945,6.253,-0.034,-0.274,146.4,6.202,6.202,
1,true,26459,true,1581439472.572,-0.1875,-0.125,-0.0625,3.875,-27.5,-38.5,0.13623046875,0.019287109375,0.01483154296875,0.9903564453125,-10,2,4,0,0,-266,1039,1614,-42,266,945,6.253,-0.034,-0.274,180.6,6.092,6.092,
1,true,26459,true,1581439472.755,-0.1875,-0.125,-0.0625,3.875,-27.5,-38.5,0.13623046875,0.019287109375,0.01483154296875,0.9903564453125,-10,2,4,0,0,-240,1029,1614,-42,266,945,6.253,-0.034,-0.274,130.8,6.209,6.209,
1,true,26459,true,1581439472.887,-0.1875,-0.125,-0.0625,3.875,-27.5,-38.5,0.13623046875,0.019287109375,0.01483154296875,0.9903564453125,-10,2,4,0,0,-272,1036,1614,-42,266,945,6.253,-0.034,-0.274,129.8,6.323,6.323,
1,true,26459,true,1581439473.021,-0.1875,-0.125,-0.0625,3.875,-27.5,-38.5,0.13623046875,0.019287109375,0.01483154296875,0.9903564453125,-10,2,4,0,0,-221,1031,1614,-42,266,945,6.253,-0.034,-0.274,136.2,6.398,6.398,
1,true,26459,true,1581439473.173,-0.1875,-0.125,-0.0625,3.875,-27.5,-38.5,0.13623046875,0.019287109375,0.01483154296875,0.9903564453125,-10,2,4,0,0,-247,1231,1614,-42,266,945,6.253,-0.034,-0.274,181.5,6.233,6.233,
1,true,26459,true,1581439473.357,-0.1875,-0.125,-0.0625,3.875,-27.5,-38.5,0.13623046875,0.019287109375,0.01483154296875,0.9903564453125,-10,2,4,0,0,-259,1051,1614,-42,266,945,6.253,-0.034,-0.274,153.1,6.255,6.255,
1,true,26459,true,1581439473.513,-0.1875,-0.125,-0.0625,3.875,-27.5,-38.5,0.13623046875,0.019287109375,0.01483154296875,0.9903564453125,-10,2,4,0,0,-250,1074,1614,-42,266,945,6.253,-0.034,-0.274,200.6,6.085,6.085,
1,true,26459,true,1581439473.719,-0.1875,-0.125,-0.0625,3.875,-27.5,-38.5,0.13623046875,0.019287109375,0.01483154296875,0.9903564453125,-10,2,4,0,0,-292,1062,1614,-42,266,945,6.253,-0.034,-0.274,146,6.134,6.134,
1,true,26459,true,1581439473.871,-0.1875,-0.125,-0.0625,3.875,-27.5,-38.5,0.13623046875,0.019287109375,0.01483154296875,0.9903564453125,-10,2,4,0,0,-247,1141,1614,-42,266,945,6.253,-0.034,-0.274,200.1,5.975,5.975,
1,true,26459,true,1581439474.08,-0.1875,-0.125,-0.0625,3.875,-27.5,-38.5,0.13623046875,0.019287109375,0.01483154296875,0.9903564453125,-10,2,4,0,0,-232,1045,1614,-42,266,945,6.253,-0.034,-0.274,138.1,6.049,6.049,
1,true,26459,true,1581439474.224,-0.1875,-0.125,-0.0625,3.875,-27.5,-38.5,0.13623046875,0.019287109375,0.01483154296875,0.9903564453125,-10,2,4,0,0,-257,1057,1614,-42,266,945,6.253,-0.034,-0.274,137.5,6.131,6.131,
1,true,26459,true,1581439474.367,-0.1875,-0.125,-0.0625,3.875,-27.5,-38.5,0.13623046875,0.019287109375,0.01483154296875,0.9903564453125,-10,2,4,0,0,-238,1038,1614,-42,266,945,6.253,-0.034,-0.274,193.2,6.003,6.003,
1,true,26459,true,1581439474.57,-0.1875,-0.125,-0.0625,3.875,-27.5,-38.5,0.13623046875,0.019287109375,0.01483154296875,0.9903564453125,-10,2,4,0,0,-213,1009,1614,-42,266,945,6.253,-0.034,-0.274,127.9,6.104,6.104,
1,true,26459,true,1581439474.7,-0.1875,-0.125,-0.0625,3.875,-27.5,-38.5,0.13623046875,0.019287109375,0.01483154296875,0.9903564453125,-10,2,4,0,0,-217,1067,1614,-42,266,945,6.253,-0.034,-0.274,133,6.214,6.214,
1,true,26459,true,1581439474.835,-0.1875,-0.125,-0.0625,3.875,-27.5,-38.5,0.13623046875,0.019287109375,0.01483154296875,0.9903564453125,-10,2,4,0,0,-239,1065,1614,-42,266,945,6.253,-0.034,-0.274,196.2,6.073,6.073,
1,true,26459,true,1581439475.034,-0.1875,-0.125,-0.0625,3.875,-27.5,-38.5,0.13623046875,0.019287109375,0.01483154296875,0.9903564453125,-10,2,4,0,0,-249,1027,1614,-42,266,945,6.253,-0.034,-0.274,132.9,6.181,6.181,
1,true,26459,true,1581439475.174,-0.1875,-0.125,-0.0625,3.875,-27.5,-38.5,0.13623046875,0.019287109375,0.01483154296875,0.9903564453125,-10,2,4,0,0,-210,1054,1614,-42,266,945,6.253,-0.034,-0.274,139.8,6.24,6.24,
1,true,26459,true,1581439475.318,-0.1875,-0.125,-0.0625,3.875,-27.5,-38.5,0.13623046875,0.019287109375,0.01483154296875,0.9903564453125,-10,2,4,0,0,-237,1054,1614,-42,266,945,6.253,-0.034,-0.274,193.6,6.099,6.099,
1,true,26459,true,1581439475.513,-0.1875,-0.125,-0.0625,3.875,-27.5,-38.5,0.13623046875,0.019287109375,0.01483154296875,0.9903564453125,-10,2,4,0,0,-275,1062,1614,-42,266,945,6.253,-0.034,-0.274,134.7,6.205,6.205,
1,true,26459,true,1581439475.664,-0.1875,-0.125,-0.0625,3.875,-27.5,-38.5,0.13623046875,0.019287109375,0.01483154296875,0.9903564453125,-10,2,4,0,0,-247,1041,1614,-42,266,945,6.253,-0.034,-0.274,126.5,6.274,6.274,
1,true,26459,true,1581439475.792,-0.1875,-0.125,-0.0625,3.875,-27.5,-38.5,0.13623046875,0.019287109375,0.01483154296875,0.9903564453125,-10,2,4,0,0,-243,1057,1614,-42,266,945,6.253,-0.034,-0.274,197.5,6.121,6.121,
1,true,26459,true,1581439475.993,-0.1875,-0.125,-0.0625,3.875,-27.5,-38.5,0.13623046875,0.019287109375,0.01483154296875,0.9903564453125,-10,2,4,0,0,-250,1063,1614,-42,266,945,6.253,-0.034,-0.274,132.6,6.228,6.228,
1,true,26459,true,1581439476.131,-0.1875,-0.125,-0.0625,3.875,-27.5,-38.5,0.13623046875,0.019287109375,0.01483154296875,0.9903564453125,-10,2,4,0,0,-259,1076,1614,-42,266,945,6.253,-0.034,-0.274,150.2,6.248,6.248,
1,true,26459,true,1581439476.293,-0.1875,-0.125,-0.0625,3.875,-27.5,-38.5,0.13623046875,0.019287109375,0.01483154296875,0.9903564453125,-10,2,4,0,0,-247,1060,1614,-42,266,945,6.253,-0.034,-0.274,195.3,6.068,6.068,
1,true,26459,true,1581439476.492,-0.1875,-0.125,-0.0625,3.875,-27.5,-38.5,0.13623046875,0.019287109375,0.01483154296875,0.9903564453125,-10,2,4,0,0,-245,1054,1614,-42,266,945,6.253,-0.034,-0.274,126.1,6.2,6.2,
1,true,26459,true,1581439476.623,-0.1875,-0.125,-0.0625,3.875,-27.5,-38.5,0.13623046875,0.019287109375,0.01483154296875,0.9903564453125,-10,2,4,0,0,-269,1047,1614,-42,266,945,6.253,-0.034,-0.274,142,6.257,6.257,
1,true,26459,true,1581439476.77,-0.1875,-0.125,-0.0625,3.875,-27.5,-38.5,0.13623046875,0.019287109375,0.01483154296875,0.9903564453125,-10,2,4,0,0,-238,1042,1614,-42,266,945,6.253,-0.034,-0.274,180.5,6.157,6.157,
1,true,26459,true,1581439476.952,-0.1875,-0.125,-0.0625,3.875,-27.5,-38.5,0.13623046875,0.019287109375,0.01483154296875,0.9903564453125,-10,2,4,0,0,-188,973,1614,-42,266,945,6.253,-0.034,-0.274,127.6,6.286,6.285,
1,true,26459,true,1581439477.093,-0.1875,-0.125,-0.0625,3.875,-27.5,-38.5,0.13623046875,0.019287109375,0.01483154296875,0.9903564453125,-10,2,4,0,0,-224,1032,1614,-42,266,945,6.253,-0.034,-0.274,136.9,6.319,6.319,
1,true,26459,true,1581439477.237,-0.1875,-0.125,-0.0625,3.875,-27.5,-38.5,0.13623046875,0.019287109375,0.01483154296875,0.9903564453125,-10,2,4,0,0,-215,1054,1614,-42,266,945,6.253,-0.034,-0.274,205.9,6.111,6.111,
1,true,26459,true,1581439477.449,-0.1875,-0.125,-0.0625,3.875,-27.5,-38.5,0.13623046875,0.019287109375,0.01483154296875,0.9903564453125,-10,2,4,0,0,-212,972,1614,-42,266,945,6.253,-0.034,-0.274,127.9,6.222,6.222,
1,true,26459,true,1581439477.584,-0.1875,-0.125,-0.0625,3.875,-27.5,-38.5,0.13623046875,0.019287109375,0.01483154296875,0.9903564453125,-10,2,4,0,0,-220,1063,1614,-42,266,945,6.253,-0.034,-0.274,143.4,6.26,6.26,
1,true,26459,true,1581439477.733,-0.1875,-0.125,-0.0625,3.875,-27.5,-38.5,0.13623046875,0.019287109375,0.01483154296875,0.9903564453125,-10,2,4,0,0,-229,1060,1614,-42,266,945,6.253,-0.034,-0.274,175.9,6.175,6.175,
1,true,26459,true,1581439477.911,-0.1875,-0.125,-0.0625,3.875,-27.5,-38.5,0.13623046875,0.019287109375,0.01483154296875,0.9903564453125,-10,2,4,0,0,-312,1062,1614,-42,266,945,6.253,-0.034,-0.274,127.2,6.304,6.304,
1,true,26459,true,1581439478.049,-0.1875,-0.125,-0.0625,3.875,-27.5,-38.5,0.13623046875,0.019287109375,0.01483154296875,0.9903564453125,-10,2,4,0,0,-243,1052,1614,-42,266,945,6.253,-0.034,-0.274,127.1,6.386,6.386,
1,true,26459,true,1581439478.182,-0.1875,-0.125,-0.0625,3.875,-27.5,-38.5,0.13623046875,0.019287109375,0.01483154296875,0.9903564453125,-10,2,4,0,0,-211,1008,1614,-42,266,945,6.253,-0.034,-0.274,140.2,6.43,6.43,
1,true,26459,true,1581439478.328,-0.1875,-0.125,-0.0625,3.875,-27.5,-38.5,0.13623046875,0.019287109375,0.01483154296875,0.9903564453125,-10,2,4,0,0,-249,1097,1614,-42,266,945,6.253,-0.034,-0.274,185.2,6.288,6.288,
1,true,26459,true,1581439478.515,-0.1875,-0.125,-0.0625,3.875,-27.5,-38.5,0.13623046875,0.019287109375,0.01483154296875,0.9903564453125,-10,2,4,0,0,-278,1076,1614,-42,266,945,6.253,-0.034,-0.274,129.3,6.4,6.4,
1,true,26459,true,1581439478.649,-0.1875,-0.125,-0.0625,3.875,-27.5,-38.5,0.13623046875,0.019287109375,0.01483154296875,0.9903564453125,-10,2,4,0,0,-202,945,1614,-42,266,945,6.253,-0.034,-0.274,126.8,6.5,6.5,
1,true,26459,true,1581439478.778,-0.1875,-0.125,-0.0625,3.875,-27.5,-38.5,0.13623046875,0.019287109375,0.01483154296875,0.9903564453125,-10,2,4,0,0,-232,1055,1614,-42,266,945,6.253,-0.034,-0.274,144.5,6.535,6.535,
1,true,26459,true,1581439478.926,-0.1875,-0.125,-0.0625,3.875,-27.5,-38.5,0.13623046875,0.019287109375,0.01483154296875,0.9903564453125,-10,2,4,0,0,-247,1075,1614,-42,266,945,6.253,-0.034,-0.274,183,6.391,6.391,
1,true,26459,true,1581439479.116,-0.1875,-0.125,-0.0625,3.875,-27.5,-38.5,0.13623046875,0.019287109375,0.01483154296875,0.9903564453125,-10,2,4,0,0,-232,1044,1614,-42,266,945,6.253,-0.034,-0.274,122.5,6.505,6.505,
1,true,26459,true,1581439479.251,-0.1875,-0.125,-0.0625,3.875,-27.5,-38.5,0.13623046875,0.019287109375,0.01483154296875,0.9903564453125,-10,2,4,0,0,-256,1045,1614,-42,266,945,6.253,-0.034,-0.274,129.1,6.558,6.558,
1,true,26459,true,1581439479.384,-0.1875,-0.125,-0.0625,3.875,-27.5,-38.5,0.13623046875,0.019287109375,0.01483154296875,0.9903564453125,-10,2,4,0,0,-228,1049,1614,-42,266,945,6.253,-0.034,-0.274,152.8,6.542,6.542,
1,true,26459,true,1581439479.551,-0.1875,-0.125,-0.0625,3.875,-27.5,-38.5,0.13623046875,0.019287109375,0.01483154296875,0.9903564453125,-10,2,4,0,0,-233,1050,1614,-42,266,945,6.253,-0.034,-0.274,160.6,6.447,6.448,
1,true,26459,true,1581439479.713,-0.1875,-0.125,-0.0625,3.875,-27.5,-38.5,0.13623046875,0.019287109375,0.01483154296875,0.9903564453125,-10,2,4,0,0,-243,1045,1614,-42,266,945,6.253,-0.034,-0.274,138.6,6.509,6.509,
1,true,26459,true,1581439479.856,-0.1875,-0.125,-0.0625,3.875,-27.5,-38.5,0.13623046875,0.019287109375,0.01483154296875,0.9903564453125,-10,2,4,0,0,-239,1063,1614,-42,266,945,6.253,-0.034,-0.274,133.5,6.578,6.578,
1,true,26459,true,1581439479.995,-0.1875,-0.125,-0.0625,3.875,-27.5,-38.5,0.13623046875,0.019287109375,0.01483154296875,0.9903564453125,-10,2,4,0,0,-317,1049,1614,-42,266,945,6.253,-0.034,-0.274,214.7,6.299,6.299,
1,true,26459,true,1581439480.225,-0.1875,-0.125,-0.0625,3.875,-27.5,-38.5,0.13623046875,0.019287109375,0.01483154296875,0.9903564453125,-10,2,4,0,0,-230,1050,1614,-42,266,945,6.253,-0.034,-0.274,222.4,5.999,5.999,
1,true,26459,true,1581439480.454,-0.1875,-0.125,-0.0625,3.875,-27.5,-38.5,0.13623046875,0.019287109375,0.01483154296875,0.9903564453125,-10,2,4,0,0,-228,1025,1614,-42,266,945,6.253,-0.034,-0.274,144.7,6.053,6.053,
1,true,26459,true,1581439480.602,-0.1875,-0.125,-0.0625,3.875,-27.5,-38.5,0.13623046875,0.019287109375,0.01483154296875,0.9903564453125,-10,2,4,0,0,-260,1043,1614,-42,266,945,6.253,-0.034,-0.274,201.4,5.912,5.912,
1,true,26459,true,1581439480.814,-0.1875,-0.125,-0.0625,3.875,-27.5,-38.5,0.13623046875,0.019287109375,0.01483154296875,0.9903564453125,-10,2,4,0,0,-181,1053,1614,-42,266,945,6.253,-0.034,-0.274,127.7,6.019,6.02,
1,true,26459,true,1581439480.944,-0.1875,-0.125,-0.0625,3.875,-27.5,-38.5,0.13623046875,0.019287109375,0.01483154296875,0.9903564453125,-10,2,4,0,0,-249,1031,1614,-42,266,945,6.253,-0.034,-0.274,133.9,6.133,6.133,
1,true,26459,true,1581439481.091,-0.1875,-0.125,-0.0625,3.875,-27.5,-38.5,0.13623046875,0.019287109375,0.01483154296875,0.9903564453125,-10,2,4,0,0,-241,1034,1614,-42,266,945,6.253,-0.034,-0.274,177.4,6.031,6.031,
1,true,26459,true,1581439481.275,-0.1875,-0.125,-0.0625,3.875,-27.5,-38.5,0.13623046875,0.019287109375,0.01483154296875,0.9903564453125,-10,2,4,0,0,-232,1049,1614,-42,266,945,6.253,-0.034,-0.274,144.9,6.085,6.085,
1,true,26459,true,1581439481.425,-0.1875,-0.125,-0.0625,3.875,-27.5,-38.5,0.13623046875,0.019287109375,0.01483154296875,0.9903564453125,-10,2,4,0,0,-226,1042,1614,-42,266,945,6.253,-0.034,-0.274,208.9,5.91,5.91,
1,true,26459,true,1581439481.647,-0.1875,-0.125,-0.0625,3.875,-27.5,-38.5,0.13623046875,0.019287109375,0.01483154296875,0.9903564453125,-10,2,4,0,0,-210,1048,1614,-42,266,945,6.253,-0.034,-0.274,128.6,6.002,6.002,
1,true,26459,true,1581439481.778,-0.1875,-0.125,-0.0625,3.875,-27.5,-38.5,0.13623046875,0.019287109375,0.01483154296875,0.9903564453125,-10,2,4,0,0,-246,1036,1614,-42,266,945,6.253,-0.034,-0.274,132.3,6.119,6.119,
1,true,26459,true,1581439481.915,-0.1875,-0.125,-0.0625,3.875,-27.5,-38.5,0.13623046875,0.019287109375,0.01483154296875,0.9903564453125,-10,2,4,0,0,-224,1042,1614,-42,266,945,6.253,-0.034,-0.274,193.5,5.992,5.992,
1,true,26459,false,1581439482.227,,,,,,,,,,,,,,,,,,,,,,,,,,,,NO ERROR
1,true,26459,true,1581439482.233,-0.1875,-0.125,-0.0625,3.875,-27.5,-38.5,0.13623046875,0.019287109375,0.01483154296875,0.9903564453125,-10,2,4,0,0,-246,1064,1614,-42,266,945,6.253,-0.034,-0.274,128.5,6.279,5.699,
1,true,26459,true,1581439482.364,-0.1875,-0.125,-0.0625,3.875,-27.5,-38.5,0.13623046875,0.019287109375,0.01483154296875,0.9903564453125,-10,2,4,0,0,-224,975,1614,-42,266,945,6.253,-0.034,-0.274,140.3,6.346,5.809,
1,true,26459,true,1581439482.516,-0.1875,-0.125,-0.0625,3.875,-27.5,-38.5,0.13623046875,0.019287109375,0.01483154296875,0.9903564453125,-10,2,4,0,0,-257,1047,1614,-42,266,945,6.253,-0.034,-0.274,191.7,6.163,5.702,
1,true,26459,true,1581439482.71,-0.1875,-0.125,-0.0625,3.875,-27.5,-38.5,0.13623046875,0.019287109375,0.01483154296875,0.9903564453125,-10,2,4,0,0,-222,1029,1614,-42,266,945,6.253,-0.034,-0.274,128.2,6.288,5.854,
1,true,26459,true,1581439482.84,-0.1875,-0.125,-0.0625,3.875,-27.5,-38.5,0.13623046875,0.019287109375,0.01483154296875,0.9903564453125,-10,2,4,0,0,-217,1061,1614,-42,266,945,6.253,-0.034,-0.274,147,6.328,5.929,
1,true,26459,true,1581439482.991,-0.1875,-0.125,-0.0625,3.875,-27.5,-38.5,0.13623046875,0.019287109375,0.01483154296875,0.9903564453125,-10,2,4,0,0,-235,1051,1614,-42,266,945,6.253,-0.034,-0.274,196.7,6.162,5.819,
1,true,26459,true,1581439483.197,-0.1875,-0.125,-0.0625,3.875,-27.5,-38.5,0.13623046875,0.019287109375,0.01483154296875,0.9903564453125,-10,2,4,0,0,-292,1081,1614,-42,266,945,6.253,-0.034,-0.274,138.1,6.219,5.903,
1,true,26459,true,1581439483.341,-0.1875,-0.125,-0.0625,3.875,-27.5,-38.5,0.13623046875,0.019287109375,0.01483154296875,0.9903564453125,-10,2,4,0,0,-251,1047,1614,-42,266,945,6.253,-0.034,-0.274,140.8,6.275,5.984,
1,true,26459,true,1581439483.484,-0.1875,-0.125,-0.0625,3.875,-27.5,-38.5,0.13623046875,0.019287109375,0.01483154296875,0.9903564453125,-10,2,4,0,0,-259,1042,1614,-42,266,945,6.253,-0.034,-0.274,183.1,6.172,5.917,
1,true,26459,true,1581439483.672,-0.1875,-0.125,-0.0625,3.875,-27.5,-38.5,0.13623046875,0.019287109375,0.01483154296875,0.9903564453125,-10,2,4,0,0,-248,1042,1614,-42,266,945,6.253,-0.034,-0.274,129.5,6.281,6.043,
1,true,26459,true,1581439483.803,-0.1875,-0.125,-0.0625,3.875,-27.5,-38.5,0.13623046875,0.019287109375,0.01483154296875,0.9903564453125,-10,2,4,0,0,-230,1020,1614,-42,266,945,6.253,-0.034,-0.274,142.1,6.341,6.122,
1,true,26459,true,1581439483.95,-0.1875,-0.125,-0.0625,3.875,-27.5,-38.5,0.13623046875,0.019287109375,0.01483154296875,0.9903564453125,-10,2,4,0,0,-236,1046,1614,-42,266,945,6.253,-0.034,-0.274,208.1,6.13,5.944,
1,true,26459,true,1581439484.172,-0.1875,-0.125,-0.0625,3.875,-27.5,-38.5,0.13623046875,0.019287109375,0.01483154296875,0.9903564453125,-10,2,4,0,0,-228,1047,1614,-42,266,945,6.253,-0.034,-0.274,135.7,6.178,6.008,
1,true,26459,true,1581439484.314,-0.1875,-0.125,-0.0625,3.875,-27.5,-38.5,0.13623046875,0.019287109375,0.01483154296875,0.9903564453125,-10,2,4,0,0,-256,1066,1614,-42,266,945,6.253,-0.034,-0.274,202.1,6.007,5.862,
1,true,26459,true,1581439484.52,-0.1875,-0.125,-0.0625,3.875,-27.5,-38.5,0.13623046875,0.019287109375,0.01483154296875,0.9903564453125,-10,2,4,0,0,-220,1047,1614,-42,266,945,6.253,-0.034,-0.274,133.6,6.111,5.975,
1,true,26459,true,1581439484.659,-0.1875,-0.125,-0.0625,3.875,-27.5,-38.5,0.13623046875,0.019287109375,0.01483154296875,0.9903564453125,-10,2,4,0,0,-233,1044,1614,-42,266,945,6.253,-0.034,-0.274,138.4,6.188,6.063,
1,true,26459,true,1581439484.803,-0.1875,-0.125,-0.0625,3.875,-27.5,-38.5,0.13623046875,0.019287109375,0.01483154296875,0.9903564453125,-10,2,4,0,0,-244,1075,1614,-42,266,945,6.253,-0.034,-0.274,183.6,6.083,5.974,
1,true,26459,true,1581439484.988,-0.1875,-0.125,-0.0625,3.875,-27.5,-38.5,0.13623046875,0.019287109375,0.01483154296875,0.9903564453125,-10,2,4,0,0,-234,1062,1614,-42,266,945,6.253,-0.034,-0.274,130.5,6.204,6.101,
1,true,26459,true,1581439485.129,-0.1875,-0.125,-0.0625,3.875,-27.5,-38.5,0.13623046875,0.019287109375,0.01483154296875,0.9903564453125,-10,2,4,0,0,-235,1038,1614,-42,266,945,6.253,-0.034,-0.274,127,6.3,6.205,
1,true,26459,true,1581439485.267,-0.1875,-0.125,-0.0625,3.875,-27.5,-38.5,0.13623046875,0.019287109375,0.01483154296875,0.9903564453125,-10,2,4,0,0,-217,1052,1614,-42,266,945,6.253,-0.034,-0.274,214.4,6.048,5.969,
1,true,26459,true,1581439485.489,-0.1875,-0.125,-0.0625,3.875,-27.5,-38.5,0.13623046875,0.019287109375,0.01483154296875,0.9903564453125,-10,2,4,0,0,-246,1083,1614,-42,266,945,6.253,-0.034,-0.274,153,6.062,5.991,
1,true,26459,true,1581439485.652,-0.1875,-0.125,-0.0625,3.875,-27.5,-38.5,0.13623046875,0.019287109375,0.01483154296875,0.9903564453125,-10,2,4,0,0,-238,1057,1614,-42,266,945,6.253,-0.034,-0.274,173.5,5.993,5.93,
1,true,26459,true,1581439485.828,-0.1875,-0.125,-0.0625,3.875,-27.5,-38.5,0.13623046875,0.019287109375,0.01483154296875,0.9903564453125,-10,2,4,0,0,-250,1064,1614,-42,266,945,6.253,-0.034,-0.274,139.4,6.084,6.026,
1,true,26459,true,1581439485.969,-0.1875,-0.125,-0.0625,3.875,-27.5,-38.5,0.13623046875,0.019287109375,0.01483154296875,0.9903564453125,-10,2,4,0,0,-255,1074,1614,-42,266,945,6.253,-0.034,-0.274,133.4,6.194,6.139,
1,true,26459,true,1581439486.113,-0.1875,-0.125,-0.0625,3.875,-27.5,-38.5,0.13623046875,0.019287109375,0.01483154296875,0.9903564453125,-10,2,4,0,0,-253,1066,1614,-42,266,945,6.253,-0.034,-0.274,193.8,6.036,5.989,
1,true,26459,true,1581439486.317,-0.1875,-0.125,-0.0625,3.875,-27.5,-38.5,0.13623046875,0.019287109375,0.01483154296875,0.9903564453125,-10,2,4,0,0,-233,1059,1614,-42,266,945,6.253,-0.034,-0.274,134.5,6.112,6.069,
1,true,26459,true,1581439486.454,-0.1875,-0.125,-0.0625,3.875,-27.5,-38.5,0.13623046875,0.019287109375,0.01483154296875,0.9903564453125,-10,2,4,0,0,-259,1064,1614,-42,266,945,6.253,-0.034,-0.274,141.8,6.185,6.145,
1,true,26459,true,1581439486.609,-0.1875,-0.125,-0.0625,3.875,-27.5,-38.5,0.13623046875,0.019287109375,0.01483154296875,0.9903564453125,-10,2,4,0,0,-241,1054,1614,-42,266,945,6.253,-0.034,-0.274,177,6.078,6.044,
1,true,26459,true,1581439486.788,-0.1875,-0.125,-0.0625,3.875,-27.5,-38.5,0.13623046875,0.019287109375,0.01483154296875,0.9903564453125,-10,2,4,0,0,-252,1048,1614,-42,266,945,6.253,-0.034,-0.274,128.2,6.21,6.177,
1,true,26459,true,1581439486.919,-0.1875,-0.125,-0.0625,3.875,-27.5,-38.5,0.13623046875,0.019287109375,0.01483154296875,0.9903564453125,-10,2,4,0,0,-227,1060,1614,-42,266,945,6.253,-0.034,-0.274,137.5,6.288,6.258,
1,true,26459,true,1581439487.063,-0.1875,-0.125,-0.0625,3.875,-27.5,-38.5,0.13623046875,0.019287109375,0.01483154296875,0.9903564453125,-10,2,4,0,0,-254,1075,1614,-42,266,945,6.253,-0.034,-0.274,206.9,6.082,6.057,
1,true,26459,true,1581439487.272,-0.1875,-0.125,-0.0625,3.875,-27.5,-38.5,0.13623046875,0.019287109375,0.01483154296875,0.9903564453125,-10,2,4,0,0,-233,1052,1614,-42,266,945,6.253,-0.034,-0.274,126.4,6.218,6.194,
1,true,26459,true,1581439487.399,-0.1875,-0.125,-0.0625,3.875,-27.5,-38.5,0.13623046875,0.019287109375,0.01483154296875,0.9903564453125,-10,2,4,0,0,-227,1063,1614,-42,266,945,6.253,-0.034,-0.274,143.5,6.281,6.259,
1,true,26459,true,1581439487.555,-0.1875,-0.125,-0.0625,3.875,-27.5,-38.5,0.13623046875,0.019287109375,0.01483154296875,0.9903564453125,-10,2,4,0,0,-225,1038,1614,-42,266,945,6.253,-0.034,-0.274,200.6,6.077,6.058,
1,true,26459,true,1581439487.762,-0.1875,-0.125,-0.0625,3.875,-27.5,-38.5,0.13623046875,0.019287109375,0.01483154296875,0.9903564453125,-10,2,4,0,0,-241,1066,1614,-42,266,945,6.253,-0.034,-0.274,128.5,6.187,6.17,
1,true,26459,true,1581439487.893,-0.1875,-0.125,-0.0625,3.875,-27.5,-38.5,0.13623046875,0.019287109375,0.01483154296875,0.9903564453125,-10,2,4,0,0,-232,1056,1614,-42,266,945,6.253,-0.034,-0.274,143.8,6.251,6.235,
1,true,26459,true,1581439488.05,-0.1875,-0.125,-0.0625,3.875,-27.5,-38.5,0.13623046875,0.019287109375,0.01483154296875,0.9903564453125,-10,2,4,0,0,-234,1010,1614,-42,266,945,6.253,-0.034,-0.274,175.3,6.136,6.123,
1,true,26459,true,1581439488.232,-0.1875,-0.125,-0.0625,3.875,-27.5,-38.5,0.13623046875,0.019287109375,0.01483154296875,0.9903564453125,-10,2,4,0,0,-273,1052,1614,-42,266,945,6.253,-0.034,-0.274,145.2,6.181,6.168,
1,true,26459,true,1581439488.382,-0.1875,-0.125,-0.0625,3.875,-27.5,-38.5,0.13623046875,0.019287109375,0.01483154296875,0.9903564453125,-10,2,4,0,0,-222,1032,1614,-42,266,945,6.253,-0.034,-0.274,214.1,5.971,5.961,
1,true,26459,true,1581439488.61,-0.1875,-0.125,-0.0625,3.875,-27.5,-38.5,0.13623046875,0.019287109375,0.01483154296875,0.9903564453125,-10,2,4,0,0,-260,1044,1614,-42,266,945,6.253,-0.034,-0.274,143.8,6.005,5.996,
1,true,26459,true,1581439488.759,-0.1875,-0.125,-0.0625,3.875,-27.5,-38.5,0.13623046875,0.019287109375,0.01483154296875,0.9903564453125,-10,2,4,0,0,-236,1047,1614,-42,266,945,6.253,-0.034,-0.274,186.2,5.917,5.909,
1,true,26459,true,1581439488.947,-0.1875,-0.125,-0.0625,3.875,-27.5,-38.5,0.13623046875,0.019287109375,0.01483154296875,0.9903564453125,-10,2,4,0,0,-213,993,1614,-42,266,945,6.253,-0.034,-0.274,130.7,6.047,6.039,
1,true,26459,true,1581439489.082,-0.1875,-0.125,-0.0625,3.875,-27.5,-38.5,0.13623046875,0.019287109375,0.01483154296875,0.9903564453125,-10,2,4,0,0,-218,1040,1614,-42,266,945,6.253,-0.034,-0.274,137.8,6.133,6.125,
1,true,26459,true,1581439489.235,-0.1875,-0.125,-0.0625,3.875,-27.5,-38.5,0.13623046875,0.019287109375,0.01483154296875,0.9903564453125,-10,2,4,0,0,-226,1041,1614,-42,266,945,6.253,-0.034,-0.274,188.8,5.982,5.976,
1,true,26459,true,1581439489.428,-0.1875,-0.125,-0.0625,3.875,-27.5,-38.5,0.13623046875,0.019287109375,0.01483154296875,0.9903564453125,-10,2,4,0,0,-236,1046,1614,-42,266,945,6.253,-0.034,-0.274,148.5,6.037,6.031,
1,true,26459,true,1581439489.591,-0.1875,-0.125,-0.0625,3.875,-27.5,-38.5,0.13623046875,0.019287109375,0.01483154296875,0.9903564453125,-10,2,4,0,0,-233,1038,1614,-42,266,945,6.253,-0.034,-0.274,193.9,5.881,5.876,
1,true,26459,true,1581439489.792,-0.1875,-0.125,-0.0625,3.875,-27.5,-38.5,0.13623046875,0.019287109375,0.01483154296875,0.9903564453125,-10,2,4,0,0,-211,964,1614,-42,266,945,6.253,-0.034,-0.274,135.7,5.981,5.976,
1,true,26459,true,1581439489.931,-0.1875,-0.125,-0.0625,3.875,-27.5,-38.5,0.13623046875,0.019287109375,0.01483154296875,0.9903564453125,-10,2,4,0,0,-233,1058,1614,-42,266,945,6.253,-0.034,-0.274,142.9,6.056,6.051,
1,true,26459,true,1581439490.084,-0.1875,-0.125,-0.0625,3.875,-27.5,-38.5,0.13623046875,0.019287109375,0.01483154296875,0.9903564453125,-10,2,4,0,0,-224,1040,1614,-42,266,945,6.253,-0.034,-0.274,188.6,5.932,5.929,
1,true,26459,true,1581439490.278,-0.1875,-0.125,-0.0625,3.875,-27.5,-38.5,0.13623046875,0.019287109375,0.01483154296875,0.9903564453125,-10,2,4,0,0,-230,1047,1614,-42,266,945,6.253,-0.034,-0.274,130.7,6.049,6.046,
1,true,26459,true,1581439490.413,-0.1875,-0.125,-0.0625,3.875,-27.5,-38.5,0.13623046875,0.019287109375,0.01483154296875,0.9903564453125,-10,2,4,0,0,-234,1049,1614,-42,266,945,6.253,-0.034,-0.274,154.3,6.076,6.073,
1,true,26459,true,1581439490.58,-0.1875,-0.125,-0.0625,3.875,-27.5,-38.5,0.13623046875,0.019287109375,0.01483154296875,0.9903564453125,-10,2,4,0,0,-250,1029,1614,-42,266,945,6.253,-0.034,-0.274,164.2,6.031,6.029,
1,true,26459,true,1581439490.746,-0.1875,-0.125,-0.0625,3.875,-27.5,-38.5,0.13623046875,0.019287109375,0.01483154296875,0.9903564453125,-10,2,4,0,0,-239,1041,1614,-42,266,945,6.253,-0.034,-0.274,130.9,6.153,6.15,
1,true,26459,true,1581439490.878,-0.1875,-0.125,-0.0625,3.875,-27.5,-38.5,0.13623046875,0.019287109375,0.01483154296875,0.9903564453125,-10,2,4,0,0,-231,1031,1614,-42,266,945,6.253,-0.034,-0.274,165.4,6.138,6.136,
1,true,26459,true,1581439491.063,-0.1875,-0.125,-0.0625,3.875,-27.5,-38.5,0.13623046875,0.019287109375,0.01483154296875,0.9903564453125,-10,2,4,0,0,-224,1055,1614,-42,266,945,6.253,-0.034,-0.274,162.9,6.066,6.064,
1,true,26459,true,1581439491.233,-0.1875,-0.125,-0.0625,3.875,-27.5,-38.5,0.13623046875,0.019287109375,0.01483154296875,0.9903564453125,-10,2,4,0,0,-233,1043,1614,-42,266,945,6.253,-0.034,-0.274,137.4,6.141,6.139,
1,true,26459,true,1581439491.373,-0.1875,-0.125,-0.0625,3.875,-27.5,-38.5,0.13623046875,0.019287109375,0.01483154296875,0.9903564453125,-10,2,4,0,0,-255,1057,1614,-42,266,945,6.253,-0.034,-0.274,131.3,6.252,6.251,
1,true,26459,true,1581439491.51,-0.1875,-0.125,-0.0625,3.875,-27.5,-38.5,0.13623046875,0.019287109375,0.01483154296875,0.9903564453125,-10,2,4,0,0,-234,1030,1614,-42,266,945,6.253,-0.034,-0.274,208,6.051,6.05,
1,true,26459,true,1581439491.721,-0.1875,-0.125,-0.0625,3.875,-27.5,-38.5,0.13623046875,0.019287109375,0.01483154296875,0.9903564453125,-10,2,4,0,0,-244,1052,1614,-42,266,945,6.253,-0.034,-0.274,129.4,6.172,6.171,
1,true,26459,true,1581439491.852,-0.1875,-0.125,-0.0625,3.875,-27.5,-38.5,0.13623046875,0.019287109375,0.01483154296875,0.9903564453125,-10,2,4,0,0,-236,1058,1614,-42,266,945,6.253,-0.034,-0.274,144.3,6.235,6.233,
1,true,26459,true,1581439492,-0.1875,-0.125,-0.0625,3.875,-27.5,-38.5,0.13623046875,0.019287109375,0.01483154296875,0.9903564453125,-10,2,4,0,0,-253,1121,1614,-42,266,945,6.253,-0.034,-0.274,183.1,6.134,6.133,
1,true,26459,true,1581439492.191,-0.1875,-0.125,-0.0625,3.875,-27.5,-38.5,0.13623046875,0.019287109375,0.01483154296875,0.9903564453125,-10,2,4,0,0,-252,1054,1614,-42,266,945,6.253,-0.034,-0.274,145.5,6.169,6.168,
1,true,26459,false,1581439492.535,,,,,,,,,,,,,,,,,,,,,,,,,,,,NO ERROR
1,true,26459,true,1581439492.537,-0.1875,-0.125,-0.0625,3.875,-27.5,-38.5,0.13623046875,0.019287109375,0.01483154296875,0.9903564453125,-10,2,4,0,0,-220,1042,1614,-42,266,945,6.253,-0.034,-0.274,136.4,6.136,5.569,
1,true,26459,true,1581439492.683,-0.1875,-0.125,-0.0625,3.875,-27.5,-38.5,0.13623046875,0.019287109375,0.01483154296875,0.9903564453125,-10,2,4,0,0,-240,1053,1614,-42,266,945,6.253,-0.034,-0.274,127.2,6.233,5.703,
1,true,26459,true,1581439492.813,-0.1875,-0.125,-0.0625,3.875,-27.5,-38.5,0.13623046875,0.019287109375,0.01483154296875,0.9903564453125,-10,2,4,0,0,-236,1057,1614,-42,266,945,6.253,-0.034,-0.274,145,6.286,5.796,
1,true,26459,true,1581439492.962,-0.1875,-0.125,-0.0625,3.875,-27.5,-38.5,0.13623046875,0.019287109375,0.01483154296875,0.9903564453125,-10,2,4,0,0,-263,1072,1614,-42,266,945,6.253,-0.034,-0.274,189.5,6.152,5.726,
1,true,26459,true,1581439493.163,-0.1875,-0.125,-0.0625,3.875,-27.5,-38.5,0.13623046875,0.019287109375,0.01483154296875,0.9903564453125,-10,2,4,0,0,-230,1048,1614,-42,266,945,6.253,-0.034,-0.274,134.8,6.214,5.82,
1,true,26459,true,1581439493.311,-0.1875,-0.125,-0.0625,3.875,-27.5,-38.5,0.13623046875,0.019287109375,0.01483154296875,0.9903564453125,-10,2,4,0,0,-256,1064,1614,-42,266,945,6.253,-0.034,-0.274,191.6,6.047,5.709,
1,true,26459,true,1581439493.506,-0.1875,-0.125,-0.0625,3.875,-27.5,-38.5,0.13623046875,0.019287109375,0.01483154296875,0.9903564453125,-10,2,4,0,0,-228,1038,1614,-42,266,945,6.253,-0.034,-0.274,130.3,6.167,5.849,
1,true,26459,true,1581439493.646,-0.1875,-0.125,-0.0625,3.875,-27.5,-38.5,0.13623046875,0.019287109375,0.01483154296875,0.9903564453125,-10,2,4,0,0,-234,1056,1614,-42,266,945,6.253,-0.034,-0.274,165.7,6.118,5.834,
1,true,26459,true,1581439493.825,-0.1875,-0.125,-0.0625,3.875,-27.5,-38.5,0.13623046875,0.019287109375,0.01483154296875,0.9903564453125,-10,2,4,0,0,-228,1031,1614,-42,266,945,6.253,-0.034,-0.274,158.5,6.084,5.831,
1,true,26459,true,1581439493.986,-0.1875,-0.125,-0.0625,3.875,-27.5,-38.5,0.13623046875,0.019287109375,0.01483154296875,0.9903564453125,-10,2,4,0,0,-271,1167,1614,-42,266,945,6.253,-0.034,-0.274,131.3,6.202,5.964,
1,true,26459,true,1581439494.128,-0.1875,-0.125,-0.0625,3.875,-27.5,-38.5,0.13623046875,0.019287109375,0.01483154296875,0.9903564453125,-10,2,4,0,0,-255,1069,1614,-42,266,945,6.253,-0.034,-0.274,134.3,6.262,6.043,
1,true,26459,true,1581439494.268,-0.1875,-0.125,-0.0625,3.875,-27.5,-38.5,0.13623046875,0.019287109375,0.01483154296875,0.9903564453125,-10,2,4,0,0,-233,1060,1614,-42,266,945,6.253,-0.034,-0.274,216.8,6.027,5.844,
1,true,26459,true,1581439494.492,-0.1875,-0.125,-0.0625,3.875,-27.5,-38.5,0.13623046875,0.019287109375,0.01483154296875,0.9903564453125,-10,2,4,0,0,-241,1058,1614,-42,266,945,6.253,-0.034,-0.274,138.3,6.104,5.934,
1,true,26459,true,1581439494.64,-0.1875,-0.125,-0.0625,3.875,-27.5,-38.5,0.13623046875,0.019287109375,0.01483154296875,0.9903564453125,-10,2,4,0,0,-255,1065,1614,-42,266,945,6.253,-0.034,-0.274,192.5,5.965,5.818,
1,true,26459,true,1581439494.838,-0.1875,-0.125,-0.0625,3.875,-27.5,-38.5,0.13623046875,0.019287109375,0.01483154296875,0.9903564453125,-10,2,4,0,0,-245,1081,1614,-42,266,945,6.253,-0.034,-0.274,130.6,6.075,5.938,
1,true,26459,true,1581439494.971,-0.1875,-0.125,-0.0625,3.875,-27.5,-38.5,0.13623046875,0.019287109375,0.01483154296875,0.9903564453125,-10,2,4,0,0,-257,1042,1614,-42,266,945,6.253,-0.034,-0.274,143.6,6.146,6.019,
1,true,26459,true,1581439495.133,-0.1875,-0.125,-0.0625,3.875,-27.5,-38.5,0.13623046875,0.019287109375,0.01483154296875,0.9903564453125,-10,2,4,0,0,-276,1074,1614,-42,266,945,6.253,-0.034,-0.274,168.3,6.055,5.945,
1,true,26459,true,1581439495.304,-0.1875,-0.125,-0.0625,3.875,-27.5,-38.5,0.13623046875,0.019287109375,0.01483154296875,0.9903564453125,-10,2,4,0,0,-216,1084,1614,-42,266,945,6.253,-0.034,-0.274,127.4,6.19,6.086,
1,true,26459,true,1581439495.434,-0.1875,-0.125,-0.0625,3.875,-27.5,-38.5,0.13623046875,0.019287109375,0.01483154296875,0.9903564453125,-10,2,4,0,0,-217,1032,1614,-42,266,945,6.253,-0.034,-0.274,134.3,6.284,6.188,
1,true,26459,true,1581439495.572,-0.1875,-0.125,-0.0625,3.875,-27.5,-38.5,0.13623046875,0.019287109375,0.01483154296875,0.9903564453125,-10,2,4,0,0,-242,1032,1614,-42,266,945,6.253,-0.034,-0.274,141.7,6.341,6.252,
1,true,26459,true,1581439495.717,-0.1875,-0.125,-0.0625,3.875,-27.5,-38.5,0.13623046875,0.019287109375,0.01483154296875,0.9903564453125,-10,2,4,0,0,-242,1047,1614,-42,266,945,6.253,-0.034,-0.274,183.9,6.22,6.143,
1,true,26459,true,1581439495.904,-0.1875,-0.125,-0.0625,3.875,-27.5,-38.5,0.13623046875,0.019287109375,0.01483154296875,0.9903564453125,-10,2,4,0,0,-216,957,1614,-42,266,945,6.253,-0.034,-0.274,131.1,6.327,6.256,
1,true,26459,true,1581439496.038,-0.1875,-0.125,-0.0625,3.875,-27.5,-38.5,0.13623046875,0.019287109375,0.01483154296875,0.9903564453125,-10,2,4,0,0,-229,1035,1614,-42,266,945,6.253,-0.034,-0.274,130.6,6.425,6.358,
1,true,26459,true,1581439496.176,-0.1875,-0.125,-0.0625,3.875,-27.5,-38.5,0.13623046875,0.019287109375,0.01483154296875,0.9903564453125,-10,2,4,0,0,-241,1046,1614,-42,266,945,6.253,-0.034,-0.274,148.2,6.426,6.366,
1,true,26459,true,1581439496.328,-0.1875,-0.125,-0.0625,3.875,-27.5,-38.5,0.13623046875,0.019287109375,0.01483154296875,0.9903564453125,-10,2,4,0,0,-251,1061,1614,-42,266,945,6.253,-0.034,-0.274,174.7,6.335,6.282,
1,true,26459,true,1581439496.504,-0.1875,-0.125,-0.0625,3.875,-27.5,-38.5,0.13623046875,0.019287109375,0.01483154296875,0.9903564453125,-10,2,4,0,0,-283,1041,1614,-42,266,945,6.253,-0.034,-0.274,130.2,6.442,6.393,
1,true,26459,true,1581439496.64,-0.1875,-0.125,-0.0625,3.875,-27.5,-38.5,0.13623046875,0.019287109375,0.01483154296875,0.9903564453125,-10,2,4,0,0,-246,1053,1614,-42,266,945,6.253,-0.034,-0.274,141,6.478,6.433,
1,true,26459,true,1581439496.784,-0.1875,-0.125,-0.0625,3.875,-27.5,-38.5,0.13623046875,0.019287109375,0.01483154296875,0.9903564453125,-10,2,4,0,0,-250,1030,1614,-42,266,945,6.253,-0.034,-0.274,196.8,6.29,6.253,
1,true,26459,true,1581439496.983,-0.1875,-0.125,-0.0625,3.875,-27.5,-38.5,0.13623046875,0.019287109375,0.01483154296875,0.9903564453125,-10,2,4,0,0,-229,1080,1614,-42,266,945,6.253,-0.034,-0.274,124,6.424,6.389,
1,true,26459,true,1581439497.112,-0.1875,-0.125,-0.0625,3.875,-27.5,-38.5,0.13623046875,0.019287109375,0.01483154296875,0.9903564453125,-10,2,4,0,0,-215,1036,1614,-42,266,945,6.253,-0.034,-0.274,149,6.433,6.401,
1,true,26459,true,1581439497.277,-0.1875,-0.125,-0.0625,3.875,-27.5,-38.5,0.13623046875,0.019287109375,0.01483154296875,0.9903564453125,-10,2,4,0,0,-239,1060,1614,-42,266,945,6.253,-0.034,-0.274,204,6.175,6.148,
1,true,26459,true,1581439497.487,-0.1875,-0.125,-0.0625,3.875,-27.5,-38.5,0.13623046875,0.019287109375,0.01483154296875,0.9903564453125,-10,2,4,0,0,-222,1042,1614,-42,266,945,6.253,-0.034,-0.274,132.6,6.263,6.238,
1,true,26459,true,1581439497.629,-0.1875,-0.125,-0.0625,3.875,-27.5,-38.5,0.13623046875,0.019287109375,0.01483154296875,0.9903564453125,-10,2,4,0,0,-284,1026,1614,-42,266,945,6.253,-0.034,-0.274,202.1,6.069,6.048,
1,true,26459,true,1581439497.838,-0.1875,-0.125,-0.0625,3.875,-27.5,-38.5,0.13623046875,0.019287109375,0.01483154296875,0.9903564453125,-10,2,4,0,0,-225,1057,1614,-42,266,945,6.253,-0.034,-0.274,129.8,6.173,6.154,
1,true,26459,true,1581439497.97,-0.1875,-0.125,-0.0625,3.875,-27.5,-38.5,0.13623046875,0.019287109375,0.01483154296875,0.9903564453125,-10,2,4,0,0,-233,1051,1614,-42,266,945,6.253,-0.034,-0.274,163,6.162,6.144,
1,true,26459,true,1581439498.15,-0.1875,-0.125,-0.0625,3.875,-27.5,-38.5,0.13623046875,0.019287109375,0.01483154296875,0.9903564453125,-10,2,4,0,0,-234,1066,1614,-42,266,945,6.253,-0.034,-0.274,167.7,6.077,6.061,
1,true,26459,true,1581439498.335,-0.1875,-0.125,-0.0625,3.875,-27.5,-38.5,0.13623046875,0.019287109375,0.01483154296875,0.9903564453125,-10,2,4,0,0,-240,1075,1614,-42,266,945,6.253,-0.034,-0.274,220.7,5.818,5.805,
1,true,26459,true,1581439498.561,-0.1875,-0.125,-0.0625,3.875,-27.5,-38.5,0.13623046875,0.019287109375,0.01483154296875,0.9903564453125,-10,2,4,0,0,-209,1032,1614,-42,266,945,6.253,-0.034,-0.274,126.7,5.955,5.943,
1,true,26459,true,1581439498.695,-0.1875,-0.125,-0.0625,3.875,-27.5,-38.5,0.13623046875,0.019287109375,0.01483154296875,0.9903564453125,-10,2,4,0,0,-238,1075,1614,-42,266,945,6.253,-0.034,-0.274,143.8,6.017,6.006,
1,true,26459,true,1581439498.845,-0.1875,-0.125,-0.0625,3.875,-27.5,-38.5,0.13623046875,0.019287109375,0.01483154296875,0.9903564453125,-10,2,4,0,0,-247,1026,1614,-42,266,945,6.253,-0.034,-0.274,186.9,5.918,5.908,
1,true,26459,true,1581439499.034,-0.1875,-0.125,-0.0625,3.875,-27.5,-38.5,0.13623046875,0.019287109375,0.01483154296875,0.9903564453125,-10,2,4,0,0,-234,1043,1614,-42,266,945,6.253,-0.034,-0.274,128.5,6.056,6.047,
1,true,26459,true,1581439499.182,-0.1875,-0.125,-0.0625,3.875,-27.5,-38.5,0.13623046875,0.019287109375,0.01483154296875,0.9903564453125,-10,2,4,0,0,-274,1090,1614,-42,266,945,6.253,-0.034,-0.274,232.4,5.755,5.748,
1,true,26459,true,1581439499.424,-0.1875,-0.125,-0.0625,3.875,-27.5,-38.5,0.13623046875,0.019287109375,0.01483154296875,0.9903564453125,-10,2,4,0,0,-212,1041,1614,-42,266,945,6.253,-0.034,-0.274,206.8,5.616,5.61,
1,true,26459,true,1581439499.633,-0.1875,-0.125,-0.0625,3.875,-27.5,-38.5,0.13623046875,0.019287109375,0.01483154296875,0.9903564453125,-10,2,4,0,0,-230,1020,1614,-42,266,945,6.253,-0.034,-0.274,151.1,5.698,5.692,
1,true,26459,true,1581439499.8,-0.1875,-0.125,-0.0625,3.875,-27.5,-38.5,0.13623046875,0.019287109375,0.01483154296875,0.9903564453125,-10,2,4,0,0,-250,1161,1614,-42,266,945,6.253,-0.034,-0.274,194.1,5.586,5.581,
1,true,26459,true,1581439500.001,-0.1875,-0.125,-0.0625,3.875,-27.5,-38.5,0.13623046875,0.019287109375,0.01483154296875,0.9903564453125,-10,2,4,0,0,-240,1034,1614,-42,266,945,6.253,-0.034,-0.274,153.2,5.646,5.642,
1,true,26459,true,1581439500.167,-0.1875,-0.125,-0.0625,3.875,-27.5,-38.5,0.13623046875,0.019287109375,0.01483154296875,0.9903564453125,-10,2,4,0,0,-245,1036,1614,-42,266,945,6.253,-0.034,-0.274,181.3,5.594,5.59,
1,true,26459,true,1581439500.356,-0.1875,-0.125,-0.0625,3.875,-27.5,-38.5,0.13623046875,0.019287109375,0.01483154296875,0.9903564453125,-10,2,4,0,0,-244,1051,1614,-42,266,945,6.253,-0.034,-0.274,143.5,5.68,5.676,
1,true,26459,true,1581439500.504,-0.1875,-0.125,-0.0625,3.875,-27.5,-38.5,0.13623046875,0.019287109375,0.01483154296875,0.9903564453125,-10,2,4,0,0,-230,1078,1614,-42,266,945,6.253,-0.034,-0.274,215.6,5.541,5.538,
1,true,26459,true,1581439500.735,-0.1875,-0.125,-0.0625,3.875,-27.5,-38.5,0.13623046875,0.019287109375,0.01483154296875,0.9903564453125,-10,2,4,0,0,-254,1051,1614,-42,266,945,6.253,-0.034,-0.274,219,5.381,5.378,
1,true,26459,true,1581439500.961,-0.1875,-0.125,-0.0625,3.875,-27.5,-38.5,0.13623046875,0.019287109375,0.01483154296875,0.9903564453125,-10,2,4,0,0,-238,1070,1614,-42,266,945,6.253,-0.034,-0.274,148.7,5.47,5.468,
1,true,26459,true,1581439501.114,-0.1875,-0.125,-0.0625,3.875,-27.5,-38.5,0.13623046875,0.019287109375,0.01483154296875,0.9903564453125,-10,2,4,0,0,-199,1036,1614,-42,266,945,6.253,-0.034,-0.274,193.8,5.425,5.423,
1,true,26459,true,1581439501.327,-0.1875,-0.125,-0.0625,3.875,-27.5,-38.5,0.13623046875,0.019287109375,0.01483154296875,0.9903564453125,-10,2,4,0,0,-241,1042,1614,-42,266,945,6.253,-0.034,-0.274,144.8,5.486,5.484,
1,true,26459,true,1581439501.479,-0.1875,-0.125,-0.0625,3.875,-27.5,-38.5,0.13623046875,0.019287109375,0.01483154296875,0.9903564453125,-10,2,4,0,0,-243,1065,1614,-42,266,945,6.253,-0.034,-0.274,210.2,5.385,5.383,
