0/version,0/alive,0/tagId,0/success,0/timestamp,0/data/tagData/gyro/x,0/data/tagData/gyro/y,0/data/tagData/gyro/z,0/data/tagData/magnetic/x,0/data/tagData/magnetic/y,0/data/tagData/magnetic/z,0/data/tagData/quaternion/x,0/data/tagData/quaternion/y,0/data/tagData/quaternion/z,0/data/tagData/quaternion/w,0/data/tagData/linearAcceleration/x,0/data/tagData/linearAcceleration/y,0/data/tagData/linearAcceleration/z,0/data/tagData/pressure,0/data/tagData/maxLinearAcceleration,0/data/coordinates/x,0/data/coordinates/y,0/data/coordinates/z,0/data/acceleration/x,0/data/acceleration/y,0/data/acceleration/z,0/data/orientation/yaw,0/data/orientation/roll,0/data/orientation/pitch,0/data/metrics/latency,0/data/metrics/rates/update,0/data/metrics/rates/success,0/errorCode
1,true,26459,true,1581440819.135,-0.1875,-0.125,-0.0625,3.875,-27.5,-38.5,0.13623046875,0.019287109375,0.01483154296875,0.9903564453125,-10,2,4,0,0,5209,-119,1614,-42,266,945,6.253,-0.034,-0.274,206.9,6.535,6.535,
1,true,26459,true,1581440819.344,-0.1875,-0.125,-0.0625,3.875,-27.5,-38.5,0.13623046875,0.019287109375,0.01483154296875,0.9903564453125,-10,2,4,0,0,5220,-225,1614,-42,266,945,6.253,-0.034,-0.274,122.3,6.658,6.658,
1,true,26459,true,1581440819.467,-0.1875,-0.125,-0.0625,3.875,-27.5,-38.5,0.13623046875,0.019287109375,0.01483154296875,0.9903564453125,-10,2,4,0,0,5065,-207,1614,-42,266,945,6.253,-0.034,-0.274,135.8,6.718,6.718,
1,true,26459,true,1581440819.613,-0.1875,-0.125,-0.0625,3.875,-27.5,-38.5,0.13623046875,0.019287109375,0.01483154296875,0.9903564453125,-10,2,4,0,0,5014,-215,1614,-42,266,945,6.253,-0.034,-0.274,203.4,6.438,6.438,
1,true,26459,true,1581440819.818,-0.1875,-0.125,-0.0625,3.875,-27.5,-38.5,0.13623046875,0.019287109375,0.01483154296875,0.9903564453125,-10,2,4,0,0,5070,-216,1614,-42,266,945,6.253,-0.034,-0.274,130.9,6.533,6.533,
1,true,26459,true,1581440819.951,-0.1875,-0.125,-0.0625,3.875,-27.5,-38.5,0.13623046875,0.019287109375,0.01483154296875,0.9903564453125,-10,2,4,0,0,4978,-213,1614,-42,266,945,6.253,-0.034,-0.274,126.1,6.643,6.643,
1,true,26459,true,1581440820.079,-0.1875,-0.125,-0.0625,3.875,-27.5,-38.5,0.13623046875,0.019287109375,0.01483154296875,0.9903564453125,-10,2,4,0,0,4998,-205,1614,-42,266,945,6.253,-0.034,-0.274,137,6.693,6.693,
1,true,26459,true,1581440820.219,-0.1875,-0.125,-0.0625,3.875,-27.5,-38.5,0.13623046875,0.019287109375,0.01483154296875,0.9903564453125,-10,2,4,0,0,5077,-195,1614,-42,266,945,6.253,-0.034,-0.274,197.8,6.472,6.472,
1,true,26459,true,1581440820.419,-0.1875,-0.125,-0.0625,3.875,-27.5,-38.5,0.13623046875,0.019287109375,0.01483154296875,0.9903564453125,-10,2,4,0,0,4989,-214,1614,-42,266,945,6.253,-0.034,-0.274,125.2,6.586,6.586,
1,true,26459,true,1581440820.547,-0.1875,-0.125,-0.0625,3.875,-27.5,-38.5,0.13623046875,0.019287109375,0.01483154296875,0.9903564453125,-10,2,4,0,0,5124,-302,1614,-42,266,945,6.253,-0.034,-0.274,124.6,6.693,6.693,
1,true,26459,true,1581440820.675,-0.1875,-0.125,-0.0625,3.875,-27.5,-38.5,0.13623046875,0.019287109375,0.01483154296875,0.9903564453125,-10,2,4,0,0,5078,-201,1614,-42,266,945,6.253,-0.034,-0.274,127.1,6.778,6.778,
1,true,26459,true,1581440820.805,-0.1875,-0.125,-0.0625,3.875,-27.5,-38.5,0.13623046875,0.019287109375,0.01483154296875,0.9903564453125,-10,2,4,0,0,4975,-224,1614,-42,266,945,6.253,-0.034,-0.274,130.3,6.846,6.846,
1,true,26459,true,1581440820.937,-0.1875,-0.125,-0.0625,3.875,-27.5,-38.5,0.13623046875,0.019287109375,0.01483154296875,0.9903564453125,-10,2,4,0,0,5020,-211,1614,-42,266,945,6.253,-0.034,-0.274,197.9,6.605,6.605,
1,true,26459,true,1581440821.14,-0.1875,-0.125,-0.0625,3.875,-27.5,-38.5,0.13623046875,0.019287109375,0.01483154296875,0.9903564453125,-10,2,4,0,0,4997,-216,1614,-42,266,945,6.253,-0.034,-0.274,123.9,6.702,6.702,
1,true,26459,true,1581440821.265,-0.1875,-0.125,-0.0625,3.875,-27.5,-38.5,0.13623046875,0.019287109375,0.01483154296875,0.9903564453125,-10,2,4,0,0,5688,-364,1614,-42,266,945,6.253,-0.034,-0.274,126.8,6.799,6.799,
1,true,26459,true,1581440821.395,-0.1875,-0.125,-0.0625,3.875,-27.5,-38.5,0.13623046875,0.019287109375,0.01483154296875,0.9903564453125,-10,2,4,0,0,4950,-186,1614,-42,266,945,6.253,-0.034,-0.274,122.3,6.9,6.9,
1,true,26459,true,1581440821.521,-0.1875,-0.125,-0.0625,3.875,-27.5,-38.5,0.13623046875,0.019287109375,0.01483154296875,0.9903564453125,-10,2,4,0,0,5096,-241,1614,-42,266,945,6.253,-0.034,-0.274,130.3,6.953,6.953,
1,true,26459,true,1581440821.653,-0.1875,-0.125,-0.0625,3.875,-27.5,-38.5,0.13623046875,0.019287109375,0.01483154296875,0.9903564453125,-10,2,4,0,0,5155,-226,1614,-42,266,945,6.253,-0.034,-0.274,208.1,6.652,6.652,
1,true,26459,true,1581440821.862,-0.1875,-0.125,-0.0625,3.875,-27.5,-38.5,0.13623046875,0.019287109375,0.01483154296875,0.9903564453125,-10,2,4,0,0,5193,-196,1614,-42,266,945,6.253,-0.034,-0.274,126.1,6.753,6.753,
1,true,26459,true,1581440821.99,-0.1875,-0.125,-0.0625,3.875,-27.5,-38.5,0.13623046875,0.019287109375,0.01483154296875,0.9903564453125,-10,2,4,0,0,5057,-248,1614,-42,266,945,6.253,-0.034,-0.274,125.6,6.849,6.849,
1,true,26459,true,1581440822.12,-0.1875,-0.125,-0.0625,3.875,-27.5,-38.5,0.13623046875,0.019287109375,0.01483154296875,0.9903564453125,-10,2,4,0,0,5264,-106,1614,-42,266,945,6.253,-0.034,-0.274,126.1,6.924,6.924,
1,true,26459,true,1581440822.247,-0.1875,-0.125,-0.0625,3.875,-27.5,-38.5,0.13623046875,0.019287109375,0.01483154296875,0.9903564453125,-10,2,4,0,0,5351,-204,1614,-42,266,945,6.253,-0.034,-0.274,127.1,7.002,7.002,
1,true,26459,true,1581440822.376,-0.1875,-0.125,-0.0625,3.875,-27.5,-38.5,0.13623046875,0.019287109375,0.01483154296875,0.9903564453125,-10,2,4,0,0,5021,-202,1614,-42,266,945,6.253,-0.034,-0.274,198.2,6.735,6.735,
1,true,26459,true,1581440822.58,-0.1875,-0.125,-0.0625,3.875,-27.5,-38.5,0.13623046875,0.019287109375,0.01483154296875,0.9903564453125,-10,2,4,0,0,5362,-227,1614,-42,266,945,6.253,-0.034,-0.274,129.6,6.793,6.793,
1,true,26459,true,1581440822.716,-0.1875,-0.125,-0.0625,3.875,-27.5,-38.5,0.13623046875,0.019287109375,0.01483154296875,0.9903564453125,-10,2,4,0,0,5208,-225,1614,-42,266,945,6.253,-0.034,-0.274,126,6.863,6.863,
1,true,26459,true,1581440822.844,-0.1875,-0.125,-0.0625,3.875,-27.5,-38.5,0.13623046875,0.019287109375,0.01483154296875,0.9903564453125,-10,2,4,0,0,5077,-221,1614,-42,266,945,6.253,-0.034,-0.274,132.1,6.917,6.917,
1,true,26459,true,1581440822.981,-0.1875,-0.125,-0.0625,3.875,-27.5,-38.5,0.13623046875,0.019287109375,0.01483154296875,0.9903564453125,-10,2,4,0,0,5269,-211,1614,-42,266,945,6.253,-0.034,-0.274,193.1,6.669,6.669,
1,true,26459,true,1581440823.176,-0.1875,-0.125,-0.0625,3.875,-27.5,-38.5,0.13623046875,0.019287109375,0.01483154296875,0.9903564453125,-10,2,4,0,0,4995,-192,1614,-42,266,945,6.253,-0.034,-0.274,130.8,6.746,6.746,
1,true,26459,true,1581440823.309,-0.1875,-0.125,-0.0625,3.875,-27.5,-38.5,0.13623046875,0.019287109375,0.01483154296875,0.9903564453125,-10,2,4,0,0,4992,-192,1614,-42,266,945,6.253,-0.034,-0.274,128.6,6.83,6.83,
1,true,26459,true,1581440823.439,-0.1875,-0.125,-0.0625,3.875,-27.5,-38.5,0.13623046875,0.019287109375,0.01483154296875,0.9903564453125,-10,2,4,0,0,5008,-212,1614,-42,266,945,6.253,-0.034,-0.274,137,6.868,6.868,
1,true,26459,true,1581440823.581,-0.1875,-0.125,-0.0625,3.875,-27.5,-38.5,0.13623046875,0.019287109375,0.01483154296875,0.9903564453125,-10,2,4,0,0,5095,-207,1614,-42,266,945,6.253,-0.034,-0.274,192.3,6.63,6.63,
1,true,26459,true,1581440823.779,-0.1875,-0.125,-0.0625,3.875,-27.5,-38.5,0.13623046875,0.019287109375,0.01483154296875,0.9903564453125,-10,2,4,0,0,5015,-206,1614,-42,266,945,6.253,-0.034,-0.274,128.7,6.702,6.702,
1,true,26459,true,1581440823.91,-0.1875,-0.125,-0.0625,3.875,-27.5,-38.5,0.13623046875,0.019287109375,0.01483154296875,0.9903564453125,-10,2,4,0,0,4972,-186,1614,-42,266,945,6.253,-0.034,-0.274,125.7,6.797,6.797,
1,true,26459,true,1581440824.039,-0.1875,-0.125,-0.0625,3.875,-27.5,-38.5,0.13623046875,0.019287109375,0.01483154296875,0.9903564453125,-10,2,4,0,0,5028,-200,1614,-42,266,945,6.253,-0.034,-0.274,134.3,6.843,6.843,
1,true,26459,true,1581440824.175,-0.1875,-0.125,-0.0625,3.875,-27.5,-38.5,0.13623046875,0.019287109375,0.01483154296875,0.9903564453125,-10,2,4,0,0,5049,-201,1614,-42,266,945,6.253,-0.034,-0.274,198.3,6.6,6.6,
1,true,26459,true,1581440824.376,-0.1875,-0.125,-0.0625,3.875,-27.5,-38.5,0.13623046875,0.019287109375,0.01483154296875,0.9903564453125,-10,2,4,0,0,5003,-204,1614,-42,266,945,6.253,-0.034,-0.274,131.5,6.678,6.678,
1,true,26459,true,1581440824.509,-0.1875,-0.125,-0.0625,3.875,-27.5,-38.5,0.13623046875,0.019287109375,0.01483154296875,0.9903564453125,-10,2,4,0,0,5074,-223,1614,-42,266,945,6.253,-0.034,-0.274,127.8,6.77,6.77,
1,true,26459,true,1581440824.642,-0.1875,-0.125,-0.0625,3.875,-27.5,-38.5,0.13623046875,0.019287109375,0.01483154296875,0.9903564453125,-10,2,4,0,0,5031,-212,1614,-42,266,945,6.253,-0.034,-0.274,131.5,6.82,6.82,
1,true,26459,true,1581440824.776,-0.1875,-0.125,-0.0625,3.875,-27.5,-38.5,0.13623046875,0.019287109375,0.01483154296875,0.9903564453125,-10,2,4,0,0,5152,-211,1614,-42,266,945,6.253,-0.034,-0.274,197,6.581,6.581,
1,true,26459,true,1581440824.975,-0.1875,-0.125,-0.0625,3.875,-27.5,-38.5,0.13623046875,0.019287109375,0.01483154296875,0.9903564453125,-10,2,4,0,0,5024,-207,1614,-42,266,945,6.253,-0.034,-0.274,132.2,6.661,6.661,
1,true,26459,true,1581440825.112,-0.1875,-0.125,-0.0625,3.875,-27.5,-38.5,0.13623046875,0.019287109375,0.01483154296875,0.9903564453125,-10,2,4,0,0,5146,-211,1614,-42,266,945,6.253,-0.034,-0.274,128.2,6.739,6.738,
1,true,26459,true,1581440825.243,-0.1875,-0.125,-0.0625,3.875,-27.5,-38.5,0.13623046875,0.019287109375,0.01483154296875,0.9903564453125,-10,2,4,0,0,5062,-187,1614,-42,266,945,6.253,-0.034,-0.274,130.9,6.808,6.808,
1,true,26459,true,1581440825.376,-0.1875,-0.125,-0.0625,3.875,-27.5,-38.5,0.13623046875,0.019287109375,0.01483154296875,0.9903564453125,-10,2,4,0,0,5022,-225,1614,-42,266,945,6.253,-0.034,-0.274,193.8,6.587,6.587,
1,true,26459,true,1581440825.573,-0.1875,-0.125,-0.0625,3.875,-27.5,-38.5,0.13623046875,0.019287109375,0.01483154296875,0.9903564453125,-10,2,4,0,0,4981,-179,1614,-42,266,945,6.253,-0.034,-0.274,135.5,6.645,6.645,
1,true,26459,true,1581440825.715,-0.1875,-0.125,-0.0625,3.875,-27.5,-38.5,0.13623046875,0.019287109375,0.01483154296875,0.9903564453125,-10,2,4,0,0,4985,-184,1614,-42,266,945,6.253,-0.034,-0.274,119.8,6.751,6.751,
1,true,26459,true,1581440825.836,-0.1875,-0.125,-0.0625,3.875,-27.5,-38.5,0.13623046875,0.019287109375,0.01483154296875,0.9903564453125,-10,2,4,0,0,5009,-286,1614,-42,266,945,6.253,-0.034,-0.274,132.4,6.819,6.819,
1,true,26459,true,1581440825.973,-0.1875,-0.125,-0.0625,3.875,-27.5,-38.5,0.13623046875,0.019287109375,0.01483154296875,0.9903564453125,-10,2,4,0,0,4992,-206,1614,-42,266,945,6.253,-0.034,-0.274,196.4,6.574,6.574,
1,true,26459,true,1581440826.171,-0.1875,-0.125,-0.0625,3.875,-27.5,-38.5,0.13623046875,0.019287109375,0.01483154296875,0.9903564453125,-10,2,4,0,0,5171,-250,1614,-42,266,945,6.253,-0.034,-0.274,130.2,6.662,6.662,
1,true,26459,true,1581440826.303,-0.1875,-0.125,-0.0625,3.875,-27.5,-38.5,0.13623046875,0.019287109375,0.01483154296875,0.9903564453125,-10,2,4,0,0,4998,-202,1614,-42,266,945,6.253,-0.034,-0.274,138.7,6.706,6.706,
1,true,26459,true,1581440826.444,-0.1875,-0.125,-0.0625,3.875,-27.5,-38.5,0.13623046875,0.019287109375,0.01483154296875,0.9903564453125,-10,2,4,0,0,5152,-242,1614,-42,266,945,6.253,-0.034,-0.274,122.6,6.818,6.818,
1,true,26459,true,1581440826.572,-0.1875,-0.125,-0.0625,3.875,-27.5,-38.5,0.13623046875,0.019287109375,0.01483154296875,0.9903564453125,-10,2,4,0,0,5099,-141,1614,-42,266,945,6.253,-0.034,-0.274,200.3,6.555,6.555,
1,true,26459,true,1581440826.779,-0.1875,-0.125,-0.0625,3.875,-27.5,-38.5,0.13623046875,0.019287109375,0.01483154296875,0.9903564453125,-10,2,4,0,0,5108,-249,1614,-42,266,945,6.253,-0.034,-0.274,121.4,6.662,6.662,
1,true,26459,true,1581440826.902,-0.1875,-0.125,-0.0625,3.875,-27.5,-38.5,0.13623046875,0.019287109375,0.01483154296875,0.9903564453125,-10,2,4,0,0,5071,-137,1614,-42,266,945,6.253,-0.034,-0.274,118.3,6.796,6.796,
1,true,26459,true,1581440827.023,-0.1875,-0.125,-0.0625,3.875,-27.5,-38.5,0.13623046875,0.019287109375,0.01483154296875,0.9903564453125,-10,2,4,0,0,5024,-219,1614,-42,266,945,6.253,-0.034,-0.274,136,6.836,6.836,
1,true,26459,true,1581440827.161,-0.1875,-0.125,-0.0625,3.875,-27.5,-38.5,0.13623046875,0.019287109375,0.01483154296875,0.9903564453125,-10,2,4,0,0,5119,-211,1614,-42,266,945,6.253,-0.034,-0.274,132.2,6.893,6.893,
1,true,26459,true,1581440827.294,-0.1875,-0.125,-0.0625,3.875,-27.5,-38.5,0.13623046875,0.019287109375,0.01483154296875,0.9903564453125,-10,2,4,0,0,5009,-224,1614,-42,266,945,6.253,-0.034,-0.274,192.9,6.667,6.667,
1,true,26459,true,1581440827.49,-0.1875,-0.125,-0.0625,3.875,-27.5,-38.5,0.13623046875,0.019287109375,0.01483154296875,0.9903564453125,-10,2,4,0,0,5031,-210,1614,-42,266,945,6.253,-0.034,-0.274,131.3,6.739,6.739,
1,true,26459,true,1581440827.625,-0.1875,-0.125,-0.0625,3.875,-27.5,-38.5,0.13623046875,0.019287109375,0.01483154296875,0.9903564453125,-10,2,4,0,0,5011,-213,1614,-42,266,945,6.253,-0.034,-0.274,134.7,6.786,6.785,
1,true,26459,true,1581440827.762,-0.1875,-0.125,-0.0625,3.875,-27.5,-38.5,0.13623046875,0.019287109375,0.01483154296875,0.9903564453125,-10,2,4,0,0,5073,-208,1614,-42,266,945,6.253,-0.034,-0.274,133,6.841,6.841,
1,true,26459,true,1581440827.897,-0.1875,-0.125,-0.0625,3.875,-27.5,-38.5,0.13623046875,0.019287109375,0.01483154296875,0.9903564453125,-10,2,4,0,0,5054,-128,1614,-42,266,945,6.253,-0.034,-0.274,195,6.614,6.614,
1,true,26459,true,1581440828.097,-0.1875,-0.125,-0.0625,3.875,-27.5,-38.5,0.13623046875,0.019287109375,0.01483154296875,0.9903564453125,-10,2,4,0,0,5072,-203,1614,-42,266,945,6.253,-0.034,-0.274,127.1,6.696,6.696,
1,true,26459,true,1581440828.226,-0.1875,-0.125,-0.0625,3.875,-27.5,-38.5,0.13623046875,0.019287109375,0.01483154296875,0.9903564453125,-10,2,4,0,0,5020,-206,1614,-42,266,945,6.253,-0.034,-0.274,132.1,6.765,6.765,
1,true,26459,true,1581440828.361,-0.1875,-0.125,-0.0625,3.875,-27.5,-38.5,0.13623046875,0.019287109375,0.01483154296875,0.9903564453125,-10,2,4,0,0,5082,-125,1614,-42,266,945,6.253,-0.034,-0.274,124.1,6.863,6.863,
1,true,26459,true,1581440828.489,-0.1875,-0.125,-0.0625,3.875,-27.5,-38.5,0.13623046875,0.019287109375,0.01483154296875,0.9903564453125,-10,2,4,0,0,5023,-267,1614,-42,266,945,6.253,-0.034,-0.274,206.2,6.573,6.573,
1,true,26459,true,1581440828.704,-0.1875,-0.125,-0.0625,3.875,-27.5,-38.5,0.13623046875,0.019287109375,0.01483154296875,0.9903564453125,-10,2,4,0,0,5052,-223,1614,-42,266,945,6.253,-0.034,-0.274,130.4,6.627,6.628,
1,true,26459,true,1581440828.836,-0.1875,-0.125,-0.0625,3.875,-27.5,-38.5,0.13623046875,0.019287109375,0.01483154296875,0.9903564453125,-10,2,4,0,0,5055,-202,1614,-42,266,945,6.253,-0.034,-0.274,132.4,6.702,6.702,
1,true,26459,true,1581440828.972,-0.1875,-0.125,-0.0625,3.875,-27.5,-38.5,0.13623046875,0.019287109375,0.01483154296875,0.9903564453125,-10,2,4,0,0,5006,-204,1614,-42,266,945,6.253,-0.034,-0.274,198.9,6.474,6.474,
1,true,26459,true,1581440829.173,-0.1875,-0.125,-0.0625,3.875,-27.5,-38.5,0.13623046875,0.019287109375,0.01483154296875,0.9903564453125,-10,2,4,0,0,5026,-177,1614,-42,266,945,6.253,-0.034,-0.274,131.7,6.562,6.562,
1,true,26459,true,1581440829.306,-0.1875,-0.125,-0.0625,3.875,-27.5,-38.5,0.13623046875,0.019287109375,0.01483154296875,0.9903564453125,-10,2,4,0,0,5030,-228,1614,-42,266,945,6.253,-0.034,-0.274,125.9,6.67,6.67,
1,true,26459,true,1581440829.433,-0.1875,-0.125,-0.0625,3.875,-27.5,-38.5,0.13623046875,0.019287109375,0.01483154296875,0.9903564453125,-10,2,4,0,0,5020,-215,1614,-42,266,945,6.253,-0.034,-0.274,117.5,6.812,6.812,
1,true,26459,true,1581440829.555,-0.1875,-0.125,-0.0625,3.875,-27.5,-38.5,0.13623046875,0.019287109375,0.01483154296875,0.9903564453125,-10,2,4,0,0,5018,-206,1614,-42,266,945,6.253,-0.034,-0.274,138,6.833,6.833,
1,true,26459,true,1581440829.696,-0.1875,-0.125,-0.0625,3.875,-27.5,-38.5,0.13623046875,0.019287109375,0.01483154296875,0.9903564453125,-10,2,4,0,0,4998,-195,1614,-42,266,945,6.253,-0.034,-0.274,194.9,6.599,6.599,
1,true,26459,true,1581440829.893,-0.1875,-0.125,-0.0625,3.875,-27.5,-38.5,0.13623046875,0.019287109375,0.01483154296875,0.9903564453125,-10,2,4,0,0,5001,-217,1614,-42,266,945,6.253,-0.034,-0.274,132.7,6.676,6.676,
1,true,26459,true,1581440830.027,-0.1875,-0.125,-0.0625,3.875,-27.5,-38.5,0.13623046875,0.019287109375,0.01483154296875,0.9903564453125,-10,2,4,0,0,5002,-225,1614,-42,266,945,6.253,-0.034,-0.274,126.8,6.771,6.771,
1,true,26459,true,1581440830.157,-0.1875,-0.125,-0.0625,3.875,-27.5,-38.5,0.13623046875,0.019287109375,0.01483154296875,0.9903564453125,-10,2,4,0,0,5027,-230,1614,-42,266,945,6.253,-0.034,-0.274,138.2,6.8,6.8,
1,true,26459,true,1581440830.297,-0.1875,-0.125,-0.0625,3.875,-27.5,-38.5,0.13623046875,0.019287109375,0.01483154296875,0.9903564453125,-10,2,4,0,0,5032,-195,1614,-42,266,945,6.253,-0.034,-0.274,194.2,6.582,6.582,
1,true,26459,true,1581440830.493,-0.1875,-0.125,-0.0625,3.875,-27.5,-38.5,0.13623046875,0.019287109375,0.01483154296875,0.9903564453125,-10,2,4,0,0,5045,-188,1614,-42,266,945,6.253,-0.034,-0.274,132,6.667,6.667,
1,true,26459,true,1581440830.63,-0.1875,-0.125,-0.0625,3.875,-27.5,-38.5,0.13623046875,0.019287109375,0.01483154296875,0.9903564453125,-10,2,4,0,0,5037,-198,1614,-42,266,945,6.253,-0.034,-0.274,121.3,6.766,6.766,
1,true,26459,true,1581440830.755,-0.1875,-0.125,-0.0625,3.875,-27.5,-38.5,0.13623046875,0.019287109375,0.01483154296875,0.9903564453125,-10,2,4,0,0,5082,-208,1614,-42,266,945,6.253,-0.034,-0.274,141,6.783,6.783,
1,true,26459,true,1581440830.9,-0.1875,-0.125,-0.0625,3.875,-27.5,-38.5,0.13623046875,0.019287109375,0.01483154296875,0.9903564453125,-10,2,4,0,0,5051,-186,1614,-42,266,945,6.253,-0.034,-0.274,191.8,6.567,6.567,
1,true,26459,true,1581440831.094,-0.1875,-0.125,-0.0625,3.875,-27.5,-38.5,0.13623046875,0.019287109375,0.01483154296875,0.9903564453125,-10,2,4,0,0,5076,-210,1614,-42,266,945,6.253,-0.034,-0.274,130,6.656,6.656,
1,true,26459,true,1581440831.225,-0.1875,-0.125,-0.0625,3.875,-27.5,-38.5,0.13623046875,0.019287109375,0.01483154296875,0.9903564453125,-10,2,4,0,0,5032,-211,1614,-42,266,945,6.253,-0.034,-0.274,132.1,6.73,6.73,
1,true,26459,true,1581440831.36,-0.1875,-0.125,-0.0625,3.875,-27.5,-38.5,0.13623046875,0.019287109375,0.01483154296875,0.9903564453125,-10,2,4,0,0,5042,-239,1614,-42,266,945,6.253,-0.034,-0.274,133.2,6.792,6.791,
1,true,26459,true,1581440831.497,-0.1875,-0.125,-0.0625,3.875,-27.5,-38.5,0.13623046875,0.019287109375,0.01483154296875,0.9903564453125,-10,2,4,0,0,4945,-210,1614,-42,266,945,6.253,-0.034,-0.274,192.5,6.57,6.57,
1,true,26459,true,1581440831.695,-0.1875,-0.125,-0.0625,3.875,-27.5,-38.5,0.13623046875,0.019287109375,0.01483154296875,0.9903564453125,-10,2,4,0,0,5000,-226,1614,-42,266,945,6.253,-0.034,-0.274,129.2,6.648,6.648,
1,true,26459,true,1581440831.826,-0.1875,-0.125,-0.0625,3.875,-27.5,-38.5,0.13623046875,0.019287109375,0.01483154296875,0.9903564453125,-10,2,4,0,0,5029,-203,1614,-42,266,945,6.253,-0.034,-0.274,131.4,6.722,6.722,
1,true,26459,true,1581440831.959,-0.1875,-0.125,-0.0625,3.875,-27.5,-38.5,0.13623046875,0.019287109375,0.01483154296875,0.9903564453125,-10,2,4,0,0,5115,-225,1614,-42,266,945,6.253,-0.034,-0.274,132.8,6.787,6.787,
1,true,26459,true,1581440832.1,-0.1875,-0.125,-0.0625,3.875,-27.5,-38.5,0.13623046875,0.019287109375,0.01483154296875,0.9903564453125,-10,2,4,0,0,5024,-213,1614,-42,266,945,6.253,-0.034,-0.274,189.2,6.565,6.565,
1,true,26459,true,1581440832.292,-0.1875,-0.125,-0.0625,3.875,-27.5,-38.5,0.13623046875,0.019287109375,0.01483154296875,0.9903564453125,-10,2,4,0,0,5016,-180,1614,-42,266,945,6.253,-0.034,-0.274,131.3,6.646,6.646,
1,true,26459,true,1581440832.425,-0.1875,-0.125,-0.0625,3.875,-27.5,-38.5,0.13623046875,0.019287109375,0.01483154296875,0.9903564453125,-10,2,4,0,0,4977,-210,1614,-42,266,945,6.253,-0.034,-0.274,129.3,6.733,6.733,
1,true,26459,true,1581440832.558,-0.1875,-0.125,-0.0625,3.875,-27.5,-38.5,0.13623046875,0.019287109375,0.01483154296875,0.9903564453125,-10,2,4,0,0,5020,-215,1614,-42,266,945,6.253,-0.034,-0.274,132.7,6.788,6.788,
1,true,26459,true,1581440832.699,-0.1875,-0.125,-0.0625,3.875,-27.5,-38.5,0.13623046875,0.019287109375,0.01483154296875,0.9903564453125,-10,2,4,0,0,5036,-208,1614,-42,266,945,6.253,-0.034,-0.274,187.6,6.571,6.571,
1,true,26459,true,1581440832.888,-0.1875,-0.125,-0.0625,3.875,-27.5,-38.5,0.13623046875,0.019287109375,0.01483154296875,0.9903564453125,-10,2,4,0,0,5031,-226,1614,-42,266,945,6.253,-0.034,-0.274,131.6,6.654,6.654,
1,true,26459,true,1581440833.021,-0.1875,-0.125,-0.0625,3.875,-27.5,-38.5,0.13623046875,0.019287109375,0.01483154296875,0.9903564453125,-10,2,4,0,0,5041,-198,1614,-42,266,945,6.253,-0.034,-0.274,131.9,6.729,6.729,
1,true,26459,true,1581440833.157,-0.1875,-0.125,-0.0625,3.875,-27.5,-38.5,0.13623046875,0.019287109375,0.01483154296875,0.9903564453125,-10,2,4,0,0,5031,-215,1614,-42,266,945,6.253,-0.034,-0.274,130.2,6.796,6.796,
1,true,26459,true,1581440833.288,-0.1875,-0.125,-0.0625,3.875,-27.5,-38.5,0.13623046875,0.019287109375,0.01483154296875,0.9903564453125,-10,2,4,0,0,4995,-235,1614,-42,266,945,6.253,-0.034,-0.274,198.6,6.561,6.561,
1,true,26459,true,1581440833.491,-0.1875,-0.125,-0.0625,3.875,-27.5,-38.5,0.13623046875,0.019287109375,0.01483154296875,0.9903564453125,-10,2,4,0,0,5014,-202,1614,-42,266,945,6.253,-0.034,-0.274,131.9,6.633,6.633,
1,true,26459,true,1581440833.627,-0.1875,-0.125,-0.0625,3.875,-27.5,-38.5,0.13623046875,0.019287109375,0.01483154296875,0.9903564453125,-10,2,4,0,0,5029,-224,1614,-42,266,945,6.253,-0.034,-0.274,124.4,6.732,6.732,
1,true,26459,true,1581440833.753,-0.1875,-0.125,-0.0625,3.875,-27.5,-38.5,0.13623046875,0.019287109375,0.01483154296875,0.9903564453125,-10,2,4,0,0,5043,-205,1614,-42,266,945,6.253,-0.034,-0.274,136.6,6.78,6.78,
1,true,26459,true,1581440833.891,-0.1875,-0.125,-0.0625,3.875,-27.5,-38.5,0.13623046875,0.019287109375,0.01483154296875,0.9903564453125,-10,2,4,0,0,4977,-196,1614,-42,266,945,6.253,-0.034,-0.274,198.1,6.549,6.549,
1,true,26459,true,1581440834.095,-0.1875,-0.125,-0.0625,3.875,-27.5,-38.5,0.13623046875,0.019287109375,0.01483154296875,0.9903564453125,-10,2,4,0,0,5014,-196,1614,-42,266,945,6.253,-0.034,-0.274,126.8,6.637,6.637,
1,true,26459,true,1581440834.223,-0.1875,-0.125,-0.0625,3.875,-27.5,-38.5,0.13623046875,0.019287109375,0.01483154296875,0.9903564453125,-10,2,4,0,0,5023,-183,1614,-42,266,945,6.253,-0.034,-0.274,130.4,6.723,6.723,
1,true,26459,true,1581440834.358,-0.1875,-0.125,-0.0625,3.875,-27.5,-38.5,0.13623046875,0.019287109375,0.01483154296875,0.9903564453125,-10,2,4,0,0,5019,-204,1614,-42,266,945,6.253,-0.034,-0.274,128.5,6.794,6.794,
1,true,26459,true,1581440834.491,-0.1875,-0.125,-0.0625,3.875,-27.5,-38.5,0.13623046875,0.019287109375,0.01483154296875,0.9903564453125,-10,2,4,0,0,5006,-225,1614,-42,266,945,6.253,-0.034,-0.274,197.5,6.55,6.55,
1,true,26459,true,1581440834.69,-0.1875,-0.125,-0.0625,3.875,-27.5,-38.5,0.13623046875,0.019287109375,0.01483154296875,0.9903564453125,-10,2,4,0,0,5003,-202,1614,-42,266,945,6.253,-0.034,-0.274,133.9,6.624,6.624,
1,true,26459,true,1581440834.825,-0.1875,-0.125,-0.0625,3.875,-27.5,-38.5,0.13623046875,0.019287109375,0.01483154296875,0.9903564453125,-10,2,4,0,0,5029,-214,1614,-42,266,945,6.253,-0.034,-0.274,130.4,6.709,6.709,
1,true,26459,true,1581440834.957,-0.1875,-0.125,-0.0625,3.875,-27.5,-38.5,0.13623046875,0.019287109375,0.01483154296875,0.9903564453125,-10,2,4,0,0,5055,-211,1614,-42,266,945,6.253,-0.034,-0.274,132.8,6.776,6.776,
1,true,26459,true,1581440835.096,-0.1875,-0.125,-0.0625,3.875,-27.5,-38.5,0.13623046875,0.019287109375,0.01483154296875,0.9903564453125,-10,2,4,0,0,5030,-200,1614,-42,266,945,6.253,-0.034,-0.274,189.1,6.565,6.565,
1,true,26459,true,1581440835.286,-0.1875,-0.125,-0.0625,3.875,-27.5,-38.5,0.13623046875,0.019287109375,0.01483154296875,0.9903564453125,-10,2,4,0,0,5047,-192,1614,-42,266,945,6.253,-0.034,-0.274,134.6,6.637,6.637,
1,true,26459,true,1581440835.422,-0.1875,-0.125,-0.0625,3.875,-27.5,-38.5,0.13623046875,0.019287109375,0.01483154296875,0.9903564453125,-10,2,4,0,0,5012,-194,1614,-42,266,945,6.253,-0.034,-0.274,129,6.726,6.726,
1,true,26459,true,1581440835.555,-0.1875,-0.125,-0.0625,3.875,-27.5,-38.5,0.13623046875,0.019287109375,0.01483154296875,0.9903564453125,-10,2,4,0,0,5024,-240,1614,-42,266,945,6.253,-0.034,-0.274,127.6,6.807,6.807,
1,true,26459,true,1581440835.687,-0.1875,-0.125,-0.0625,3.875,-27.5,-38.5,0.13623046875,0.019287109375,0.01483154296875,0.9903564453125,-10,2,4,0,0,5038,-192,1614,-42,266,945,6.253,-0.034,-0.274,200.7,6.546,6.546,
1,true,26459,true,1581440835.889,-0.1875,-0.125,-0.0625,3.875,-27.5,-38.5,0.13623046875,0.019287109375,0.01483154296875,0.9903564453125,-10,2,4,0,0,5061,-196,1614,-42,266,945,6.253,-0.034,-0.274,134.8,6.618,6.618,
1,true,26459,true,1581440836.026,-0.1875,-0.125,-0.0625,3.875,-27.5,-38.5,0.13623046875,0.019287109375,0.01483154296875,0.9903564453125,-10,2,4,0,0,5057,-200,1614,-42,266,945,6.253,-0.034,-0.274,129.3,6.708,6.708,
1,true,26459,true,1581440836.16,-0.1875,-0.125,-0.0625,3.875,-27.5,-38.5,0.13623046875,0.019287109375,0.01483154296875,0.9903564453125,-10,2,4,0,0,5046,-200,1614,-42,266,945,6.253,-0.034,-0.274,128,6.78,6.78,
1,true,26459,true,1581440836.29,-0.1875,-0.125,-0.0625,3.875,-27.5,-38.5,0.13623046875,0.019287109375,0.01483154296875,0.9903564453125,-10,2,4,0,0,5038,-216,1614,-42,266,945,6.253,-0.034,-0.274,198.2,6.547,6.547,
1,true,26459,true,1581440836.49,-0.1875,-0.125,-0.0625,3.875,-27.5,-38.5,0.13623046875,0.019287109375,0.01483154296875,0.9903564453125,-10,2,4,0,0,5038,-207,1614,-42,266,945,6.253,-0.034,-0.274,133.5,6.622,6.622,
1,true,26459,true,1581440836.627,-0.1875,-0.125,-0.0625,3.875,-27.5,-38.5,0.13623046875,0.019287109375,0.01483154296875,0.9903564453125,-10,2,4,0,0,5041,-195,1614,-42,266,945,6.253,-0.034,-0.274,122.7,6.732,6.732,
1,true,26459,true,1581440836.754,-0.1875,-0.125,-0.0625,3.875,-27.5,-38.5,0.13623046875,0.019287109375,0.01483154296875,0.9903564453125,-10,2,4,0,0,5027,-209,1614,-42,266,945,6.253,-0.034,-0.274,134.3,6.78,6.78,
1,true,26459,true,1581440836.89,-0.1875,-0.125,-0.0625,3.875,-27.5,-38.5,0.13623046875,0.019287109375,0.01483154296875,0.9903564453125,-10,2,4,0,0,5048,-220,1614,-42,266,945,6.253,-0.034,-0.274,197.5,6.548,6.548,
1,true,26459,true,1581440837.093,-0.1875,-0.125,-0.0625,3.875,-27.5,-38.5,0.13623046875,0.019287109375,0.01483154296875,0.9903564453125,-10,2,4,0,0,5066,-234,1614,-42,266,945,6.253,-0.034,-0.274,134.1,6.606,6.606,
1,true,26459,true,1581440837.229,-0.1875,-0.125,-0.0625,3.875,-27.5,-38.5,0.13623046875,0.019287109375,0.01483154296875,0.9903564453125,-10,2,4,0,0,5042,-210,1614,-42,266,945,6.253,-0.034,-0.274,122,6.726,6.726,
1,true,26459,true,1581440837.353,-0.1875,-0.125,-0.0625,3.875,-27.5,-38.5,0.13623046875,0.019287109375,0.01483154296875,0.9903564453125,-10,2,4,0,0,5060,-229,1614,-42,266,945,6.253,-0.034,-0.274,130.2,6.803,6.804,
1,true,26459,true,1581440837.485,-0.1875,-0.125,-0.0625,3.875,-27.5,-38.5,0.13623046875,0.019287109375,0.01483154296875,0.9903564453125,-10,2,4,0,0,5059,-209,1614,-42,266,945,6.253,-0.034,-0.274,202.6,6.546,6.546,
1,true,26459,true,1581440837.694,-0.1875,-0.125,-0.0625,3.875,-27.5,-38.5,0.13623046875,0.019287109375,0.01483154296875,0.9903564453125,-10,2,4,0,0,5059,-227,1614,-42,266,945,6.253,-0.034,-0.274,124.1,6.642,6.642,
1,true,26459,true,1581440837.824,-0.1875,-0.125,-0.0625,3.875,-27.5,-38.5,0.13623046875,0.019287109375,0.01483154296875,0.9903564453125,-10,2,4,0,0,5023,-198,1614,-42,266,945,6.253,-0.034,-0.274,126.1,6.725,6.725,
1,true,26459,true,1581440837.952,-0.1875,-0.125,-0.0625,3.875,-27.5,-38.5,0.13623046875,0.019287109375,0.01483154296875,0.9903564453125,-10,2,4,0,0,5109,-212,1614,-42,266,945,6.253,-0.034,-0.274,135.7,6.778,6.778,
1,true,26459,true,1581440838.092,-0.1875,-0.125,-0.0625,3.875,-27.5,-38.5,0.13623046875,0.019287109375,0.01483154296875,0.9903564453125,-10,2,4,0,0,5102,-194,1614,-42,266,945,6.253,-0.034,-0.274,193.7,6.553,6.553,
1,true,26459,true,1581440838.287,-0.1875,-0.125,-0.0625,3.875,-27.5,-38.5,0.13623046875,0.019287109375,0.01483154296875,0.9903564453125,-10,2,4,0,0,5011,-212,1614,-42,266,945,6.253,-0.034,-0.274,133.2,6.631,6.631,
1,true,26459,true,1581440838.423,-0.1875,-0.125,-0.0625,3.875,-27.5,-38.5,0.13623046875,0.019287109375,0.01483154296875,0.9903564453125,-10,2,4,0,0,5084,-191,1614,-42,266,945,6.253,-0.034,-0.274,131,6.708,6.708,
1,true,26459,true,1581440838.559,-0.1875,-0.125,-0.0625,3.875,-27.5,-38.5,0.13623046875,0.019287109375,0.01483154296875,0.9903564453125,-10,2,4,0,0,5053,-228,1614,-42,266,945,6.253,-0.034,-0.274,122.2,6.807,6.807,
1,true,26459,true,1581440838.687,-0.1875,-0.125,-0.0625,3.875,-27.5,-38.5,0.13623046875,0.019287109375,0.01483154296875,0.9903564453125,-10,2,4,0,0,5055,-210,1614,-42,266,945,6.253,-0.034,-0.274,199.8,6.548,6.548,
1,true,26459,true,1581440838.889,-0.1875,-0.125,-0.0625,3.875,-27.5,-38.5,0.13623046875,0.019287109375,0.01483154296875,0.9903564453125,-10,2,4,0,0,5046,-228,1614,-42,266,945,6.253,-0.034,-0.274,131.4,6.63,6.63,
1,true,26459,true,1581440839.022,-0.1875,-0.125,-0.0625,3.875,-27.5,-38.5,0.13623046875,0.019287109375,0.01483154296875,0.9903564453125,-10,2,4,0,0,5019,-216,1614,-42,266,945,6.253,-0.034,-0.274,132.1,6.707,6.707,
1,true,26459,true,1581440839.159,-0.1875,-0.125,-0.0625,3.875,-27.5,-38.5,0.13623046875,0.019287109375,0.01483154296875,0.9903564453125,-10,2,4,0,0,5003,-173,1614,-42,266,945,6.253,-0.034,-0.274,127.5,6.783,6.783,
1,true,26459,true,1581440839.289,-0.1875,-0.125,-0.0625,3.875,-27.5,-38.5,0.13623046875,0.019287109375,0.01483154296875,0.9903564453125,-10,2,4,0,0,5037,-201,1614,-42,266,945,6.253,-0.034,-0.274,197.3,6.548,6.548,
1,true,26459,true,1581440839.489,-0.1875,-0.125,-0.0625,3.875,-27.5,-38.5,0.13623046875,0.019287109375,0.01483154296875,0.9903564453125,-10,2,4,0,0,5001,-244,1614,-42,266,945,6.253,-0.034,-0.274,131,6.634,6.634,
1,true,26459,false,1581440839.74,,,,,,,,,,,,,,,,,,,,,,,,,,,,NO ERROR
1,true,26459,true,1581440839.743,-0.1875,-0.125,-0.0625,3.875,-27.5,-38.5,0.13623046875,0.019287109375,0.01483154296875,0.9903564453125,-10,2,4,0,0,5071,-238,1614,-42,266,945,6.253,-0.034,-0.274,124.1,6.867,6.234,
1,true,26459,true,1581440839.869,-0.1875,-0.125,-0.0625,3.875,-27.5,-38.5,0.13623046875,0.019287109375,0.01483154296875,0.9903564453125,-10,2,4,0,0,5042,-214,1614,-42,266,945,6.253,-0.034,-0.274,132.3,6.918,6.335,
1,true,26459,true,1581440840.004,-0.1875,-0.125,-0.0625,3.875,-27.5,-38.5,0.13623046875,0.019287109375,0.01483154296875,0.9903564453125,-10,2,4,0,0,5086,-246,1614,-42,266,945,6.253,-0.034,-0.274,202.3,6.641,6.152,
1,true,26459,true,1581440840.209,-0.1875,-0.125,-0.0625,3.875,-27.5,-38.5,0.13623046875,0.019287109375,0.01483154296875,0.9903564453125,-10,2,4,0,0,5020,-209,1614,-42,266,945,6.253,-0.034,-0.274,130.1,6.722,6.268,
1,true,26459,true,1581440840.341,-0.1875,-0.125,-0.0625,3.875,-27.5,-38.5,0.13623046875,0.019287109375,0.01483154296875,0.9903564453125,-10,2,4,0,0,5005,-229,1614,-42,266,945,6.253,-0.034,-0.274,126.3,6.815,6.393,
1,true,26459,true,1581440840.469,-0.1875,-0.125,-0.0625,3.875,-27.5,-38.5,0.13623046875,0.019287109375,0.01483154296875,0.9903564453125,-10,2,4,0,0,5057,-206,1614,-42,266,945,6.253,-0.034,-0.274,137.5,6.852,6.466,
1,true,26459,true,1581440840.615,-0.1875,-0.125,-0.0625,3.875,-27.5,-38.5,0.13623046875,0.019287109375,0.01483154296875,0.9903564453125,-10,2,4,0,0,5039,-171,1614,-42,266,945,6.253,-0.034,-0.274,190.6,6.609,6.283,
1,true,26459,true,1581440840.807,-0.1875,-0.125,-0.0625,3.875,-27.5,-38.5,0.13623046875,0.019287109375,0.01483154296875,0.9903564453125,-10,2,4,0,0,5050,-203,1614,-42,266,945,6.253,-0.034,-0.274,131.2,6.692,6.39,
1,true,26459,true,1581440840.94,-0.1875,-0.125,-0.0625,3.875,-27.5,-38.5,0.13623046875,0.019287109375,0.01483154296875,0.9903564453125,-10,2,4,0,0,5050,-191,1614,-42,266,945,6.253,-0.034,-0.274,129.5,6.774,6.494,
1,true,26459,true,1581440841.073,-0.1875,-0.125,-0.0625,3.875,-27.5,-38.5,0.13623046875,0.019287109375,0.01483154296875,0.9903564453125,-10,2,4,0,0,4947,-185,1614,-42,266,945,6.253,-0.034,-0.274,116.7,6.901,6.638,
1,true,26459,true,1581440841.192,-0.1875,-0.125,-0.0625,3.875,-27.5,-38.5,0.13623046875,0.019287109375,0.01483154296875,0.9903564453125,-10,2,4,0,0,5054,-217,1614,-42,266,945,6.253,-0.034,-0.274,126,6.983,6.741,
1,true,26459,true,1581440841.32,-0.1875,-0.125,-0.0625,3.875,-27.5,-38.5,0.13623046875,0.019287109375,0.01483154296875,0.9903564453125,-10,2,4,0,0,5077,-106,1614,-42,266,945,6.253,-0.034,-0.274,122,7.078,6.854,
1,true,26459,true,1581440841.444,-0.1875,-0.125,-0.0625,3.875,-27.5,-38.5,0.13623046875,0.019287109375,0.01483154296875,0.9903564453125,-10,2,4,0,0,5040,-225,1614,-42,266,945,6.253,-0.034,-0.274,198.1,6.796,6.609,
1,true,26459,true,1581440841.646,-0.1875,-0.125,-0.0625,3.875,-27.5,-38.5,0.13623046875,0.019287109375,0.01483154296875,0.9903564453125,-10,2,4,0,0,5042,-227,1614,-42,266,945,6.253,-0.034,-0.274,132.9,6.845,6.673,
1,true,26459,true,1581440841.783,-0.1875,-0.125,-0.0625,3.875,-27.5,-38.5,0.13623046875,0.019287109375,0.01483154296875,0.9903564453125,-10,2,4,0,0,5064,-213,1614,-42,266,945,6.253,-0.034,-0.274,129.2,6.903,6.746,
1,true,26459,true,1581440841.914,-0.1875,-0.125,-0.0625,3.875,-27.5,-38.5,0.13623046875,0.019287109375,0.01483154296875,0.9903564453125,-10,2,4,0,0,5066,-231,1614,-42,266,945,6.253,-0.034,-0.274,130.8,6.96,6.816,
1,true,26459,true,1581440842.051,-0.1875,-0.125,-0.0625,3.875,-27.5,-38.5,0.13623046875,0.019287109375,0.01483154296875,0.9903564453125,-10,2,4,0,0,5015,-206,1614,-42,266,945,6.253,-0.034,-0.274,193.2,6.702,6.581,
1,true,26459,true,1581440842.246,-0.1875,-0.125,-0.0625,3.875,-27.5,-38.5,0.13623046875,0.019287109375,0.01483154296875,0.9903564453125,-10,2,4,0,0,5050,-205,1614,-42,266,945,6.253,-0.034,-0.274,131.6,6.776,6.664,
1,true,26459,true,1581440842.379,-0.1875,-0.125,-0.0625,3.875,-27.5,-38.5,0.13623046875,0.019287109375,0.01483154296875,0.9903564453125,-10,2,4,0,0,5012,-198,1614,-42,266,945,6.253,-0.034,-0.274,128.6,6.855,6.753,
1,true,26459,true,1581440842.511,-0.1875,-0.125,-0.0625,3.875,-27.5,-38.5,0.13623046875,0.019287109375,0.01483154296875,0.9903564453125,-10,2,4,0,0,5024,-205,1614,-42,266,945,6.253,-0.034,-0.274,142.3,6.86,6.767,
1,true,26459,true,1581440842.659,-0.1875,-0.125,-0.0625,3.875,-27.5,-38.5,0.13623046875,0.019287109375,0.01483154296875,0.9903564453125,-10,2,4,0,0,5048,-181,1614,-42,266,945,6.253,-0.034,-0.274,182.7,6.664,6.585,
1,true,26459,true,1581440842.843,-0.1875,-0.125,-0.0625,3.875,-27.5,-38.5,0.13623046875,0.019287109375,0.01483154296875,0.9903564453125,-10,2,4,0,0,5038,-185,1614,-42,266,945,6.253,-0.034,-0.274,134.2,6.727,6.654,
1,true,26459,true,1581440842.979,-0.1875,-0.125,-0.0625,3.875,-27.5,-38.5,0.13623046875,0.019287109375,0.01483154296875,0.9903564453125,-10,2,4,0,0,5007,-198,1614,-42,266,945,6.253,-0.034,-0.274,128.8,6.811,6.744,
1,true,26459,true,1581440843.111,-0.1875,-0.125,-0.0625,3.875,-27.5,-38.5,0.13623046875,0.019287109375,0.01483154296875,0.9903564453125,-10,2,4,0,0,5014,-202,1614,-42,266,945,6.253,-0.034,-0.274,141.4,6.821,6.761,
1,true,26459,true,1581440843.253,-0.1875,-0.125,-0.0625,3.875,-27.5,-38.5,0.13623046875,0.019287109375,0.01483154296875,0.9903564453125,-10,2,4,0,0,5053,-220,1614,-42,266,945,6.253,-0.034,-0.274,193.2,6.607,6.556,
1,true,26459,true,1581440843.45,-0.1875,-0.125,-0.0625,3.875,-27.5,-38.5,0.13623046875,0.019287109375,0.01483154296875,0.9903564453125,-10,2,4,0,0,4962,-201,1614,-42,266,945,6.253,-0.034,-0.274,127.8,6.695,6.648,
1,true,26459,true,1581440843.583,-0.1875,-0.125,-0.0625,3.875,-27.5,-38.5,0.13623046875,0.019287109375,0.01483154296875,0.9903564453125,-10,2,4,0,0,5063,-222,1614,-42,266,945,6.253,-0.034,-0.274,126.4,6.777,6.733,
1,true,26459,true,1581440843.713,-0.1875,-0.125,-0.0625,3.875,-27.5,-38.5,0.13623046875,0.019287109375,0.01483154296875,0.9903564453125,-10,2,4,0,0,5021,-199,1614,-42,266,945,6.253,-0.034,-0.274,131.7,6.831,6.791,
1,true,26459,true,1581440843.85,-0.1875,-0.125,-0.0625,3.875,-27.5,-38.5,0.13623046875,0.019287109375,0.01483154296875,0.9903564453125,-10,2,4,0,0,4938,-202,1614,-42,266,945,6.253,-0.034,-0.274,193.1,6.596,6.563,
1,true,26459,true,1581440844.045,-0.1875,-0.125,-0.0625,3.875,-27.5,-38.5,0.13623046875,0.019287109375,0.01483154296875,0.9903564453125,-10,2,4,0,0,5041,-215,1614,-42,266,945,6.253,-0.034,-0.274,132.5,6.675,6.644,
1,true,26459,true,1581440844.182,-0.1875,-0.125,-0.0625,3.875,-27.5,-38.5,0.13623046875,0.019287109375,0.01483154296875,0.9903564453125,-10,2,4,0,0,5042,-212,1614,-42,266,945,6.253,-0.034,-0.274,129,6.746,6.718,
1,true,26459,true,1581440844.313,-0.1875,-0.125,-0.0625,3.875,-27.5,-38.5,0.13623046875,0.019287109375,0.01483154296875,0.9903564453125,-10,2,4,0,0,5059,-191,1614,-42,266,945,6.253,-0.034,-0.274,143.3,6.761,6.735,
1,true,26459,true,1581440844.458,-0.1875,-0.125,-0.0625,3.875,-27.5,-38.5,0.13623046875,0.019287109375,0.01483154296875,0.9903564453125,-10,2,4,0,0,5018,-212,1614,-42,266,945,6.253,-0.034,-0.274,184.6,6.589,6.567,
1,true,26459,true,1581440844.648,-0.1875,-0.125,-0.0625,3.875,-27.5,-38.5,0.13623046875,0.019287109375,0.01483154296875,0.9903564453125,-10,2,4,0,0,5003,-185,1614,-42,266,945,6.253,-0.034,-0.274,129,6.664,6.644,
1,true,26459,true,1581440844.782,-0.1875,-0.125,-0.0625,3.875,-27.5,-38.5,0.13623046875,0.019287109375,0.01483154296875,0.9903564453125,-10,2,4,0,0,5137,-294,1614,-42,266,945,6.253,-0.034,-0.274,122,6.768,6.749,
1,true,26459,true,1581440844.906,-0.1875,-0.125,-0.0625,3.875,-27.5,-38.5,0.13623046875,0.019287109375,0.01483154296875,0.9903564453125,-10,2,4,0,0,5022,-208,1614,-42,266,945,6.253,-0.034,-0.274,137.8,6.805,6.788,
1,true,26459,true,1581440845.052,-0.1875,-0.125,-0.0625,3.875,-27.5,-38.5,0.13623046875,0.019287109375,0.01483154296875,0.9903564453125,-10,2,4,0,0,5079,-207,1614,-42,266,945,6.253,-0.034,-0.274,188.7,6.583,6.568,
1,true,26459,true,1581440845.242,-0.1875,-0.125,-0.0625,3.875,-27.5,-38.5,0.13623046875,0.019287109375,0.01483154296875,0.9903564453125,-10,2,4,0,0,5048,-208,1614,-42,266,945,6.253,-0.034,-0.274,134.2,6.655,6.641,
1,true,26459,true,1581440845.378,-0.1875,-0.125,-0.0625,3.875,-27.5,-38.5,0.13623046875,0.019287109375,0.01483154296875,0.9903564453125,-10,2,4,0,0,5117,-138,1614,-42,266,945,6.253,-0.034,-0.274,114.2,6.811,6.799,
1,true,26459,true,1581440845.495,-0.1875,-0.125,-0.0625,3.875,-27.5,-38.5,0.13623046875,0.019287109375,0.01483154296875,0.9903564453125,-10,2,4,0,0,5041,-204,1614,-42,266,945,6.253,-0.034,-0.274,135,6.853,6.842,
1,true,26459,true,1581440845.636,-0.1875,-0.125,-0.0625,3.875,-27.5,-38.5,0.13623046875,0.019287109375,0.01483154296875,0.9903564453125,-10,2,4,0,0,5047,-197,1614,-42,266,945,6.253,-0.034,-0.274,126.1,6.919,6.909,
1,true,26459,true,1581440845.763,-0.1875,-0.125,-0.0625,3.875,-27.5,-38.5,0.13623046875,0.019287109375,0.01483154296875,0.9903564453125,-10,2,4,0,0,5036,-198,1614,-42,266,945,6.253,-0.034,-0.274,204,6.641,6.632,
1,true,26459,true,1581440845.968,-0.1875,-0.125,-0.0625,3.875,-27.5,-38.5,0.13623046875,0.019287109375,0.01483154296875,0.9903564453125,-10,2,4,0,0,5039,-206,1614,-42,266,945,6.253,-0.034,-0.274,128,6.735,6.727,
1,true,26459,true,1581440846.101,-0.1875,-0.125,-0.0625,3.875,-27.5,-38.5,0.13623046875,0.019287109375,0.01483154296875,0.9903564453125,-10,2,4,0,0,5026,-199,1614,-42,266,945,6.253,-0.034,-0.274,125.9,6.816,6.809,
1,true,26459,true,1581440846.229,-0.1875,-0.125,-0.0625,3.875,-27.5,-38.5,0.13623046875,0.019287109375,0.01483154296875,0.9903564453125,-10,2,4,0,0,5051,-208,1614,-42,266,945,6.253,-0.034,-0.274,136,6.859,6.852,
1,true,26459,true,1581440846.367,-0.1875,-0.125,-0.0625,3.875,-27.5,-38.5,0.13623046875,0.019287109375,0.01483154296875,0.9903564453125,-10,2,4,0,0,5025,-233,1614,-42,266,945,6.253,-0.034,-0.274,201.7,6.597,6.592,
1,true,26459,true,1581440846.574,-0.1875,-0.125,-0.0625,3.875,-27.5,-38.5,0.13623046875,0.019287109375,0.01483154296875,0.9903564453125,-10,2,4,0,0,5051,-182,1614,-42,266,945,6.253,-0.034,-0.274,135.1,6.644,6.638,
1,true,26459,true,1581440846.715,-0.1875,-0.125,-0.0625,3.875,-27.5,-38.5,0.13623046875,0.019287109375,0.01483154296875,0.9903564453125,-10,2,4,0,0,5031,-198,1614,-42,266,945,6.253,-0.034,-0.274,125.1,6.734,6.729,
1,true,26459,true,1581440846.841,-0.1875,-0.125,-0.0625,3.875,-27.5,-38.5,0.13623046875,0.019287109375,0.01483154296875,0.9903564453125,-10,2,4,0,0,5068,-200,1614,-42,266,945,6.253,-0.034,-0.274,200.9,6.498,6.494,
1,true,26459,true,1581440847.044,-0.1875,-0.125,-0.0625,3.875,-27.5,-38.5,0.13623046875,0.019287109375,0.01483154296875,0.9903564453125,-10,2,4,0,0,5055,-193,1614,-42,266,945,6.253,-0.034,-0.274,132.8,6.582,6.578,
1,true,26459,true,1581440847.182,-0.1875,-0.125,-0.0625,3.875,-27.5,-38.5,0.13623046875,0.019287109375,0.01483154296875,0.9903564453125,-10,2,4,0,0,5056,-193,1614,-42,266,945,6.253,-0.034,-0.274,125.1,6.676,6.672,
1,true,26459,true,1581440847.308,-0.1875,-0.125,-0.0625,3.875,-27.5,-38.5,0.13623046875,0.019287109375,0.01483154296875,0.9903564453125,-10,2,4,0,0,5024,-229,1614,-42,266,945,6.253,-0.034,-0.274,142,6.705,6.701,
1,true,26459,true,1581440847.453,-0.1875,-0.125,-0.0625,3.875,-27.5,-38.5,0.13623046875,0.019287109375,0.01483154296875,0.9903564453125,-10,2,4,0,0,5024,-219,1614,-42,266,945,6.253,-0.034,-0.274,189.4,6.516,6.514,
1,true,26459,true,1581440847.649,-0.1875,-0.125,-0.0625,3.875,-27.5,-38.5,0.13623046875,0.019287109375,0.01483154296875,0.9903564453125,-10,2,4,0,0,5068,-215,1614,-42,266,945,6.253,-0.034,-0.274,127.2,6.601,6.599,
1,true,26459,true,1581440847.784,-0.1875,-0.125,-0.0625,3.875,-27.5,-38.5,0.13623046875,0.019287109375,0.01483154296875,0.9903564453125,-10,2,4,0,0,5088,-199,1614,-42,266,945,6.253,-0.034,-0.274,125,6.686,6.684,
1,true,26459,true,1581440847.911,-0.1875,-0.125,-0.0625,3.875,-27.5,-38.5,0.13623046875,0.019287109375,0.01483154296875,0.9903564453125,-10,2,4,0,0,5049,-224,1614,-42,266,945,6.253,-0.034,-0.274,132.9,6.753,6.751,
1,true,26459,true,1581440848.049,-0.1875,-0.125,-0.0625,3.875,-27.5,-38.5,0.13623046875,0.019287109375,0.01483154296875,0.9903564453125,-10,2,4,0,0,5038,-198,1614,-42,266,945,6.253,-0.034,-0.274,193.5,6.529,6.527,
1,true,26459,true,1581440848.244,-0.1875,-0.125,-0.0625,3.875,-27.5,-38.5,0.13623046875,0.019287109375,0.01483154296875,0.9903564453125,-10,2,4,0,0,5044,-221,1614,-42,266,945,6.253,-0.034,-0.274,132.4,6.611,6.609,
1,true,26459,true,1581440848.378,-0.1875,-0.125,-0.0625,3.875,-27.5,-38.5,0.13623046875,0.019287109375,0.01483154296875,0.9903564453125,-10,2,4,0,0,5062,-201,1614,-42,266,945,6.253,-0.034,-0.274,125.1,6.718,6.717,
1,true,26459,true,1581440848.506,-0.1875,-0.125,-0.0625,3.875,-27.5,-38.5,0.13623046875,0.019287109375,0.01483154296875,0.9903564453125,-10,2,4,0,0,5077,-189,1614,-42,266,945,6.253,-0.034,-0.274,136.5,6.764,6.762,
1,true,26459,true,1581440848.648,-0.1875,-0.125,-0.0625,3.875,-27.5,-38.5,0.13623046875,0.019287109375,0.01483154296875,0.9903564453125,-10,2,4,0,0,5049,-212,1614,-42,266,945,6.253,-0.034,-0.274,190.1,6.549,6.548,
1,true,26459,true,1581440848.84,-0.1875,-0.125,-0.0625,3.875,-27.5,-38.5,0.13623046875,0.019287109375,0.01483154296875,0.9903564453125,-10,2,4,0,0,5012,-214,1614,-42,266,945,6.253,-0.034,-0.274,137.8,6.608,6.607,
1,true,26459,true,1581440848.981,-0.1875,-0.125,-0.0625,3.875,-27.5,-38.5,0.13623046875,0.019287109375,0.01483154296875,0.9903564453125,-10,2,4,0,0,5067,-231,1614,-42,266,945,6.253,-0.034,-0.274,124.9,6.713,6.712,
1,true,26459,true,1581440849.109,-0.1875,-0.125,-0.0625,3.875,-27.5,-38.5,0.13623046875,0.019287109375,0.01483154296875,0.9903564453125,-10,2,4,0,0,5041,-200,1614,-42,266,945,6.253,-0.034,-0.274,132.3,6.77,6.77,
1,true,26459,true,1581440849.243,-0.1875,-0.125,-0.0625,3.875,-27.5,-38.5,0.13623046875,0.019287109375,0.01483154296875,0.9903564453125,-10,2,4,0,0,5060,-210,1614,-42,266,945,6.253,-0.034,-0.274,193.3,6.561,6.56,
1,true,26459,true,1581440849.439,-0.1875,-0.125,-0.0625,3.875,-27.5,-38.5,0.13623046875,0.019287109375,0.01483154296875,0.9903564453125,-10,2,4,0,0,5032,-186,1614,-42,266,945,6.253,-0.034,-0.274,141.4,6.601,6.6,
1,true,26459,true,1581440849.587,-0.1875,-0.125,-0.0625,3.875,-27.5,-38.5,0.13623046875,0.019287109375,0.01483154296875,0.9903564453125,-10,2,4,0,0,5075,-198,1614,-42,266,945,6.253,-0.034,-0.274,134.8,6.644,6.643,
1,true,26459,true,1581440849.725,-0.1875,-0.125,-0.0625,3.875,-27.5,-38.5,0.13623046875,0.019287109375,0.01483154296875,0.9903564453125,-10,2,4,0,0,5070,-202,1614,-42,266,945,6.253,-0.034,-0.274,195.9,6.437,6.436,
1,true,26459,true,1581440849.922,-0.1875,-0.125,-0.0625,3.875,-27.5,-38.5,0.13623046875,0.019287109375,0.01483154296875,0.9903564453125,-10,2,4,0,0,5060,-197,1614,-42,266,945,6.253,-0.034,-0.274,132.6,6.527,6.526,
1,true,26459,true,1581440850.056,-0.1875,-0.125,-0.0625,3.875,-27.5,-38.5,0.13623046875,0.019287109375,0.01483154296875,0.9903564453125,-10,2,4,0,0,5013,-194,1614,-42,266,945,6.253,-0.034,-0.274,133.6,6.603,6.603,
1,true,26459,true,1581440850.195,-0.1875,-0.125,-0.0625,3.875,-27.5,-38.5,0.13623046875,0.019287109375,0.01483154296875,0.9903564453125,-10,2,4,0,0,5015,-215,1614,-42,266,945,6.253,-0.034,-0.274,121.6,6.712,6.711,
1,true,26459,true,1581440850.318,-0.1875,-0.125,-0.0625,3.875,-27.5,-38.5,0.13623046875,0.019287109375,0.01483154296875,0.9903564453125,-10,2,4,0,0,5082,-232,1614,-42,266,945,6.253,-0.034,-0.274,203.2,6.473,6.473,
1,true,26459,true,1581440850.523,-0.1875,-0.125,-0.0625,3.875,-27.5,-38.5,0.13623046875,0.019287109375,0.01483154296875,0.9903564453125,-10,2,4,0,0,5030,-189,1614,-42,266,945,6.253,-0.034,-0.274,131.2,6.563,6.563,
1,true,26459,true,1581440850.66,-0.1875,-0.125,-0.0625,3.875,-27.5,-38.5,0.13623046875,0.019287109375,0.01483154296875,0.9903564453125,-10,2,4,0,0,5064,-133,1614,-42,266,945,6.253,-0.034,-0.274,125.5,6.654,6.653,
1,true,26459,true,1581440850.789,-0.1875,-0.125,-0.0625,3.875,-27.5,-38.5,0.13623046875,0.019287109375,0.01483154296875,0.9903564453125,-10,2,4,0,0,5066,-201,1614,-42,266,945,6.253,-0.034,-0.274,132.7,6.718,6.718,
1,true,26459,true,1581440850.923,-0.1875,-0.125,-0.0625,3.875,-27.5,-38.5,0.13623046875,0.019287109375,0.01483154296875,0.9903564453125,-10,2,4,0,0,5007,-191,1614,-42,266,945,6.253,-0.034,-0.274,197.7,6.499,6.499,
1,true,26459,true,1581440851.126,-0.1875,-0.125,-0.0625,3.875,-27.5,-38.5,0.13623046875,0.019287109375,0.01483154296875,0.9903564453125,-10,2,4,0,0,5059,-232,1614,-42,266,945,6.253,-0.034,-0.274,127.5,6.588,6.588,
1,true,26459,true,1581440851.255,-0.1875,-0.125,-0.0625,3.875,-27.5,-38.5,0.13623046875,0.019287109375,0.01483154296875,0.9903564453125,-10,2,4,0,0,4985,-186,1614,-42,266,945,6.253,-0.034,-0.274,129.3,6.68,6.68,
1,true,26459,true,1581440851.386,-0.1875,-0.125,-0.0625,3.875,-27.5,-38.5,0.13623046875,0.019287109375,0.01483154296875,0.9903564453125,-10,2,4,0,0,5182,-215,1614,-42,266,945,6.253,-0.034,-0.274,135.2,6.74,6.74,
1,true,26459,true,1581440851.527,-0.1875,-0.125,-0.0625,3.875,-27.5,-38.5,0.13623046875,0.019287109375,0.01483154296875,0.9903564453125,-10,2,4,0,0,5045,-207,1614,-42,266,945,6.253,-0.034,-0.274,194,6.515,6.515,
1,true,26459,true,1581440851.726,-0.1875,-0.125,-0.0625,3.875,-27.5,-38.5,0.13623046875,0.019287109375,0.01483154296875,0.9903564453125,-10,2,4,0,0,5065,-204,1614,-42,266,945,6.253,-0.034,-0.274,128.3,6.601,6.601,
1,true,26459,true,1581440851.856,-0.1875,-0.125,-0.0625,3.875,-27.5,-38.5,0.13623046875,0.019287109375,0.01483154296875,0.9903564453125,-10,2,4,0,0,4985,-211,1614,-42,266,945,6.253,-0.034,-0.274,129.2,6.69,6.69,
1,true,26459,true,1581440851.986,-0.1875,-0.125,-0.0625,3.875,-27.5,-38.5,0.13623046875,0.019287109375,0.01483154296875,0.9903564453125,-10,2,4,0,0,5013,-202,1614,-42,266,945,6.253,-0.034,-0.274,134.3,6.756,6.755,
1,true,26459,true,1581440852.125,-0.1875,-0.125,-0.0625,3.875,-27.5,-38.5,0.13623046875,0.019287109375,0.01483154296875,0.9903564453125,-10,2,4,0,0,4998,-199,1614,-42,266,945,6.253,-0.034,-0.274,194.7,6.528,6.528,
1,true,26459,true,1581440852.321,-0.1875,-0.125,-0.0625,3.875,-27.5,-38.5,0.13623046875,0.019287109375,0.01483154296875,0.9903564453125,-10,2,4,0,0,4934,-184,1614,-42,266,945,6.253,-0.034,-0.274,131.9,6.614,6.613,
1,true,26459,true,1581440852.455,-0.1875,-0.125,-0.0625,3.875,-27.5,-38.5,0.13623046875,0.019287109375,0.01483154296875,0.9903564453125,-10,2,4,0,0,4996,-210,1614,-42,266,945,6.253,-0.034,-0.274,134.5,6.68,6.68,
1,true,26459,true,1581440852.599,-0.1875,-0.125,-0.0625,3.875,-27.5,-38.5,0.13623046875,0.019287109375,0.01483154296875,0.9903564453125,-10,2,4,0,0,5319,-212,1614,-42,266,945,6.253,-0.034,-0.274,207,6.395,6.395,
1,true,26459,true,1581440852.808,-0.1875,-0.125,-0.0625,3.875,-27.5,-38.5,0.13623046875,0.019287109375,0.01483154296875,0.9903564453125,-10,2,4,0,0,5110,-198,1614,-42,266,945,6.253,-0.034,-0.274,123.5,6.525,6.525,
1,true,26459,true,1581440852.933,-0.1875,-0.125,-0.0625,3.875,-27.5,-38.5,0.13623046875,0.019287109375,0.01483154296875,0.9903564453125,-10,2,4,0,0,4947,-210,1614,-42,266,945,6.253,-0.034,-0.274,134.1,6.601,6.601,
1,true,26459,true,1581440853.072,-0.1875,-0.125,-0.0625,3.875,-27.5,-38.5,0.13623046875,0.019287109375,0.01483154296875,0.9903564453125,-10,2,4,0,0,4938,-205,1614,-42,266,945,6.253,-0.034,-0.274,124.5,6.696,6.696,
1,true,26459,true,1581440853.197,-0.1875,-0.125,-0.0625,3.875,-27.5,-38.5,0.13623046875,0.019287109375,0.01483154296875,0.9903564453125,-10,2,4,0,0,4949,-201,1614,-42,266,945,6.253,-0.034,-0.274,197.3,6.485,6.485,
1,true,26459,true,1581440853.396,-0.1875,-0.125,-0.0625,3.875,-27.5,-38.5,0.13623046875,0.019287109375,0.01483154296875,0.9903564453125,-10,2,4,0,0,4932,-302,1614,-42,266,945,6.253,-0.034,-0.274,124.1,6.608,6.608,
1,true,26459,true,1581440853.522,-0.1875,-0.125,-0.0625,3.875,-27.5,-38.5,0.13623046875,0.019287109375,0.01483154296875,0.9903564453125,-10,2,4,0,0,5018,-244,1614,-42,266,945,6.253,-0.034,-0.274,119.5,6.741,6.741,
1,true,26459,true,1581440853.646,-0.1875,-0.125,-0.0625,3.875,-27.5,-38.5,0.13623046875,0.019287109375,0.01483154296875,0.9903564453125,-10,2,4,0,0,4957,-195,1614,-42,266,945,6.253,-0.034,-0.274,127.6,6.816,6.816,
1,true,26459,true,1581440853.775,-0.1875,-0.125,-0.0625,3.875,-27.5,-38.5,0.13623046875,0.019287109375,0.01483154296875,0.9903564453125,-10,2,4,0,0,4954,-206,1614,-42,266,945,6.253,-0.034,-0.274,126,6.907,6.907,
1,true,26459,true,1581440853.902,-0.1875,-0.125,-0.0625,3.875,-27.5,-38.5,0.13623046875,0.019287109375,0.01483154296875,0.9903564453125,-10,2,4,0,0,4966,-293,1614,-42,266,945,6.253,-0.034,-0.274,130.3,6.972,6.972,
1,true,26459,true,1581440854.038,-0.1875,-0.125,-0.0625,3.875,-27.5,-38.5,0.13623046875,0.019287109375,0.01483154296875,0.9903564453125,-10,2,4,0,0,4995,-198,1614,-42,266,945,6.253,-0.034,-0.274,202.8,6.67,6.67,
1,true,26459,true,1581440854.242,-0.1875,-0.125,-0.0625,3.875,-27.5,-38.5,0.13623046875,0.019287109375,0.01483154296875,0.9903564453125,-10,2,4,0,0,4972,-194,1614,-42,266,945,6.253,-0.034,-0.274,130.1,6.752,6.752,
1,true,26459,true,1581440854.374,-0.1875,-0.125,-0.0625,3.875,-27.5,-38.5,0.13623046875,0.019287109375,0.01483154296875,0.9903564453125,-10,2,4,0,0,5049,-247,1614,-42,266,945,6.253,-0.034,-0.274,121.7,6.865,6.865,
1,true,26459,true,1581440854.499,-0.1875,-0.125,-0.0625,3.875,-27.5,-38.5,0.13623046875,0.019287109375,0.01483154296875,0.9903564453125,-10,2,4,0,0,5025,-201,1614,-42,266,945,6.253,-0.034,-0.274,126.6,6.941,6.941,
1,true,26459,true,1581440854.632,-0.1875,-0.125,-0.0625,3.875,-27.5,-38.5,0.13623046875,0.019287109375,0.01483154296875,0.9903564453125,-10,2,4,0,0,5060,-135,1614,-42,266,945,6.253,-0.034,-0.274,119.8,7.029,7.029,
1,true,26459,true,1581440854.753,-0.1875,-0.125,-0.0625,3.875,-27.5,-38.5,0.13623046875,0.019287109375,0.01483154296875,0.9903564453125,-10,2,4,0,0,5000,-191,1614,-42,266,945,6.253,-0.034,-0.274,122.6,7.118,7.118,
1,true,26459,true,1581440854.879,-0.1875,-0.125,-0.0625,3.875,-27.5,-38.5,0.13623046875,0.019287109375,0.01483154296875,0.9903564453125,-10,2,4,0,0,4990,-210,1614,-42,266,945,6.253,-0.034,-0.274,194.5,6.842,6.842,
1,true,26459,true,1581440855.074,-0.1875,-0.125,-0.0625,3.875,-27.5,-38.5,0.13623046875,0.019287109375,0.01483154296875,0.9903564453125,-10,2,4,0,0,5012,-204,1614,-42,266,945,6.253,-0.034,-0.274,137.9,6.878,6.878,
1,true,26459,true,1581440855.214,-0.1875,-0.125,-0.0625,3.875,-27.5,-38.5,0.13623046875,0.019287109375,0.01483154296875,0.9903564453125,-10,2,4,0,0,5003,-188,1614,-42,266,945,6.253,-0.034,-0.274,125.5,6.964,6.964,
1,true,26459,true,1581440855.341,-0.1875,-0.125,-0.0625,3.875,-27.5,-38.5,0.13623046875,0.019287109375,0.01483154296875,0.9903564453125,-10,2,4,0,0,5061,-147,1614,-42,266,945,6.253,-0.034,-0.274,125.4,7.048,7.048,
1,true,26459,true,1581440855.468,-0.1875,-0.125,-0.0625,3.875,-27.5,-38.5,0.13623046875,0.019287109375,0.01483154296875,0.9903564453125,-10,2,4,0,0,4997,-208,1614,-42,266,945,6.253,-0.034,-0.274,132.1,7.087,7.087,
1,true,26459,true,1581440855.606,-0.1875,-0.125,-0.0625,3.875,-27.5,-38.5,0.13623046875,0.019287109375,0.01483154296875,0.9903564453125,-10,2,4,0,0,4978,-210,1614,-42,266,945,6.253,-0.034,-0.274,187.3,6.836,6.836,
1,true,26459,true,1581440855.794,-0.1875,-0.125,-0.0625,3.875,-27.5,-38.5,0.13623046875,0.019287109375,0.01483154296875,0.9903564453125,-10,2,4,0,0,5241,-308,1614,-42,266,945,6.253,-0.034,-0.274,121.4,6.95,6.95,
1,true,26459,true,1581440855.918,-0.1875,-0.125,-0.0625,3.875,-27.5,-38.5,0.13623046875,0.019287109375,0.01483154296875,0.9903564453125,-10,2,4,0,0,5041,-203,1614,-42,266,945,6.253,-0.034,-0.274,133.3,6.987,6.987,
1,true,26459,true,1581440856.053,-0.1875,-0.125,-0.0625,3.875,-27.5,-38.5,0.13623046875,0.019287109375,0.01483154296875,0.9903564453125,-10,2,4,0,0,5091,-218,1614,-42,266,945,6.253,-0.034,-0.274,132.8,7.029,7.029,
1,true,26459,true,1581440856.188,-0.1875,-0.125,-0.0625,3.875,-27.5,-38.5,0.13623046875,0.019287109375,0.01483154296875,0.9903564453125,-10,2,4,0,0,5226,-280,1614,-42,266,945,6.253,-0.034,-0.274,123.7,7.111,7.111,
