1581440172.952264,6.208,6.887,1.213,4.000697600064704,1.7751044833503806
1581440173.051256,6.217,6.911,1.227,4.007083561920113,1.7694844472947755
1581440173.151582,6.236,6.859,1.204,4.002234854209751,1.7960320067475521
1581440173.251998,6.259,6.882,1.176,4.020410845835003,1.7958572597620217
1581440173.351216,6.231,6.873,1.213,4.003024008652467,1.788938554036806
1581440173.451474,6.222,6.873,1.209,4.001366821215609,1.7855691671837597
1581440173.551909,6.212,6.906,1.218,4.006115885187524,1.7694664004548775
1581440173.751369,6.217,6.887,1.172,4.011133880978633,1.7782884743927496
1581440173.851771,6.208,6.854,1.2,3.9940053733009706,1.7874613953251808
1581440173.952133,6.25,6.887,1.181,4.018388051757538,1.7906351078262794
1581440174.051223,6.226,6.892,1.2,4.009544309900547,1.7798770845821288
1581440174.151753,6.203,6.906,1.176,4.011886455100661,1.7659326986239965
1581440174.251985,6.222,6.864,1.2,4.000611014495285,1.7889183557349686
1581440174.351124,6.217,6.864,1.167,4.005634964627638,1.7869237652616583
1581440174.455286,6.217,6.939,1.167,4.026719516261647,1.7586768260151129
1581440174.551873,6.231,6.892,1.199,4.011100363345768,1.7817370154600862
1581440174.651066,6.254,6.981,1.144,4.0531000572104405,1.756535618343887
1581440174.751415,6.212,6.906,1.181,4.013369061006977,1.7693090314788893
1581440174.851766,6.208,6.878,1.186,4.003451914430124,1.7783790266286694
1581440174.952146,6.208,6.925,1.186,4.0166455245541135,1.7606837313569683
1581440175.05127,6.269,6.925,1.162,4.037943062057265,1.7833428318771156
1581440175.151642,6.217,6.887,1.176,4.010362472773812,1.7783051842454494
1581440175.251978,6.208,6.864,1.167,4.003181537671871,1.7835680276292898
1581440175.351193,6.226,6.878,1.162,4.0129802760648365,1.7849917850871984
1581440175.451542,6.208,6.892,1.19,4.006602526544783,1.773127397958868
1581440175.551878,6.222,6.896,1.186,4.012312654357454,1.7768231581048195
1581440175.651134,6.203,6.887,1.19,4.003840185481453,1.7731461810798308
1581440175.851755,6.212,6.873,1.204,3.9996312564827274,1.7818235622473333
1581440175.952261,6.217,6.929,1.158,4.025637450039823,1.7624057108004783
1581440176.051255,6.198,6.971,1.172,4.0295839121387305,1.7395481079270205
1581440176.151653,6.226,6.878,1.209,4.003853534199393,1.7851794619858425
1581440176.252033,6.208,6.892,1.181,4.0083489493011815,1.7730892007926915
1581440176.351237,6.231,6.896,1.2,4.012025547521088,1.7802357655652843
1581440176.45153,6.194,6.929,1.213,4.0086672071304585,1.7540837724570182
1581440176.555705,6.231,6.925,1.199,4.020356811050964,1.7693135952089032
1581440176.651005,6.222,6.911,1.194,4.014961137044392,1.7712094284284128
1581440176.751403,6.222,6.868,1.167,4.00812162782006,1.7872834508223658
1581440176.851795,6.287,6.882,1.199,4.023548879601406,1.806396328532671
1581440176.952195,6.194,6.887,1.176,4.004099670025835,1.769732930888411
1581440177.051289,6.217,6.882,1.158,4.012413521168786,1.7801120774137258
1581440177.151851,6.203,6.911,1.204,4.007835829400945,1.764172754681854
1581440177.252011,6.254,6.882,1.162,4.021749735540524,1.793936805714521
1581440177.75147,6.222,6.896,1.204,4.008792632588727,1.7768972603063196
1581440177.851787,6.198,6.878,1.186,4.0007317431912215,1.774653151768124
1581440177.952262,6.245,6.882,1.176,4.016591161415378,1.7906315180878727
1581440178.051352,6.231,6.911,1.2,4.016232028325404,1.7745896289689014
1581440178.151692,6.222,6.939,1.186,4.02438955808818,1.7606270450368815
1581440178.252043,6.217,6.864,1.172,4.004675796359503,1.7869439207548297
1581440178.351294,6.212,6.929,1.162,4.023505016582083,1.760559071279722
1581440178.451542,6.217,6.878,1.186,4.005901072078721,1.781733356400232
1581440178.551933,6.25,6.882,1.153,4.022382136973751,1.792407951480304
1581440178.656226,6.189,6.882,1.204,3.9959067805782738,1.7698731284589428
1581440178.751464,6.24,6.92,1.2,4.021205360384512,1.774556770895294
1581440178.85183,6.208,6.915,1.209,4.009330978418132,1.7645508070985636
1581440178.952275,6.236,6.934,1.209,4.022265993304832,1.7678301004752848
1581440179.051348,6.222,6.906,1.186,4.015119763526163,1.7730583073193007
1581440179.151689,6.25,6.892,1.176,4.020763099259924,1.7887335728483673
1581440179.252083,6.24,6.882,1.213,4.00798888067992,1.7889089229293562
1581440179.451563,6.236,6.953,1.153,4.038547687025381,1.7604224186546074
1581440179.551953,6.208,6.92,1.209,4.010732808955442,1.7626683090662543
1581440179.651077,6.189,6.887,1.19,4.000034493265185,1.7679315780572524
1581440179.952235,6.203,6.925,1.195,4.013528477557394,1.758861024769712
1581440180.051311,6.222,6.939,1.194,4.022822233263666,1.7606625400806923
1581440180.151915,6.194,6.868,1.176,3.9987660493699457,1.7768831089054806
1581440180.25207,6.222,6.939,1.172,4.027114966155426,1.7605643026153013
1581440180.351192,6.231,6.943,1.204,4.024422317672997,1.7625542065644009
1581440180.451602,6.222,6.934,1.213,4.017668731676789,1.7626291080286478
1581440180.551973,6.245,6.901,1.2,4.017236623587948,1.7835746320003334
1581440180.651062,6.217,6.882,1.176,4.008958573369779,1.7801871248586172
1581440180.755227,6.236,6.882,1.223,4.004919942597848,1.7874559215300996
1581440180.851815,6.259,6.864,1.2,4.010679100936501,1.8027163952477523
1581440181.05137,6.217,6.925,1.209,4.014578919271057,1.7641383151524428
1581440181.151726,6.208,6.906,1.199,4.008772686665786,1.7678959683775488
1581440181.252076,6.25,6.925,1.176,4.030035912728528,1.7763050739078599
1581440181.551967,6.24,6.892,1.204,4.01256582267629,1.7851124884137601
1581440181.751479,6.203,6.925,1.204,4.011762508682918,1.758901174196381
1581440181.851864,6.226,6.892,1.204,4.008758869627559,1.7798931976469292
1581440181.952281,6.226,6.948,1.2,4.025256791833257,1.7587886133521458
1581440182.151733,6.254,6.882,1.19,4.01632082770282,1.7940437751204985
1581440182.25211,6.236,6.859,1.194,4.004190405645402,1.795994761901581
1581440182.451593,6.189,6.906,1.153,4.012479787702437,1.7606107246405258
1581440182.552017,6.208,6.957,1.172,4.028365607901921,1.7485567877710289
1581440182.651085,6.259,6.915,1.213,4.022398552966657,1.7835780849243548
1581440182.751461,6.254,6.901,1.186,4.022433716636449,1.7868775435326825
1581440182.85563,6.198,6.957,1.209,4.018398832429956,1.745005616510726
1581440182.952247,6.217,6.896,1.172,4.013662249570537,1.7749000781681463
1581440183.151952,6.254,6.878,1.158,4.021393469723878,1.7954271110806228
1581440183.451661,6.194,6.864,1.194,3.9941690049898213,1.778462944357676
1581440183.551988,6.208,6.934,1.176,4.021118637854242,1.7572471175751347
1581440183.651089,6.231,6.929,1.194,4.02246274775253,1.7677856409469943
1581440183.751536,6.226,6.878,1.186,4.008351176851867,1.7850886710632548
1581440183.851835,6.231,6.906,1.227,4.009481687586926,1.776581009181034
1581440183.952234,6.198,6.92,1.176,4.014459751409445,1.7587957943892025
1581440184.151774,6.203,6.878,1.176,4.004022737760251,1.7764738816955106
1581440184.252205,6.254,6.957,1.172,4.040909430912429,1.7657183818706141
1581440184.351309,6.226,6.864,1.194,4.002869834693685,1.7903861300666797
1581440184.451646,6.208,6.915,1.172,4.016549989466682,1.7643885346629782
1581440184.552015,6.245,6.939,1.213,4.025320357548014,1.7693192027993623
1581440184.65135,6.212,6.981,1.194,4.031907072322142,1.741099945610543
1581440184.751528,6.222,6.892,1.194,4.009630822565743,1.778361675546348
1581440184.851874,6.259,6.868,1.195,4.0127801826586085,1.8011943420191632
1581440184.95612,6.222,6.878,1.158,4.012653537057979,1.7834830950035887
1581440185.051432,6.203,6.929,1.181,4.017381535182004,1.7572907361776906
1581440185.151742,6.208,6.929,1.153,4.024139113760208,1.759025901411075
1581440185.252141,6.254,6.906,1.181,4.024813692517741,1.7849752435604653
1581440185.351332,6.212,6.896,1.181,4.010560869789299,1.773074274692016
1581440185.451641,6.203,6.901,1.204,4.005032139394062,1.7679369377975458
1581440185.552062,6.226,6.925,1.209,4.017023930529429,1.767492060922753
1581440185.651127,6.222,6.882,1.213,4.003098601043656,1.782200261938675
1581440185.75154,6.264,6.967,1.19,4.042917405832245,1.765758316750582
1581440185.85194,6.222,6.934,1.204,4.019449730215188,1.7625901577096077
1581440185.952322,6.264,6.957,1.181,4.041877205056337,1.769490881218803
1581440186.051395,6.254,6.92,1.209,4.023234656099754,1.7798148724445937
1581440186.151982,6.222,6.943,1.204,4.02197567634336,1.75919947182235
1581440186.351333,6.236,6.971,1.181,4.038181215348876,1.7537602679512156
1581440186.451715,6.259,6.896,1.199,4.0198430816601665,1.790675597961404
1581440186.55206,6.212,6.953,1.186,4.0256033019967115,1.7516219403198612
1581440186.651148,6.254,6.915,1.218,4.02004341902911,1.7817324821575689
1581440186.751582,6.226,6.948,1.19,4.027224486040541,1.7587441586418766
1581440186.952376,6.203,6.882,0,error,error
1581440187.055345,0,6.835,0,error,error
1581440187.151866,6.208,6.906,1.186,4.01130955326713,1.7678398781309461
1581440187.252153,6.217,6.878,1.19,4.005124066905908,1.7817495941784218
1581440187.351369,6.198,6.98,1.186,4.029389598299308,1.7362215666435101
1581440187.451699,6.226,6.915,1.176,4.020680785050499,1.7711177847721495
1581440187.552044,6.203,6.892,1.195,4.004269198357104,1.771285742951304
1581440187.651377,6.179,6.911,1.227,3.9967874716965177,1.7553410103561358
1581440187.952368,6.222,6.878,1.218,4.000991428726735,1.783724145375679
1581440188.351405,6.208,6.906,1.204,4.007791878933524,1.7679173622660562
1581440188.651162,6.24,6.896,1.186,4.017214855055642,1.7835359860475262
1581440188.851973,6.231,6.962,1.172,4.036042114502986,1.7552485300150291
1581440188.952326,6.217,6.911,1.195,4.013405373529303,1.7693500236434874
1581440189.051413,6.24,6.901,1.172,4.0213384652602135,1.7815968587770887
1581440189.154537,6.217,6.878,1.223,3.9986446926230053,1.7818812212278374
1581440189.252243,6.208,6.967,1.186,4.02845218604579,1.7448518400600657
1581440189.351305,6.231,6.911,1.204,4.015444469935333,1.7746061044042423
1581440189.451751,6.254,6.892,1.162,4.024560820975071,1.790171813284405
1581440189.552106,6.226,6.939,1.186,4.02547861025089,1.7621185157420343
1581440189.651179,6.194,6.915,1.218,4.003754771608743,1.7593771204024913
1581440189.751643,6.212,6.943,1.218,4.016484697903377,1.7555356259513377
1581440189.851943,6.226,6.967,1.213,4.028014174053118,1.7516852272419783
1581440189.952358,6.25,6.943,1.2,4.030382706637089,1.7696229102429941
1581440190.051483,6.25,6.915,1.223,4.0179586570922865,1.7802603572009827
1581440190.151883,6.226,6.962,1.218,4.02561386810462,1.7535922366860255
1581440190.252162,6.25,6.887,1.176,4.019358975510316,1.7906157067817892
1581440190.351386,6.222,6.911,1.213,4.011221230644562,1.7712890065235432
1581440190.55209,6.236,6.854,1.176,4.006279169364389,1.7978072542343393
1581440190.651354,6.231,6.934,1.172,4.028162083163827,1.7658061625116515
1581440190.751595,6.184,6.864,1.232,3.9840056587285595,1.7748969230345593
1581440190.851963,6.212,6.882,1.181,4.006630908986463,1.7783438889034329
1581440190.952385,6.198,6.859,1.213,3.9901475631885277,1.7819093114411089
1581440191.051455,6.217,6.925,1.213,4.013787495589278,1.7641555048631872
1581440191.151836,6.212,6.892,1.186,4.008468249225273,1.7746011749012822
1581440191.253498,6.198,6.882,1.204,3.9983499120478236,1.773224014826968
1581440191.351364,6.222,6.864,1.227,3.995293193063979,1.789021574243615
1581440191.451723,6.217,6.906,1.218,4.007472713467624,1.771328752793993
1581440191.552154,6.203,6.864,1.232,3.9891503759847975,1.7819664382189087
1581440191.651203,6.212,6.882,1.172,4.008367040496547,1.778306315422988
1581440191.751575,6.208,6.887,1.204,4.002466501158436,1.775067412756968
1581440191.852024,6.212,6.901,1.213,4.005704289020892,1.7713270822841476
1581440191.952409,6.208,6.85,1.213,3.9903437223039258,1.7890152187968011
1581440192.051491,6.198,6.859,1.218,3.989165112523295,1.7819292135612177
1581440192.252216,6.208,6.906,1.194,4.009750669661759,1.7678744750342175
1581440192.351338,6.254,6.887,1.176,4.020450314054989,1.7921087833748146
1581440192.451789,6.198,6.854,1.218,3.9877670279618562,1.7838082638821342
1581440192.65122,6.245,6.878,1.172,4.0162416156786716,1.7921213402634477
1581440192.751669,6.231,6.967,1.176,4.036670252837598,1.7533808922275569
1581440192.851967,6.217,6.929,1.218,4.013916739456673,1.7626707782858666
1581440192.952362,6.222,6.882,1.172,4.011092340194559,1.78203510189059
1581440193.051539,6.208,6.892,1.213,4.0020977351789115,1.7732235651306674
1581440193.151919,6.226,6.878,1.199,4.005816382186492,1.7851402335015791
1581440193.252214,6.198,6.934,1.213,4.0111543135631935,1.7536898572234962
1581440193.354,6.222,6.953,1.181,4.029302524507101,1.7553270244258978
1581440193.451741,6.203,6.934,1.176,4.019757158496872,1.7553834859725572
1581440193.552136,6.226,6.971,1.199,4.031915989845648,1.750113443966134
1581440193.651373,6.226,6.896,1.209,4.008895148315219,1.7784082501845722
1581440193.751638,6.222,6.868,1.227,3.9964112439236295,1.7875182251372153
1581440193.851998,6.222,6.934,1.176,4.0249323321396195,1.7624668985768743
1581440193.952416,6.25,6.925,1.181,4.029060869985617,1.7763258149971406
1581440194.051493,6.179,6.971,1.176,4.023637307665677,1.7324896491459352
1581440194.151868,6.189,6.906,1.209,4.001651737867856,1.7608640083837024
1581440194.252293,6.222,6.925,1.213,4.01514522897699,1.7660184087693214
1581440194.351424,6.198,6.892,1.209,4.000170978415226,1.7694829966115915
1581440194.451791,6.222,6.859,1.181,4.002901438509469,1.790724652312005
1581440194.552203,6.198,6.92,1.194,4.010961530088713,1.758877295874649
1581440194.651274,6.217,6.929,1.218,4.013916739456673,1.7626707782858666
1581440194.751667,6.203,6.896,1.172,4.0098479707041115,1.7696808884670094
1581440194.852042,6.203,6.934,1.19,4.017033531865748,1.7554477687392216
1581440194.952417,6.212,6.953,1.167,4.029297669661698,1.7515331147258355
1581440195.051489,6.222,6.939,1.209,4.019864090524515,1.760728396745489
1581440195.152057,6.217,6.915,1.223,4.009000180195954,1.7679624512175696
1581440195.252248,6.217,6.943,1.204,4.020616842552542,1.7573361546366775
1581440195.351399,6.203,6.929,1.2,4.013671084441398,1.7573767254126829
1581440195.454334,6.189,6.882,1.19,3.998632114063445,1.7698130808488486
1581440195.552206,6.217,6.882,1.2,4.004294486148659,1.7802852297362017
1581440195.651311,6.189,6.873,1.209,3.9924080307037904,1.773279239777824
1581440195.751779,6.203,6.864,1.19,3.997391117592388,1.781798821516176
1581440195.852073,6.203,6.901,1.172,4.011252932510806,1.7677980584745006
1581440195.95241,6.217,6.962,1.176,4.031447653735086,1.7500454059261352
1581440196.05155,6.222,6.868,1.194,4.002902458029064,1.7873907779092686
1581440196.15192,6.212,6.892,1.167,4.012137544800684,1.774520506093732
1581440196.252265,6.217,6.943,1.223,4.016845034560615,1.757419971215578
1581440196.351427,6.212,6.868,1.218,3.99547978444957,1.7837590112544925
1581440196.4518,6.236,6.943,1.209,4.024790984713837,1.7644397773999596
1581440196.552157,6.24,6.976,1.144,4.047858458329401,1.7531941295798232
1581440196.651423,6.198,6.925,1.176,4.015865345433545,1.7569118678351128
1581440196.751735,6.198,6.868,1.181,3.9988924029540294,1.7783943766946504
1581440196.849563,6.212,6.878,1.199,4.002010011301207,1.7799228145565185
1581440196.950093,6.179,6.901,1.199,3.999494531161964,1.7589793472373056
1581440197.050417,6.226,6.906,1.209,4.011697317920016,1.774645022373245
1581440197.152042,6.217,6.981,1.167,4.038548487818708,1.7428335712785685
1581440197.449375,6.236,6.92,1.176,4.024812083099394,1.772964462870285
1581440197.650188,6.231,6.887,1.209,4.007732723802718,1.7836578156290646
1581440197.751809,6.208,6.943,1.195,4.019942216086001,1.753942055090585
1581440197.84965,6.25,6.887,1.181,4.018388051757538,1.7906351078262794
1581440197.950052,6.198,6.92,1.218,4.006240228435581,1.7589839035960753
1581440198.050443,6.194,6.878,1.218,3.99339535705389,1.7732975165896712
1581440198.14963,6.194,6.915,1.167,4.0136990358582905,1.7591478120883075
1581440198.2524,6.222,6.887,1.172,4.012496676085892,1.7801530291247458
1581440198.351717,6.203,6.906,1.176,4.011886455100661,1.7659326986239965
1581440198.449387,6.208,6.896,1.176,4.01043865823324,1.7715618837993812
1581440198.549737,6.189,6.901,1.195,4.002989529798007,1.762684200839713
1581440198.650176,6.203,6.948,1.218,4.015445291494181,1.7503003909927102
1581440198.749281,6.189,6.896,1.162,4.007951421665086,1.7644189898575624
1581440198.950043,6.24,6.901,1.223,4.011322848134422,1.781800418402927
1581440199.050476,6.226,6.901,1.19,4.014025262328366,1.7764488508285374
1581440199.149507,6.203,6.98,1.181,4.031727469056455,1.738060020933153
1581440199.24987,6.198,6.892,1.19,4.003883348997284,1.7694018054937308
1581440199.351632,6.198,6.864,1.199,3.9942837280325834,1.779973100668505
1581440199.44941,6.226,6.887,1.204,4.0073577717169355,1.7817743932523278
1581440199.549736,6.217,6.901,1.209,4.007851108532111,1.7731731070145027
1581440199.654104,6.217,6.901,1.213,4.007061726679168,1.773189632450266
1581440199.749288,6.222,6.892,1.209,4.006687745067764,1.778422630986017
1581440199.849614,6.231,6.864,1.199,4.003254135737685,1.7922693085643815
1581440199.950138,6.226,6.901,1.195,4.013047857885842,1.7764694899806888
1581440200.051728,6.212,6.868,1.204,3.998231024601138,1.7837038025836598
1581440200.152103,6.208,6.882,1.176,4.006507174831253,1.776832015919996
1581440200.250036,6.231,6.906,1.176,4.019514492614948,1.7763726120972592
1581440200.35039,6.226,6.92,1.194,4.018575416103392,1.769311399528003
1581440200.449373,6.198,6.953,1.186,4.021794733397554,1.7464049336450482
1581440200.549862,6.198,6.887,1.153,4.009587986101011,1.7711225992929303
1581440200.65024,6.203,6.878,1.213,3.996821028489372,1.7766275305190804
1581440200.751924,6.226,6.901,1.172,4.017520451346342,1.7763737433181543
1581440200.849652,6.203,6.882,1.181,4.004181159104193,1.7749897107317725
1581440200.951387,6.222,6.859,1.213,3.996661981302123,1.7908478305370927
1581440201.050443,6.231,6.878,1.213,4.0044235036066755,1.787058405472458
1581440201.149677,6.208,6.896,1.204,4.004988640778449,1.7716810104347243
1581440201.252439,6.231,6.953,1.232,4.021641848811606,1.7589075283706184
1581440201.350325,6.217,6.878,1.199,4.003369165039667,1.7817859044816737
1581440201.449402,6.208,6.892,1.218,4.001110536551067,1.7732441975103008
1581440201.549777,6.217,6.873,1.227,3.9964529821689454,1.7837765852667455
1581440201.650196,6.203,6.873,1.181,4.001655687893964,1.7783762854917942
1581440201.754395,6.245,6.896,1.194,4.017012777337922,1.785432896061138
1581440201.849693,6.222,6.901,1.2,4.01097995836593,1.7749990950081374
1581440201.950125,6.245,6.864,1.204,4.006082790008459,1.797508260540101
1581440202.149527,6.208,6.939,1.223,4.01328292505265,1.755574765591959
1581440202.249876,6.208,6.915,1.209,4.009330978418132,1.7645508070985636
1581440202.3504,6.231,6.948,1.2,4.026616644499996,1.760652653746365
1581440202.4494,6.217,6.901,1.199,4.00981668371413,1.7731315206905245
1581440202.54976,6.198,6.878,1.209,3.9962499780065124,1.774749362199709
1581440202.650415,6.222,6.878,1.19,4.006484624359685,1.7836133674378092
1581440202.749277,6.203,6.873,1.153,4.007014650021467,1.778257980854449
1581440202.84965,6.226,6.943,1.227,4.018486910107751,1.7607899008977237
1581440202.950185,6.217,6.967,1.176,4.032855093219208,1.7481593915891496
1581440203.050478,6.264,6.925,1.194,4.030326844322709,1.7816039819313556
1581440203.149556,6.245,6.882,1.153,4.021015351202436,1.7905409056254493
1581440203.25001,6.226,6.878,1.218,4.0020773414011455,1.7852144461538353
1581440203.350479,6.203,6.878,1.181,4.003058637189983,1.7764949583420542
1581440203.449423,6.212,6.906,1.186,4.012397950627384,1.7693306148897445
1581440203.549806,6.222,6.85,1.223,3.9921729895724383,1.7942672499319572
1581440203.650253,6.226,6.873,1.181,4.007918040781671,1.7869499502504862
1581440203.749313,6.236,6.934,1.2,4.0240460377822425,1.767792058466452
1581440203.853527,6.198,6.934,1.232,4.007375793185266,1.7537748097490269
1581440203.95017,6.212,6.864,1.199,3.99808778947961,1.7851880507176474
1581440204.05051,6.222,6.901,1.19,4.012936605923558,1.774957577323364
1581440204.149703,6.226,6.892,1.194,4.010719084166525,1.7798528000001201
1581440204.250021,6.236,6.882,1.195,4.010440892106808,1.7873481572368661
1581440204.350394,6.226,6.934,1.199,4.021523016995193,1.7640594032047918
1581440204.449448,6.203,6.873,1.209,3.996207151222078,1.7784915197093152
1581440204.549844,6.203,6.845,1.199,3.990321910245201,1.7889777939249647
1581440204.650275,6.226,6.864,1.167,4.008089330747429,1.7902804858438186
1581440204.749343,6.208,6.962,1.223,4.019731361191254,1.7469097345613047
1581440204.849679,6.212,6.878,1.199,4.002010011301207,1.7799228145565185
1581440204.95011,6.222,6.892,1.186,4.011190062124052,1.7783288109091429
1581440205.050566,6.189,6.906,1.213,4.000864673733906,1.7608816090442623
1581440205.149577,6.203,6.868,1.2,3.996567512676844,1.780335210438494
1581440205.249995,6.198,6.887,1.2,4.000533039710721,1.771326108056978
1581440205.350435,6.24,6.864,1.223,4.000972106883956,1.795713500667535
1581440205.449441,6.208,6.915,1.194,4.0122762837564165,1.7644856857166753
1581440205.54981,6.245,6.934,1.213,4.02391809740145,1.7712024577966379
1581440205.650444,6.208,6.901,1.19,4.009127783391322,1.7697396502760674
1581440205.749423,6.217,6.943,1.213,4.018835227785987,1.7573760390373485
1581440205.849732,6.212,6.868,1.209,3.9972509785850683,1.7837236052106187
1581440205.953941,6.222,6.882,1.209,4.003886848021566,1.782184431269135
1581440206.050496,6.226,6.859,1.148,4.01030631249504,1.7920862298830809
1581440206.149625,6.226,6.906,1.2,4.0134697899511975,1.7746079766398786
1581440206.250209,6.222,6.892,1.19,4.010411349077018,1.778345274211306
1581440206.350587,6.236,6.92,1.19,4.022081204936538,1.773023456292732
1581440206.449564,6.217,6.939,1.176,4.0249762487558876,1.758717820176989
1581440206.550053,6.25,6.882,1.172,4.018729334052708,1.792482137797915
1581440206.650412,6.217,6.901,1.204,4.008835304807996,1.773152362635736
1581440206.749448,6.203,6.901,1.223,4.001283749231853,1.7680174675200604
1581440206.849864,6.236,6.887,1.176,4.015540739905281,1.7853914548381218
1581440206.95028,6.226,6.929,1.209,4.018145736784916,1.7659857034051418
1581440207.250281,6.264,6.92,1.199,4.027936831145012,1.7835067797178557
1581440207.349336,6.24,6.896,1.176,4.019159017879701,1.7834957973301186
1581440207.550173,6.217,6.892,1.181,4.010799225701445,1.7764439627161217
1581440207.650551,6.236,6.878,1.204,4.007555386690771,1.7888876631594606
1581440207.749663,6.208,6.864,1.227,3.9914970493107105,1.783808180069481
1581440207.850013,6.203,6.878,1.199,3.9995642772902524,1.7765700215356617
1581440207.950449,6.236,6.906,1.167,4.022618695099319,1.7782004398055171
1581440208.054572,6.203,6.925,1.176,4.017226532096127,1.7587751763139678
1581440208.149878,6.222,6.915,1.158,4.023060921338758,1.7695475152726392
1581440208.250316,6.212,6.953,1.213,4.020283339062278,1.7517455834103464
1581440208.34947,6.212,6.925,1.204,4.014207134910543,1.7622537628368866
1581440208.449756,6.208,6.906,1.148,4.018614607771601,1.7676720212675106
1581440208.550187,6.189,6.906,1.209,4.001651737867856,1.7608640083837024
1581440208.650796,6.203,6.882,1.153,4.009545649792219,1.7748696074694041
1581440208.749774,6.203,6.854,1.199,3.992841565830544,1.78559497968688
1581440208.850199,6.212,6.896,1.209,4.005092210569615,1.77319190338242
1581440208.950623,6.222,6.901,1.199,4.011176131427466,1.7749949607619009
1581440209.049626,6.198,6.873,1.209,3.99485005456307,1.7766297150024482
1581440209.150079,6.264,6.896,1.176,4.025707046551831,1.7924543360830405
1581440209.25048,6.198,6.896,1.199,4.003251426522822,1.767935116420718
1581440209.349495,6.231,6.859,1.153,4.010723194420806,1.7939720416915244
1581440209.449861,6.231,6.892,1.153,4.020002934310466,1.7815490504931468
1581440209.550366,6.236,6.939,1.204,4.024659241269737,1.7659254217000921
1581440209.64936,6.208,6.971,1.213,4.024249833550564,1.7434710129561013
1581440209.749764,6.203,6.934,1.195,4.016055427944834,1.7554705303579627
1581440209.850409,6.24,6.868,1.204,4.005842629375219,1.7941397425352565
1581440209.949397,6.203,6.864,1.213,3.992903021080235,1.7818914454195685
1581440210.049738,6.198,6.864,1.167,4.000456613397287,1.7798405861970192
1581440210.154143,6.236,6.962,1.153,4.0410850042499655,1.757026844700232
1581440210.250579,6.203,6.915,1.176,4.014415565661314,1.7625427530423516
1581440210.349625,6.222,6.901,1.195,4.011959694837305,1.7749783848744556
1581440210.45012,6.203,6.887,1.186,4.004616581481154,1.7731292153797291
1581440210.550478,6.231,6.878,1.176,4.011650775274537,1.7869134819470585
1581440210.6495,6.217,6.864,1.199,3.99944694321807,1.7870511132964975
1581440210.749908,6.25,6.868,1.181,4.0130565021697615,1.797784198314994
1581440210.850554,6.198,6.854,1.209,3.989532437750215,1.7837726857152791
1581440210.949389,6.24,6.878,1.19,4.011385046713788,1.7903254628314187
1581440211.049769,6.212,6.939,1.181,4.022642411321828,1.7568764755546926
1581440211.150251,6.203,6.896,1.153,4.01348419104787,1.769597150781408
1581440211.250574,6.198,6.953,1.213,4.01648409199467,1.7465317584849684
1581440211.349705,6.226,6.873,1.162,4.011575246913128,1.786873743695011
1581440211.450117,6.208,6.882,1.172,4.00727724639263,1.7768151408178683
1581440211.550464,6.194,6.901,1.204,4.002588473108683,1.7645854292258665
1581440211.649606,6.208,6.906,1.181,4.012280166166712,1.76781812491358
1581440211.749908,6.208,6.896,1.194,4.0069452856396195,1.77163882132497
1581440211.850334,6.212,6.925,1.186,4.017733921914368,1.7621744997311335
1581440211.949451,6.203,6.92,1.204,4.010359921028663,1.7607841120289567
1581440212.049747,6.184,6.887,1.181,4.000415945450936,1.766030084617138
1581440212.150213,6.217,6.92,1.19,4.016909533775105,1.7659391870935879
1581440212.349678,6.226,6.92,1.186,4.020140271918475,1.7692772347765462
1581440212.550533,6.222,6.868,1.209,3.9999671267903305,1.7874492132325959
1581440212.649496,6.208,6.929,1.2,4.015029584237013,1.7592393293175232
1581440212.749892,6.222,6.901,1.194,4.012155303261178,1.7749742311662322
1581440212.85039,6.198,6.892,1.172,4.007362473921481,1.7693235572694352
1581440212.949408,6.254,6.906,1.213,4.018516689196361,1.7851003970910264
1581440213.049765,6.217,6.906,1.232,4.004686432805479,1.7713863145705833
1581440213.150352,6.198,6.929,1.199,4.0125090612930725,1.7555098955034032
1581440213.250594,6.198,6.882,1.167,4.005512335643605,1.7730664448063909
1581440213.349758,6.198,6.901,1.176,4.009120518735178,1.7659523854660886
1581440213.450153,6.212,6.957,1.167,4.030424065227773,1.7500244255320527
1581440213.550522,6.222,6.92,1.213,4.013743597968915,1.767900995687232
1581440213.649533,6.198,6.868,1.199,3.995404180259945,1.7784689327596235
1581440213.750051,6.222,6.925,1.186,4.020455734813147,1.7659022702900034
1581440213.850356,6.222,6.873,1.186,4.0058597191335314,1.7854784114665672
1581440213.949408,6.198,6.929,1.195,4.013292655643269,1.7554917305528779
1581440214.049806,6.217,6.85,1.172,4.0007471254645335,1.7922097759466142
1581440214.150264,6.217,6.911,1.204,4.011638994814879,1.7693882371002614
1581440214.250601,6.203,6.906,1.223,4.002683459841719,1.766136162136631
1581440214.353553,6.208,6.901,1.209,4.005407053822502,1.769820435969221
1581440214.450137,6.198,6.943,1.172,4.021701677867729,1.750108684840446
1581440214.550496,6.222,6.873,1.213,4.000579345218544,1.7855847470275314
1581440214.64967,6.208,6.896,1.167,4.012171494515481,1.7715229309840623
