1581440587.544901,3.12,5.195,3.734,2.1953727983702027,1.357730555530111
1581440587.644019,3.12,5.219,3.715,2.207744451344034,1.3494541982880188
1581440587.744537,3.129,5.167,3.724,2.194226696454454,1.370000689101716
1581440587.844783,3.125,5.209,3.724,2.2029741601608435,1.354336394174317
1581440587.948807,3.125,5.195,3.729,2.198001359404273,1.3591718583753039
1581440588.044226,3.12,5.209,3.752,2.1918419162901066,1.3528577806093447
1581440588.144621,3.153,5.228,3.715,2.2149474138456067,1.355818886208375
1581440588.244969,3.12,5.176,3.701,2.203280593144237,1.3643491764692415
1581440588.344069,3.12,5.204,3.715,2.2043884257989554,1.3546470690399668
1581440588.444605,3.125,5.181,3.738,2.1915541376840726,1.363996342122067
1581440588.544853,3.125,5.172,3.715,2.1980273689697043,1.3671418399276334
1581440588.644052,3.12,5.186,3.738,2.1918862844577007,1.3608355054924217
1581440588.744432,3.134,5.209,3.724,2.2043862123845748,1.3569193743105525
1581440588.844761,3.125,5.186,3.71,2.2029889502812425,1.3623128732556287
1581440588.945177,3.129,5.195,0,error,error
1581440589.044384,3.27,5.19,0,error,error
1581440589.144713,3.148,5.19,3.705,2.2093336570726394,1.3675424600963364
1581440589.245173,3.134,5.172,3.729,2.1942825251057414,1.3697010115073962
1581440589.344345,3.138,5.162,3.71,2.19967790297072,1.3743307286942752
1581440589.444591,3.129,5.186,3.701,2.2069213322517327,1.3634735037740313
1581440589.544967,3.138,5.186,3.701,2.2083343018002197,1.3660566737047544
1581440589.644184,3.116,5.223,3.743,2.1976805394688923,1.3468785586241008
1581440589.744469,3.157,5.19,3.734,2.2000782989921017,1.3700885956564395
1581440589.844889,3.134,5.204,3.743,2.196252628705695,1.3586193904183963
1581440589.944112,3.129,5.209,3.734,2.1999115065004173,1.3554683625241208
1581440590.048073,3.125,5.195,3.738,2.1946781990606463,1.3591574290047779
1581440590.144747,3.129,5.204,3.762,2.1884269511204253,1.3571525285939925
1581440590.245218,3.134,5.176,3.743,2.1900039036391075,1.3682970187421797
1581440590.344266,3.138,5.219,3.729,2.205408410409108,1.354599297207565
1581440590.444658,3.124,5.186,3.738,2.1925126848842615,1.3619819326892524
1581440590.545041,3.12,5.19,3.724,2.19794582995481,1.3594753616598132
1581440590.644285,3.129,5.209,3.743,2.1965849118148073,1.355453980062502
1581440590.744491,3.129,5.167,3.748,2.185363975169506,1.3699612209681815
1581440590.844961,3.124,5.219,3.719,2.2068976264178786,1.35059510226739
1581440590.944012,3.12,5.172,3.734,2.1902422164536017,1.3656786586321366
1581440591.044376,3.12,5.19,3.738,2.192778873634426,1.3594528626965137
1581440591.144774,3.153,5.167,3.757,2.185811504472042,1.3768409970271482
1581440591.245128,3.138,5.214,3.729,2.204289506055075,1.3563302572595006
1581440591.344235,3.116,5.162,3.738,2.1859121755863673,1.3679788407169944
1581440591.444787,3.106,5.228,3.719,2.2061016988954187,1.3423202262341183
1581440591.545013,3.143,5.19,3.715,2.2048703263714287,1.3660898654876916
1581440591.644131,3.116,5.143,3.715,2.1901640806719627,1.3745703996637433
1581440591.744577,3.129,5.19,3.743,2.19234091808991,1.3620252400885884
1581440591.844895,3.125,5.195,3.756,2.188015417391744,1.3591276693013745
1581440591.944017,3.092,5.181,3.719,2.193417490542616,1.354588269026249
1581440592.044459,3.116,5.186,3.691,2.2085537012115535,1.3597628221084808
1581440592.146008,3.129,5.176,3.729,2.194389052415394,1.366885154817256
1581440592.24515,3.129,5.204,3.729,2.2006393803862063,1.3572063381923811
1581440592.344288,3.138,5.148,3.738,2.186248164570667,1.3791141822590072
1581440592.444652,3.138,5.19,3.724,2.200769514202138,1.3646393269497732
1581440592.545026,3.12,5.19,3.743,2.190930304734532,1.3594446504579902
1581440592.644193,3.12,5.223,3.734,2.201633696340655,1.3480394059003684
1581440592.744514,3.124,5.186,3.719,2.199521145502825,1.3620122930482668
1581440592.844894,3.111,5.219,3.696,2.213320681932206,1.3469040753259716
1581440592.944314,3.116,5.204,3.724,2.200447898934005,1.3534871022206192
1581440593.044409,3.138,5.167,3.738,2.1904757146879534,1.3725606953460578
1581440593.144772,3.12,5.176,3.738,2.189656285222241,1.364290615945716
1581440593.24522,3.125,5.19,3.734,2.1950395475684403,1.3608925693811018
1581440593.344297,3.124,5.195,3.757,2.1874878328831033,1.3588392063917947
1581440593.444651,3.124,5.19,3.752,2.1882252318297515,1.3605762128819492
1581440593.545051,3.116,5.195,3.724,2.1984368820292874,1.3566005961327647
1581440593.64429,3.124,5.19,3.724,2.198572018452845,1.3606217933227676
1581440593.74459,3.171,5.167,3.734,2.1971693311597718,1.3820646952370181
1581440593.845037,3.083,5.195,3.729,2.1914608593444362,1.347163376646155
1581440593.94403,3.134,5.181,3.729,2.1962890007994997,1.3665927734059033
1581440594.044423,3.134,5.219,3.738,2.2014558085608456,1.353436022020447
1581440594.144988,3.116,0,3.729,error,error
1581440594.246423,3.12,5.195,3.705,2.2060536150454215,1.3577757116830902
1581440594.3444,3.12,5.167,3.729,2.1909733917619767,1.36741320512464
1581440594.444945,3.124,5.2,3.724,2.200805537551951,1.3571636986684519
1581440594.545163,3.12,5.181,3.677,2.213183631477109,1.3626566889999927
1581440594.644309,3.125,5.214,3.738,2.1989245687295056,1.3525836610808997
1581440594.74469,3.134,5.2,3.734,2.1986850408159273,1.3600173640428006
1581440594.845052,3.12,5.19,3.719,2.1997879339461743,1.3594832191206405
1581440594.944164,3.129,5.237,3.724,2.209871507171961,1.3457853836156068
1581440595.04462,3.129,5.19,3.673,2.2180629608375884,1.3621308510271966
1581440595.144915,3.129,5.176,3.743,2.189218613886403,1.3668622976920235
1581440595.24404,3.12,5.233,3.734,2.203873688414735,1.3445742656260018
1581440595.344468,3.12,5.176,3.752,2.1844768196201163,1.364267130881786
1581440595.444808,3.12,5.2,3.724,2.2001793490539163,1.3560170748301121
1581440595.545152,3.143,5.209,3.738,2.2006351468452006,1.3594838344639477
1581440595.644387,3.129,5.209,3.715,2.2069162454942113,1.3554977287211731
1581440595.744705,3.12,5.176,3.724,2.1948224379501426,1.3643133763444364
1581440595.845048,3.111,5.195,3.734,2.1939662501281494,1.3551530896616404
1581440595.944302,3.138,5.214,3.738,2.200966076559442,1.356316205723612
1581440596.044584,3.143,5.148,3.752,2.181858753613105,1.3805264188115631
1581440596.14494,3.176,5.2,3.762,2.1949637480244157,1.3720678910739104
1581440596.244129,3.138,5.176,3.738,2.1924809093236797,1.3694537002575817
1581440596.346977,3.167,5.162,3.743,2.1920973945221243,1.3826213852219338
1581440596.444914,3.129,5.204,3.748,2.19361696499784,1.3571758490058483
1581440596.545251,3.124,5.214,3.71,2.209090763502352,1.352340030388472
1581440596.644306,3.12,5.2,3.715,2.2034942805654065,1.3560310285212214
1581440596.744666,3.143,5.2,3.738,2.198623707844501,1.3625969539387868
1581440596.845146,3.134,5.176,3.734,2.1933291174418312,1.368311738128014
1581440596.944196,3.138,5.172,3.748,2.1878920787879372,1.3708182800294162
1581440597.044614,3.124,5.209,3.696,2.2131130383961772,1.3540915093507577
1581440597.145017,3.106,5.195,3.738,2.191708530700456,1.3537160155467907
1581440597.244142,3.143,5.214,3.71,2.2120743062849946,1.3577961272446133
1581440597.344519,3.134,5.223,3.748,2.198651511043527,1.3520349491632404
1581440597.44497,3.125,5.19,3.743,2.1917135165969697,1.3608779128218387
1581440597.545208,3.138,5.158,3.729,2.1917936014366086,1.3756806719405281
1581440597.644329,3.124,5.209,3.743,2.195800775437291,1.3540194656253668
1581440597.744748,3.12,5.223,3.734,2.201633696340655,1.3480394059003684
1581440597.845159,3.167,5.172,0,error,error
1581440597.944316,3.143,5.19,0,error,error
1581440598.044678,3.124,5.2,3.743,2.193789520531753,1.3571333397854215
1581440598.145101,3.116,5.195,3.724,2.1984368820292874,1.3566005961327647
1581440598.244073,3.153,5.2,3.729,2.20352410432525,1.3654880613572293
1581440598.34448,3.143,5.186,3.748,2.191800373045083,1.3674198874370553
1581440598.446083,3.143,5.186,3.729,2.1988204044822464,1.3674504944653247
1581440598.545179,3.12,5.181,3.724,2.1959374606827144,1.3625859954180124
1581440598.64448,3.138,5.195,3.705,2.2088760497521833,1.3629396801815064
1581440598.744711,3.148,5.228,3.743,2.2038266552401304,1.3543369803343588
1581440598.845106,3.153,5.228,3.696,2.2219274074497397,1.3558458371709774
1581440598.944372,3.134,5.195,3.701,2.209716035035665,1.3617969253772448
1581440599.044602,3.129,5.158,3.696,2.202511751604482,1.3731501794241765
1581440599.144997,3.134,5.209,3.738,2.1992188932473558,1.3568974827579139
1581440599.244193,3.125,5.2,3.743,2.1939462554163285,1.3574201199611788
1581440599.343217,3.12,5.204,3.701,2.2095341963359822,1.3546680868970242
1581440599.444868,3.134,5.233,3.729,2.207915255367229,1.3486002984690117
1581440599.545259,3.134,5.204,3.743,2.196252628705695,1.3586193904183963
1581440599.643094,3.134,5.256,3.724,2.2149204955554507,1.3406313197597781
1581440599.842664,3.134,5.209,3.743,2.197370201567512,1.3568894872550494
1581440599.944245,3.129,5.233,3.701,2.2174376735572903,1.3472056547125997
1581440600.042119,3.195,5.204,3.734,2.2092494081398786,1.3762240979560276
1581440600.145044,3.143,5.209,3.729,2.203958226173434,1.3594978903800508
1581440600.242898,3.129,5.265,3.705,2.223154258536416,1.3360975061877143
1581440600.343238,3.148,5.219,3.696,2.219121985669576,1.3575234500902926
1581440600.442522,3.12,5.219,3.748,2.195560156212578,1.349402392040475
1581440600.546432,3.157,5.233,3.757,2.201183418780172,1.355175242177595
1581440600.644364,3.12,5.195,3.696,2.209356628854433,1.3577890772101993
1581440600.744777,3.12,5.233,3.729,2.2057200907806918,1.3445820209302137
1581440600.842629,3.129,5.214,3.756,2.192887997767066,1.353702208450666
1581440600.942969,3.129,5.204,3.743,2.195467338952991,1.3571840025453232
1581440601.042195,3.148,5.204,3.734,2.20178333374365,1.3626579712932056
1581440601.144994,3.124,5.176,3.71,2.2006011842572346,1.3654814968734108
1581440601.242871,3.12,5.233,3.762,2.1935026096897468,1.3445290964624723
1581440601.442381,3.134,5.223,3.715,2.210834622964384,1.352085986172381
1581440601.545253,3.125,5.186,3.729,2.195992228951841,1.3622831766834986
1581440601.643197,3.134,5.209,3.743,2.197370201567512,1.3568894872550494
1581440601.744744,3.12,5.209,3.743,2.195174298459429,1.352872570162791
1581440601.845182,3.162,5.214,3.719,2.2117634568150963,1.3632533541512168
1581440601.944384,3.12,5.237,3.724,2.2084615395387828,1.3432029819139597
1581440602.042212,3.162,5.228,3.757,2.200855588676761,1.3583486015068864
1581440602.142524,3.125,5.219,3.734,2.2015213213031406,1.3508587728423869
1581440602.24296,3.148,5.219,3.752,2.198480037490223,1.35743909557835
1581440602.442395,3.124,5.176,3.701,2.203906441307586,1.365495223315535
1581440602.542807,3.12,5.228,3.719,2.2082872284353487,1.3463301817588624
1581440602.646828,3.138,5.186,3.738,2.1947109085591396,1.365999448003845
1581440602.742255,3.129,5.2,3.719,2.2034314610775376,1.3586056082171691
1581440602.845222,3.134,5.214,3.734,2.201814907294176,1.3551733193592284
1581440602.944269,3.134,5.195,3.748,2.192392218427058,1.3617236979287346
1581440603.044635,3.12,5.2,3.719,2.2020216609032217,1.3560248646678226
1581440603.145056,3.124,5.204,3.701,2.210160044499331,1.3558146715031425
1581440603.242896,3.143,5.204,3.729,2.2028403654271522,1.361227673689242
1581440603.343394,3.153,5.195,3.734,2.2005621765685413,1.3672088496119106
1581440603.442645,3.124,0,3.738,error,error
1581440603.54289,3.153,0,3.734,error,error
1581440603.643264,3.116,5.2,3.748,2.1906867650185355,1.354832268022105
1581440603.742367,3.162,5.219,3.719,2.212882570016911,1.3615228907390515
1581440603.842652,3.12,5.223,3.719,2.2071671783482554,1.3480625907138146
1581440604.042229,3.148,5.2,3.719,2.2064200098356186,1.3640644204453725
1581440604.142537,3.143,5.242,3.705,2.220187100825808,1.3481029960158182
1581440604.242922,3.143,5.167,3.724,2.196427425691909,1.3740194808282225
1581440604.343325,3.138,5.2,3.738,2.197836440426885,1.3611599091873705
1581440604.442446,3.12,5.219,3.729,2.202584392349317,1.3494327219448217
1581440604.542803,3.134,5.209,3.743,2.197370201567512,1.3568894872550494
1581440604.643234,3.124,5.214,3.743,2.1969188700458457,1.3522887936503996
1581440604.747218,3.138,5.228,3.734,2.2055777869319644,1.3514745652232365
1581440604.842679,3.124,5.214,3.748,2.1950681968906234,1.3522806738707327
1581440604.943268,3.157,5.195,3.734,2.2011945899998957,1.3683606618360382
1581440605.042187,3.125,5.204,3.705,2.20884784867544,1.3560955136562522
1581440605.142535,3.12,5.19,3.738,2.192778873634426,1.3594528626965137
1581440605.243057,3.134,5.204,3.738,2.198101218039321,1.358627419217897
1581440605.343317,3.124,5.209,3.734,2.1991275403667183,1.3540339061968751
1581440605.442426,3.116,5.186,3.734,2.1927382554974435,1.3596962627497076
1581440605.542841,3.148,5.223,3.738,2.204555826012095,1.3560763725978482
1581440605.643198,3.124,5.233,3.734,2.2045000279260423,1.345721576818243
1581440605.742298,3.134,5.181,3.743,2.191118538489522,1.3665700982115914
1581440605.842745,3.129,5.195,3.715,2.2037867379171683,1.360340981525436
1581440605.943037,3.124,5.2,3.743,2.193789520531753,1.3571333397854215
1581440606.042173,3.153,5.228,3.738,2.206465039448647,1.3557844390459053
1581440606.142627,3.143,5.223,3.729,2.207091011795144,1.354651682853806
1581440606.242927,3.138,5.2,3.738,2.197836440426885,1.3611599091873705
1581440606.343294,3.148,5.186,3.705,2.2084405204541375,1.368924748785238
1581440606.4426,3.134,5.219,3.705,2.2136159367110664,1.353485995197568
1581440606.542838,3.143,5.186,3.691,2.212786620286814,1.3675076854806933
1581440606.643213,3.138,5.233,3.734,2.2066980423449123,1.3497421636265832
1581440606.742343,3.134,5.233,3.729,2.207915255367229,1.3486002984690117
1581440606.846374,3.157,5.214,3.719,2.2109721736520385,1.3618123496285781
1581440606.943077,3.138,5.237,3.729,2.2094407695139866,1.3483634777347595
1581440607.042264,3.148,5.214,3.729,2.2058648613287697,1.3592058855513762
1581440607.142571,3.143,5.209,3.743,2.198786621608162,1.3594758957735609
1581440607.242964,3.124,5.195,3.752,2.1893411571269,1.3588476178390785
1581440607.343378,3.129,5.162,3.743,2.1861004457584943,1.3716951546489542
1581440607.442466,3.125,5.219,3.696,2.2155082794497605,1.350915807466002
1581440607.542836,3.134,5.242,3.738,2.2066085986551935,1.3454666636316757
1581440607.643276,3.116,5.223,3.734,2.201008099031373,1.34689292471987
1581440607.742347,3.148,5.167,3.719,2.199056706393758,1.37546448997029
1581440607.842707,3.143,5.204,3.734,2.2009949914874065,1.3612198684212509
1581440607.943227,3.129,5.195,3.734,2.196783104015209,1.360311255805173
1581440608.042224,3.138,5.214,3.701,2.2145937928212676,1.356372025001772
1581440608.142576,3.124,5.176,3.738,2.190282685648802,1.3654368512978525
1581440608.243028,3.138,5.204,3.724,2.203897028215628,1.3597983334221777
1581440608.34333,3.138,5.181,3.743,2.1917475990322384,1.3677186856848624
1581440608.442472,3.162,5.186,3.729,2.201821854433744,1.3729188111804582
1581440608.543055,3.125,5.237,3.696,2.2195431579534928,1.3446780486295669
1581440608.643356,3.12,5.195,3.738,2.193895082789144,1.3577240792468521
1581440608.742335,3.138,5.195,3.738,2.196719706890583,1.3628887950586515
1581440608.842814,3.134,5.209,3.729,2.2025422695939336,1.3569116400562782
1581440608.94678,3.143,5.228,3.734,2.206364981094147,1.3529122487241778
1581440609.042224,3.124,5.153,3.748,2.1814645248948703,1.37335806607436
1581440609.14263,3.153,5.19,3.757,2.190937528861854,1.3688996440556978
1581440609.242984,3.157,5.204,3.724,2.206893786335788,1.3652643886680957
1581440609.343354,3.148,5.228,3.743,2.2038266552401304,1.3543369803343588
1581440609.442615,3.134,5.2,3.748,2.1935087484329685,1.3599947832844383
1581440609.542873,3.176,5.219,3.715,2.216576378193842,1.3655690322237322
1581440609.643254,3.143,5.214,3.715,2.2102351938240283,1.3577887459386586
1581440609.74242,3.138,5.195,3.743,2.1948713756938663,1.3628807318536007
1581440609.842734,3.138,5.19,3.734,2.197080861292586,1.3646235594843457
1581440609.943088,3.153,5.19,3.734,2.199445885560747,1.3689368768431214
1581440610.042314,3.138,5.228,3.738,2.2040997977309456,1.3514683580718456
1581440610.142613,3.181,5.181,3.691,2.2176848558697024,1.3801835658521613
1581440610.343404,3.138,5.209,3.724,2.205014992772068,1.3580683979220114
1581440610.442502,3.129,5.186,3.734,2.194774158451731,1.363422341828624
1581440610.542852,3.124,5.172,3.752,2.1842122520848166,1.366794734019587
1581440610.643336,3.129,5.176,3.71,2.201384705457808,1.3669150118587543
1581440610.742368,3.153,5.237,3.748,2.204782197370276,1.3526509539473623
1581440610.842734,3.162,5.186,3.743,2.1966525197033278,1.37289671125301
1581440610.943263,3.12,5.2,3.743,2.193163043553891,1.3559866174793005
1581440611.04719,3.134,5.195,3.724,2.201257230923417,1.3617621220418716
1581440611.142628,3.138,5.209,3.696,2.215309116315069,1.358109828030168
1581440611.24313,3.134,5.214,3.701,2.213965342665786,1.3552230189565562
1581440611.34343,3.138,5.209,3.715,2.208329667142887,1.3580820381734064
1581440611.442566,3.138,5.214,3.738,2.200966076559442,1.356316205723612
1581440611.542958,3.171,5.167,3.719,2.202696599314832,1.3820880751878473
1581440611.643245,3.148,5.19,3.719,2.2041862828785717,1.367521443207797
1581440611.742384,3.143,5.209,3.715,2.209116518349783,1.3595191539574687
1581440611.842807,3.129,5.204,3.748,2.19361696499784,1.3571758490058483
1581440611.943133,3.125,5.176,3.734,2.191916730734678,1.3657300612741297
1581440612.042285,3.12,5.195,3.715,2.2023770709627346,1.3577604992567558
1581440612.142674,3.129,5.181,3.724,2.197347428315893,1.3651659767604933
1581440612.243019,3.138,5.176,3.729,2.1958029343500933,1.3694682087141234
1581440612.343375,3.134,5.162,3.71,2.1990493247678065,1.3731826656183996
1581440612.442677,3.143,5.228,3.724,2.2100550277073285,1.3529274417454398
1581440612.542905,3.124,5.214,3.724,2.203935983996823,1.3523187956652831
1581440612.643286,3.125,5.237,3.715,2.2125605530672376,1.344650693940986
1581440612.74245,3.134,5.209,3.729,2.2025422695939336,1.3569116400562782
1581440612.84278,3.148,5.219,3.738,2.2036604768970682,1.3574612827390606
1581440612.943138,3.148,5.186,3.729,2.1996086566496946,1.368888142698017
1581440613.042347,3.138,5.2,3.701,2.211461990047706,1.3612164333460706
1581440613.146303,3.12,5.195,3.734,2.1953727983702027,1.357730555530111
1581440613.243033,3.138,5.209,3.734,2.2013255547855883,1.3580528858682779
1581440613.343454,3.143,5.172,3.738,2.192376767720526,1.3722711849114078
1581440613.442516,3.12,5.223,3.734,2.201633696340655,1.3480394059003684
1581440613.542889,3.153,5.228,3.729,2.209788503299922,1.3557981542581918
1581440613.643465,3.134,5.195,3.743,2.1942423151511505,1.3617318787317947
1581440613.742528,3.134,5.2,3.734,2.1986850408159273,1.3600173640428006
1581440613.842765,3.129,5.2,3.687,2.2151806129848324,1.3586528541915104
1581440613.943295,3.134,5.2,3.738,2.197207454246656,1.3600109864597238
1581440614.0423,3.129,5.195,3.743,2.193457025398446,1.3602967054491562
1581440614.142667,3.12,5.209,3.734,2.1985012008554112,1.3528870576562166
1581440614.243099,3.138,5.176,3.705,2.204634654094711,1.3695054306259022
1581440614.343416,3.134,5.181,3.748,2.1892687250207614,1.3665618252561298
1581440614.442629,0,5.204,3.743,error,error
1581440614.643029,3.134,5.181,3.729,2.1962890007994997,1.3665927734059033
1581440614.743329,3.138,5.209,3.743,2.1979992621102276,1.3580386064928243
1581440614.842458,3.143,5.219,3.734,2.2043498291894688,1.356029031740434
1581440614.942822,3.157,5.172,3.748,2.190890482461144,1.3762820407875027
1581440615.043178,3.124,5.2,3.748,2.191939132539446,1.357125127232753
1581440615.14233,3.134,5.209,3.748,2.1955198201793995,1.3568813990626836
1581440615.246335,3.12,5.204,3.724,2.2010733439683,1.3546331642526932
1581440615.343065,3.124,5.228,3.752,2.196719361995681,1.3474255871377239
1581440615.443545,3.116,5.172,3.705,2.2002951048077635,1.3645793666622223
1581440615.542577,3.129,5.19,3.71,2.2045089126379254,1.362077335153595
1581440615.642923,3.111,5.195,3.734,2.1939662501281494,1.3551530896616404
1581440615.743371,3.12,5.181,3.719,2.197779378212631,1.3625939135409642
1581440615.842449,3.129,5.209,3.724,2.2036012761579182,1.3554839877882296
1581440615.942824,3.124,5.219,3.738,2.199886571066196,1.3505655860615502
1581440616.043235,3.124,5.181,3.757,2.1843648456720905,1.3636778371090907
1581440616.142325,3.138,5.176,3.743,2.1906329641818236,1.369445511456017
1581440616.242683,3.134,5.172,3.762,2.1820749919832374,1.369646024339769
1581440616.343107,3.124,5.209,3.71,2.207971982566814,1.3540709256484849
1581440616.44344,3.134,5.176,3.743,2.1900039036391075,1.3682970187421797
1581440616.542627,3.125,5.186,3.738,2.192669400729203,1.362268639262944
1581440616.64305,3.138,5.181,3.719,2.200602730715513,1.36775699277813
1581440616.74337,3.124,5.219,3.719,2.2068976264178786,1.35059510226739
1581440616.842438,3.124,5.186,3.738,2.1925126848842615,1.3619819326892524
1581440616.942961,3.12,5.2,3.734,2.196489613902742,1.3560012129987262
1581440617.043239,3.125,5.176,3.724,2.1956052895862457,1.3657461800817015
1581440617.142336,3.138,5.214,3.738,2.200966076559442,1.356316205723612
1581440617.242732,3.12,5.214,3.724,2.2033097954987886,1.3511719023920892
1581440617.346767,3.125,5.186,3.748,2.188970923687989,1.3622521348557195
1581440617.443442,3.153,5.167,3.734,2.194317727850674,1.3768789238547636
1581440617.542603,3.088,5.195,3.734,2.1903889112183976,1.3485810059436976
1581440617.642942,3.12,5.181,3.724,2.1959374606827144,1.3625859954180124
1581440617.743321,3.129,5.195,3.705,2.207462951874039,1.3603560812688251
1581440617.842483,3.134,5.181,3.696,2.208423591371144,1.3666433356905134
1581440617.942859,3.124,5.186,3.734,2.1939901923180325,1.361988436079593
1581440618.043174,3.129,5.223,3.743,2.1997168887343186,1.3506071026205853
1581440618.142375,3.12,5.2,3.748,2.191312578559867,1.355978378643379
1581440618.242713,3.138,5.19,3.729,2.1989260380328135,1.3646314896118703
1581440618.343084,3.116,5.162,3.701,2.1995349019577475,1.3680382870629586
1581440618.44359,3.116,5.186,3.738,2.191260625728916,1.3596897176024365
1581440618.542612,3.134,5.214,3.705,2.2124965275808126,1.355217214681022
1581440618.643109,3.124,5.219,3.748,2.196186710192157,1.350549506399984
1581440618.743377,3.125,5.167,3.738,2.188434206858017,1.3688310610698862
1581440618.842463,3.129,5.186,3.738,2.1932967264554195,1.3634158641876029
1581440618.942967,3.134,5.209,3.696,2.2146807366389893,1.3569609411948715
1581440619.043273,3.138,5.167,3.748,2.186778494672553,1.3725441082422192
1581440619.142368,3.129,5.181,3.705,2.204336974455673,1.365195350057394
1581440619.242714,3.106,5.237,3.715,2.209592551966539,1.339205985080027
1581440619.343163,3.12,5.204,3.705,2.20806534898154,1.3546621581324683
1581440619.447152,3.138,5.186,3.71,2.2050291193895117,1.366043225046201
1581440619.542623,3.134,5.209,3.729,2.2025422695939336,1.3569116400562782
1581440619.642993,3.12,5.214,3.729,2.2014654879952844,1.3511641129732646
1581440619.743385,3.125,5.195,3.748,2.1909793565704097,1.3591410434903022
1581440619.842479,3.138,5.195,3.748,2.193021353784022,1.3628725765871372
1581440619.942974,3.143,5.176,3.748,2.1895707784886924,1.3708737719654194
1581440620.043253,3.138,5.176,3.738,2.1924809093236797,1.3694537002575817
1581440620.142395,3.124,5.176,3.752,2.185103435523883,1.3654134397834754
1581440620.242766,3.143,5.204,3.729,2.2028403654271522,1.361227673689242
1581440620.343137,3.143,5.148,3.687,2.205780177530062,1.3806298478376207
1581440620.44348,3.138,5.181,3.743,2.1917475990322384,1.3677186856848624
1581440620.542652,3.12,5.204,3.715,2.2043884257989554,1.3546470690399668
1581440620.643,3.125,5.19,3.729,2.1968849656086546,1.360900581872355
1581440620.842576,3.124,5.195,3.691,2.211814926850673,1.3589427305465493
1581440620.942883,3.134,5.204,3.705,2.210259276810319,1.3586780656330586
1581440621.043258,3.12,5.223,3.724,2.2053243857487224,1.3480549572801788
1581440621.142401,3.143,5.195,3.715,2.2059870107727395,1.3643614753522018
1581440621.242731,3.124,5.19,3.719,2.200414047624793,1.360629625245234
1581440621.343141,3.124,5.195,3.734,2.19599913788151,1.3588771347973905
1581440621.443616,3.125,5.233,3.738,2.2031784623886495,1.3460022575155814
1581440621.546306,3.12,5.167,3.743,2.185802987847126,1.367390018584749
1581440621.642997,3.124,5.172,3.743,2.1875431494288087,1.3668099140189378
1581440621.743433,3.125,5.214,3.743,2.1970756049304208,1.352575641043537
1581440621.84249,3.134,5.19,3.738,2.194974511555636,1.3634684159792154
1581440621.942886,3.134,5.176,3.687,2.2106042305214166,1.368383712361741
1581440622.043292,3.129,5.181,3.696,2.2076391609578896,1.3652087890583207
1581440622.142406,3.129,5.204,3.743,2.195467338952991,1.3571840025453232
1581440622.242822,3.143,5.219,3.71,2.213193609250411,1.356065156075708
1581440622.343337,3.162,5.19,3.748,2.1956955428743856,1.371506849091557
1581440622.442451,3.129,5.186,3.705,2.205452920737941,1.3634675204652353
1581440622.542774,3.125,5.204,3.734,2.1981664836010784,1.3560508962572149
1581440622.64318,3.125,5.228,3.724,2.2072271824727983,1.3477566358718924
1581440622.743523,3.124,5.181,3.752,2.1862178892768784,1.3636863398575991
1581440622.842618,3.148,5.233,3.71,2.2171183423842753,1.3526542732894473
1581440622.943153,3.125,5.195,3.729,2.198001359404273,1.3591718583753039
1581440623.04343,3.124,5.214,3.701,2.212397465481389,1.3523532867471308
1581440623.142549,3.134,5.176,3.743,2.1900039036391075,1.3682970187421797
1581440623.242929,3.125,5.209,3.752,2.1926253016333326,1.3542915586606634
1581440623.343284,3.138,5.2,3.738,2.197836440426885,1.3611599091873705
1581440623.4424,3.124,5.219,3.719,2.2068976264178786,1.35059510226739
1581440623.542801,3.167,5.204,3.701,2.2169347002468505,1.3681805916209635
1581440623.646933,3.116,5.19,3.724,2.197320384920515,1.3583295696465545
1581440623.743539,3.134,5.153,3.701,2.200349835460482,1.3763013523808443
1581440623.842706,3.12,5.228,3.743,2.199425826238803,1.3462928405739676
1581440623.943038,3.125,5.223,3.719,2.2079499365585087,1.3494964917159038
1581440624.043394,3.143,5.2,3.748,2.1949253359334135,1.3625808647355886
1581440624.142706,3.129,5.214,3.743,2.1977030064233616,1.3537234279820423
1581440624.242904,3.148,5.209,3.701,2.215049182929952,1.3609777008564308
1581440624.343279,3.129,5.223,3.743,2.1997168887343186,1.3506071026205853
1581440624.442531,3.12,5.204,3.71,2.206227744372305,1.3546546611974053
1581440624.542817,3.134,5.195,3.748,2.192392218427058,1.3617236979287346
1581440624.643183,3.125,5.2,3.729,2.199118277903239,1.3574426024410886
1581440624.743552,3.138,5.19,3.743,2.1937552683853307,1.3646090524510015
1581440624.842656,3.143,5.209,3.734,2.202112748947771,1.3594901187144115
1581440625.04344,3.12,5.19,3.752,2.1875986159259853,1.359429635331172
1581440625.142565,3.125,5.195,3.715,2.2031597548472526,1.3591937014265902
1581440625.242927,3.134,5.186,3.729,2.197404447902746,1.3648652251920967
1581440625.343342,3.12,5.19,3.729,2.1961020199730226,1.3594674103805897
1581440625.442427,3.111,5.223,3.715,2.2072342869470294,1.345490165787237
1581440625.542777,3.116,5.223,3.729,2.2028543696854492,1.3469007737847634
1581440625.643212,3.148,5.209,3.752,2.196243694185665,1.3608997067416357
1581440625.747259,3.12,5.195,3.743,2.1920464120430676,1.3577159001422867
1581440625.842667,3.125,5.186,3.738,2.192669400729203,1.362268639262944
1581440625.943186,3.148,5.204,3.715,2.208786368588095,1.3626870193275857
1581440626.043427,3.129,5.176,3.715,2.199546138805628,1.3669072854673396
1581440626.142578,3.134,5.195,3.748,2.192392218427058,1.3617236979287346
1581440626.242986,3.129,5.209,3.715,2.2069162454942113,1.3554977287211731
1581440626.343316,3.12,5.204,3.696,2.211368707257114,1.3546754115931223
1581440626.442441,3.129,5.2,3.715,2.2049039475198398,1.3586117265981814
1581440626.542916,3.138,5.204,3.734,2.200207797325224,1.3597827539931873
1581440626.643224,3.125,5.186,3.734,2.194146893012757,1.3622751374820108
1581440626.742487,3.134,5.223,3.719,2.2093618230891856,1.3520800183697539
1581440626.842888,3.12,5.195,3.743,2.1920464120430676,1.3577159001422867
1581440626.943203,3.116,5.219,3.757,2.1915984187636806,1.348241028511134
1581440627.142723,3.129,5.181,3.729,2.1955039723380545,1.365158022639928
1581440627.243085,3.125,5.2,3.752,2.190614375742103,1.3574052825831868
1581440627.343466,3.134,5.2,3.752,2.1920273748150674,1.3599881987583
1581440627.442714,3.125,5.247,3.719,2.2133309053326893,1.3411767142049191
1581440627.542989,3.129,5.204,3.724,2.2024833116014784,1.3572141377023685
