1581439011.641919,3.008,2.886,4.061,1.6134641625063966,2.0464724735776154
1581439011.742256,3.031,2.876,4.108,1.5969918526492446,2.0553575170633285
1581439011.941811,3.064,2.886,4.113,1.6016171389439027,2.061824038134006
1581439012.042174,3.102,2.914,4.099,1.6172871552879833,2.0649671662947533
1581439012.14253,3.022,2.886,4.094,1.6026243525691342,2.0502468755302687
1581439012.241655,3.027,2.914,4.103,1.6040300677811556,2.0441246347356468
1581439012.342008,3.012,2.881,4.099,1.5983706098988684,2.0488129369253145
1581439012.442386,3.045,2.909,4.08,1.6151245658137077,2.050491264245163
1581439012.541679,3.05,2.886,4.099,1.6049744026209345,2.057972071159682
1581439012.642033,3.073,2.872,4.103,1.604892355285651,2.06807348977514
1581439012.742264,3.017,2.891,4.094,1.6026012988212373,2.047537288079278
1581439013.146255,3.045,2.895,4.099,1.6055422147475589,2.05418786284817
1581439013.241648,3.031,2.914,4.113,1.6006935633825037,2.045204320414055
1581439013.34205,3.027,2.937,4.094,1.6110507941873873,2.0379711257757376
1581439013.44245,2.994,2.914,4.113,1.5950160848585042,2.0350260359394157
1581439013.541447,2.966,2.919,4.103,1.5954705323991416,2.026057487096812
1581439013.641895,2.961,2.876,4.108,1.5863057576182324,2.0361618493138596
1581439013.742353,3.017,2.905,4.113,1.5971864211067446,2.0437535254542847
1581439013.841521,3.027,2.895,0,error,error
1581439013.941831,3.027,2.909,4.071,1.6158853926390837,2.045540039247792
1581439014.042317,3.022,2.9,4.085,1.6082618224430145,2.046534194457771
1581439014.142493,3.027,2.909,4.099,1.6048586272396879,2.045473007689801
1581439014.241617,2.975,2.9,4.094,1.5975375527976199,2.0336199795329026
1581439014.342014,2.975,2.909,4.089,1.6008586672325447,2.0312266043823217
1581439014.442368,3.003,2.9,4.108,1.5962692391873967,2.0412525654150953
1581439014.54149,3.041,2.891,4.103,1.6027463308967151,2.054138833618089
1581439014.641861,3.05,2.905,4.108,1.6042586169377717,2.052879889781036
1581439014.742198,3.017,2.909,4.108,1.5997646039782527,2.042695547847099
1581439014.841305,3.031,2.928,4.103,1.6067557520476086,2.0414726300593946
1581439014.941756,3.008,2.9,4.099,1.6005918649768744,2.0426479393360575
1581439015.04209,3.008,2.928,4.089,1.6087441338000277,2.035172462150321
1581439015.142489,3.069,2.886,4.099,1.6079285776045467,2.0632454653911503
1581439015.245351,3.022,2.914,4.099,1.604839965712063,2.0427558121989304
1581439015.341939,3.022,2.937,4.089,1.6122518725453727,2.0366051207316356
1581439015.541619,3.017,2.9,4.103,1.600392057076739,2.0451139722187914
1581439015.641843,2.97,2.881,4.108,1.5884103472251567,2.0372854887216696
1581439015.742206,3.059,2.9,4.113,1.6029303390490959,2.056700395333636
1581439015.841363,3.069,2.905,4.118,1.6032589467478735,2.058130106027312
1581439015.941643,3.059,2.937,4.103,1.612452479436782,2.0468018542735917
1581439016.042066,2.984,2.891,4.089,1.5995327065481544,2.038493399746686
1581439016.14251,2.984,2.923,4.089,1.6043292040081816,2.0299349767309707
1581439016.241564,2.994,2.895,4.066,1.6107046061240986,2.0402204730553644
1581439016.341934,2.984,2.919,4.099,1.5997808235068192,2.030982729563727
1581439016.446305,0,2.928,0,error,error
1581439016.540201,3.064,2.891,4.099,1.6078949748076878,2.06052325301064
1581439016.641794,3.069,2.905,4.118,1.6032589467478735,2.058130106027312
1581439016.742224,3.059,2.895,4.094,1.609686789366988,2.058079457520759
1581439016.841316,2.984,2.891,4.103,1.5940034902951241,2.0384591400395267
1581439016.94167,3.017,2.895,4.094,1.6031983221425972,2.0464704029125484
1581439017.042203,2.975,2.905,4.085,1.601836277821495,2.0323063711718783
1581439017.442331,3.022,2.933,4.099,1.607704106121883,2.0376564425638883
1581439017.641915,2.98,2.891,4.089,1.5989251091534038,2.037399693080827
1581439017.742169,2.994,2.923,4.099,1.6019061762540678,2.0326478644870405
1581439017.841266,2.994,2.928,4.061,1.617614998375264,2.031400510736358
1581439017.941707,3.017,2.895,4.071,1.6122557278210474,2.04652517865561
1581439018.042035,3.045,2.876,4.094,1.6046861252646438,2.0592599205496502
1581439018.142415,2.97,2.928,4.108,1.5954557492527355,2.024720062624798
1581439018.241573,2.994,2.891,4.089,1.601054932964727,2.0412314284901174
1581439018.341866,3.012,2.891,4.099,1.5998601572668107,2.0461494790408654
1581439018.442254,2.994,2.952,4.108,1.6027421692561017,2.0248201658539147
1581439018.541555,2.989,2.914,4.094,1.601763541824366,2.0337035118532394
1581439018.641784,2.998,2.909,4.099,1.6004111610545733,2.0374961634879405
1581439018.742165,3.008,2.891,4.099,1.5992471671352126,2.0450496995363237
1581439018.841279,3.027,2.909,4.089,1.6088028446351599,2.045496985655708
1581439018.941732,3.036,0,4.099,error,error
1581439019.04204,3.064,2.947,4.118,1.6088210315522364,2.04545955044011
1581439019.1424,3.008,2.895,4.08,1.607336574025237,2.0440284528581905
1581439019.24151,3.036,2.909,4.099,1.606246645337487,2.0479575956755145
1581439019.341999,3.027,2.9,4.099,1.6035100557900526,2.0478793028744833
1581439019.446027,3.059,2.891,4.103,1.6055377790452623,2.059125839343838
1581439019.54137,3.05,2.9,4.075,1.6165175366810953,2.0542932972013213
1581439019.641737,2.989,2.891,4.113,1.5908072533335218,2.0398032148759366
1581439019.742168,3.022,2.919,4.085,1.6111114986864274,2.041449766208278
1581439019.841318,2.994,2.933,4.089,1.607360329855615,2.0299868990004573
1581439019.941659,3.027,2.876,4.103,1.598352338741125,2.0542652249105395
1581439020.042195,2.961,2.909,4.118,1.5872725524602933,2.027335629397113
1581439020.142413,3.05,2.886,4.089,1.6089188924086848,2.0579950684179793
1581439020.241533,2.975,2.905,4.071,1.6073478345325747,2.0323412292225216
1581439020.442239,3.027,2.895,4.075,1.6122196208543897,2.0492709504338227
1581439020.541381,3.003,2.905,4.099,1.6005753842394725,2.039938241299311
1581439020.641774,3.036,2.933,4.099,1.6098616604000666,2.0415192892693406
1581439020.742084,2.984,2.9,4.113,1.5913915520274922,2.036032707050685
1581439020.841206,2.984,2.895,4.103,1.5946007675898757,2.037392264636636
1581439020.941641,2.966,2.876,4.071,1.6016663407283094,2.037614815791645
1581439021.042198,3.045,2.9,4.113,1.6007571506837277,2.0528200039365463
1581439021.142371,2.975,2.895,4.085,1.600340991596159,2.0349769321588855
1581439021.241517,3.003,2.947,4.118,1.5994011729281195,2.028612605840308
1581439021.341854,2.961,2.919,4.108,1.5927371993926063,2.024682432255585
1581439021.442283,3.027,2.933,4.071,1.6194958583962114,2.0391033638007556
1581439021.546429,3.036,2.905,4.118,1.5981347638657113,2.048982473846934
1581439021.641728,3.036,2.891,4.118,1.5960394646392366,2.052721373903938
1581439021.742096,2.975,2.937,4.075,1.6105892696768471,2.023749634343461
1581439021.841248,2.98,2.937,4.108,1.5983337774310211,2.025030955876002
1581439021.941552,3.064,2.914,4.089,1.6152808600387107,2.054398929228435
1581439022.041931,3.031,2.905,4.099,1.604875229534759,2.0476467635806217
1581439022.14239,3.041,2.891,4.108,1.600770136086723,2.0541271663871705
1581439022.241463,3.036,2.9,4.108,1.6013424396765383,2.0503426869537003
1581439022.341815,3.036,2.919,4.108,1.6041951327684185,2.0452570748339487
1581439022.442219,2.97,2.891,4.099,1.593460384889242,2.0346444389543588
1581439022.541294,2.97,2.909,4.08,1.6036485290110603,2.0298846921917204
1581439022.641811,2.984,2.905,4.094,1.5996524430291785,2.034743569565926
1581439022.74211,3.041,2.891,4.113,1.5987922657562066,2.0541154893911813
1581439022.841204,2.984,2.905,4.089,1.601625153796039,2.0347559542451283
1581439022.941559,3.045,2.9,4.122,1.5971935577704606,2.052798845962378
1581439023.042091,3.05,2.881,4.085,1.6097511246977236,2.0593353190548407
1581439023.142295,2.989,2.886,4.085,1.6011255800800086,2.0412036418208808
1581439023.241445,2.97,2.914,4.099,1.5969045288332986,2.0284983397007816
1581439023.341864,3.069,2.942,4.103,1.614767175693606,2.048232827600749
1581439023.442173,2.97,2.914,4.103,1.5953236895837428,2.028488212174552
1581439023.541324,3.055,2.9,4.094,1.6098127758043612,2.055634862324325
1581439023.64546,2.984,2.909,4.103,1.596697263586669,2.033651314488168
1581439023.742018,3.017,2.891,4.103,1.5990471058048208,2.047515876144192
1581439023.841155,2.994,2.905,4.085,1.6047240825173252,2.0375037144894295
1581439023.941564,3.036,2.9,4.089,1.6088423872779891,2.05038755074879
1581439024.041911,2.98,2.905,4.094,1.5990447202382558,2.033649850952423
1581439024.142303,3.012,2.914,4.075,1.6127603857472386,2.04006129796967
1581439024.241445,3.041,2.905,4.094,1.6083921844708426,2.0504216159037996
1581439024.341785,2.975,2.891,4.103,1.592636643802578,2.035999241879958
1581439024.442147,2.989,2.914,4.103,1.5982092500638567,2.0336811042279717
1581439024.541444,2.975,2.914,4.108,1.594104026154439,2.0298402650456797
1581439024.641704,3.003,2.876,4.085,1.6017747265921496,2.0477023776551104
1581439024.742026,3.017,2.947,4.089,1.6129992771985895,2.032534596123744
1581439024.841213,3.045,2.923,4.103,1.6081649957618893,2.0466848195320213
1581439024.94155,2.994,2.909,4.118,1.592284395575157,2.036352435289439
1581439025.041906,2.989,2.919,4.066,1.6135372130831638,2.0324333846897873
1581439025.142334,3.045,2.891,4.113,1.5994115640671094,2.055222333233169
1581439025.24142,3.045,2.9,4.075,1.6157434964120332,2.052908984876931
1581439025.341774,3.069,2.919,4.094,1.6148415601825843,2.054436416669342
1581439025.442209,2.998,2.881,4.103,1.5946472817520885,2.0449577380593245
1581439025.541242,2.989,2.872,4.108,1.589959453820595,2.0448713615934513
1581439025.641641,2.984,2.895,4.108,1.5926229865234935,2.037379961636619
1581439025.745836,2.98,2.9,4.08,1.6038163240630308,2.035020538876052
1581439025.841145,3.022,2.909,4.118,1.596576001448055,2.0440486511283127
1581439025.941518,2.994,2.905,4.085,1.6047240825173252,2.0375037144894295
1581439026.042034,3.055,2.905,4.118,1.6010791107865823,2.054242394043152
1581439026.142274,3.017,2.956,4.118,1.6029179408127707,2.0300326338810413
1581439026.241392,3.022,2.9,4.108,1.5991841391482053,2.0464792556748392
1581439026.341806,3.041,2.919,4.094,1.6104944828272734,2.0466728152938507
1581439026.44216,3.041,2.9,4.099,1.605670775820607,2.0517461540253823
1581439026.541271,3.003,2.919,4.108,1.599121932279277,2.0361673944007266
1581439026.641668,3.059,2.909,4.103,1.6082315523368074,2.054316962339838
1581439026.74201,2.989,2.891,4.099,1.5963454651303464,2.03983738757254
1581439026.8411,3.012,2.909,4.108,1.5989970687358017,2.0413196038218477
1581439026.941809,3.012,2.909,4.099,1.6025534265581076,2.0413414965340686
1581439027.041941,3.059,2.919,4.08,1.6187967495764903,2.051692000248162
1581439027.142236,2.998,2.937,4.089,1.6085753938877143,2.030007633672352
1581439027.241424,2.994,2.891,4.085,1.6026320260238993,2.0412411161276376
1581439027.341818,3.031,2.914,4.113,1.6006935633825037,2.045204320414055
1581439027.442111,3.059,2.914,4.094,1.6125331089884494,2.0529991879639398
1581439027.541382,2.984,2.886,4.108,1.5912798727744544,2.039779300905191
1581439027.641752,2.989,2.881,4.113,1.5893167066246014,2.0424668257576903
1581439027.742181,2.989,2.909,4.08,1.6065313404879216,2.035076688041331
1581439027.846283,3.008,2.933,4.094,1.6075281558768963,2.033816347122848
1581439027.941645,3.05,2.895,4.113,1.60078425668367,2.0555398829680906
1581439028.045847,0,2.919,0,error,error
1581439028.13985,3.055,2.9,4.099,1.6078403246376756,2.055623247208294
1581439028.241492,3.05,2.9,4.094,1.609037069561114,2.054249063530305
1581439028.341842,3.055,2.895,4.103,1.6055134797940218,2.0569490522129974
1581439028.442234,2.998,2.919,4.089,1.605859378312351,2.0348423449446744
1581439028.541335,2.984,2.891,4.094,1.5975595064360866,2.038481174267791
1581439028.64172,3.027,2.919,4.099,1.6063615649560958,2.04279420859159
1581439028.742102,3.003,2.891,4.089,1.6024288727260478,2.043700232426827
1581439028.841225,3.017,2.886,4.089,1.6038284686016706,2.048881488182553
1581439028.941591,3.041,2.905,4.085,1.6119387602942687,2.0504428468986045
1581439029.042082,3.045,2.891,4.089,1.6088894734470154,2.0552781035199152
1581439029.141073,3.059,2.905,4.094,1.6111827026387202,2.0554080615028365
1581439029.24145,3.012,2.9,4.103,1.5996246729657864,2.04373804795179
1581439029.342093,3.055,2.909,4.108,1.6056348165655383,2.0531956187897515
1581439029.442191,2.994,2.895,4.094,1.5996790667646856,2.0401524910910944
1581439029.541313,3.003,2.914,4.089,1.6058714163099108,2.0375542377001747
1581439029.641752,3.041,2.909,4.099,1.6070193472702428,2.049339754960151
1581439029.742173,2.984,2.905,4.099,1.5976780434343778,2.0347311733016444
1581439029.841193,3.045,2.914,4.118,1.6008793412719822,2.0490624244580897
1581439029.945378,2.989,2.919,4.094,1.602515433831068,2.0323636048534732
1581439030.041901,3.069,2.881,4.108,1.6036292622126087,2.0645565026203516
1581439030.141053,3.027,2.895,4.118,1.5952481372263747,2.049169164993486
1581439030.241689,3.017,2.923,4.099,1.6054261321511583,2.0389656148711355
1581439030.34179,3.012,2.905,4.113,1.5964187343595728,2.042377515909013
1581439030.442167,3.069,2.9,4.108,1.6064647200166415,2.0594898259564665
1581439030.541477,3.064,2.933,4.103,1.6126251974664487,2.0492660754659737
1581439030.64169,3.069,2.876,4.094,1.6084143459514173,2.065917966714789
1581439030.74205,3.045,2.919,4.099,1.609141257450555,2.0477674840815587
1581439030.841219,3.059,2.905,4.099,1.6092105391862572,2.055396428508472
1581439030.941569,3.027,2.886,4.099,1.6014199828845124,2.051613675071798
1581439031.041922,3.012,2.886,4.108,1.595556969337454,2.0474604736439876
1581439031.141105,2.975,2.886,4.085,1.598999341615495,2.037375747692182
1581439031.241407,2.989,2.876,4.094,1.5960882195999009,2.0438422612583973
1581439031.341783,3.045,2.895,4.089,1.6094863560690122,2.0542111650228185
1581439031.442185,3.055,2.891,4.103,1.6049162024992703,2.05801615900104
1581439031.541286,2.998,2.909,4.103,1.5988308873792683,2.0374863209955976
1581439031.641647,3.05,2.895,4.089,1.610260795988001,2.055595637557641
1581439031.742121,3.022,2.895,4.085,1.6075147786562607,2.047868945199112
1581439031.841181,3.069,2.895,4.085,1.614789121676182,2.060877607093136
1581439031.941533,3.017,2.914,4.094,1.6060446417640584,2.041390809962491
1581439032.045775,3.069,2.923,4.108,1.6099201631424773,2.0533304078916133
1581439032.141028,2.984,2.923,4.094,1.602357109724865,2.029922391489122
1581439032.241489,3.064,2.891,4.113,1.6023630121183798,2.0604912133427353
1581439032.341946,2.975,2.876,4.099,1.5919854831599523,2.0400018446656096
1581439032.440993,2.994,2.895,4.103,1.596123865543871,2.040130565706646
1581439032.541368,2.989,2.905,4.103,1.5968582840656769,2.0360897002054887
1581439032.641891,3.059,2.9,4.094,1.6104341476723005,2.056744436048083
1581439032.742135,2.994,2.905,4.099,1.5992008917808178,2.0374693310683694
1581439032.841267,3.003,2.895,4.075,1.6085396677574029,2.042667176448211
1581439033.041977,2.961,2.9,4.122,1.5843362234272569,2.0297318516133376
1581439033.141145,3.05,2.919,4.099,1.609915984692518,2.0491519481927267
1581439033.241514,2.989,2.905,4.103,1.5968582840656769,2.0360897002054887
1581439033.3419,2.998,2.923,4.113,1.5969822896464503,2.033709668061753
1581439033.440976,2.989,2.919,4.066,1.6135372130831638,2.0324333846897873
1581439033.541524,2.966,2.914,4.089,1.6002469042247183,2.027432983377095
1581439033.641725,2.984,2.881,4.099,1.5940950691311715,2.041132190206809
1581439033.742124,2.97,2.9,4.118,1.587284668291592,2.0321953154330124
1581439033.841248,3.041,2.937,4.085,1.6167557262055936,2.0418593250269157
1581439033.941619,2.989,2.891,4.099,1.5963454651303464,2.03983738757254
1581439034.041961,2.975,2.919,4.118,1.590896902463335,2.0284748522196048
1581439034.146173,3.05,2.867,4.108,1.5985959419158053,2.063003114229833
1581439034.241682,0,2.886,4.118,error,error
1581439034.341939,2.989,2.914,4.099,1.599789609074403,2.033691067832619
1581439034.441061,2.994,2.923,4.108,1.5983496901239287,2.032625351176646
1581439034.541295,3.069,2.923,4.099,1.613472664076939,2.0533515609218838
1581439034.641698,2.984,2.886,4.099,1.5948392414352355,2.039801251288164
1581439034.742108,3.055,2.891,4.103,1.6049162024992703,2.05801615900104
1581439034.84116,3.055,2.933,4.094,1.6147752332922265,2.0467900534501395
1581439034.941585,3.041,2.891,4.127,1.5932453452278132,2.0540827419217296
1581439035.042127,3.064,2.895,4.08,1.6159781842164682,2.0594996861877024
1581439035.141059,3.012,2.905,4.094,1.6039271223930864,2.0424235621056255
1581439035.241443,2.966,2.933,4.113,1.5936272204963486,2.022272531162754
1581439035.341874,2.994,2.923,4.103,1.6003261877940744,2.0326378632573956
1581439035.440942,2.998,2.909,4.094,1.6023849874187484,2.0375084564290717
1581439035.541352,3.041,2.9,4.094,1.607643629504423,2.051757906533927
1581439035.641721,3.064,2.909,4.118,1.603079804176944,2.055670167478665
1581439035.742054,2.998,2.909,4.085,1.6059336199761274,2.0375305551850906
1581439035.841175,3.027,2.895,4.103,1.6011825591547886,2.049204757522741
1581439035.941597,3.031,2.886,4.08,1.6095272729163863,2.052761865180548
1581439036.041939,3.003,2.928,4.085,1.609555083166051,2.0338090956240578
1581439036.141165,2.998,2.9,4.099,1.599062589604938,2.0399022772986917
1581439036.245237,3.022,2.905,4.061,1.6184434071827887,2.04525544319623
1581439036.341945,2.966,2.914,4.103,1.5947183322321354,2.0273974486859987
1581439036.440929,2.98,2.933,4.094,1.6032586227597012,2.026142712814413
1581439036.541471,3.036,2.923,4.089,1.612294818686393,2.0442297850455637
1581439036.641713,2.956,2.905,4.089,1.5973875737981418,2.027118363252161
1581439036.742056,3.055,2.947,4.099,1.6149252303503356,2.043007988176304
1581439036.841192,3.055,2.891,4.089,1.6104394771267845,2.0580483906333558
1581439036.941532,3.064,2.9,4.122,1.60014599129394,2.0580678903580374
1581439037.141082,2.984,2.909,4.057,1.614808959237452,2.033765418892688
1581439037.341795,2.975,2.891,4.099,1.5942179974855637,2.0360091170147574
1581439037.44094,3.036,2.891,4.089,1.607498321226366,2.0527893104843744
1581439037.541256,3.055,2.933,4.08,1.6202859787709494,2.0468235488685487
1581439037.641791,2.984,2.905,4.08,1.6051717658180988,2.034778217415898
1581439037.742099,2.975,2.909,4.071,1.6079469049505029,2.0312716000634623
1581439037.841163,2.97,2.923,4.089,1.6022058570479352,2.0261109854807904
1581439037.941544,2.961,2.923,4.103,1.5953174946849,2.023622317526414
1581439038.042047,3.008,2.919,4.103,1.6018636205585333,2.0375532463701407
1581439038.141054,2.98,2.886,4.089,1.5981800881960844,2.0387318793140077
1581439038.241417,2.966,2.914,4.094,1.5982739339322063,2.0274203034373035
1581439038.345537,2.97,2.914,4.099,1.5969045288332986,2.0284983397007816
1581439038.440878,2.98,2.914,4.089,1.6023676527372668,2.0312540049460446
1581439038.641668,2.98,2.928,4.099,1.6005296752338676,2.0274736876419306
1581439038.742103,3.012,2.928,0,error,error
1581439038.841155,3.008,2.872,4.103,1.5948400716700413,2.050096092037985
1581439038.941572,3.059,2.923,4.103,1.6103373785902175,2.0505646515166385
1581439039.04188,3.055,2.923,4.089,1.6152359745868115,2.0494883327312547
1581439039.141015,2.98,2.919,4.103,1.597592527128433,2.029878908230629
1581439039.24141,2.97,2.923,4.122,1.5891560155339095,2.026026699776762
1581439039.341725,2.975,2.909,4.089,1.6008586672325447,2.0312266043823217
1581439039.440864,3.036,2.909,4.103,1.6046672854708337,2.047948065096525
1581439039.541426,2.97,2.937,4.085,1.6058960756720086,2.022359584714631
1581439039.641617,3.041,2.881,4.089,1.6067818953455826,2.0568349393874574
1581439039.742045,3.012,2.881,4.094,1.600344994008904,2.0488247639581147
1581439039.841153,2.966,2.919,4.089,1.6009986255344497,2.0260931775761413
1581439039.941496,2.984,2.919,4.08,1.6072727207363366,2.0310303674614816
1581439040.041869,3.003,2.928,4.075,1.6134899784565124,2.0338339217716146
1581439040.141148,3.003,2.881,4.122,1.587887331447997,2.046284588748008
1581439040.241358,3.05,2.905,4.108,1.6042586169377717,2.052879889781036
1581439040.341746,2.961,2.886,4.089,1.595304139166287,2.033548526997381
1581439040.445867,3.031,2.881,4.099,1.601292255231553,2.0540486182884528
1581439040.541215,2.998,2.923,4.099,1.6025166031717901,2.033744586689281
1581439040.641606,3.003,2.909,4.108,1.5976183749923667,2.03884624002548
1581439040.741982,2.966,2.914,4.118,1.5887802217145204,2.0273592695642533
1581439040.841075,3.078,2.923,4.099,1.6148776273519136,2.0558556501194363
1581439040.9415,3.083,2.928,4.118,1.6089099648982799,2.0558614862376157
1581439041.042,3.008,2.923,4.108,1.6004901671988814,2.0364678642251364
1581439041.140981,2.998,2.914,4.108,1.597605217980609,2.0361352754627955
1581439041.241329,2.98,2.9,4.094,1.598296165271836,2.034985929437393
1581439041.341788,3.055,2.923,4.118,1.6037867544858528,2.0494193884276193
1581439041.440825,3.055,2.914,4.099,1.6099397707400709,2.0518778942063363
1581439041.541237,3.027,2.919,4.103,1.6047822679481618,2.042784516081595
1581439041.641608,2.98,2.895,4.099,1.5955739323183618,2.036308315876432
1581439041.741947,2.998,2.9,4.094,1.6010367286056486,2.0399144685287363
1581439041.841053,3.055,2.905,4.075,1.6180406001160004,2.054342771015025
1581439041.941487,3.069,2.9,4.099,1.6100186505100869,2.0595105139035472
1581439042.041808,2.984,2.905,4.061,1.6126409552512637,2.034825093513201
1581439042.140966,2.97,2.909,4.118,1.588634433562814,2.0297889440103103
1581439042.440806,3.003,2.914,4.094,1.6038996021577165,2.0375419523896117
1581439042.545113,2.998,2.891,4.094,1.599692346978977,2.0423160629953965
1581439042.641724,3.064,2.881,4.103,1.6048259224257873,2.063178163326135
1581439042.741958,3.031,2.905,4.122,1.5957779537845314,2.0475918492612446
1581439042.841095,2.989,2.9,4.099,1.5976901629720082,2.0374357420540368
1581439042.941446,2.966,2.928,4.085,1.6039314939933582,2.0236883691073575
1581439043.041807,3.022,2.9,4.118,1.595226236176833,2.046455300156985
1581439043.140958,3.027,2.886,4.103,1.599839764758433,2.05160428223224
1581439043.241284,3.05,2.9,4.103,1.6054851900894407,2.0542280615216613
1581439043.341713,3.017,2.891,4.099,1.6006274207426447,2.047525396720643
1581439043.440819,3.036,2.928,4.08,1.6165910626180562,2.0429091309434257
1581439043.541158,3.05,2.886,4.089,1.6089188924086848,2.0579950684179793
1581439043.641536,3.022,2.876,4.085,1.6046869895134936,2.0529285363109957
1581439043.741971,2.98,2.909,4.113,1.5921328002473054,2.032532503910424
1581439043.841022,2.998,2.881,4.108,1.5926694389514289,2.044945746206879
1581439043.941441,3.008,2.886,4.099,1.5985017920713342,2.0463820976898126
1581439044.041949,3.055,2.886,4.108,1.6021947171671906,2.0593373478769084
1581439044.140922,2.989,2.905,4.103,1.5968582840656769,2.0360897002054887
1581439044.241281,3.003,2.9,4.122,1.5907246840266656,2.0412184630791854
1581439044.341692,2.966,2.891,4.099,1.5928551301751384,2.0335536707719424
1581439044.440813,3.008,2.881,4.08,1.6052517439912102,2.0477581694987026
1581439044.541171,3.064,2.881,4.08,1.6138933541824418,2.063230146408303
1581439044.645289,3.055,2.919,4.103,1.6091131885873953,2.0505282402399403
1581439044.741873,2.98,2.909,4.122,1.588566207444267,2.0325099436159912
1581439044.840986,2.994,2.9,4.118,1.5909346303039353,2.0387589161100546
1581439044.941429,2.98,2.881,4.103,1.5919057087046735,2.0400286333196544
1581439045.041737,2.994,2.886,4.103,1.5947810711475157,2.042529859235057
1581439045.140916,2.966,2.947,4.103,1.5997046807372899,2.0185287423016183
1581439045.241259,3.027,2.947,4.099,1.6105949615027126,2.0352650160284433
1581439045.341626,2.989,2.895,4.113,1.5914048138884185,2.038736235051534
1581439045.440752,3.045,2.914,4.127,1.5973136312044567,2.0490409618733474
1581439045.541314,2.98,2.914,4.099,1.5984209119577093,2.031228936371376
1581439045.641505,2.984,2.909,4.113,1.59274100225088,2.033626378260964
1581439045.741892,3.055,2.933,4.099,1.612803911149891,2.046778071024854
1581439045.841015,2.98,2.886,4.127,1.5831392410630187,2.0386387963732293
1581439045.941365,3.064,2.928,4.075,1.622894450448528,2.0506763102903034
1581439046.041719,3.031,2.909,4.089,1.6094190535371575,2.046600642068084
1581439046.140947,2.994,2.928,4.108,1.599104191221639,2.031282847150483
1581439046.241237,3.008,2.909,4.108,1.5983838598780153,2.0402198008216517
1581439046.341621,2.975,2.9,4.118,1.5880428888063094,2.0335601781304553
1581439046.440766,3.017,2.886,4.099,1.599882045678766,2.0488578310807894
1581439046.541121,3.045,2.933,4.094,1.6132249436608257,2.0440200335884002
1581439046.641465,3.031,2.9,4.085,1.6096470589058647,2.049016228866186
1581439046.745633,3.045,2.909,4.085,1.613156864558792,2.0504794778570044
1581439046.840958,2.994,2.891,4.108,1.5935489783686254,2.0411853160260827
1581439046.941376,3.031,2.9,4.103,1.6025467724234037,2.0489735791693433
1581439047.041924,3.031,2.862,4.103,1.5968945975969813,2.059085250089393
1581439047.241241,3.031,2.876,4.085,1.6060722259763438,2.0554107635419663
1581439047.341682,3.022,2.886,4.089,1.604596571119095,2.05025864805178
1581439047.440709,3.055,2.872,4.122,1.594570141584614,2.063029994156499
1581439047.541153,3.045,2.876,4.103,1.601132453098022,2.0592393289561395
1581439047.641632,3.064,2.876,4.122,1.5965648417357439,2.0644652854297303
1581439047.74184,3.008,2.876,4.099,1.5970146528096016,2.0490427785893752
1581439047.840989,3.008,2.905,4.118,1.5938253661918662,2.0412654755582564
1581439047.94136,3.027,2.923,4.103,1.6053848814049922,2.0417114522666613
1581439048.041693,3.003,2.881,4.094,1.5989670674238055,2.0463514781513137
1581439048.140877,2.975,2.895,4.103,1.5932339210973296,2.0349323869780642
1581439048.241225,3.022,2.891,4.108,1.597838870518738,2.048881298798781
1581439048.341572,3.05,2.891,4.108,1.6021643048926408,2.056618649386865
1581439048.440692,3.041,2.891,4.08,1.6118151452264617,2.054192376875665
1581439048.541245,2.961,2.872,4.108,1.5857119930524064,2.0372245276510355
1581439048.641457,2.998,2.862,4.085,1.5989386377700117,2.050045375188942
1581439048.741894,2.98,2.895,4.103,1.5939928183350596,2.03629844723243
1581439048.844792,3.041,2.914,4.103,1.6061911168178338,2.0479914399086723
1581439048.941383,2.984,2.919,4.099,1.5997808235068192,2.030982729563727
1581439049.041732,3.031,2.876,4.118,1.5930327734931342,2.055334302465632
1581439049.140906,2.975,2.867,4.122,1.5815397359935088,2.042335925262344
1581439049.241165,3.045,2.928,4.08,1.6179817472525972,2.045397488133015
1581439049.341582,3.069,2.909,4.08,1.6188508880859402,2.057147837415123
1581439049.440707,2.989,2.942,4.075,1.6134713385263606,2.0262310050963825
1581439049.541041,2.975,2.905,4.085,1.601836277821495,2.0323063711718783
1581439049.64144,2.994,2.933,4.075,1.6128713818600406,2.0300220833285176
1581439049.741857,3.003,2.9,4.094,1.601800640841568,2.0412865819695054
1581439049.840911,2.989,2.914,4.066,1.612786272284188,2.0337729822299737
1581439049.941317,2.961,2.909,4.118,1.5872725524602933,2.027335629397113
1581439050.041852,3.008,2.886,4.08,1.6059952404624223,2.04642736190589
1581439050.140801,2.994,2.909,4.094,1.6017746838830975,2.036411747430711
1581439050.241193,3.012,2.905,4.057,1.6184786425197677,2.042512780005915
