1581440069.85421,5.247,6.043,1.532,3.4583137569549387,1.7391833400572567
1581440069.954614,5.256,6.104,1.542,3.4747027695036397,1.7201889991900485
1581440070.053796,5.275,6.086,1.523,3.4783847054252734,1.7334140556880129
1581440070.154121,5.308,6.095,1.527,3.4882297256561983,1.7418949179660836
1581440070.254619,5.27,6.053,1.532,3.466677602963685,1.7437114559991127
1581440070.353819,5.27,6.095,1.56,3.472256400304161,1.728536157192866
1581440070.454105,5.303,6.104,1.56,3.4828443459061993,1.736986545873742
1581440070.654908,5.289,6.053,1.56,3.4659183232707043,1.7505951503343662
1581440070.753963,5.303,6.048,1.551,3.469869668568261,1.7573562101049653
1581440070.854358,5.312,6.086,1.574,3.4775393688271294,1.7468171421379572
1581440070.954834,5.28,6.053,1.551,3.465454360091138,1.747354732924218
1581440071.053841,5.331,6.09,1.509,3.4961699377525863,1.7518342259005806
1581440071.154252,5.27,6.062,1.56,3.463560683959328,1.7405646877880467
1581440071.254683,5.317,6.039,1.537,3.47374572328223,1.7655575238215986
1581440071.353735,5.303,6.043,1.518,3.4749915541229797,1.7590312868610438
1581440071.454118,5.312,6.081,1.556,3.4798186779409828,1.7485594114321177
1581440071.558218,5.294,6.095,1.551,3.480014368809735,1.7370250962952156
1581440071.654839,5.298,6.067,1.56,3.4718451181401684,1.7486969438206188
1581440071.753992,5.298,6.104,1.551,3.4833873884142554,1.7351647497466995
1581440071.854417,5.303,6.043,1.56,3.4667747574330057,1.759215307332025
1581440071.954783,5.336,6.039,1.523,3.4812330165952914,1.7722713690310794
1581440072.053903,5.294,6.057,1.518,3.476436066131939,1.7507256198528192
1581440072.154318,5.228,6.109,1.579,3.4617475567251765,1.708622792566885
1581440072.254635,5.275,6.081,1.504,3.4807232832306716,1.7351433865824744
1581440072.35375,5.247,6.118,1.542,3.476165550114956,1.7118818829053852
1581440072.454189,5.289,6.043,1.546,3.466045743779805,1.7541736793705243
1581440072.554498,5.308,6.062,1.574,3.4702273742968566,1.7541373620445928
1581440072.654911,5.294,6.053,1.537,3.4716894732201276,1.7522702612759178
1581440072.754118,5.312,6.039,1.532,3.4734719424462335,1.7637550446822254
1581440072.854361,5.251,6.086,1.574,3.4623821236742316,1.725140796794326
1581440072.954774,5.265,6.1,1.527,3.478815859870315,1.7247696719275307
1581440073.053934,5.256,6.081,1.537,3.469606080453667,1.728554998774413
1581440073.154262,5.308,6.072,1.579,3.4718536569164633,1.7505169892996533
1581440073.254724,5.326,6.072,1.523,3.4874369727510057,1.7566807850037909
1581440073.353847,5.326,6.043,1.546,3.475282180111906,1.767345711680476
1581440073.454119,5.284,6.095,1.532,3.481257536854905,1.733375850075819
1581440073.554544,5.294,6.062,1.537,3.474062619586732,1.7489912110816253
1581440073.65863,5.294,6.076,1.565,3.472224704410113,1.7440174866537344
1581440073.753993,5.275,6.043,1.579,3.4560291722488543,1.7493443444892216
1581440073.854383,5.308,6.114,1.532,3.4922756776606683,1.7349831045205482
1581440073.95484,5.256,6.048,1.56,3.4563980217743455,1.7406915563339813
1581440074.053899,5.275,6.062,1.551,3.4665802343103387,1.7422992127572077
1581440074.154287,5.261,6.062,1.565,3.460334762886847,1.737391916358088
1581440074.254699,5.317,6.039,1.546,3.471980002960422,1.7655956028346613
1581440074.353774,5.317,6.086,1.584,3.4767684555277008,1.7486405328904677
1581440074.454158,5.28,6.109,1.551,3.4802229036472263,1.7269377969495299
1581440074.554607,5.298,6.057,1.551,3.4709926788290573,1.75229946045393
1581440074.654869,5.317,6.086,1.523,3.488882805170492,1.7483666285257415
1581440074.754037,5.247,6.067,1.574,3.4563900360663293,1.7306452702404016
1581440074.854466,5.28,6.043,1.537,3.4655616801084883,1.7509323313216185
1581440074.954775,5.256,6.076,1.546,3.4665265409216914,1.7304230386276134
1581440075.053921,5.298,6.043,1.546,3.4682900206446377,1.757375470213898
1581440075.154379,5.223,6.053,1.579,3.4457744120314424,1.7272602056236097
1581440075.254651,5.233,6.034,1.537,3.451494749060998,1.7375163787165067
1581440075.353804,5.294,6.048,1.551,3.4676255742887783,1.7541539534769839
1581440075.454219,5.308,6.062,1.565,3.472025835991673,1.7540983986236462
1581440075.554543,5.298,6.076,1.542,3.477773605824524,1.7453349579904402
1581440075.65491,5.322,6.1,1.542,3.4901043523661657,1.7451281245907524
1581440075.756529,5.265,6.114,1.542,3.4795850768848076,1.7197356767021807
1581440075.854382,5.214,6.057,1.556,3.449139576055206,1.7225003088215873
1581440075.954806,5.322,6.034,1.574,3.4663570011326947,1.7693105881626139
1581440076.053994,5.303,6.025,1.556,3.462833255210999,1.765747789341882
1581440076.154299,5.28,6.1,1.532,3.481581363823219,1.730128306485695
1581440076.254684,5.261,6.095,1.546,3.472783850570341,1.7252695340635766
1581440076.353874,5.294,6.053,1.537,3.4716894732201276,1.7522702612759178
1581440076.454172,5.303,6.025,1.546,3.4648005378906,1.7657057256418174
1581440076.554557,5.303,6.048,1.546,3.4708541590700577,1.7573343529993386
1581440076.655039,5.312,6.057,1.527,3.4791926274905833,1.7571767603754107
1581440076.75404,5.298,6.09,1.527,3.484407895823329,1.7401582994533922
1581440076.854425,5.308,6.09,1.546,3.483175802023201,1.7438080592745326
1581440076.954873,5.294,6.104,1.551,3.4823902062543866,1.7337415424995093
1581440077.053926,5.317,6.053,1.546,3.4756667000235346,1.7604982142679564
1581440077.254784,5.275,6.02,1.565,3.4527719295052726,1.7576492648141058
1581440077.454178,5.308,6.029,1.56,3.4643404122982324,1.7660887456357548
1581440077.554624,5.308,6.118,1.546,3.490571882351715,1.7335901495756276
1581440077.654924,5.317,6.053,1.532,3.4784131708739454,1.7604375066623046
1581440077.754064,5.289,6.067,1.57,3.4676142600198916,1.7455413296442026
1581440077.856903,5.27,6.057,1.537,3.4667595924322185,1.7422778521849718
1581440077.954814,5.336,6.076,1.537,3.488255924218263,1.7588497001043535
1581440078.053945,5.251,6.104,1.542,3.4734593763687136,1.7184133908039934
1581440078.154477,5.289,6.048,1.57,3.462617096452238,1.7524596665527923
1581440078.254786,5.289,6.067,1.56,3.4696037784253804,1.745496005472423
1581440078.353828,5.265,6.053,1.542,3.463484579207865,1.7419820270486825
1581440078.454265,5.265,6.043,1.57,3.45533926932024,1.7457529102141172
1581440078.554575,5.294,6.053,1.542,3.4707109864573256,1.7522928530175204
1581440078.654944,5.294,6.133,1.542,3.491836897129628,1.7231083359147872
1581440078.754219,5.294,6.048,0,error,error
1581440078.854494,5.294,6.043,1.551,3.4663094453306456,1.7559743244409212
1581440078.95485,5.28,6.048,1.56,3.462362993752235,1.7492162107037512
1581440079.054002,5.298,6.114,1.523,3.491537214972651,1.7313776936670437
1581440079.154354,5.308,6.09,1.537,3.484949061342357,1.7437662626960488
1581440079.254769,5.298,6.1,1.537,3.4850935304191872,1.7365573347169223
1581440079.353892,5.312,6.09,1.56,3.4813954127743063,1.7452961838219074
1581440079.454232,5.228,6.095,1.532,3.46731555835362,1.7134824366886523
1581440079.554597,5.331,6.062,1.56,3.478760172674258,1.7622671996032946
1581440079.65508,5.289,6.067,1.537,3.4741338397736605,1.7453899785528322
1581440079.754084,5.228,6.1,1.565,3.462162795834041,1.7118330189219393
1581440079.854494,5.242,6.034,1.579,3.445485022134347,1.7409080554049943
1581440079.956158,5.34,6.09,1.551,3.4901810904255215,1.7552321378784645
1581440080.054011,5.289,6.062,1.542,3.471836108879664,1.7472352821824482
1581440080.154342,5.317,6.076,1.556,3.4797484156720873,1.7521622339728842
1581440080.254796,5.317,6.039,1.56,3.469213835461142,1.7656541213306796
1581440080.353845,5.303,6.025,1.537,3.466560700566434,1.7656674862788222
1581440080.454284,5.317,6.076,1.57,3.476954850219721,1.7522235572660796
1581440080.55469,5.28,6.062,1.542,3.46959255487767,1.7440345148940732
1581440080.654962,5.27,6.062,1.579,3.4597805907867496,1.740652627102043
1581440080.75421,5.326,6.109,0,error,error
1581440080.854586,5.294,6.034,1.556,3.4629562723760707,1.7592717254140595
1581440080.954876,5.242,6.053,1.57,3.4522634877688656,1.7339511057461217
1581440081.053969,5.303,6.086,1.532,3.483623502092632,1.7434215135029374
1581440081.154487,5.294,6.095,1.523,3.485509531380861,1.7368903796211288
1581440081.254704,5.308,6.095,1.556,3.4825129698668698,1.742030563587145
1581440081.353879,5.284,6.062,1.579,3.4632564787190248,1.7456256274709536
1581440081.454288,5.322,6.086,1.504,3.4938184465670523,1.7500606666007652
1581440081.554606,5.256,6.015,1.57,3.4457529390305246,1.7527427734880376
1581440081.654986,5.251,6.086,1.542,3.468705522939476,1.724981010961251
1581440081.752924,5.251,6.114,1.556,3.47334313524863,1.714835871547371
1581440081.851959,5.28,6.076,1.579,3.4659448341132304,1.7391051358313911
1581440081.954909,5.242,6.043,1.551,3.4533744414779406,1.7375007199096493
1581440082.056454,5.312,6.067,1.523,3.482610740048054,1.753514043144025
1581440082.154347,5.233,6.095,1.556,3.463861898813544,1.7153828029328395
1581440082.252217,5.261,6.039,1.556,3.4560602132300686,1.7457243508532392
1581440082.352708,5.265,6.095,1.532,3.476520344904774,1.7266200482501561
1581440082.552209,5.312,0,1.523,error,error
1581440082.655196,5.247,0,1.518,error,error
1581440082.754173,5.261,6.123,1.49,3.491030522711574,1.7147483893553357
1581440082.85199,5.326,6.067,1.551,3.4806161601087866,1.7586259760411924
1581440082.952452,5.275,6.067,1.499,3.47797324329046,1.7402259715010364
1581440083.053977,5.308,6.067,1.556,3.4751315319231963,1.7522375576346592
1581440083.154371,5.317,6.053,1.532,3.4784131708739454,1.7604375066623046
1581440083.252372,5.317,6.062,1.574,3.472469116020297,1.757340289139023
1581440083.353887,5.242,6.053,1.574,3.4514697914983485,1.7339702200129707
1581440083.453021,5.308,6.09,1.532,3.485929969005024,1.7437428768072867
1581440083.552173,5.312,6.114,1.57,3.4857231234365025,1.7365875293031776
1581440083.652507,5.308,6.048,1.504,3.4802565296305423,1.758927761972079
1581440083.754161,5.275,6.053,1.551,3.464209677453141,1.745577541292959
1581440083.854548,5.247,6.1,1.56,3.4678631196416796,1.718545855139804
1581440083.954885,5.303,6.043,1.546,3.469537516681853,1.7591548602966673
1581440084.05277,5.308,6.095,1.532,3.4872513367711853,1.7419185901997754
1581440084.156955,5.312,6.09,1.556,3.482191849863518,1.745278044155536
1581440084.252225,5.289,6.076,1.527,3.4784601541132276,1.7420616241773477
1581440084.352652,5.294,6.043,1.56,3.4645325463832037,1.7560137242156324
1581440084.453102,5.247,6.062,1.551,3.4596190539025877,1.7323549820031097
1581440084.552192,5.289,6.067,1.574,3.4668150885766167,1.7455593288670335
1581440084.652502,5.294,6.104,1.546,3.4833793655858956,1.733717465526425
1581440084.754181,5.303,6.043,1.565,3.4657823210605545,1.759236681164772
1581440084.852004,5.275,6.09,1.565,3.4711870732631276,1.732160208688278
1581440084.954891,5.326,6.104,1.551,3.4903762843847588,1.7451350522002353
1581440085.052818,5.308,6.048,1.551,3.471117062391293,1.7591358579891285
1581440085.154396,5.228,6.09,1.537,3.465022771552077,1.7153336479424173
1581440085.252279,5.261,6.095,1.513,3.4792043252667093,1.7251007259795976
1581440085.352718,5.303,6.104,1.565,3.4818457292672362,1.737009930353194
1581440085.453038,5.317,6.095,1.57,3.481959501336446,1.7452980426287892
1581440085.554708,5.233,6.053,1.57,3.450034138796544,1.7307599588206453
1581440085.655202,5.242,6.095,1.57,3.463319611316742,1.7186466343862723
1581440085.754129,5.331,6.062,1.546,3.4815374742921334,1.7622080889011214
1581440085.852037,5.294,6.109,1.495,3.49462148031394,1.7316383295191828
1581440085.954963,5.298,6.072,1.542,3.476718361690116,1.7467931046843894
1581440086.05276,5.27,6.076,1.574,3.4644628303995426,1.7355298126033893
1581440086.151918,5.242,6.104,1.523,3.474921050744506,1.7151174377423264
1581440086.256076,5.256,6.048,1.546,3.4591468394453995,1.7406253948270844
1581440086.352712,5.256,6.048,1.537,3.460901313644117,1.7405823629374735
1581440086.453061,5.317,6.072,1.551,3.4796859087330207,1.7535979703287723
1581440086.552254,5.308,6.043,1.542,3.4715709601925737,1.7609174164446613
1581440086.652547,5.28,6.104,1.57,3.4751224679839,1.7288550387422241
1581440086.752947,5.294,6.114,1.57,3.4812412915880273,1.7301834573394255
1581440086.852105,5.322,6.095,1.532,3.4907528212352283,1.7469065149018463
1581440086.952466,5.237,6.057,1.565,3.453065875483592,1.7306972323829732
1581440087.052806,5.312,6.076,1.537,3.482252086211796,1.7502964828274887
1581440087.152072,5.294,6.081,1.509,3.484515681602509,1.7419310201426457
1581440087.252298,5.303,6.067,1.556,3.4738847194675384,1.7504580432677146
1581440087.352686,5.237,6.095,1.565,3.463073942405231,1.7168478526160296
1581440087.453094,5.312,6.048,1.551,3.4721153235686804,1.7605598926893047
1581440087.552189,5.322,6.067,1.509,3.487827288560688,1.7570147905557132
1581440087.652556,5.233,6.1,1.523,3.4716233397543426,1.7133829515923473
1581440087.753044,5.326,6.062,1.546,3.480287297025702,1.7604261814807212
1581440087.852096,5.308,6.048,1.527,3.4758177335575144,1.7590308625264608
1581440087.952494,5.326,6.086,1.57,3.481832371617871,1.7517839603365637
1581440088.052879,5.294,6.053,1.551,3.4689420567088476,1.7523332256267998
1581440088.151926,5.298,6.062,1.556,3.4713214309758484,1.7505005129364646
1581440088.252403,5.317,6.095,1.56,3.483961139009668,1.7452530833644853
1581440088.356423,5.317,6.067,1.509,3.486573598537794,1.755232160096756
1581440088.453152,5.303,6.029,0,error,error
1581440088.552272,5.294,6.053,1.532,3.4726649147806583,1.7522475530044863
1581440088.652723,5.28,6.114,1.556,3.4805520923858553,1.725137549819891
1581440088.752966,5.331,6.086,1.56,3.48508281937967,1.753521732682894
1581440088.852076,5.317,6.114,1.565,3.487973408153211,1.7383444033561422
1581440088.952512,5.284,6.076,1.542,3.4742818716398673,1.7403542408117572
1581440089.052795,5.298,6.048,1.565,3.4658517327661866,1.7556381524439757
1581440089.151958,5.317,6.086,1.537,3.4861420930836338,1.748431017180948
1581440089.252377,5.294,6.053,1.542,3.4707109864573256,1.7522928530175204
1581440089.352702,5.289,6.095,1.57,3.474987767436575,1.735336538990685
1581440089.453067,5.27,6.072,1.546,3.4689544126609917,1.7368544821833494
1581440089.552265,5.312,6.095,1.56,3.4827139241579808,1.743472840565974
1581440089.652596,5.303,6.062,1.556,3.4725677612312738,1.7522795701936023
1581440089.75294,5.247,6.067,1.537,3.4636724678517954,1.7304635229003817
1581440089.852135,5.312,6.053,1.527,3.4781372076114145,1.7586341941094694
1581440089.952466,5.326,6.053,1.532,3.4806652407411125,1.7636447938517756
1581440090.052841,5.294,6.095,1.588,3.4726080978877913,1.7371973614553973
1581440090.152101,5.251,6.072,1.527,3.4679281089256584,1.7300107372171254
1581440090.252308,5.308,6.062,1.57,3.4710278887657657,1.7541200902545535
1581440090.352751,5.308,6.086,1.579,3.4755374877220735,1.7454160007189372
1581440090.456827,5.275,6.034,1.551,3.459208926905592,1.7524946580617804
1581440090.552217,5.242,6.095,1.532,3.4707952807357905,1.718450548433908
1581440090.652581,5.303,6.109,1.527,3.49068261749226,1.7350037580417412
1581440090.753024,5.298,6.086,1.565,3.475854992146241,1.7417953364683203
1581440090.852071,5.251,6.081,1.532,3.4693353296604315,1.726753888501398
1581440090.952553,5.336,6.057,1.551,3.4804812429424814,1.7658326719336912
1581440091.052901,5.308,6.053,1.579,3.4668585962091805,1.7574353079282294
1581440091.151995,5.294,6.09,1.532,3.4824322377983172,1.7387584316969626
1581440091.252353,5.322,6.053,1.542,3.477703617588354,1.7622622107174604
1581440091.352802,5.28,6.067,1.523,3.474612179521042,1.7421220311746504
1581440091.453132,5.317,6.057,1.537,3.4784896103702145,1.7590021390694293
1581440091.552224,5.312,6.053,1.574,3.4688571602929965,1.7588374377739668
1581440091.652814,5.298,6.048,0,error,error
1581440091.753123,5.289,6.09,0,error,error
1581440091.852175,5.308,6.039,1.551,3.468748285228667,1.762412182960146
1581440091.952697,5.294,6.034,1.556,3.4629562723760707,1.7592717254140595
1581440092.053013,5.312,6.114,1.532,3.4932757198150775,1.7364079307243632
1581440092.152161,5.284,6.053,1.542,3.468217277111519,1.7487357128950647
1581440092.252584,5.284,6.095,1.537,3.4802789483192664,1.7334003700058738
1581440092.352856,5.289,6.104,1.556,3.4801525758552767,1.7319870845325018
1581440092.451995,5.275,6.072,1.551,3.469215521958903,1.7386552739574377
1581440092.55618,5.28,6.057,1.509,3.474667822603893,1.7457003189275146
1581440092.65272,5.336,6.062,1.551,3.4817983598393383,1.7640114447254607
1581440092.753134,5.308,6.029,1.537,3.4688627421884326,1.7659920410099808
1581440092.852318,5.242,6.053,1.546,3.456984898256749,1.7338347805584744
1581440092.952626,5.317,6.043,1.523,3.4775277736618135,1.7640408369758858
1581440093.052984,5.251,6.029,1.565,3.4491758695800883,1.7458547952473478
1581440093.152243,5.303,6.109,1.551,3.4859546945444193,1.735119498898093
1581440093.25259,5.308,6.048,1.537,3.473867630614341,1.7590749296629153
1581440093.352901,5.308,6.072,1.532,3.4811759146662653,1.7503073940321048
1581440093.45206,5.28,6.109,1.537,3.482981764183444,1.726868040711074
1581440093.552381,5.256,6.062,1.537,3.4645923827913685,1.7354817358669228
1581440093.652759,5.284,6.095,1.556,3.476532676746899,1.7334924337829953
1581440093.753217,5.303,6.067,1.542,3.4766475856222137,1.7503951019509734
1581440093.852241,5.247,6.057,1.546,3.4592807820227267,1.734152121393245
1581440093.95264,5.312,6.109,1.56,3.4864076039850196,1.7383656099492075
1581440094.053062,5.275,6.039,1.513,3.4678979230586635,1.7504995830626153
1581440094.15214,5.265,6.104,1.546,3.4761556861558796,1.723406495345398
1581440094.252504,5.322,6.067,1.574,3.4750303364479165,1.7572994382837557
1581440094.35292,5.294,6.062,1.556,3.4703247146652476,1.7490775843435233
1581440094.452022,5.261,6.081,1.532,3.4718249796324696,1.7303061848160244
1581440094.552444,5.242,6.114,1.546,3.473080403830848,1.7115889888169036
1581440094.656558,5.298,6.081,1.523,3.4828077933848935,1.7434225236471639
1581440094.753184,5.27,6.081,1.556,3.469357250026247,1.7336218195883888
1581440094.852339,5.294,6.048,1.537,3.4703715504394808,1.75409145772341
1581440094.952712,5.237,6.095,1.513,3.473221520408084,1.7165742201787542
1581440095.052991,5.289,6.053,1.556,3.4667096176006367,1.7505772607908423
1581440095.15217,5.308,6.053,1.532,3.476162645987365,1.7572316363207807
1581440095.252599,5.298,6.043,1.556,3.4663202054193056,1.7574191350233672
1581440095.352895,5.317,6.072,1.542,3.481463181875901,1.7535581083393297
1581440095.452012,5.308,6.086,1.542,3.482909102107763,1.745248439251701
1581440095.552464,5.303,6.062,1.542,3.4753291949269696,1.7522170949035158
1581440095.652759,5.317,6.062,1.546,3.478038179142068,1.7572198479518655
1581440095.753155,5.322,6.039,1.546,3.4732293219798986,1.767376648237131
1581440095.852326,5.265,6.086,1.518,3.4768570233973968,1.729833164911141
1581440095.952656,5.289,6.057,1.546,3.469733231606258,1.7490752258214102
1581440096.053034,5.298,6.1,1.56,3.4805431424120563,1.736666747446477
1581440096.152302,5.298,6.086,1.56,3.476851213621296,1.7417723457582248
1581440096.252548,5.261,6.053,1.542,3.462489119347948,1.740561016289849
1581440096.352942,5.308,6.09,1.509,3.490402967669971,1.7436337670206894
1581440096.452098,5.289,6.086,1.593,3.467986398024744,1.7387231904009888
1581440096.552435,5.289,6.086,1.527,3.4811023284831344,1.738414199308183
1581440096.652778,5.256,6.067,1.546,3.4641532941319277,1.7337035839782589
1581440096.756902,5.247,6.086,1.57,3.462187580239491,1.7237018876428163
1581440096.852295,5.289,6.067,1.556,3.4703962132698667,1.7454777448814973
1581440096.95269,5.284,6.081,1.546,3.474814904095109,1.7385502471947223
1581440097.0531,5.312,6.09,1.537,3.485948632509125,1.7451908599266996
1581440097.152168,5.312,6.043,1.513,3.4782091208795727,1.7622152481460545
1581440097.252538,5.298,6.072,1.556,3.4739556987110656,1.7468570695007457
1581440097.35299,5.326,6.062,1.546,3.480287297025702,1.7604261814807212
1581440097.552435,5.294,6.081,1.527,3.4810299363579325,1.7420175825863276
1581440097.653019,5.303,6.086,1.532,3.483623502092632,1.7434215135029374
1581440097.75321,5.322,6.076,1.551,3.4819891532536325,1.7539210863183967
1581440097.852339,5.265,6.067,1.518,3.4718345308322363,1.736763551097767
1581440098.053034,5.256,6.043,1.527,3.461520481563363,1.7423554001687631
1581440098.152193,5.28,6.086,1.537,3.476904247520128,1.7352610703211022
1581440098.252688,5.317,6.072,1.537,3.4824463255393794,1.7535358020686873
1581440098.352933,5.317,6.114,1.551,3.4907693468785728,1.738279256955025
1581440098.452073,5.312,6.043,1.565,3.468025056220359,1.7624393368496458
1581440098.552507,5.322,6.039,1.542,3.47401576734176,1.767359928267773
1581440098.652839,5.28,6.043,1.523,3.4682776662857524,1.7508678122872967
1581440098.753238,5.326,6.1,1.523,3.494839313878837,1.7464659984189554
1581440098.85611,5.28,6.086,1.556,3.473163248208852,1.7353526077094814
1581440098.952709,5.284,6.053,1.542,3.468217277111519,1.7487357128950647
1581440099.05307,5.284,6.072,1.556,3.4704685483021778,1.7418779567449991
1581440099.152328,5.247,6.086,1.556,3.464961249799194,1.723631884999249
1581440099.252546,5.312,6.086,1.56,3.4803408545185595,1.7467546048204678
1581440099.352963,5.298,6.076,1.527,3.4807084637942913,1.7452649988467963
1581440099.452144,5.317,6.076,1.556,3.4797484156720873,1.7521622339728842
1581440099.55246,5.261,6.053,1.532,3.4644352462639474,1.7405130533964452
1581440099.65282,5.303,6.076,1.542,3.479021570479077,1.7471146219264104
1581440099.75328,5.312,6.029,1.518,3.4735513451937208,1.7673354129088734
1581440099.852318,5.317,6.086,1.579,3.4777782010005125,1.748618725325558
1581440099.95272,5.294,6.039,1.537,3.468000177483626,1.757368712630596
1581440100.053177,5.317,6.048,1.513,3.4807819290712665,1.7621756226949234
1581440100.152238,5.308,6.104,1.509,3.4941103349657454,1.738522711087046
1581440100.252605,5.303,6.053,1.537,3.4739365208161797,1.7554735568364859
1581440100.353008,5.298,6.029,1.56,3.461848197227713,1.7625307313820382
1581440100.45213,5.312,6.034,1.556,3.4674439278387346,1.7656767800734763
1581440100.552499,5.317,6.048,1.523,3.4788467983516065,1.7622196015181306
1581440100.652955,5.312,6.076,1.56,3.477705436838944,1.7503996691649364
1581440100.753253,5.298,6.048,1.565,3.4658517327661866,1.7556381524439757
1581440100.852366,5.256,6.09,1.551,3.4692372279272714,1.725342821837815
1581440100.956466,5.312,6.114,1.551,3.489521088640064,1.7364985908087764
1581440101.053367,5.294,6.053,1.546,3.4699260087853467,1.7523108427473453
1581440101.152389,5.303,6.011,1.542,3.461901764863004,1.7707810534109072
1581440101.252784,5.303,6.1,1.518,3.4900550394965477,1.7382457424427262
1581440101.353146,5.294,6.043,1.509,3.474471209642117,1.7557855200435721
1581440101.452213,5.336,6.1,1.527,3.496561954373089,1.750050600363007
1581440101.552643,5.308,6.076,1.556,3.4775029414665135,1.7489579466556124
1581440101.652978,5.28,6.053,1.565,3.4626877665329396,1.7474183471695977
1581440101.752103,5.251,6.043,1.556,3.4546284683340804,1.7407182716255025
1581440101.852547,5.294,6.09,1.542,3.480470691044522,1.738806210239374
1581440101.952936,5.223,6.057,0,error,error
1581440102.053303,5.308,6.053,1.518,3.4788822813472424,1.7571690187374027
1581440102.152681,5.289,6.095,1.56,3.476982943545929,1.7352893741792474
1581440102.252964,5.28,6.029,1.556,3.458155586279459,1.7561132243185036
1581440102.552846,5.298,6.1,1.565,3.47954550724835,1.7366901980766134
1581440102.653218,5.294,6.086,1.537,3.48039654728503,1.740241463327404
1581440102.752411,5.303,6.048,1.56,3.4680899662017324,1.7573952664389
1581440102.852716,5.312,6.118,1.556,3.4895822462290966,1.735062063375486
1581440102.953124,5.322,6.043,1.509,3.481485746683108,1.765762166308237
1581440103.057197,5.294,6.09,1.556,3.477704194400855,1.7388722946267847
1581440103.152659,5.294,6.076,1.56,3.47321945112963,1.7439946671295203
1581440103.253133,5.28,6.048,1.523,3.469596690975546,1.7490464506026218
1581440103.352204,5.312,6.095,1.584,3.477892721821424,1.7435809075562998
1581440103.4525,5.289,6.057,1.523,3.474219423870751,1.7489692200191385
1581440103.552894,5.27,6.09,1.551,3.4727183704034927,1.7303157299051364
1581440103.653381,5.289,6.076,1.546,3.4747420876443016,1.7421514359012156
1581440103.75242,5.303,6.1,1.551,3.483578234241037,1.7384036258696713
1581440103.852739,5.312,6.09,1.527,3.4879083574458476,1.7451442915244042
1581440103.953203,5.312,6.095,1.513,3.4919548749003,1.7432533864564503
1581440104.052264,5.265,6.062,1.532,3.4678057307397907,1.738654849089267
1581440104.152657,5.326,6.09,1.542,3.48846349441972,1.750201698760329
1581440104.25308,5.27,6.081,1.56,3.468565446983567,1.7336410543522327
1581440104.452508,5.284,6.072,1.527,3.4761552869819448,1.7417411769595148
1581440104.552969,5.312,6.076,1.527,3.48420892541681,1.7502508532499086
1581440104.653228,5.294,6.048,1.546,3.468609013378289,1.7541317374892964
1581440104.752402,5.28,6.053,1.532,3.469170959972336,1.7472669241728422
1581440104.852835,5.317,6.039,1.57,3.4672235403430407,1.7656953904837174
1581440105.05226,5.289,6.076,1.565,3.470980288576379,1.7422395298281848
1581440105.156553,5.317,6.072,1.556,3.4786943156277217,1.7536199557731569
1581440105.253015,5.289,6.081,1.523,3.4805586277809026,1.740218824796062
1581440105.35217,5.308,6.076,1.579,3.472905898621619,1.7490598473195986
1581440105.452587,5.303,6.029,1.527,3.4695586852413385,1.7641687113368374
1581440105.552937,5.294,6.086,1.574,3.4730591903480406,1.740413995739954
1581440105.653284,5.312,6.072,1.537,3.4811964310824024,1.7517547242606406
1581440105.752469,5.312,6.09,1.537,3.485948632509125,1.7451908599266996
1581440105.852771,5.322,6.048,1.537,3.477367468050415,1.7640618426258545
1581440105.953171,5.322,6.048,1.518,3.4810685108233095,1.763979869635935
1581440106.052337,5.284,6.053,1.56,3.464673813928446,1.7488175190994169
1581440106.152651,5.331,6.081,1.56,3.4837649356984968,1.7553443764089316
1581440106.253026,5.265,6.039,1.574,3.4534934784828306,1.7472265447994977
1581440106.352267,5.312,6.043,1.523,3.4762762268127645,1.7622592928246685
1581440106.452596,5.289,6.053,1.565,3.46492648946816,1.7506174082355945
1581440106.553104,5.326,6.02,1.499,3.4783334761108953,1.775521718230762
1581440106.652341,5.261,6.053,1.523,3.466176278130797,1.7404694709623314
1581440106.752525,5.317,6.048,1.565,3.4705863940152155,1.7623993770467348
1581440106.852896,5.298,6.104,1.523,3.488890353949093,1.7350292540591374
1581440106.953453,5.298,6.062,1.546,3.473295137558434,1.750455582138769
1581440107.052422,5.401,6.123,1.617,3.500667755060191,1.7652340902914647
1581440107.152829,5.294,6.053,1.556,3.4679550772322814,1.752355492964739
1581440107.256916,5.336,6.072,1.546,3.485424437611828,1.7603465813578616
1581440107.352342,5.336,6.1,1.546,3.492813531538861,1.7501362939292804
1581440107.452725,5.401,6.09,1.546,3.5064745918604814,1.7769950067784823
1581440107.553126,5.298,6.062,1.546,3.473295137558434,1.750455582138769
1581440107.652227,5.275,6.015,1.556,3.4532324441088917,1.7594283501906889
1581440107.752598,5.265,6.104,1.556,3.474181141932205,1.7234568448018297
1581440107.852984,5.275,6.072,1.565,3.4664451436995445,1.7387212064489361
1581440107.953362,5.284,6.095,1.546,3.478509842286249,1.7334441980044586
1581440108.052437,5.317,6.086,1.542,3.4851575121846743,1.7484537910322004
