mc 07 00001074 000013ac 000008e2 00000000 3fba 1b 00185f2b t0:0
mr 07 00001024 00001370 00000856 00000000 3fba 1b 404e404e t0:0
mc 07 00001066 000013bf 000008eb 00000000 3fbd 1c 00186043 t0:0
mr 07 00001016 00001383 0000085f 00000000 3fbd 1c 404e404e t0:0
mc 07 00001078 000013c3 000008f0 00000000 3fc0 1d 0018615b t0:0
mr 07 00001028 00001387 00000864 00000000 3fc0 1d 404e404e t0:0
mc 07 00001090 000013cd 000008f0 00000000 3fc3 1e 00186272 t0:0
mr 07 00001040 00001391 00000864 00000000 3fc3 1e 404e404e t0:0
mc 07 0000106a 000013b5 000008f4 00000000 3fc6 1f 0018638a t0:0
mr 07 0000101a 00001379 00000868 00000000 3fc6 1f 404e404e t0:0
mc 07 0000108b 000013b5 000008eb 00000000 3fc9 20 001864a3 t0:0
mr 07 0000103b 00001379 0000085f 00000000 3fc9 20 404e404e t0:0
mc 07 00001090 000013ba 000008f4 00000000 3fcc 21 001865bb t0:0
mr 07 00001040 0000137e 00000868 00000000 3fcc 21 404e404e t0:0
mc 07 00001082 000013bf 000008c5 00000000 3fcf 22 001866d2 t0:0
mr 07 00001032 00001383 00000839 00000000 3fcf 22 404e404e t0:0
mc 07 0000106a 000013bf 000008dd 00000000 3fd2 23 001867eb t0:0
mr 07 0000101a 00001383 00000851 00000000 3fd2 23 404e404e t0:0
mc 07 0000106a 000013c3 000008e6 00000000 3fd5 24 00186903 t0:0
mr 07 0000101a 00001387 0000085a 00000000 3fd5 24 404e404e t0:0
mc 07 00001086 000013bf 000008f0 00000000 3fd8 25 00186a1b t0:0
mr 07 00001036 00001383 00000864 00000000 3fd8 25 404e404e t0:0
mc 07 0000108b 000013b5 000008e6 00000000 3fdb 26 00186b33 t0:0
mr 07 0000103b 00001379 0000085a 00000000 3fdb 26 404e404e t0:0
mc 07 00001061 000013d1 000008e2 00000000 3fde 27 00186c4b t0:0
mr 07 00001011 00001395 00000856 00000000 3fde 27 404e404e t0:0
mc 07 00001058 000013ac 000008f4 00000000 3fe1 28 00186d63 t0:0
mr 07 00001008 00001370 00000868 00000000 3fe1 28 404e404e t0:0
mc 07 00001061 000013c8 000008eb 00000000 3fe4 29 00186e7b t0:0
mr 07 00001011 0000138c 0000085f 00000000 3fe4 29 404e404e t0:0
mc 07 00001066 000013ba 000008e6 00000000 3fe7 2a 00186f92 t0:0
mr 07 00001016 0000137e 0000085a 00000000 3fe7 2a 404e404e t0:0
mc 07 0000106f 000013b1 000008d4 00000000 3fea 2b 001870ab t0:0
mr 07 0000101f 00001375 00000848 00000000 3fea 2b 404e404e t0:0
mc 07 0000106f 000013ac 000008eb 00000000 3fed 2c 001871c2 t0:0
mr 07 0000101f 00001370 0000085f 00000000 3fed 2c 404e404e t0:0
mc 07 00001078 000013c3 000008eb 00000000 3ff0 2d 001872db t0:0
mr 07 00001028 00001387 0000085f 00000000 3ff0 2d 404e404e t0:0
mc 07 0000106f 000013bf 000008e6 00000000 3ff3 2e 001873f2 t0:0
mr 07 0000101f 00001383 0000085a 00000000 3ff3 2e 404e404e t0:0
mc 07 00001061 000013cd 000008d4 00000000 3ff6 2f 0018750a t0:0
mr 07 00001011 00001391 00000848 00000000 3ff6 2f 404e404e t0:0
mc 07 0000107d 000013d1 000008e2 00000000 3ff9 30 00187623 t0:0
mr 07 0000102d 00001395 00000856 00000000 3ff9 30 404e404e t0:0
mc 07 0000105c 000013c8 000008e2 00000000 3ffc 31 0018773b t0:0
mr 07 0000100c 0000138c 00000856 00000000 3ffc 31 404e404e t0:0
mc 07 0000109e 000013d1 000008f0 00000000 3fff 32 00187853 t0:0
mr 07 0000104e 00001395 00000864 00000000 3fff 32 404e404e t0:0
mc 07 00001058 000013ba 000008d8 00000000 4002 33 0018796b t0:0
mr 07 00001008 0000137e 0000084c 00000000 4002 33 404e404e t0:0
mc 07 00001074 000013c3 000008e6 00000000 4005 34 00187a83 t0:0
mr 07 00001024 00001387 0000085a 00000000 4005 34 404e404e t0:0
mc 07 00001061 000013d6 000008ca 00000000 4008 35 00187b9b t0:0
mr 07 00001011 0000139a 0000083e 00000000 4008 35 404e404e t0:0
mc 07 0000106a 000013c8 000008dd 00000000 400b 36 00187cb3 t0:0
mr 07 0000101a 0000138c 00000851 00000000 400b 36 404e404e t0:0
mc 07 00001078 000013bf 000008e2 00000000 400e 37 00187dcb t0:0
mr 07 00001028 00001383 00000856 00000000 400e 37 404e404e t0:0
mc 07 00001066 000013ba 000008f9 00000000 4011 38 00187ee2 t0:0
mr 07 00001016 0000137e 0000086d 00000000 4011 38 404e404e t0:0
mc 07 00001074 000013d1 000008dd 00000000 4014 39 00187ffb t0:0
mr 07 00001024 00001395 00000851 00000000 4014 39 404e404e t0:0
mc 07 00001078 000013cd 000008e2 00000000 4017 3a 00188113 t0:0
mr 07 00001028 00001391 00000856 00000000 4017 3a 404e404e t0:0
mc 07 0000105c 000013ac 000008dd 00000000 401a 3b 0018822b t0:0
mr 07 0000100c 00001370 00000851 00000000 401a 3b 404e404e t0:0
mc 07 00001082 000013d6 000008eb 00000000 401d 3c 00188343 t0:0
mr 07 00001032 0000139a 0000085f 00000000 401d 3c 404e404e t0:0
mc 07 0000106f 000013ac 000008f0 00000000 4020 3d 0018845a t0:0
mr 07 0000101f 00001370 00000864 00000000 4020 3d 404e404e t0:0
mc 07 00001066 000013b1 000008fe 00000000 4023 3e 00188572 t0:0
mr 07 00001016 00001375 00000872 00000000 4023 3e 404e404e t0:0
mc 07 00001086 000013bf 000008e2 00000000 4026 3f 0018868b t0:0
mr 07 00001036 00001383 00000856 00000000 4026 3f 404e404e t0:0
mc 07 0000106f 000013ba 000008e2 00000000 4029 40 001887a3 t0:0
mr 07 0000101f 0000137e 00000856 00000000 4029 40 404e404e t0:0
mc 07 0000105c 000013ba 000008f0 00000000 402c 41 001888ba t0:0
mr 07 0000100c 0000137e 00000864 00000000 402c 41 404e404e t0:0
mc 07 0000107d 000013c3 000008e2 00000000 402f 42 001889d2 t0:0
mr 07 0000102d 00001387 00000856 00000000 402f 42 404e404e t0:0
mc 07 00001061 000013c3 000008f0 00000000 4032 43 00188aea t0:0
mr 07 00001011 00001387 00000864 00000000 4032 43 404e404e t0:0
mc 07 00001090 000013d1 000008dd 00000000 4035 44 00188c02 t0:0
mr 07 00001040 00001395 00000851 00000000 4035 44 404e404e t0:0
mc 07 00001066 000013cd 000008e2 00000000 4038 45 00188d1a t0:0
mr 07 00001016 00001391 00000856 00000000 4038 45 404e404e t0:0
mc 07 0000106a 000013d1 000008e6 00000000 403b 46 00188e33 t0:0
mr 07 0000101a 00001395 0000085a 00000000 403b 46 404e404e t0:0
mc 07 0000107d 000013a7 000008dd 00000000 403e 47 00188f4a t0:0
mr 07 0000102d 0000136b 00000851 00000000 403e 47 404e404e t0:0
mc 07 0000107d 000013c3 000008eb 00000000 4041 48 00189063 t0:0
mr 07 0000102d 00001387 0000085f 00000000 4041 48 404e404e t0:0
mc 07 00001078 000013c3 000008e2 00000000 4044 49 0018917b t0:0
mr 07 00001028 00001387 00000856 00000000 4044 49 404e404e t0:0
mc 07 00001066 000013bf 000008e2 00000000 4047 4a 00189292 t0:0
mr 07 00001016 00001383 00000856 00000000 4047 4a 404e404e t0:0
mc 07 00001061 000013c8 000008f0 00000000 404a 4b 001893aa t0:0
mr 07 00001011 0000138c 00000864 00000000 404a 4b 404e404e t0:0
mc 07 0000106a 000013ac 000008dd 00000000 404d 4c 001894c3 t0:0
mr 07 0000101a 00001370 00000851 00000000 404d 4c 404e404e t0:0
mc 07 0000108b 000013ba 00000902 00000000 4050 4d 001895da t0:0
mr 07 0000103b 0000137e 00000876 00000000 4050 4d 404e404e t0:0
mc 07 00001053 000013bf 000008d4 00000000 4053 4e 001896f3 t0:0
mr 07 00001003 00001383 00000848 00000000 4053 4e 404e404e t0:0
mc 07 00001045 000013ac 000008f4 00000000 4056 4f 0018980b t0:0
mr 07 00000ff5 00001370 00000868 00000000 4056 4f 404e404e t0:0
mc 07 00001058 000013ac 000008e2 00000000 4059 50 00189923 t0:0
mr 07 00001008 00001370 00000856 00000000 4059 50 404e404e t0:0
mc 07 00001066 000013bf 000008e2 00000000 405c 51 00189a3b t0:0
mr 07 00001016 00001383 00000856 00000000 405c 51 404e404e t0:0
mc 07 00001078 000013bf 000008f0 00000000 405f 52 00189b53 t0:0
mr 07 00001028 00001383 00000864 00000000 405f 52 404e404e t0:0
mc 07 00001078 000013b5 000008eb 00000000 4062 53 00189c6b t0:0
mr 07 00001028 00001379 0000085f 00000000 4062 53 404e404e t0:0
mc 07 00001090 000013bf 000008cf 00000000 4065 54 00189d83 t0:0
mr 07 00001040 00001383 00000843 00000000 4065 54 404e404e t0:0
mc 07 00001078 000013bf 000008d8 00000000 4068 55 00189e9b t0:0
mr 07 00001028 00001383 0000084c 00000000 4068 55 404e404e t0:0
mc 07 00001082 000013c3 000008eb 00000000 406b 56 00189fb2 t0:0
mr 07 00001032 00001387 0000085f 00000000 406b 56 404e404e t0:0
mc 07 00001086 000013b5 000008dd 00000000 406e 57 0018a0cb t0:0
mr 07 00001036 00001379 00000851 00000000 406e 57 404e404e t0:0
mc 07 00001066 000013cd 000008dd 00000000 4071 58 0018a1e2 t0:0
mr 07 00001016 00001391 00000851 00000000 4071 58 404e404e t0:0
mc 07 00001074 000013b5 000008f4 00000000 4074 59 0018a2fb t0:0
mr 07 00001024 00001379 00000868 00000000 4074 59 404e404e t0:0
mc 07 00001066 000013cd 000008e2 00000000 4077 5a 0018a413 t0:0
mr 07 00001016 00001391 00000856 00000000 4077 5a 404e404e t0:0
mc 07 00001078 000013b1 000008eb 00000000 407a 5b 0018a52b t0:0
mr 07 00001028 00001375 0000085f 00000000 407a 5b 404e404e t0:0
mc 07 00001074 000013c3 000008e6 00000000 407d 5c 0018a642 t0:0
mr 07 00001024 00001387 0000085a 00000000 407d 5c 404e404e t0:0
mc 07 00001086 000013ba 000008dd 00000000 4080 5d 0018a75b t0:0
mr 07 00001036 0000137e 00000851 00000000 4080 5d 404e404e t0:0
mc 07 0000103b 000013d1 000008eb 00000000 4083 5e 0018a873 t0:0
mr 07 00000feb 00001395 0000085f 00000000 4083 5e 404e404e t0:0
mc 07 00001082 000013ba 000008e2 00000000 4086 5f 0018a98b t0:0
mr 07 00001032 0000137e 00000856 00000000 4086 5f 404e404e t0:0
mc 07 00001053 000013a3 000008d4 00000000 4089 60 0018aaa3 t0:0
mr 07 00001003 00001367 00000848 00000000 4089 60 404e404e t0:0
mc 07 0000105c 000013b1 000008d8 00000000 408c 61 0018abbb t0:0
mr 07 0000100c 00001375 0000084c 00000000 408c 61 404e404e t0:0
mc 07 00001086 000013ba 000008eb 00000000 408f 62 0018acd2 t0:0
mr 07 00001036 0000137e 0000085f 00000000 408f 62 404e404e t0:0
mc 07 00001074 000013b5 000008d8 00000000 4092 63 0018adea t0:0
mr 07 00001024 00001379 0000084c 00000000 4092 63 404e404e t0:0
mc 07 00001066 000013ba 000008f4 00000000 4095 64 0018af02 t0:0
mr 07 00001016 0000137e 00000868 00000000 4095 64 404e404e t0:0
mc 07 0000107d 000013ba 000008e6 00000000 4098 65 0018b01b t0:0
mr 07 0000102d 0000137e 0000085a 00000000 4098 65 404e404e t0:0
mc 07 00001049 000013ac 000008dd 00000000 409b 66 0018b133 t0:0
mr 07 00000ff9 00001370 00000851 00000000 409b 66 404e404e t0:0
mc 07 0000108b 000013ba 000008dd 00000000 409e 67 0018b24b t0:0
mr 07 0000103b 0000137e 00000851 00000000 409e 67 404e404e t0:0
mc 07 00001074 000013cd 000008e6 00000000 40a1 68 0018b362 t0:0
mr 07 00001024 00001391 0000085a 00000000 40a1 68 404e404e t0:0
mc 07 00001061 000013ac 000008e6 00000000 40a4 69 0018b47b t0:0
mr 07 00001011 00001370 0000085a 00000000 40a4 69 404e404e t0:0
mc 07 00001086 000013d6 000008dd 00000000 40a7 6a 0018b592 t0:0
mr 07 00001036 0000139a 00000851 00000000 40a7 6a 404e404e t0:0
mc 07 00001066 000013b1 000008f0 00000000 40aa 6b 0018b6ab t0:0
mr 07 00001016 00001375 00000864 00000000 40aa 6b 404e404e t0:0
mc 07 00001078 000013a3 000008dd 00000000 40ad 6c 0018b7c3 t0:0
mr 07 00001028 00001367 00000851 00000000 40ad 6c 404e404e t0:0
mc 07 0000107d 000013b1 0000090c 00000000 40b0 6d 0018b8db t0:0
mr 07 0000102d 00001375 00000880 00000000 40b0 6d 404e404e t0:0
mc 07 0000107d 000013b1 000008d4 00000000 40b3 6e 0018b9f2 t0:0
mr 07 0000102d 00001375 00000848 00000000 40b3 6e 404e404e t0:0
mc 07 00001078 000013db 000008eb 00000000 40b6 6f 0018bb0b t0:0
mr 07 00001028 0000139f 0000085f 00000000 40b6 6f 404e404e t0:0
mc 07 0000109e 000013a7 000008eb 00000000 40b9 70 0018bc22 t0:0
mr 07 0000104e 0000136b 0000085f 00000000 40b9 70 404e404e t0:0
mc 07 0000107d 000013a7 000008e6 00000000 40bc 71 0018bd3a t0:0
mr 07 0000102d 0000136b 0000085a 00000000 40bc 71 404e404e t0:0
mc 07 00001074 000013ba 000008f4 00000000 40bf 72 0018be52 t0:0
mr 07 00001024 0000137e 00000868 00000000 40bf 72 404e404e t0:0
mc 07 00001078 000013a7 000008f0 00000000 40c2 73 0018bf6b t0:0
mr 07 00001028 0000136b 00000864 00000000 40c2 73 404e404e t0:0
mc 07 0000107d 000013a3 000008f0 00000000 40c5 74 0018c083 t0:0
mr 07 0000102d 00001367 00000864 00000000 40c5 74 404e404e t0:0
mc 07 00001058 000013bf 000008dd 00000000 40c8 75 0018c19b t0:0
mr 07 00001008 00001383 00000851 00000000 40c8 75 404e404e t0:0
mc 07 00001061 000013db 000008f9 00000000 40cb 76 0018c2b3 t0:0
mr 07 00001011 0000139f 0000086d 00000000 40cb 76 404e404e t0:0
mc 07 0000108b 000013bf 000008eb 00000000 40ce 77 0018c3cb t0:0
mr 07 0000103b 00001383 0000085f 00000000 40ce 77 404e404e t0:0
mc 07 00001049 000013d6 000008f0 00000000 40d1 78 0018c4e2 t0:0
mr 07 00000ff9 0000139a 00000864 00000000 40d1 78 404e404e t0:0
mc 07 00001090 000013ba 000008f0 00000000 40d4 79 0018c5fb t0:0
mr 07 00001040 0000137e 00000864 00000000 40d4 79 404e404e t0:0
mc 07 00001082 000013e4 000008e6 00000000 40d7 7a 0018c713 t0:0
mr 07 00001032 000013a8 0000085a 00000000 40d7 7a 404e404e t0:0
mc 07 00001078 000013c3 000008f4 00000000 40da 7b 0018c82b t0:0
mr 07 00001028 00001387 00000868 00000000 40da 7b 404e404e t0:0
mc 07 0000104e 000013e4 00000902 00000000 40dd 7c 0018c943 t0:0
mr 07 00000ffe 000013a8 00000876 00000000 40dd 7c 404e404e t0:0
mc 07 00001061 000013d1 000008f9 00000000 40e0 7d 0018ca5b t0:0
mr 07 00001011 00001395 0000086d 00000000 40e0 7d 404e404e t0:0
mc 07 00001074 000013b5 000008e6 00000000 40e3 7e 0018cb73 t0:0
mr 07 00001024 00001379 0000085a 00000000 40e3 7e 404e404e t0:0
mc 07 00001061 000013c3 000008d4 00000000 40e6 7f 0018cc8b t0:0
mr 07 00001011 00001387 00000848 00000000 40e6 7f 404e404e t0:0
mc 07 0000106f 000013b1 000008eb 00000000 40e9 80 0018cda3 t0:0
mr 07 0000101f 00001375 0000085f 00000000 40e9 80 404e404e t0:0
mc 07 00001053 000013cd 000008f4 00000000 40ec 81 0018cebb t0:0
mr 07 00001003 00001391 00000868 00000000 40ec 81 404e404e t0:0
mc 07 00001082 000013ac 000008eb 00000000 40ef 82 0018cfd3 t0:0
mr 07 00001032 00001370 0000085f 00000000 40ef 82 404e404e t0:0
mc 07 0000106a 000013c3 000008eb 00000000 40f2 83 0018d0eb t0:0
mr 07 0000101a 00001387 0000085f 00000000 40f2 83 404e404e t0:0
mc 07 0000106a 000013d1 000008d8 00000000 40f5 84 0018d203 t0:0
mr 07 0000101a 00001395 0000084c 00000000 40f5 84 404e404e t0:0
mc 07 00001058 000013ba 000008e6 00000000 40f8 85 0018d31b t0:0
mr 07 00001008 0000137e 0000085a 00000000 40f8 85 404e404e t0:0
mc 07 0000106a 000013c8 000008dd 00000000 40fb 86 0018d433 t0:0
mr 07 0000101a 0000138c 00000851 00000000 40fb 86 404e404e t0:0
mc 07 00001090 000013b1 000008f4 00000000 40fe 87 0018d54b t0:0
mr 07 00001040 00001375 00000868 00000000 40fe 87 404e404e t0:0
mc 07 0000106a 000013c8 000008fe 00000000 4101 88 0018d663 t0:0
mr 07 0000101a 0000138c 00000872 00000000 4101 88 404e404e t0:0
mc 07 00001061 000013b5 000008e6 00000000 4104 89 0018d77b t0:0
mr 07 00001011 00001379 0000085a 00000000 4104 89 404e404e t0:0
mc 07 00001082 000013b1 000008e2 00000000 4107 8a 0018d893 t0:0
mr 07 00001032 00001375 00000856 00000000 4107 8a 404e404e t0:0
mc 07 00001090 000013a7 000008dd 00000000 410a 8b 0018d9ab t0:0
mr 07 00001040 0000136b 00000851 00000000 410a 8b 404e404e t0:0
mc 07 00001078 000013ba 000008d8 00000000 410d 8c 0018dac3 t0:0
mr 07 00001028 0000137e 0000084c 00000000 410d 8c 404e404e t0:0
mc 07 00001086 000013b1 000008eb 00000000 4110 8d 0018dbdb t0:0
mr 07 00001036 00001375 0000085f 00000000 4110 8d 404e404e t0:0
mc 07 00001061 000013ac 000008e6 00000000 4113 8e 0018dcf3 t0:0
mr 07 00001011 00001370 0000085a 00000000 4113 8e 404e404e t0:0
mc 07 00001082 000013b5 000008fe 00000000 4116 8f 0018de0b t0:0
mr 07 00001032 00001379 00000872 00000000 4116 8f 404e404e t0:0
mc 07 0000109e 000013bf 000008f4 00000000 4119 90 0018df23 t0:0
mr 07 0000104e 00001383 00000868 00000000 4119 90 404e404e t0:0
mc 07 00001078 000013b5 000008e2 00000000 411c 91 0018e03b t0:0
mr 07 00001028 00001379 00000856 00000000 411c 91 404e404e t0:0
mc 07 00001082 000013a7 000008e2 00000000 411f 92 0018e153 t0:0
mr 07 00001032 0000136b 00000856 00000000 411f 92 404e404e t0:0
mc 07 0000107d 000013db 000008eb 00000000 4122 93 0018e26b t0:0
mr 07 0000102d 0000139f 0000085f 00000000 4122 93 404e404e t0:0
mc 07 00001074 000013d1 000008f0 00000000 4125 94 0018e383 t0:0
mr 07 00001024 00001395 00000864 00000000 4125 94 404e404e t0:0
mc 07 00001066 000013cd 000008f4 00000000 4128 95 0018e49b t0:0
mr 07 00001016 00001391 00000868 00000000 4128 95 404e404e t0:0
mc 07 00001074 000013bf 000008eb 00000000 412b 96 0018e5b3 t0:0
mr 07 00001024 00001383 0000085f 00000000 412b 96 404e404e t0:0
mc 07 00001086 000013c8 000008e6 00000000 412e 97 0018e6cb t0:0
mr 07 00001036 0000138c 0000085a 00000000 412e 97 404e404e t0:0
mc 07 00001061 000013bf 00000907 00000000 4131 98 0018e7e3 t0:0
mr 07 00001011 00001383 0000087b 00000000 4131 98 404e404e t0:0
mc 07 00001074 000013a3 000008dd 00000000 4134 99 0018e8fb t0:0
mr 07 00001024 00001367 00000851 00000000 4134 99 404e404e t0:0
mc 07 00001066 000013c3 000008e6 00000000 4137 9a 0018ea13 t0:0
mr 07 00001016 00001387 0000085a 00000000 4137 9a 404e404e t0:0
mc 07 0000106f 000013b5 000008eb 00000000 413a 9b 0018eb2b t0:0
mr 07 0000101f 00001379 0000085f 00000000 413a 9b 404e404e t0:0
mc 07 0000104e 000013ba 000008f9 00000000 413d 9c 0018ec43 t0:0
mr 07 00000ffe 0000137e 0000086d 00000000 413d 9c 404e404e t0:0
mc 07 0000105c 000013bf 000008e6 00000000 4140 9d 0018ed5b t0:0
mr 07 0000100c 00001383 0000085a 00000000 4140 9d 404e404e t0:0
mc 07 00001086 000013ba 000008f9 00000000 4143 9e 0018ee73 t0:0
mr 07 00001036 0000137e 0000086d 00000000 4143 9e 404e404e t0:0
mc 07 0000104e 000013bf 000008e6 00000000 4146 9f 0018ef8b t0:0
mr 07 00000ffe 00001383 0000085a 00000000 4146 9f 404e404e t0:0
mc 07 0000106f 000013ba 000008d8 00000000 4149 a0 0018f0a3 t0:0
mr 07 0000101f 0000137e 0000084c 00000000 4149 a0 404e404e t0:0
mc 07 00001078 000013ac 000008d4 00000000 414c a1 0018f1bb t0:0
mr 07 00001028 00001370 00000848 00000000 414c a1 404e404e t0:0
mc 07 00001045 000013c8 000008e6 00000000 414f a2 0018f2d3 t0:0
mr 07 00000ff5 0000138c 0000085a 00000000 414f a2 404e404e t0:0
mc 07 00001049 000013ba 000008cf 00000000 4152 a3 0018f3eb t0:0
mr 07 00000ff9 0000137e 00000843 00000000 4152 a3 404e404e t0:0
mc 07 0000106f 000013c8 000008e2 00000000 4155 a4 0018f503 t0:0
mr 07 0000101f 0000138c 00000856 00000000 4155 a4 404e404e t0:0
mc 07 00001074 000013d1 000008eb 00000000 4158 a5 0018f61b t0:0
mr 07 00001024 00001395 0000085f 00000000 4158 a5 404e404e t0:0
mc 07 00001061 000013c3 000008f9 00000000 415b a6 0018f733 t0:0
mr 07 00001011 00001387 0000086d 00000000 415b a6 404e404e t0:0
mc 07 00001061 000013c8 000008e6 00000000 415e a7 0018f84b t0:0
mr 07 00001011 0000138c 0000085a 00000000 415e a7 404e404e t0:0
mc 07 0000108b 000013c3 000008dd 00000000 4161 a8 0018f963 t0:0
mr 07 0000103b 00001387 00000851 00000000 4161 a8 404e404e t0:0
mc 07 00001082 000013a7 000008e6 00000000 4164 a9 0018fa7b t0:0
mr 07 00001032 0000136b 0000085a 00000000 4164 a9 404e404e t0:0
mc 07 0000105c 000013db 000008d8 00000000 4167 aa 0018fb93 t0:0
mr 07 0000100c 0000139f 0000084c 00000000 4167 aa 404e404e t0:0
mc 07 0000109e 000013ac 000008e2 00000000 416a ab 0018fcab t0:0
mr 07 0000104e 00001370 00000856 00000000 416a ab 404e404e t0:0
mc 07 0000108b 000013c8 000008c5 00000000 416d ac 0018fdc3 t0:0
mr 07 0000103b 0000138c 00000839 00000000 416d ac 404e404e t0:0
mc 07 0000107d 000013c8 000008f4 00000000 4170 ad 0018fedb t0:0
mr 07 0000102d 0000138c 00000868 00000000 4170 ad 404e404e t0:0
mc 07 00001074 000013c8 000008d8 00000000 4173 ae 0018fff3 t0:0
mr 07 00001024 0000138c 0000084c 00000000 4173 ae 404e404e t0:0
mc 07 00001066 000013ac 000008d4 00000000 4176 af 0019010b t0:0
mr 07 00001016 00001370 00000848 00000000 4176 af 404e404e t0:0
mc 07 00001053 000013c3 000008dd 00000000 4179 b0 00190223 t0:0
mr 07 00001003 00001387 00000851 00000000 4179 b0 404e404e t0:0
mc 07 0000106a 000013bf 000008eb 00000000 417c b1 0019033b t0:0
mr 07 0000101a 00001383 0000085f 00000000 417c b1 404e404e t0:0
mc 07 00001058 000013ba 000008e2 00000000 417f b2 00190453 t0:0
mr 07 00001008 0000137e 00000856 00000000 417f b2 404e404e t0:0
mc 07 0000108b 000013ba 000008d8 00000000 4182 b3 0019056b t0:0
mr 07 0000103b 0000137e 0000084c 00000000 4182 b3 404e404e t0:0
mc 07 00001082 000013b1 000008f0 00000000 4185 b4 00190683 t0:0
mr 07 00001032 00001375 00000864 00000000 4185 b4 404e404e t0:0
mc 07 00001078 000013c3 000008d4 00000000 4188 b5 0019079b t0:0
mr 07 00001028 00001387 00000848 00000000 4188 b5 404e404e t0:0
mc 07 00001066 000013cd 000008eb 00000000 418b b6 001908b3 t0:0
mr 07 00001016 00001391 0000085f 00000000 418b b6 404e404e t0:0
mc 07 0000106a 000013ba 000008e6 00000000 418e b7 001909cb t0:0
mr 07 0000101a 0000137e 0000085a 00000000 418e b7 404e404e t0:0
mc 07 00001082 000013bf 000008f0 00000000 4191 b8 00190ae3 t0:0
mr 07 00001032 00001383 00000864 00000000 4191 b8 404e404e t0:0
mc 07 00001086 000013b5 000008e2 00000000 4194 b9 00190bfb t0:0
mr 07 00001036 00001379 00000856 00000000 4194 b9 404e404e t0:0
mc 07 00001074 000013c3 000008e6 00000000 4197 ba 00190d13 t0:0
mr 07 00001024 00001387 0000085a 00000000 4197 ba 404e404e t0:0
mc 07 0000107d 000013c3 000008cf 00000000 419a bb 00190e2b t0:0
mr 07 0000102d 00001387 00000843 00000000 419a bb 404e404e t0:0
mc 07 0000107d 000013c8 000008e6 00000000 419d bc 00190f43 t0:0
mr 07 0000102d 0000138c 0000085a 00000000 419d bc 404e404e t0:0
mc 07 00001061 000013ba 000008d8 00000000 41a0 bd 0019105b t0:0
mr 07 00001011 0000137e 0000084c 00000000 41a0 bd 404e404e t0:0
mc 07 00001099 000013bf 000008d4 00000000 41a3 be 00191173 t0:0
mr 07 00001049 00001383 00000848 00000000 41a3 be 404e404e t0:0
mc 07 0000106a 000013b5 000008eb 00000000 41a6 bf 0019128b t0:0
mr 07 0000101a 00001379 0000085f 00000000 41a6 bf 404e404e t0:0
mc 07 00001078 000013b5 000008dd 00000000 41a9 c0 001913a3 t0:0
mr 07 00001028 00001379 00000851 00000000 41a9 c0 404e404e t0:0
mc 07 00001074 000013bf 000008f4 00000000 41ac c1 001914bb t0:0
mr 07 00001024 00001383 00000868 00000000 41ac c1 404e404e t0:0
mc 07 00001045 000013b1 000008eb 00000000 41af c2 001915d3 t0:0
mr 07 00000ff5 00001375 0000085f 00000000 41af c2 404e404e t0:0
mc 07 00001090 000013ac 000008dd 00000000 41b2 c3 001916eb t0:0
mr 07 00001040 00001370 00000851 00000000 41b2 c3 404e404e t0:0
mc 07 0000105c 000013b5 000008d8 00000000 41b5 c4 00191803 t0:0
mr 07 0000100c 00001379 0000084c 00000000 41b5 c4 404e404e t0:0
mc 07 00001061 000013cd 000008e6 00000000 41b8 c5 0019191b t0:0
mr 07 00001011 00001391 0000085a 00000000 41b8 c5 404e404e t0:0
mc 07 00001082 000013b5 000008dd 00000000 41bb c6 00191a33 t0:0
mr 07 00001032 00001379 00000851 00000000 41bb c6 404e404e t0:0
mc 07 0000108b 000013cd 000008d8 00000000 41be c7 00191b4b t0:0
mr 07 0000103b 00001391 0000084c 00000000 41be c7 404e404e t0:0
mc 07 000010a3 000013db 000008f4 00000000 41c1 c8 00191c63 t0:0
mr 07 00001053 0000139f 00000868 00000000 41c1 c8 404e404e t0:0
mc 07 00001074 000013c8 000008d4 00000000 41c4 c9 00191d7b t0:0
mr 07 00001024 0000138c 00000848 00000000 41c4 c9 404e404e t0:0
mc 07 0000106f 000013b5 00000902 00000000 41c7 ca 00191e93 t0:0
mr 07 0000101f 00001379 00000876 00000000 41c7 ca 404e404e t0:0
mc 07 00001082 000013ba 000008ca 00000000 41ca cb 00191fab t0:0
mr 07 00001032 0000137e 0000083e 00000000 41ca cb 404e404e t0:0
mc 07 00001074 000013c8 000008e2 00000000 41cd cc 001920c3 t0:0
mr 07 00001024 0000138c 00000856 00000000 41cd cc 404e404e t0:0
mc 07 00001082 000013bf 000008fe 00000000 41d0 cd 001921db t0:0
mr 07 00001032 00001383 00000872 00000000 41d0 cd 404e404e t0:0
mc 07 0000107d 000013a3 000008dd 00000000 41d3 ce 001922f3 t0:0
mr 07 0000102d 00001367 00000851 00000000 41d3 ce 404e404e t0:0
mc 07 00001095 000013c8 000008f4 00000000 41d6 cf 0019240b t0:0
mr 07 00001045 0000138c 00000868 00000000 41d6 cf 404e404e t0:0
mc 07 0000106f 000013a7 000008e2 00000000 41d9 d0 00192523 t0:0
mr 07 0000101f 0000136b 00000856 00000000 41d9 d0 404e404e t0:0
mc 07 0000107d 000013ba 000008f0 00000000 41dc d1 0019263b t0:0
mr 07 0000102d 0000137e 00000864 00000000 41dc d1 404e404e t0:0
mc 07 00001099 000013ac 000008e6 00000000 41df d2 00192753 t0:0
mr 07 00001049 00001370 0000085a 00000000 41df d2 404e404e t0:0
mc 07 00001061 000013d1 000008d8 00000000 41e2 d3 0019286b t0:0
mr 07 00001011 00001395 0000084c 00000000 41e2 d3 404e404e t0:0
mc 07 00001095 000013b1 000008e2 00000000 41e5 d4 00192983 t0:0
mr 07 00001045 00001375 00000856 00000000 41e5 d4 404e404e t0:0
mc 07 00001074 000013c3 000008e2 00000000 41e8 d5 00192a9b t0:0
mr 07 00001024 00001387 00000856 00000000 41e8 d5 404e404e t0:0
mc 07 0000106a 000013ba 000008e2 00000000 41eb d6 00192bb3 t0:0
mr 07 0000101a 0000137e 00000856 00000000 41eb d6 404e404e t0:0
mc 07 0000107d 000013b1 000008e6 00000000 41ee d7 00192ccb t0:0
mr 07 0000102d 00001375 0000085a 00000000 41ee d7 404e404e t0:0
mc 07 00001078 000013b5 000008cf 00000000 41f1 d8 00192de3 t0:0
mr 07 00001028 00001379 00000843 00000000 41f1 d8 404e404e t0:0
mc 07 0000105c 000013ba 000008dd 00000000 41f4 d9 00192efb t0:0
mr 07 0000100c 0000137e 00000851 00000000 41f4 d9 404e404e t0:0
mc 07 00001061 000013c3 000008f4 00000000 41f7 da 00193013 t0:0
mr 07 00001011 00001387 00000868 00000000 41f7 da 404e404e t0:0
mc 07 00001074 000013c3 000008f0 00000000 41fa db 0019312b t0:0
mr 07 00001024 00001387 00000864 00000000 41fa db 404e404e t0:0
mc 07 0000108b 000013c3 000008f0 00000000 41fd dc 00193243 t0:0
mr 07 0000103b 00001387 00000864 00000000 41fd dc 404e404e t0:0
mc 07 00001061 000013b5 000008e6 00000000 4200 dd 0019335b t0:0
mr 07 00001011 00001379 0000085a 00000000 4200 dd 404e404e t0:0
mc 07 00001082 000013ba 000008dd 00000000 4203 de 00193473 t0:0
mr 07 00001032 0000137e 00000851 00000000 4203 de 404e404e t0:0
mc 07 00001082 000013b1 000008e6 00000000 4206 df 0019358b t0:0
mr 07 00001032 00001375 0000085a 00000000 4206 df 404e404e t0:0
mc 07 0000106f 000013ac 000008cf 00000000 4209 e0 001936a3 t0:0
mr 07 0000101f 00001370 00000843 00000000 4209 e0 404e404e t0:0
mc 07 00001066 000013ac 000008e2 00000000 420c e1 001937bb t0:0
mr 07 00001016 00001370 00000856 00000000 420c e1 404e404e t0:0
mc 07 00001074 000013b5 000008eb 00000000 420f e2 001938d3 t0:0
mr 07 00001024 00001379 0000085f 00000000 420f e2 404e404e t0:0
mc 07 0000106f 000013bf 000008eb 00000000 4212 e3 001939eb t0:0
mr 07 0000101f 00001383 0000085f 00000000 4212 e3 404e404e t0:0
mc 07 0000104e 000013cd 000008d4 00000000 4215 e4 00193b03 t0:0
mr 07 00000ffe 00001391 00000848 00000000 4215 e4 404e404e t0:0
mc 07 0000107d 000013b5 000008dd 00000000 4218 e5 00193c1b t0:0
mr 07 0000102d 00001379 00000851 00000000 4218 e5 404e404e t0:0
mc 07 00001078 000013b5 000008dd 00000000 421b e6 00193d33 t0:0
mr 07 00001028 00001379 00000851 00000000 421b e6 404e404e t0:0
mc 07 00001090 000013bf 000008f0 00000000 421e e7 00193e4b t0:0
mr 07 00001040 00001383 00000864 00000000 421e e7 404e404e t0:0
mc 07 00001074 000013ba 000008f0 00000000 4221 e8 00193f63 t0:0
mr 07 00001024 0000137e 00000864 00000000 4221 e8 404e404e t0:0
mc 07 00001086 000013ac 000008e2 00000000 4224 e9 0019407b t0:0
mr 07 00001036 00001370 00000856 00000000 4224 e9 404e404e t0:0
mc 07 00001095 000013cd 000008f4 00000000 4227 ea 00194193 t0:0
mr 07 00001045 00001391 00000868 00000000 4227 ea 404e404e t0:0
mc 07 00001082 000013b1 000008dd 00000000 422a eb 001942ab t0:0
mr 07 00001032 00001375 00000851 00000000 422a eb 404e404e t0:0
mc 07 0000106a 000013bf 000008d8 00000000 422d ec 001943c3 t0:0
mr 07 0000101a 00001383 0000084c 00000000 422d ec 404e404e t0:0
mc 07 0000106f 000013c3 000008dd 00000000 4230 ed 001944db t0:0
mr 07 0000101f 00001387 00000851 00000000 4230 ed 404e404e t0:0
mc 07 00001066 000013cd 000008cf 00000000 4233 ee 001945f3 t0:0
mr 07 00001016 00001391 00000843 00000000 4233 ee 404e404e t0:0
mc 07 00001078 000013bf 000008eb 00000000 4236 ef 0019470b t0:0
mr 07 00001028 00001383 0000085f 00000000 4236 ef 404e404e t0:0
mc 07 00001078 000013c8 000008e2 00000000 4239 f0 00194823 t0:0
mr 07 00001028 0000138c 00000856 00000000 4239 f0 404e404e t0:0
mc 07 0000106a 000013c3 000008dd 00000000 423c f1 0019493b t0:0
mr 07 0000101a 00001387 00000851 00000000 423c f1 404e404e t0:0
mc 07 0000106f 000013ac 000008d8 00000000 423f f2 00194a53 t0:0
mr 07 0000101f 00001370 0000084c 00000000 423f f2 404e404e t0:0
mc 07 00001058 000013b5 000008eb 00000000 4242 f3 00194b6b t0:0
mr 07 00001008 00001379 0000085f 00000000 4242 f3 404e404e t0:0
mc 07 00001082 000013c3 000008eb 00000000 4245 f4 00194c83 t0:0
mr 07 00001032 00001387 0000085f 00000000 4245 f4 404e404e t0:0
mc 07 00001058 000013c3 000008d4 00000000 4248 f5 00194d9b t0:0
mr 07 00001008 00001387 00000848 00000000 4248 f5 404e404e t0:0
mc 07 00001066 000013ba 000008dd 00000000 424b f6 00194eb3 t0:0
mr 07 00001016 0000137e 00000851 00000000 424b f6 404e404e t0:0
mc 07 0000105c 000013bf 000008e2 00000000 424e f7 00194fcb t0:0
mr 07 0000100c 00001383 00000856 00000000 424e f7 404e404e t0:0
mc 07 0000106a 000013b1 000008d4 00000000 4251 f8 001950e3 t0:0
mr 07 0000101a 00001375 00000848 00000000 4251 f8 404e404e t0:0
mc 07 0000107d 000013b1 000008dd 00000000 4254 f9 001951fb t0:0
mr 07 0000102d 00001375 00000851 00000000 4254 f9 404e404e t0:0
mc 07 0000107d 000013c8 000008dd 00000000 4257 fa 00195313 t0:0
mr 07 0000102d 0000138c 00000851 00000000 4257 fa 404e404e t0:0
mc 07 0000108b 000013bf 000008dd 00000000 425a fb 0019542b t0:0
mr 07 0000103b 00001383 00000851 00000000 425a fb 404e404e t0:0
mc 07 00001095 000013bf 000008f4 00000000 425d fc 00195543 t0:0
mr 07 00001045 00001383 00000868 00000000 425d fc 404e404e t0:0
mc 07 0000108b 000013ba 000008e2 00000000 4260 fd 0019565b t0:0
mr 07 0000103b 0000137e 00000856 00000000 4260 fd 404e404e t0:0
mc 07 00001058 000013ba 000008d8 00000000 4263 fe 00195773 t0:0
mr 07 00001008 0000137e 0000084c 00000000 4263 fe 404e404e t0:0
mc 07 00001086 000013ba 000008e2 00000000 4266 ff 0019588b t0:0
mr 07 00001036 0000137e 00000856 00000000 4266 ff 404e404e t0:0
mc 07 00001090 000013bf 000008e2 00000000 4269 00 001959a3 t0:0
mr 07 00001040 00001383 00000856 00000000 4269 00 404e404e t0:0
mc 07 00001090 000013ba 000008f0 00000000 426c 01 00195abb t0:0
mr 07 00001040 0000137e 00000864 00000000 426c 01 404e404e t0:0
mc 07 00001074 00001399 000008ca 00000000 426f 02 00195bd3 t0:0
mr 07 00001024 0000135d 0000083e 00000000 426f 02 404e404e t0:0
mc 07 00001082 000013b5 000008e2 00000000 4272 03 00195ceb t0:0
mr 07 00001032 00001379 00000856 00000000 4272 03 404e404e t0:0
mc 07 00001058 000013ba 000008f0 00000000 4275 04 00195e03 t0:0
mr 07 00001008 0000137e 00000864 00000000 4275 04 404e404e t0:0
mc 07 00001074 000013c3 000008e2 00000000 4278 05 00195f1b t0:0
mr 07 00001024 00001387 00000856 00000000 4278 05 404e404e t0:0
mc 07 00001090 000013b5 000008c5 00000000 427b 06 00196033 t0:0
mr 07 00001040 00001379 00000839 00000000 427b 06 404e404e t0:0
mc 07 0000107d 000013ac 000008d4 00000000 427e 07 0019614b t0:0
mr 07 0000102d 00001370 00000848 00000000 427e 07 404e404e t0:0
mc 07 0000107d 000013ac 000008e2 00000000 4281 08 00196263 t0:0
mr 07 0000102d 00001370 00000856 00000000 4281 08 404e404e t0:0
mc 07 0000106f 000013bf 000008e6 00000000 4284 09 0019637b t0:0
mr 07 0000101f 00001383 0000085a 00000000 4284 09 404e404e t0:0
mc 07 0000107d 000013a7 000008e6 00000000 4287 0a 00196493 t0:0
mr 07 0000102d 0000136b 0000085a 00000000 4287 0a 404e404e t0:0
mc 07 0000106f 000013c8 000008e2 00000000 428a 0b 001965ab t0:0
mr 07 0000101f 0000138c 00000856 00000000 428a 0b 404e404e t0:0
mc 07 00001090 000013a7 000008dd 00000000 428d 0c 001966c3 t0:0
mr 07 00001040 0000136b 00000851 00000000 428d 0c 404e404e t0:0
mc 07 00001061 000013bf 000008e2 00000000 4290 0d 001967db t0:0
mr 07 00001011 00001383 00000856 00000000 4290 0d 404e404e t0:0
mc 07 00001074 000013b1 000008f0 00000000 4293 0e 001968f3 t0:0
mr 07 00001024 00001375 00000864 00000000 4293 0e 404e404e t0:0
mc 07 00001066 000013bf 000008e6 00000000 4296 0f 00196a0b t0:0
mr 07 00001016 00001383 0000085a 00000000 4296 0f 404e404e t0:0
mc 07 00001078 000013b1 000008e6 00000000 4299 10 00196b23 t0:0
mr 07 00001028 00001375 0000085a 00000000 4299 10 404e404e t0:0
mc 07 0000107d 000013b1 000008cf 00000000 429c 11 00196c3b t0:0
mr 07 0000102d 00001375 00000843 00000000 429c 11 404e404e t0:0
mc 07 00001082 000013b5 000008dd 00000000 429f 12 00196d53 t0:0
mr 07 00001032 00001379 00000851 00000000 429f 12 404e404e t0:0
mc 07 0000106f 000013c3 000008dd 00000000 42a2 13 00196e6b t0:0
mr 07 0000101f 00001387 00000851 00000000 42a2 13 404e404e t0:0
mc 07 0000108b 000013c3 000008e6 00000000 42a5 14 00196f83 t0:0
mr 07 0000103b 00001387 0000085a 00000000 42a5 14 404e404e t0:0
mc 07 00001066 000013d1 000008d8 00000000 42a8 15 0019709b t0:0
mr 07 00001016 00001395 0000084c 00000000 42a8 15 404e404e t0:0
mc 07 0000106f 000013c8 000008dd 00000000 42ab 16 001971b3 t0:0
mr 07 0000101f 0000138c 00000851 00000000 42ab 16 404e404e t0:0
mc 07 00001090 000013c3 000008f0 00000000 42ae 17 001972cb t0:0
mr 07 00001040 00001387 00000864 00000000 42ae 17 404e404e t0:0
mc 07 00001082 000013cd 000008eb 00000000 42b1 18 001973e3 t0:0
mr 07 00001032 00001391 0000085f 00000000 42b1 18 404e404e t0:0
mc 07 0000105c 000013b5 000008e2 00000000 42b4 19 001974fb t0:0
mr 07 0000100c 00001379 00000856 00000000 42b4 19 404e404e t0:0
mc 07 00001086 000013ba 000008e2 00000000 42b7 1a 00197613 t0:0
mr 07 00001036 0000137e 00000856 00000000 42b7 1a 404e404e t0:0
mc 07 0000108b 000013d1 000008eb 00000000 42ba 1b 0019772b t0:0
mr 07 0000103b 00001395 0000085f 00000000 42ba 1b 404e404e t0:0
mc 07 0000105c 000013cd 000008dd 00000000 42bd 1c 00197843 t0:0
mr 07 0000100c 00001391 00000851 00000000 42bd 1c 404e404e t0:0
mc 07 00001090 000013c8 000008e2 00000000 42c0 1d 0019795b t0:0
mr 07 00001040 0000138c 00000856 00000000 42c0 1d 404e404e t0:0
mc 07 00001066 000013bf 000008d8 00000000 42c3 1e 00197a73 t0:0
mr 07 00001016 00001383 0000084c 00000000 42c3 1e 404e404e t0:0
mc 07 0000106f 000013cd 000008f0 00000000 42c6 1f 00197b8b t0:0
mr 07 0000101f 00001391 00000864 00000000 42c6 1f 404e404e t0:0
mc 07 00001082 000013bf 000008dd 00000000 42c9 20 00197ca3 t0:0
mr 07 00001032 00001383 00000851 00000000 42c9 20 404e404e t0:0
mc 07 00001086 000013b5 000008dd 00000000 42cc 21 00197dbb t0:0
mr 07 00001036 00001379 00000851 00000000 42cc 21 404e404e t0:0
mc 07 0000106a 000013bf 000008dd 00000000 42cf 22 00197ed3 t0:0
mr 07 0000101a 00001383 00000851 00000000 42cf 22 404e404e t0:0
mc 07 0000105c 000013ac 000008e2 00000000 42d2 23 00197feb t0:0
mr 07 0000100c 00001370 00000856 00000000 42d2 23 404e404e t0:0
mc 07 00001078 000013c3 000008e6 00000000 42d5 24 00198103 t0:0
mr 07 00001028 00001387 0000085a 00000000 42d5 24 404e404e t0:0
mc 07 00001074 000013ba 000008d8 00000000 42d8 25 0019821b t0:0
mr 07 00001024 0000137e 0000084c 00000000 42d8 25 404e404e t0:0
mc 07 0000106f 000013b1 000008eb 00000000 42db 26 00198333 t0:0
mr 07 0000101f 00001375 0000085f 00000000 42db 26 404e404e t0:0
mc 07 0000106a 000013ba 000008f0 00000000 42de 27 0019844b t0:0
mr 07 0000101a 0000137e 00000864 00000000 42de 27 404e404e t0:0
mc 07 00001090 000013ba 000008e2 00000000 42e1 28 00198563 t0:0
mr 07 00001040 0000137e 00000856 00000000 42e1 28 404e404e t0:0
mc 07 0000108b 000013c8 000008d4 00000000 42e4 29 0019867b t0:0
mr 07 0000103b 0000138c 00000848 00000000 42e4 29 404e404e t0:0
mc 07 00001074 000013c8 000008e6 00000000 42e7 2a 00198793 t0:0
mr 07 00001024 0000138c 0000085a 00000000 42e7 2a 404e404e t0:0
mc 07 00001066 000013bf 000008e2 00000000 42ea 2b 001988ab t0:0
mr 07 00001016 00001383 00000856 00000000 42ea 2b 404e404e t0:0
mc 07 0000106f 000013b5 000008f0 00000000 42ed 2c 001989c3 t0:0
mr 07 0000101f 00001379 00000864 00000000 42ed 2c 404e404e t0:0
mc 07 0000106f 000013c3 000008e2 00000000 42f0 2d 00198adb t0:0
mr 07 0000101f 00001387 00000856 00000000 42f0 2d 404e404e t0:0
mc 07 00001061 000013b5 000008d8 00000000 42f3 2e 00198bf3 t0:0
mr 07 00001011 00001379 0000084c 00000000 42f3 2e 404e404e t0:0
mc 07 00001086 000013a3 000008e2 00000000 42f6 2f 00198d0b t0:0
mr 07 00001036 00001367 00000856 00000000 42f6 2f 404e404e t0:0
mc 07 0000106a 000013bf 000008ca 00000000 42f9 30 00198e23 t0:0
mr 07 0000101a 00001383 0000083e 00000000 42f9 30 404e404e t0:0
mc 07 0000106f 000013ac 000008eb 00000000 42fc 31 00198f3b t0:0
mr 07 0000101f 00001370 0000085f 00000000 42fc 31 404e404e t0:0
mc 07 00001066 000013b1 000008e2 00000000 42ff 32 00199053 t0:0
mr 07 00001016 00001375 00000856 00000000 42ff 32 404e404e t0:0
mc 07 00001058 000013c3 000008f9 00000000 4302 33 0019916b t0:0
mr 07 00001008 00001387 0000086d 00000000 4302 33 404e404e t0:0
mc 07 00001078 000013a7 000008e2 00000000 4305 34 00199283 t0:0
mr 07 00001028 0000136b 00000856 00000000 4305 34 404e404e t0:0
mc 07 00001078 000013c8 000008eb 00000000 4308 35 0019939b t0:0
mr 07 00001028 0000138c 0000085f 00000000 4308 35 404e404e t0:0
mc 07 00001053 000013ba 000008d8 00000000 430b 36 001994b3 t0:0
mr 07 00001003 0000137e 0000084c 00000000 430b 36 404e404e t0:0
mc 07 0000107d 000013b1 000008f4 00000000 430e 37 001995cb t0:0
mr 07 0000102d 00001375 00000868 00000000 430e 37 404e404e t0:0
mc 07 00001066 000013b5 000008cf 00000000 4311 38 001996e3 t0:0
mr 07 00001016 00001379 00000843 00000000 4311 38 404e404e t0:0
mc 07 0000106a 000013bf 000008dd 00000000 4314 39 001997fb t0:0
mr 07 0000101a 00001383 00000851 00000000 4314 39 404e404e t0:0
mc 07 0000105c 000013bf 000008eb 00000000 4317 3a 00199913 t0:0
mr 07 0000100c 00001383 0000085f 00000000 4317 3a 404e404e t0:0
mc 07 0000108b 000013c3 000008e6 00000000 431a 3b 00199a2b t0:0
mr 07 0000103b 00001387 0000085a 00000000 431a 3b 404e404e t0:0
mc 07 00001058 000013b1 000008d8 00000000 431d 3c 00199b43 t0:0
mr 07 00001008 00001375 0000084c 00000000 431d 3c 404e404e t0:0
mc 07 0000106f 000013c3 000008e2 00000000 4320 3d 00199c5b t0:0
mr 07 0000101f 00001387 00000856 00000000 4320 3d 404e404e t0:0
mc 07 00001082 000013cd 000008e6 00000000 4323 3e 00199d73 t0:0
mr 07 00001032 00001391 0000085a 00000000 4323 3e 404e404e t0:0
mc 07 0000107d 000013ba 000008eb 00000000 4326 3f 00199e8b t0:0
mr 07 0000102d 0000137e 0000085f 00000000 4326 3f 404e404e t0:0
mc 07 0000107d 000013bf 000008ca 00000000 4329 40 00199fa3 t0:0
mr 07 0000102d 00001383 0000083e 00000000 4329 40 404e404e t0:0
mc 07 00001078 000013cd 000008e6 00000000 432c 41 0019a0bb t0:0
mr 07 00001028 00001391 0000085a 00000000 432c 41 404e404e t0:0
mc 07 0000106f 000013bf 000008eb 00000000 432f 42 0019a1d3 t0:0
mr 07 0000101f 00001383 0000085f 00000000 432f 42 404e404e t0:0
mc 07 00001053 000013c8 000008f4 00000000 4332 43 0019a2eb t0:0
mr 07 00001003 0000138c 00000868 00000000 4332 43 404e404e t0:0
mc 07 00001074 000013c3 000008cf 00000000 4335 44 0019a403 t0:0
mr 07 00001024 00001387 00000843 00000000 4335 44 404e404e t0:0
mc 07 0000104e 000013b1 000008d4 00000000 4338 45 0019a51b t0:0
mr 07 00000ffe 00001375 00000848 00000000 4338 45 404e404e t0:0
mc 07 0000107d 000013b5 000008cf 00000000 433b 46 0019a633 t0:0
mr 07 0000102d 00001379 00000843 00000000 433b 46 404e404e t0:0
mc 07 0000107d 000013a7 000008ca 00000000 433e 47 0019a74b t0:0
mr 07 0000102d 0000136b 0000083e 00000000 433e 47 404e404e t0:0
mc 07 0000106a 000013bf 000008e2 00000000 4341 48 0019a863 t0:0
mr 07 0000101a 00001383 00000856 00000000 4341 48 404e404e t0:0
mc 07 00001058 000013ba 000008d4 00000000 4344 49 0019a97b t0:0
mr 07 00001008 0000137e 00000848 00000000 4344 49 404e404e t0:0
mc 07 00001074 000013c3 000008e2 00000000 4347 4a 0019aa93 t0:0
mr 07 00001024 00001387 00000856 00000000 4347 4a 404e404e t0:0
mc 07 00001053 000013b5 000008f0 00000000 434a 4b 0019abab t0:0
mr 07 00001003 00001379 00000864 00000000 434a 4b 404e404e t0:0
mc 07 00001061 000013c8 000008f0 00000000 434d 4c 0019acc3 t0:0
mr 07 00001011 0000138c 00000864 00000000 434d 4c 404e404e t0:0
mc 07 0000108b 000013a7 000008dd 00000000 4350 4d 0019addb t0:0
mr 07 0000103b 0000136b 00000851 00000000 4350 4d 404e404e t0:0
mc 07 0000107d 000013bf 000008f0 00000000 4353 4e 0019aef3 t0:0
mr 07 0000102d 00001383 00000864 00000000 4353 4e 404e404e t0:0
mc 07 00001086 000013c8 000008dd 00000000 4356 4f 0019b00b t0:0
mr 07 00001036 0000138c 00000851 00000000 4356 4f 404e404e t0:0
mc 07 00001058 000013bf 000008d4 00000000 4359 50 0019b123 t0:0
mr 07 00001008 00001383 00000848 00000000 4359 50 404e404e t0:0
mc 07 0000106a 000013c8 000008e2 00000000 435c 51 0019b23b t0:0
mr 07 0000101a 0000138c 00000856 00000000 435c 51 404e404e t0:0
mc 07 00001061 000013c8 000008dd 00000000 435f 52 0019b353 t0:0
mr 07 00001011 0000138c 00000851 00000000 435f 52 404e404e t0:0
mc 07 0000106f 000013b1 000008d8 00000000 4362 53 0019b46b t0:0
mr 07 0000101f 00001375 0000084c 00000000 4362 53 404e404e t0:0
mc 07 00001082 000013bf 000008dd 00000000 4365 54 0019b583 t0:0
mr 07 00001032 00001383 00000851 00000000 4365 54 404e404e t0:0
mc 07 00001049 000013cd 000008f0 00000000 4368 55 0019b69b t0:0
mr 07 00000ff9 00001391 00000864 00000000 4368 55 404e404e t0:0
mc 07 0000107d 000013cd 000008dd 00000000 436b 56 0019b7b3 t0:0
mr 07 0000102d 00001391 00000851 00000000 436b 56 404e404e t0:0
mc 07 0000108b 000013cd 000008eb 00000000 436e 57 0019b8cb t0:0
mr 07 0000103b 00001391 0000085f 00000000 436e 57 404e404e t0:0
mc 07 0000106f 000013cd 000008eb 00000000 4371 58 0019b9e3 t0:0
mr 07 0000101f 00001391 0000085f 00000000 4371 58 404e404e t0:0
mc 07 0000107d 000013ba 000008c5 00000000 4374 59 0019bafb t0:0
mr 07 0000102d 0000137e 00000839 00000000 4374 59 404e404e t0:0
mc 07 00001074 000013ba 000008f0 00000000 4377 5a 0019bc13 t0:0
mr 07 00001024 0000137e 00000864 00000000 4377 5a 404e404e t0:0
mc 07 00001066 000013cd 000008f9 00000000 437a 5b 0019bd2b t0:0
mr 07 00001016 00001391 0000086d 00000000 437a 5b 404e404e t0:0
mc 07 00001086 000013ba 000008e6 00000000 437d 5c 0019be43 t0:0
mr 07 00001036 0000137e 0000085a 00000000 437d 5c 404e404e t0:0
mc 07 00001058 000013a3 000008eb 00000000 4380 5d 0019bf5b t0:0
mr 07 00001008 00001367 0000085f 00000000 4380 5d 404e404e t0:0
mc 07 0000107d 000013d1 000008d8 00000000 4383 5e 0019c073 t0:0
mr 07 0000102d 00001395 0000084c 00000000 4383 5e 404e404e t0:0
mc 07 0000107d 000013ba 000008e2 00000000 4386 5f 0019c18b t0:0
mr 07 0000102d 0000137e 00000856 00000000 4386 5f 404e404e t0:0
mc 07 0000108b 000013ac 000008eb 00000000 4389 60 0019c2a3 t0:0
mr 07 0000103b 00001370 0000085f 00000000 4389 60 404e404e t0:0
mc 07 00001061 000013ac 000008dd 00000000 438c 61 0019c3bb t0:0
mr 07 00001011 00001370 00000851 00000000 438c 61 404e404e t0:0
mc 07 00001086 0000139e 000008e2 00000000 438f 62 0019c4d3 t0:0
mr 07 00001036 00001362 00000856 00000000 438f 62 404e404e t0:0
mc 07 0000106a 000013ba 000008dd 00000000 4392 63 0019c5eb t0:0
mr 07 0000101a 0000137e 00000851 00000000 4392 63 404e404e t0:0
mc 07 00001053 000013c8 000008d8 00000000 4395 64 0019c703 t0:0
mr 07 00001003 0000138c 0000084c 00000000 4395 64 404e404e t0:0
mc 07 0000108b 000013c8 000008d4 00000000 4398 65 0019c81b t0:0
mr 07 0000103b 0000138c 00000848 00000000 4398 65 404e404e t0:0
mc 07 00001086 000013b5 000008d8 00000000 439b 66 0019c933 t0:0
mr 07 00001036 00001379 0000084c 00000000 439b 66 404e404e t0:0
mc 07 0000108b 000013b1 000008d4 00000000 439e 67 0019ca4b t0:0
mr 07 0000103b 00001375 00000848 00000000 439e 67 404e404e t0:0
mc 07 00001061 000013c3 000008e2 00000000 43a1 68 0019cb63 t0:0
mr 07 00001011 00001387 00000856 00000000 43a1 68 404e404e t0:0
mc 07 0000108b 000013cd 000008e2 00000000 43a4 69 0019cc7b t0:0
mr 07 0000103b 00001391 00000856 00000000 43a4 69 404e404e t0:0
mc 07 0000108b 000013cd 000008dd 00000000 43a7 6a 0019cd93 t0:0
mr 07 0000103b 00001391 00000851 00000000 43a7 6a 404e404e t0:0
mc 07 00001058 000013ba 000008dd 00000000 43aa 6b 0019ceab t0:0
mr 07 00001008 0000137e 00000851 00000000 43aa 6b 404e404e t0:0
mc 07 0000107d 000013c8 000008e6 00000000 43ad 6c 0019cfc3 t0:0
mr 07 0000102d 0000138c 0000085a 00000000 43ad 6c 404e404e t0:0
mc 07 00001086 000013c3 000008e6 00000000 43b0 6d 0019d0db t0:0
mr 07 00001036 00001387 0000085a 00000000 43b0 6d 404e404e t0:0
mc 07 00001082 0000139e 000008f0 00000000 43b3 6e 0019d1f3 t0:0
mr 07 00001032 00001362 00000864 00000000 43b3 6e 404e404e t0:0
mc 07 00001066 000013c3 000008d4 00000000 43b6 6f 0019d30b t0:0
mr 07 00001016 00001387 00000848 00000000 43b6 6f 404e404e t0:0
mc 07 00001099 000013c3 000008d8 00000000 43b9 70 0019d423 t0:0
mr 07 00001049 00001387 0000084c 00000000 43b9 70 404e404e t0:0
mc 07 00001082 000013b5 000008dd 00000000 43bc 71 0019d53b t0:0
mr 07 00001032 00001379 00000851 00000000 43bc 71 404e404e t0:0
mc 07 00001053 000013ba 000008e2 00000000 43bf 72 0019d653 t0:0
mr 07 00001003 0000137e 00000856 00000000 43bf 72 404e404e t0:0
mc 07 00001090 000013cd 000008d4 00000000 43c2 73 0019d76b t0:0
mr 07 00001040 00001391 00000848 00000000 43c2 73 404e404e t0:0
mc 07 0000106f 000013ba 000008eb 00000000 43c5 74 0019d883 t0:0
mr 07 0000101f 0000137e 0000085f 00000000 43c5 74 404e404e t0:0
mc 07 0000106f 000013c3 000008e6 00000000 43c8 75 0019d99b t0:0
mr 07 0000101f 00001387 0000085a 00000000 43c8 75 404e404e t0:0
mc 07 0000106a 000013b1 000008cf 00000000 43cb 76 0019dab3 t0:0
mr 07 0000101a 00001375 00000843 00000000 43cb 76 404e404e t0:0
mc 07 0000107d 000013b5 000008e2 00000000 43ce 77 0019dbcb t0:0
mr 07 0000102d 00001379 00000856 00000000 43ce 77 404e404e t0:0
mc 07 00001090 000013bf 000008e6 00000000 43d1 78 0019dce3 t0:0
mr 07 00001040 00001383 0000085a 00000000 43d1 78 404e404e t0:0
mc 07 0000106f 000013c3 000008e6 00000000 43d4 79 0019ddfb t0:0
mr 07 0000101f 00001387 0000085a 00000000 43d4 79 404e404e t0:0
mc 07 00001058 000013ba 000008dd 00000000 43d7 7a 0019df13 t0:0
mr 07 00001008 0000137e 00000851 00000000 43d7 7a 404e404e t0:0
mc 07 00001086 000013b1 000008e6 00000000 43da 7b 0019e02b t0:0
mr 07 00001036 00001375 0000085a 00000000 43da 7b 404e404e t0:0
mc 07 0000107d 000013a7 000008e2 00000000 43dd 7c 0019e143 t0:0
mr 07 0000102d 0000136b 00000856 00000000 43dd 7c 404e404e t0:0
mc 07 0000107d 000013ac 000008e6 00000000 43e0 7d 0019e25b t0:0
mr 07 0000102d 00001370 0000085a 00000000 43e0 7d 404e404e t0:0
mc 07 00001086 000013c8 000008d8 00000000 43e3 7e 0019e373 t0:0
mr 07 00001036 0000138c 0000084c 00000000 43e3 7e 404e404e t0:0
mc 07 00001078 000013b5 000008eb 00000000 43e6 7f 0019e48b t0:0
mr 07 00001028 00001379 0000085f 00000000 43e6 7f 404e404e t0:0
mc 07 0000105c 000013cd 000008e6 00000000 43e9 80 0019e5a3 t0:0
mr 07 0000100c 00001391 0000085a 00000000 43e9 80 404e404e t0:0
mc 07 00001099 000013c8 000008eb 00000000 43ec 81 0019e6bb t0:0
mr 07 00001049 0000138c 0000085f 00000000 43ec 81 404e404e t0:0
mc 07 00001061 000013ac 000008f0 00000000 43ef 82 0019e7d3 t0:0
mr 07 00001011 00001370 00000864 00000000 43ef 82 404e404e t0:0
mc 06 00000000 0000139e 000008ca 00000000 43f1 83 0019e8eb t0:0
mr 06 00000000 00001362 0000083e 00000000 43f1 83 404e404e t0:0
mc 07 0000106f 000013ac 000008f0 00000000 43f4 84 0019ea03 t0:0
mr 07 0000101f 00001370 00000864 00000000 43f4 84 404e404e t0:0
mc 07 00001095 000013c8 000008c5 00000000 43f7 85 0019eb1b t0:0
mr 07 00001045 0000138c 00000839 00000000 43f7 85 404e404e t0:0
mc 07 0000106f 000013d6 000008eb 00000000 43fa 86 0019ec33 t0:0
mr 07 0000101f 0000139a 0000085f 00000000 43fa 86 404e404e t0:0
mc 07 00001090 000013bf 000008c5 00000000 43fd 87 0019ed4b t0:0
mr 07 00001040 00001383 00000839 00000000 43fd 87 404e404e t0:0
mc 07 0000107d 000013c8 000008d8 00000000 4400 88 0019ee63 t0:0
mr 07 0000102d 0000138c 0000084c 00000000 4400 88 404e404e t0:0
mc 07 00001049 000013c3 000008e6 00000000 4403 89 0019ef7b t0:0
mr 07 00000ff9 00001387 0000085a 00000000 4403 89 404e404e t0:0
mc 07 0000106f 000013bf 000008dd 00000000 4406 8a 0019f093 t0:0
mr 07 0000101f 00001383 00000851 00000000 4406 8a 404e404e t0:0
mc 07 0000107d 000013ba 000008f0 00000000 4409 8b 0019f1ab t0:0
mr 07 0000102d 0000137e 00000864 00000000 4409 8b 404e404e t0:0
mc 07 00001078 000013d1 000008dd 00000000 440c 8c 0019f2c3 t0:0
mr 07 00001028 00001395 00000851 00000000 440c 8c 404e404e t0:0
mc 07 00001061 000013a7 000008f0 00000000 440f 8d 0019f3db t0:0
mr 07 00001011 0000136b 00000864 00000000 440f 8d 404e404e t0:0
mc 07 0000104e 000013b1 000008ca 00000000 4412 8e 0019f4f3 t0:0
mr 07 00000ffe 00001375 0000083e 00000000 4412 8e 404e404e t0:0
mc 07 0000108b 000013c3 000008dd 00000000 4415 8f 0019f60b t0:0
mr 07 0000103b 00001387 00000851 00000000 4415 8f 404e404e t0:0
mc 07 0000106a 000013ac 000008d4 00000000 4418 90 0019f723 t0:0
mr 07 0000101a 00001370 00000848 00000000 4418 90 404e404e t0:0
mc 07 00001058 000013b5 000008d8 00000000 441b 91 0019f83b t0:0
mr 07 00001008 00001379 0000084c 00000000 441b 91 404e404e t0:0
mc 07 00001061 000013ac 000008e6 00000000 441e 92 0019f953 t0:0
mr 07 00001011 00001370 0000085a 00000000 441e 92 404e404e t0:0
mc 07 0000106f 000013ac 000008eb 00000000 4421 93 0019fa6b t0:0
mr 07 0000101f 00001370 0000085f 00000000 4421 93 404e404e t0:0
