mr 07 00000b6a 00001367 00000de3 00000000 e566 ea 40524052 t0:0
mc 07 00000c1c 000013e7 00000e65 00000000 e569 eb 001f1aff t0:0
mr 07 00000b86 00001383 00000de3 00000000 e569 eb 40524052 t0:0
mc 07 00000c20 000013e2 00000e60 00000000 e56c ec 001f1b63 t0:0
mr 07 00000b8a 0000137e 00000dde 00000000 e56c ec 40524052 t0:0
mc 07 00000c17 000013dd 00000e5b 00000000 e56f ed 001f1bc7 t0:0
mr 07 00000b81 00001379 00000dd9 00000000 e56f ed 40524052 t0:0
mc 07 00000c2a 000013cb 00000e60 00000000 e572 ee 001f1c2b t0:0
mr 07 00000b94 00001367 00000dde 00000000 e572 ee 40524052 t0:0
mc 07 00000c33 000013bd 00000e73 00000000 e575 ef 001f1c8f t0:0
mr 07 00000b9d 00001359 00000df1 00000000 e575 ef 40524052 t0:0
mc 07 00000c59 000013f0 00000e5b 00000000 e578 f0 001f1cf3 t0:0
mr 07 00000bc3 0000138c 00000dd9 00000000 e578 f0 40524052 t0:0
mc 07 00000c00 000013cb 00000e69 00000000 e57b f1 001f1d57 t0:0
mr 07 00000b6a 00001367 00000de7 00000000 e57b f1 40524052 t0:0
mc 07 00000c38 000013d9 00000e5b 00000000 e57e f2 001f1dbb t0:0
mr 07 00000ba2 00001375 00000dd9 00000000 e57e f2 40524052 t0:0
mc 07 00000c1c 000013dd 00000e69 00000000 e581 f3 001f1e1f t0:0
mr 07 00000b86 00001379 00000de7 00000000 e581 f3 40524052 t0:0
mc 07 00000c09 000013c1 00000e5b 00000000 e584 f4 001f1e83 t0:0
mr 07 00000b73 0000135d 00000dd9 00000000 e584 f4 40524052 t0:0
mc 07 00000c17 000013bd 00000e5b 00000000 e587 f5 001f1ee7 t0:0
mr 07 00000b81 00001359 00000dd9 00000000 e587 f5 40524052 t0:0
mc 07 00000c38 000013b8 00000e60 00000000 e58a f6 001f1f4b t0:0
mr 07 00000ba2 00001354 00000dde 00000000 e58a f6 40524052 t0:0
mc 07 00000c2e 000013d4 00000e49 00000000 e58d f7 001f1faf t0:0
mr 07 00000b98 00001370 00000dc7 00000000 e58d f7 40524052 t0:0
mc 07 00000c17 000013cb 00000e28 00000000 e590 f8 001f2013 t0:0
mr 07 00000b81 00001367 00000da6 00000000 e590 f8 40524052 t0:0
mc 07 00000c1c 000013d4 00000e60 00000000 e593 f9 001f2077 t0:0
mr 07 00000b86 00001370 00000dde 00000000 e593 f9 40524052 t0:0
mc 07 00000c25 000013c6 00000e60 00000000 e596 fa 001f20db t0:0
mr 07 00000b8f 00001362 00000dde 00000000 e596 fa 40524052 t0:0
mc 07 00000c09 000013ae 00000e52 00000000 e599 fb 001f213f t0:0
mr 07 00000b73 0000134a 00000dd0 00000000 e599 fb 40524052 t0:0
mc 07 00000c2a 000013d9 00000e5b 00000000 e59c fc 001f21a3 t0:0
mr 07 00000b94 00001375 00000dd9 00000000 e59c fc 40524052 t0:0
mc 07 00000c59 000013d4 00000e65 00000000 e59f fd 001f2207 t0:0
mr 07 00000bc3 00001370 00000de3 00000000 e59f fd 40524052 t0:0
mc 07 00000c17 000013d9 00000e4d 00000000 e5a2 fe 001f226b t0:0
mr 07 00000b81 00001375 00000dcb 00000000 e5a2 fe 40524052 t0:0
mc 07 00000c41 000013eb 00000e57 00000000 e5a5 ff 001f22cf t0:0
mr 07 00000bab 00001387 00000dd5 00000000 e5a5 ff 40524052 t0:0
mc 07 00000c04 000013e7 00000e4d 00000000 e5a8 00 001f2333 t0:0
mr 07 00000b6e 00001383 00000dcb 00000000 e5a8 00 40524052 t0:0
mc 07 00000c1c 000013e2 00000e57 00000000 e5ab 01 001f2397 t0:0
mr 07 00000b86 0000137e 00000dd5 00000000 e5ab 01 40524052 t0:0
mc 07 00000c09 000013cf 00000e60 00000000 e5ae 02 001f23fb t0:0
mr 07 00000b73 0000136b 00000dde 00000000 e5ae 02 40524052 t0:0
mc 07 00000c1c 000013c1 00000e60 00000000 e5b1 03 001f245f t0:0
mr 07 00000b86 0000135d 00000dde 00000000 e5b1 03 40524052 t0:0
mc 07 00000c2e 000013b3 00000e7c 00000000 e5b4 04 001f24c3 t0:0
mr 07 00000b98 0000134f 00000dfa 00000000 e5b4 04 40524052 t0:0
mc 07 00000c17 000013d4 00000e6e 00000000 e5b7 05 001f2527 t0:0
mr 07 00000b81 00001370 00000dec 00000000 e5b7 05 40524052 t0:0
mc 07 00000c3d 000013f5 00000e5b 00000000 e5ba 06 001f258b t0:0
mr 07 00000ba7 00001391 00000dd9 00000000 e5ba 06 40524052 t0:0
mc 07 00000c04 000013aa 00000e65 00000000 e5bd 07 001f25ef t0:0
mr 07 00000b6e 00001346 00000de3 00000000 e5bd 07 40524052 t0:0
mc 07 00000c17 000013d9 00000e4d 00000000 e5c0 08 001f2653 t0:0
mr 07 00000b81 00001375 00000dcb 00000000 e5c0 08 40524052 t0:0
mc 07 00000c2e 000013ae 00000e1e 00000000 e5c3 09 001f26b7 t0:0
mr 07 00000b98 0000134a 00000d9c 00000000 e5c3 09 40524052 t0:0
mc 07 00000c12 000013dd 00000e57 00000000 e5c6 0a 001f271b t0:0
mr 07 00000b7c 00001379 00000dd5 00000000 e5c6 0a 40524052 t0:0
mc 07 00000c17 000013bd 00000e73 00000000 e5c9 0b 001f277f t0:0
mr 07 00000b81 00001359 00000df1 00000000 e5c9 0b 40524052 t0:0
mc 07 00000c25 000013d4 00000e69 00000000 e5cc 0c 001f27e3 t0:0
mr 07 00000b8f 00001370 00000de7 00000000 e5cc 0c 40524052 t0:0
mc 07 00000c00 000013cb 00000e23 00000000 e5cf 0d 001f2847 t0:0
mr 07 00000b6a 00001367 00000da1 00000000 e5cf 0d 40524052 t0:0
mc 07 00000c2a 000013cb 00000e52 00000000 e5d2 0e 001f28ab t0:0
mr 07 00000b94 00001367 00000dd0 00000000 e5d2 0e 40524052 t0:0
mc 07 00000c00 000013cb 00000e69 00000000 e5d5 0f 001f290f t0:0
mr 07 00000b6a 00001367 00000de7 00000000 e5d5 0f 40524052 t0:0
mc 07 00000c41 000013eb 00000e4d 00000000 e5d8 10 001f2973 t0:0
mr 07 00000bab 00001387 00000dcb 00000000 e5d8 10 40524052 t0:0
mc 07 00000c12 000013d9 00000e6e 00000000 e5db 11 001f29d7 t0:0
mr 07 00000b7c 00001375 00000dec 00000000 e5db 11 40524052 t0:0
mc 07 00000c0e 000013cb 00000e6e 00000000 e5de 12 001f2a3b t0:0
mr 07 00000b78 00001367 00000dec 00000000 e5de 12 40524052 t0:0
mc 07 00000c25 000013cf 00000e60 00000000 e5e1 13 001f2a9f t0:0
mr 07 00000b8f 0000136b 00000dde 00000000 e5e1 13 40524052 t0:0
mc 07 00000c1c 000013bd 00000e57 00000000 e5e4 14 001f2b03 t0:0
mr 07 00000b86 00001359 00000dd5 00000000 e5e4 14 40524052 t0:0
mc 07 00000c09 000013d4 00000e7c 00000000 e5e7 15 001f2b67 t0:0
mr 07 00000b73 00001370 00000dfa 00000000 e5e7 15 40524052 t0:0
mc 07 00000c20 000013cf 00000e5b 00000000 e5ea 16 001f2bcb t0:0
mr 07 00000b8a 0000136b 00000dd9 00000000 e5ea 16 40524052 t0:0
mc 07 00000c33 000013bd 00000e6e 00000000 e5ed 17 001f2c2f t0:0
mr 07 00000b9d 00001359 00000dec 00000000 e5ed 17 40524052 t0:0
mc 07 00000c12 000013b8 00000e5b 00000000 e5f0 18 001f2c93 t0:0
mr 07 00000b7c 00001354 00000dd9 00000000 e5f0 18 40524052 t0:0
mc 07 00000c3d 000013d4 00000e44 00000000 e5f3 19 001f2cf7 t0:0
mr 07 00000ba7 00001370 00000dc2 00000000 e5f3 19 40524052 t0:0
mc 07 00000bfb 000013c1 00000e4d 00000000 e5f6 1a 001f2d5b t0:0
mr 07 00000b65 0000135d 00000dcb 00000000 e5f6 1a 40524052 t0:0
mc 07 00000c25 000013b3 00000e65 00000000 e5f9 1b 001f2dbf t0:0
mr 07 00000b8f 0000134f 00000de3 00000000 e5f9 1b 40524052 t0:0
mc 07 00000c0e 000013e2 00000e2d 00000000 e5fc 1c 001f2e23 t0:0
mr 07 00000b78 0000137e 00000dab 00000000 e5fc 1c 40524052 t0:0
mc 07 00000c1c 000013c6 00000e57 00000000 e5ff 1d 001f2e87 t0:0
mr 07 00000b86 00001362 00000dd5 00000000 e5ff 1d 40524052 t0:0
mc 07 00000c17 000013d9 00000e4d 00000000 e602 1e 001f2eeb t0:0
mr 07 00000b81 00001375 00000dcb 00000000 e602 1e 40524052 t0:0
mc 07 00000c12 000013d9 00000e5b 00000000 e605 1f 001f2f4f t0:0
mr 07 00000b7c 00001375 00000dd9 00000000 e605 1f 40524052 t0:0
mc 07 00000c41 000013dd 00000e52 00000000 e608 20 001f2fb3 t0:0
mr 07 00000bab 00001379 00000dd0 00000000 e608 20 40524052 t0:0
mc 07 00000c04 000013cb 00000e65 00000000 e60b 21 001f3017 t0:0
mr 07 00000b6e 00001367 00000de3 00000000 e60b 21 40524052 t0:0
mc 07 00000c04 000013c6 00000e65 00000000 e60e 22 001f307b t0:0
mr 07 00000b6e 00001362 00000de3 00000000 e60e 22 40524052 t0:0
mc 07 00000c17 000013e7 00000e5b 00000000 e611 23 001f30df t0:0
mr 07 00000b81 00001383 00000dd9 00000000 e611 23 40524052 t0:0
mc 07 00000c33 000013c1 00000e69 00000000 e614 24 001f3143 t0:0
mr 07 00000b9d 0000135d 00000de7 00000000 e614 24 40524052 t0:0
mc 07 00000c25 000013c1 00000e5b 00000000 e617 25 001f31a7 t0:0
mr 07 00000b8f 0000135d 00000dd9 00000000 e617 25 40524052 t0:0
mc 07 00000bfb 0000139c 00000e28 00000000 e61a 26 001f320b t0:0
mr 07 00000b65 00001338 00000da6 00000000 e61a 26 40524052 t0:0
mc 07 00000c38 000013b8 00000e60 00000000 e61d 27 001f326f t0:0
mr 07 00000ba2 00001354 00000dde 00000000 e61d 27 40524052 t0:0
mc 07 00000c5d 000013eb 00000e86 00000000 e620 28 001f32d3 t0:0
mr 07 00000bc7 00001387 00000e04 00000000 e620 28 40524052 t0:0
mc 07 00000c1c 000013cb 00000e6e 00000000 e623 29 001f3337 t0:0
mr 07 00000b86 00001367 00000dec 00000000 e623 29 40524052 t0:0
mc 07 00000c04 000013cb 00000e57 00000000 e626 2a 001f339b t0:0
mr 07 00000b6e 00001367 00000dd5 00000000 e626 2a 40524052 t0:0
mc 07 00000c25 000013cb 00000e49 00000000 e629 2b 001f33ff t0:0
mr 07 00000b8f 00001367 00000dc7 00000000 e629 2b 40524052 t0:0
mc 07 00000c1c 000013b3 00000e65 00000000 e62c 2c 001f3463 t0:0
mr 07 00000b86 0000134f 00000de3 00000000 e62c 2c 40524052 t0:0
mc 07 00000c12 000013bd 00000e69 00000000 e62f 2d 001f34c7 t0:0
mr 07 00000b7c 00001359 00000de7 00000000 e62f 2d 40524052 t0:0
mc 07 00000c17 000013aa 00000e52 00000000 e632 2e 001f352b t0:0
mr 07 00000b81 00001346 00000dd0 00000000 e632 2e 40524052 t0:0
mc 07 00000c3d 000013c1 00000e44 00000000 e635 2f 001f358f t0:0
mr 07 00000ba7 0000135d 00000dc2 00000000 e635 2f 40524052 t0:0
mc 07 00000c33 000013a5 00000e52 00000000 e638 30 001f35f3 t0:0
mr 07 00000b9d 00001341 00000dd0 00000000 e638 30 40524052 t0:0
mc 07 00000c17 000013bd 00000e60 00000000 e63b 31 001f3657 t0:0
mr 07 00000b81 00001359 00000dde 00000000 e63b 31 40524052 t0:0
mc 07 00000c25 000013e2 00000e36 00000000 e63e 32 001f36bb t0:0
mr 07 00000b8f 0000137e 00000db4 00000000 e63e 32 40524052 t0:0
mc 07 00000c17 000013bd 00000e65 00000000 e641 33 001f371f t0:0
mr 07 00000b81 00001359 00000de3 00000000 e641 33 40524052 t0:0
mc 07 00000c5d 000013f0 00000e52 00000000 e644 34 001f3783 t0:0
mr 07 00000bc7 0000138c 00000dd0 00000000 e644 34 40524052 t0:0
mc 07 00000c17 000013c1 00000e69 00000000 e647 35 001f37e7 t0:0
mr 07 00000b81 0000135d 00000de7 00000000 e647 35 40524052 t0:0
mc 07 00000c2e 000013e7 00000e44 00000000 e64a 36 001f384b t0:0
mr 07 00000b98 00001383 00000dc2 00000000 e64a 36 40524052 t0:0
mc 07 00000c09 000013c1 00000e60 00000000 e64d 37 001f38af t0:0
mr 07 00000b73 0000135d 00000dde 00000000 e64d 37 40524052 t0:0
mc 07 00000c2e 000013a5 00000e31 00000000 e650 38 001f3913 t0:0
mr 07 00000b98 00001341 00000daf 00000000 e650 38 40524052 t0:0
mc 07 00000c1c 000013ae 00000e65 00000000 e653 39 001f3977 t0:0
mr 07 00000b86 0000134a 00000de3 00000000 e653 39 40524052 t0:0
mc 07 00000c09 000013c1 00000e6e 00000000 e656 3a 001f39db t0:0
mr 07 00000b73 0000135d 00000dec 00000000 e656 3a 40524052 t0:0
mc 07 00000c2a 000013bd 00000e52 00000000 e659 3b 001f3a3f t0:0
mr 07 00000b94 00001359 00000dd0 00000000 e659 3b 40524052 t0:0
mc 07 00000c3d 000013e2 00000e7c 00000000 e65c 3c 001f3aa3 t0:0
mr 07 00000ba7 0000137e 00000dfa 00000000 e65c 3c 40524052 t0:0
mc 07 00000c17 000013c6 00000e69 00000000 e65f 3d 001f3b07 t0:0
mr 07 00000b81 00001362 00000de7 00000000 e65f 3d 40524052 t0:0
mc 07 00000c0e 000013cf 00000e57 00000000 e662 3e 001f3b6b t0:0
mr 07 00000b78 0000136b 00000dd5 00000000 e662 3e 40524052 t0:0
mc 07 00000c04 000013ae 00000e5b 00000000 e665 3f 001f3bcf t0:0
mr 07 00000b6e 0000134a 00000dd9 00000000 e665 3f 40524052 t0:0
mc 07 00000c17 000013c1 00000e6e 00000000 e668 40 001f3c33 t0:0
mr 07 00000b81 0000135d 00000dec 00000000 e668 40 40524052 t0:0
mc 07 00000c20 000013c1 00000e5b 00000000 e66b 41 001f3c97 t0:0
mr 07 00000b8a 0000135d 00000dd9 00000000 e66b 41 40524052 t0:0
mc 07 00000c38 000013aa 00000e65 00000000 e66e 42 001f3cfb t0:0
mr 07 00000ba2 00001346 00000de3 00000000 e66e 42 40524052 t0:0
mc 07 00000c2e 000013d9 00000e49 00000000 e671 43 001f3d5f t0:0
mr 07 00000b98 00001375 00000dc7 00000000 e671 43 40524052 t0:0
mc 07 00000c09 000013e2 00000e44 00000000 e674 44 001f3dc3 t0:0
mr 07 00000b73 0000137e 00000dc2 00000000 e674 44 40524052 t0:0
mc 07 00000c2a 000013e2 00000e57 00000000 e677 45 001f3e27 t0:0
mr 07 00000b94 0000137e 00000dd5 00000000 e677 45 40524052 t0:0
mc 07 00000c20 000013ae 00000e3b 00000000 e67a 46 001f3e8b t0:0
mr 07 00000b8a 0000134a 00000db9 00000000 e67a 46 40524052 t0:0
mc 07 00000c12 000013aa 00000e5b 00000000 e67d 47 001f3eef t0:0
mr 07 00000b7c 00001346 00000dd9 00000000 e67d 47 40524052 t0:0
mc 07 00000c17 0000139c 00000e3b 00000000 e680 48 001f3f53 t0:0
mr 07 00000b81 00001338 00000db9 00000000 e680 48 40524052 t0:0
mc 07 00000c2e 000013c1 00000e4d 00000000 e683 49 001f3fb7 t0:0
mr 07 00000b98 0000135d 00000dcb 00000000 e683 49 40524052 t0:0
mc 07 00000bed 000013c1 00000e44 00000000 e686 4a 001f401b t0:0
mr 07 00000b57 0000135d 00000dc2 00000000 e686 4a 40524052 t0:0
mc 07 00000c12 000013c1 00000e4d 00000000 e689 4b 001f407f t0:0
mr 07 00000b7c 0000135d 00000dcb 00000000 e689 4b 40524052 t0:0
mc 07 00000c0e 000013c6 00000e5b 00000000 e68c 4c 001f40e3 t0:0
mr 07 00000b78 00001362 00000dd9 00000000 e68c 4c 40524052 t0:0
mc 07 00000c2a 000013c6 00000e5b 00000000 e68f 4d 001f4147 t0:0
mr 07 00000b94 00001362 00000dd9 00000000 e68f 4d 40524052 t0:0
mc 07 00000c1c 000013cb 00000e73 00000000 e692 4e 001f41ab t0:0
mr 07 00000b86 00001367 00000df1 00000000 e692 4e 40524052 t0:0
mc 07 00000c09 000013ae 00000e49 00000000 e695 4f 001f420f t0:0
mr 07 00000b73 0000134a 00000dc7 00000000 e695 4f 40524052 t0:0
mc 07 00000c2a 000013aa 00000e73 00000000 e698 50 001f4273 t0:0
mr 07 00000b94 00001346 00000df1 00000000 e698 50 40524052 t0:0
mc 07 00000c2e 000013d9 00000e52 00000000 e69b 51 001f42d7 t0:0
mr 07 00000b98 00001375 00000dd0 00000000 e69b 51 40524052 t0:0
mc 07 00000c09 000013cb 00000e7c 00000000 e69e 52 001f433b t0:0
mr 07 00000b73 00001367 00000dfa 00000000 e69e 52 40524052 t0:0
mc 07 00000c2a 000013d9 00000e6e 00000000 e6a1 53 001f439f t0:0
mr 07 00000b94 00001375 00000dec 00000000 e6a1 53 40524052 t0:0
mc 07 00000c38 0000139c 00000e78 00000000 e6a4 54 001f4403 t0:0
mr 07 00000ba2 00001338 00000df6 00000000 e6a4 54 40524052 t0:0
mc 07 00000c5d 000013d4 00000e69 00000000 e6a7 55 001f4467 t0:0
mr 07 00000bd1 00001370 00000de7 00000000 e6a7 55 40524052 t0:0
mc 07 00000c25 000013dd 00000e86 00000000 e6aa 56 001f44cb t0:0
mr 07 00000b8f 00001379 00000e04 00000000 e6aa 56 40524052 t0:0
mc 07 00000c09 000013c1 00000e78 00000000 e6ad 57 001f452f t0:0
mr 07 00000b73 0000135d 00000df6 00000000 e6ad 57 40524052 t0:0
mc 07 00000c38 000013e7 00000e6e 00000000 e6b0 58 001f4593 t0:0
mr 07 00000ba2 00001383 00000dec 00000000 e6b0 58 40524052 t0:0
mc 07 00000c12 000013b8 00000e6e 00000000 e6b3 59 001f45f7 t0:0
mr 07 00000b7c 00001354 00000dec 00000000 e6b3 59 40524052 t0:0
mc 07 00000c12 000013b8 00000e7c 00000000 e6b6 5a 001f465b t0:0
mr 07 00000b7c 00001354 00000dfa 00000000 e6b6 5a 40524052 t0:0
mc 07 00000c1c 000013cb 00000e86 00000000 e6b9 5b 001f46bf t0:0
mr 07 00000b86 00001367 00000e04 00000000 e6b9 5b 40524052 t0:0
mc 07 00000c5d 000013cf 00000e78 00000000 e6bc 5c 001f4723 t0:0
mr 07 00000bc7 0000136b 00000df6 00000000 e6bc 5c 40524052 t0:0
mc 07 00000c20 000013bd 00000e73 00000000 e6bf 5d 001f4787 t0:0
mr 07 00000b8a 00001359 00000df1 00000000 e6bf 5d 40524052 t0:0
mc 07 00000c38 000013bd 00000e6e 00000000 e6c2 5e 001f47eb t0:0
mr 07 00000ba2 00001359 00000dec 00000000 e6c2 5e 40524052 t0:0
mc 07 00000c25 000013b3 00000e7c 00000000 e6c5 5f 001f484f t0:0
mr 07 00000b8f 0000134f 00000dfa 00000000 e6c5 5f 40524052 t0:0
mc 07 00000c4f 000013c1 00000e7c 00000000 e6c8 60 001f48b3 t0:0
mr 07 00000bb9 0000135d 00000dfa 00000000 e6c8 60 40524052 t0:0
mc 07 00000c46 000013d9 00000e69 00000000 e6cb 61 001f4917 t0:0
mr 07 00000bb0 00001375 00000de7 00000000 e6cb 61 40524052 t0:0
mc 07 00000c00 000013b8 00000e5b 00000000 e6ce 62 001f497b t0:0
mr 07 00000b6a 00001354 00000dd9 00000000 e6ce 62 40524052 t0:0
mc 07 00000c20 000013aa 00000e69 00000000 e6d1 63 001f49df t0:0
mr 07 00000b8a 00001346 00000de7 00000000 e6d1 63 40524052 t0:0
mc 07 00000c1c 000013c6 00000e86 00000000 e6d4 64 001f4a43 t0:0
mr 07 00000b86 00001362 00000e04 00000000 e6d4 64 40524052 t0:0
mc 07 00000c20 000013c6 00000e57 00000000 e6d7 65 001f4aa7 t0:0
mr 07 00000b8a 00001362 00000dd5 00000000 e6d7 65 40524052 t0:0
mc 07 00000c25 000013b8 00000e57 00000000 e6da 66 001f4b0b t0:0
mr 07 00000b8f 00001354 00000dd5 00000000 e6da 66 40524052 t0:0
mc 07 00000c17 000013ae 00000e78 00000000 e6dd 67 001f4b6f t0:0
mr 07 00000b81 0000134a 00000df6 00000000 e6dd 67 40524052 t0:0
mc 07 00000c09 000013d9 00000e3f 00000000 e6e0 68 001f4bd3 t0:0
mr 07 00000b73 00001375 00000dbd 00000000 e6e0 68 40524052 t0:0
mc 07 00000c1c 000013c6 00000e6e 00000000 e6e3 69 001f4c37 t0:0
mr 07 00000b86 00001362 00000dec 00000000 e6e3 69 40524052 t0:0
mc 07 00000c12 000013c1 00000e73 00000000 e6e6 6a 001f4c9b t0:0
mr 07 00000b7c 0000135d 00000df1 00000000 e6e6 6a 40524052 t0:0
mc 07 00000c1c 000013ae 00000e4d 00000000 e6e9 6b 001f4cff t0:0
mr 07 00000b86 0000134a 00000dcb 00000000 e6e9 6b 40524052 t0:0
mc 07 00000c2a 00001392 00000e60 00000000 e6ec 6c 001f4d63 t0:0
mr 07 00000b94 0000132e 00000dde 00000000 e6ec 6c 40524052 t0:0
mc 07 00000c20 000013b8 00000e6e 00000000 e6ef 6d 001f4dc7 t0:0
mr 07 00000b8a 00001354 00000dec 00000000 e6ef 6d 40524052 t0:0
mc 07 00000c3d 000013a0 00000e65 00000000 e6f2 6e 001f4e2b t0:0
mr 07 00000ba7 0000133c 00000de3 00000000 e6f2 6e 40524052 t0:0
mc 07 00000c12 000013c6 00000e6e 00000000 e6f5 6f 001f4e8f t0:0
mr 07 00000b7c 00001362 00000dec 00000000 e6f5 6f 40524052 t0:0
mc 07 00000c25 00001393 00000e8f 00000000 e6f8 70 001f4ef3 t0:0
mr 07 00000b8f 00001325 00000e0d 00000000 e6f8 70 40524052 t0:0
mc 07 00000c12 000013e2 00000e7c 00000000 e6fb 71 001f4f57 t0:0
mr 07 00000b7c 0000137e 00000dfa 00000000 e6fb 71 40524052 t0:0
mc 07 00000c25 000013cf 00000e78 00000000 e6fe 72 001f4fbb t0:0
mr 07 00000b8f 0000136b 00000df6 00000000 e6fe 72 40524052 t0:0
mc 07 00000c25 000013c6 00000e78 00000000 e701 73 001f501f t0:0
mr 07 00000b8f 00001362 00000df6 00000000 e701 73 40524052 t0:0
mc 05 00000c00 00000000 00000e6e 00000000 e703 74 001f5083 t0:0
mr 05 00000b6a 00000000 00000dec 00000000 e703 74 40524052 t0:0
mc 07 00000c25 000013e7 00000e49 00000000 e706 75 001f50e7 t0:0
mr 07 00000b8f 00001383 00000dc7 00000000 e706 75 40524052 t0:0
mc 07 00000c2e 000013f0 00000e78 00000000 e709 76 001f514b t0:0
mr 07 00000b98 0000138c 00000df6 00000000 e709 76 40524052 t0:0
mc 07 00000c09 000013dd 00000e81 00000000 e70c 77 001f51af t0:0
mr 07 00000b73 00001379 00000dff 00000000 e70c 77 40524052 t0:0
mc 07 00000c04 000013d4 00000e78 00000000 e70f 78 001f5213 t0:0
mr 07 00000b6e 00001370 00000df6 00000000 e70f 78 40524052 t0:0
mc 07 00000c12 000013cf 00000e8f 00000000 e712 79 001f5277 t0:0
mr 07 00000b7c 0000136b 00000e0d 00000000 e712 79 40524052 t0:0
mc 07 00000c25 000013bd 00000e73 00000000 e715 7a 001f52db t0:0
mr 07 00000b8f 00001359 00000df1 00000000 e715 7a 40524052 t0:0
mc 07 00000c12 000013cb 00000e6e 00000000 e718 7b 001f533f t0:0
mr 07 00000b7c 00001367 00000dec 00000000 e718 7b 40524052 t0:0
mc 07 00000c20 000013eb 00000e65 00000000 e71b 7c 001f53a3 t0:0
mr 07 00000b8a 00001387 00000de3 00000000 e71b 7c 40524052 t0:0
mc 07 00000c12 000013bd 00000e5b 00000000 e71e 7d 001f5407 t0:0
mr 07 00000b7c 00001359 00000dd9 00000000 e71e 7d 40524052 t0:0
mc 07 00000c20 000013bd 00000e7c 00000000 e721 7e 001f546b t0:0
mr 07 00000b8a 00001359 00000dfa 00000000 e721 7e 40524052 t0:0
mc 07 00000c1c 000013dd 00000e78 00000000 e724 7f 001f54cf t0:0
mr 07 00000b86 00001379 00000df6 00000000 e724 7f 40524052 t0:0
mc 07 00000c25 000013aa 00000e73 00000000 e727 80 001f5533 t0:0
mr 07 00000b8f 00001346 00000df1 00000000 e727 80 40524052 t0:0
mc 07 00000c04 000013c6 00000e6e 00000000 e72a 81 001f5597 t0:0
mr 07 00000b6e 00001362 00000dec 00000000 e72a 81 40524052 t0:0
mc 07 00000c04 000013aa 00000e78 00000000 e72d 82 001f55fb t0:0
mr 07 00000b6e 00001346 00000df6 00000000 e72d 82 40524052 t0:0
mc 07 00000c2e 000013c1 00000e81 00000000 e730 83 001f565f t0:0
mr 07 00000b98 0000135d 00000dff 00000000 e730 83 40524052 t0:0
mc 07 00000c25 000013bd 00000e86 00000000 e733 84 001f56c3 t0:0
mr 07 00000b8f 00001359 00000e04 00000000 e733 84 40524052 t0:0
mc 07 00000c09 000013a0 00000e69 00000000 e736 85 001f5727 t0:0
mr 07 00000b73 0000133c 00000de7 00000000 e736 85 40524052 t0:0
mc 07 00000c1c 000013b8 00000e69 00000000 e739 86 001f578b t0:0
mr 07 00000b86 00001354 00000de7 00000000 e739 86 40524052 t0:0
mc 07 00000c4b 000013c1 00000e8a 00000000 e73c 87 001f57ef t0:0
mr 07 00000bb5 0000135d 00000e08 00000000 e73c 87 40524052 t0:0
mc 07 00000c4f 000013d9 00000e7c 00000000 e73f 88 001f5853 t0:0
mr 07 00000bb9 00001375 00000dfa 00000000 e73f 88 40524052 t0:0
mc 07 00000c59 000013cb 00000e78 00000000 e742 89 001f58b7 t0:0
mr 07 00000bc3 00001367 00000df6 00000000 e742 89 40524052 t0:0
mc 07 00000c12 000013b3 00000e73 00000000 e745 8a 001f591b t0:0
mr 07 00000b7c 0000134f 00000df1 00000000 e745 8a 40524052 t0:0
mc 07 00000c46 000013c6 00000e60 00000000 e748 8b 001f597f t0:0
mr 07 00000bb0 00001362 00000dde 00000000 e748 8b 40524052 t0:0
mc 07 00000c3d 000013d4 00000e7c 00000000 e74b 8c 001f59e3 t0:0
mr 07 00000ba7 00001370 00000dfa 00000000 e74b 8c 40524052 t0:0
mc 07 00000bfb 000013eb 00000e7c 00000000 e74e 8d 001f5a47 t0:0
mr 07 00000b65 00001387 00000dfa 00000000 e74e 8d 40524052 t0:0
mc 07 00000c17 000013cf 00000e8f 00000000 e751 8e 001f5aab t0:0
mr 07 00000b81 0000136b 00000e0d 00000000 e751 8e 40524052 t0:0
mc 07 00000c2e 000013d4 00000e81 00000000 e754 8f 001f5b0f t0:0
mr 07 00000b98 00001370 00000dff 00000000 e754 8f 40524052 t0:0
mc 07 00000c4f 000013dd 00000e81 00000000 e757 90 001f5b73 t0:0
mr 07 00000bb9 00001379 00000dff 00000000 e757 90 40524052 t0:0
mc 05 00000c20 00000000 00000e81 00000000 e759 91 001f5bd7 t0:0
mr 05 00000b8a 00000000 00000dff 00000000 e759 91 40524052 t0:0
mc 07 00000c54 000013c1 00000e5b 00000000 e75c 92 001f5c3b t0:0
mr 07 00000bbe 0000135d 00000dd9 00000000 e75c 92 40524052 t0:0
mc 07 00000c20 000013e2 00000e8f 00000000 e75f 93 001f5c9f t0:0
mr 07 00000b8a 0000137e 00000e0d 00000000 e75f 93 40524052 t0:0
mc 07 00000c2e 000013bd 00000e65 00000000 e762 94 001f5d03 t0:0
mr 07 00000b98 00001359 00000de3 00000000 e762 94 40524052 t0:0
mc 07 00000c20 000013bd 00000e8f 00000000 e765 95 001f5d67 t0:0
mr 07 00000b8a 00001359 00000e0d 00000000 e765 95 40524052 t0:0
mc 07 00000c5d 000013c6 00000e81 00000000 e768 96 001f5dcb t0:0
mr 07 00000bc7 00001362 00000dff 00000000 e768 96 40524052 t0:0
mc 07 00000c09 000013cb 00000e5b 00000000 e76b 97 001f5e2f t0:0
mr 07 00000b73 00001367 00000dd9 00000000 e76b 97 40524052 t0:0
mc 07 00000c38 000013d4 00000e78 00000000 e76e 98 001f5e93 t0:0
mr 07 00000ba2 00001370 00000df6 00000000 e76e 98 40524052 t0:0
mc 07 00000c0e 000013d9 00000e3f 00000000 e771 99 001f5ef7 t0:0
mr 07 00000b78 00001375 00000dbd 00000000 e771 99 40524052 t0:0
mc 07 00000c2e 000013cb 00000e78 00000000 e774 9a 001f5f5b t0:0
mr 07 00000b98 00001367 00000df6 00000000 e774 9a 40524052 t0:0
mc 07 00000c2e 000013cb 00000e57 00000000 e777 9b 001f5fbf t0:0
mr 07 00000b98 00001367 00000dd5 00000000 e777 9b 40524052 t0:0
mc 07 00000c09 000013cf 00000e6e 00000000 e77a 9c 001f6023 t0:0
mr 07 00000b73 0000136b 00000dec 00000000 e77a 9c 40524052 t0:0
mc 07 00000c2a 000013e2 00000e5b 00000000 e77d 9d 001f6087 t0:0
mr 07 00000b94 0000137e 00000dd9 00000000 e77d 9d 40524052 t0:0
mc 07 00000c20 000013b8 00000e44 00000000 e780 9e 001f60eb t0:0
mr 07 00000b8a 00001354 00000dc2 00000000 e780 9e 40524052 t0:0
mc 07 00000c41 000013d4 00000e78 00000000 e783 9f 001f614f t0:0
mr 07 00000bab 00001370 00000df6 00000000 e783 9f 40524052 t0:0
mc 07 00000bfb 000013c6 00000e57 00000000 e786 a0 001f61b3 t0:0
mr 07 00000b65 00001362 00000dd5 00000000 e786 a0 40524052 t0:0
mc 07 00000bf6 000013e2 00000e81 00000000 e789 a1 001f6217 t0:0
mr 07 00000b60 0000137e 00000dff 00000000 e789 a1 40524052 t0:0
mc 07 00000c20 000013b8 00000e49 00000000 e78c a2 001f627b t0:0
mr 07 00000b8a 00001354 00000dc7 00000000 e78c a2 40524052 t0:0
mc 07 00000bf6 000013c6 00000e5b 00000000 e78f a3 001f62df t0:0
mr 07 00000b60 00001362 00000dd9 00000000 e78f a3 40524052 t0:0
mc 07 00000c1c 000013c6 00000e6e 00000000 e792 a4 001f6343 t0:0
mr 07 00000b86 00001362 00000dec 00000000 e792 a4 40524052 t0:0
mc 07 00000c00 000013e2 00000e73 00000000 e795 a5 001f63a7 t0:0
mr 07 00000b6a 0000137e 00000df1 00000000 e795 a5 40524052 t0:0
mc 07 00000c38 000013c6 00000e69 00000000 e798 a6 001f640b t0:0
mr 07 00000ba2 00001362 00000de7 00000000 e798 a6 40524052 t0:0
mc 07 00000c58 000013d4 00000e65 00000000 e79b a7 001f646f t0:0
mr 07 00000bcc 00001370 00000de3 00000000 e79b a7 40524052 t0:0
mc 07 00000c38 000013cf 00000e49 00000000 e79e a8 001f64d3 t0:0
mr 07 00000ba2 0000136b 00000dc7 00000000 e79e a8 40524052 t0:0
mc 07 00000c12 000013e7 00000e5b 00000000 e7a1 a9 001f6537 t0:0
mr 07 00000b7c 00001383 00000dd9 00000000 e7a1 a9 40524052 t0:0
mc 07 00000c25 000013eb 00000e52 00000000 e7a4 aa 001f659b t0:0
mr 07 00000b8f 00001387 00000dd0 00000000 e7a4 aa 40524052 t0:0
mc 07 00000c33 000013c1 00000e81 00000000 e7a7 ab 001f65ff t0:0
mr 07 00000b9d 0000135d 00000dff 00000000 e7a7 ab 40524052 t0:0
mc 07 00000c5d 000013c1 00000e52 00000000 e7aa ac 001f6663 t0:0
mr 07 00000bc7 0000135d 00000dd0 00000000 e7aa ac 40524052 t0:0
mc 07 00000c2a 000013f5 00000e60 00000000 e7ad ad 001f66c7 t0:0
mr 07 00000b94 00001391 00000dde 00000000 e7ad ad 40524052 t0:0
mc 07 00000c20 000013c1 00000e6e 00000000 e7b0 ae 001f672b t0:0
mr 07 00000b8a 0000135d 00000dec 00000000 e7b0 ae 40524052 t0:0
mc 07 00000bfb 000013aa 00000e6e 00000000 e7b3 af 001f678f t0:0
mr 07 00000b65 00001346 00000dec 00000000 e7b3 af 40524052 t0:0
mc 07 00000c09 000013cb 00000e73 00000000 e7b6 b0 001f67f3 t0:0
mr 07 00000b73 00001367 00000df1 00000000 e7b6 b0 40524052 t0:0
mc 07 00000c3d 000013dd 00000e81 00000000 e7b9 b1 001f6857 t0:0
mr 07 00000ba7 00001379 00000dff 00000000 e7b9 b1 40524052 t0:0
mc 07 00000c1c 000013d9 00000e65 00000000 e7bc b2 001f68bb t0:0
mr 07 00000b86 00001375 00000de3 00000000 e7bc b2 40524052 t0:0
mc 07 00000c12 000013b8 00000e52 00000000 e7bf b3 001f691f t0:0
mr 07 00000b7c 00001354 00000dd0 00000000 e7bf b3 40524052 t0:0
mc 07 00000c46 000013c1 00000e5b 00000000 e7c2 b4 001f6983 t0:0
mr 07 00000bb0 0000135d 00000dd9 00000000 e7c2 b4 40524052 t0:0
mc 07 00000c1c 000013cf 00000e5b 00000000 e7c5 b5 001f69e7 t0:0
mr 07 00000b86 0000136b 00000dd9 00000000 e7c5 b5 40524052 t0:0
mc 07 00000c20 000013d4 00000e7c 00000000 e7c8 b6 001f6a4b t0:0
mr 07 00000b8a 00001370 00000dfa 00000000 e7c8 b6 40524052 t0:0
mc 07 00000c33 000013b8 00000e65 00000000 e7cb b7 001f6aaf t0:0
mr 07 00000b9d 00001354 00000de3 00000000 e7cb b7 40524052 t0:0
mc 07 00000c33 000013e2 00000e65 00000000 e7ce b8 001f6b13 t0:0
mr 07 00000b9d 0000137e 00000de3 00000000 e7ce b8 40524052 t0:0
mc 07 00000c25 000013d9 00000e60 00000000 e7d1 b9 001f6b77 t0:0
mr 07 00000b8f 00001375 00000dde 00000000 e7d1 b9 40524052 t0:0
mc 07 00000c0e 000013cb 00000e81 00000000 e7d4 ba 001f6bdb t0:0
mr 07 00000b78 00001367 00000dff 00000000 e7d4 ba 40524052 t0:0
mc 07 00000be8 000013c6 00000e4d 00000000 e7d7 bb 001f6c3f t0:0
mr 07 00000b52 00001362 00000dcb 00000000 e7d7 bb 40524052 t0:0
mc 07 00000c04 000013c6 00000e78 00000000 e7da bc 001f6ca3 t0:0
mr 07 00000b6e 00001362 00000df6 00000000 e7da bc 40524052 t0:0
mc 07 00000c0e 000013dd 00000e4d 00000000 e7dd bd 001f6d07 t0:0
mr 07 00000b78 00001379 00000dcb 00000000 e7dd bd 40524052 t0:0
mc 07 00000c4b 000013cf 00000e6e 00000000 e7e0 be 001f6d6b t0:0
mr 07 00000bb5 0000136b 00000dec 00000000 e7e0 be 40524052 t0:0
mc 07 00000c41 000013cb 00000e65 00000000 e7e3 bf 001f6dcf t0:0
mr 07 00000bab 00001367 00000de3 00000000 e7e3 bf 40524052 t0:0
mc 07 00000c4f 000013b8 00000e31 00000000 e7e6 c0 001f6e33 t0:0
mr 07 00000bb9 00001354 00000daf 00000000 e7e6 c0 40524052 t0:0
mc 07 00000c20 000013c1 00000e6e 00000000 e7e9 c1 001f6e97 t0:0
mr 07 00000b8a 0000135d 00000dec 00000000 e7e9 c1 40524052 t0:0
mc 07 00000bf6 000013bd 00000e8a 00000000 e7ec c2 001f6efb t0:0
mr 07 00000b60 00001359 00000e08 00000000 e7ec c2 40524052 t0:0
mc 07 00000c2e 000013aa 00000e49 00000000 e7ef c3 001f6f5f t0:0
mr 07 00000b98 00001346 00000dc7 00000000 e7ef c3 40524052 t0:0
mc 07 00000c2a 000013dd 00000e81 00000000 e7f2 c4 001f6fc3 t0:0
mr 07 00000b94 00001379 00000dff 00000000 e7f2 c4 40524052 t0:0
mc 07 00000c25 000013c1 00000e69 00000000 e7f5 c5 001f7027 t0:0
mr 07 00000b8f 0000135d 00000de7 00000000 e7f5 c5 40524052 t0:0
mc 07 00000c20 000013c6 00000e4d 00000000 e7f8 c6 001f708b t0:0
mr 07 00000b8a 00001362 00000dcb 00000000 e7f8 c6 40524052 t0:0
mc 07 00000c17 000013c1 00000e60 00000000 e7fb c7 001f70ef t0:0
mr 07 00000b81 0000135d 00000dde 00000000 e7fb c7 40524052 t0:0
mc 07 00000c20 000013d9 00000e65 00000000 e7fe c8 001f7153 t0:0
mr 07 00000b8a 00001375 00000de3 00000000 e7fe c8 40524052 t0:0
mc 07 00000c20 000013fe 00000e60 00000000 e801 c9 001f71b7 t0:0
mr 07 00000b8a 0000139a 00000dde 00000000 e801 c9 40524052 t0:0
mc 07 00000c5d 000013b8 00000e6e 00000000 e804 ca 001f721b t0:0
mr 07 00000bc7 00001354 00000dec 00000000 e804 ca 40524052 t0:0
mc 07 00000c38 000013cf 00000e5b 00000000 e807 cb 001f727f t0:0
mr 07 00000ba2 0000136b 00000dd9 00000000 e807 cb 40524052 t0:0
mc 07 00000c5d 000013e2 00000e6e 00000000 e80a cc 001f72e3 t0:0
mr 07 00000bd1 0000137e 00000dec 00000000 e80a cc 40524052 t0:0
mc 07 00000c2e 000013d4 00000e52 00000000 e80d cd 001f7347 t0:0
mr 07 00000b98 00001370 00000dd0 00000000 e80d cd 40524052 t0:0
mc 07 00000c0e 000013bd 00000e6e 00000000 e810 ce 001f73ab t0:0
mr 07 00000b78 00001359 00000dec 00000000 e810 ce 40524052 t0:0
mc 07 00000bf6 000013d9 00000e5b 00000000 e813 cf 001f740f t0:0
mr 07 00000b60 00001375 00000dd9 00000000 e813 cf 40524052 t0:0
mc 07 00000c09 000013b3 00000e78 00000000 e816 d0 001f7473 t0:0
mr 07 00000b73 0000134f 00000df6 00000000 e816 d0 40524052 t0:0
mc 07 00000c33 000013b8 00000e65 00000000 e819 d1 001f74d7 t0:0
mr 07 00000b9d 00001354 00000de3 00000000 e819 d1 40524052 t0:0
mc 07 00000c20 000013c1 00000e73 00000000 e81c d2 001f753b t0:0
mr 07 00000b8a 0000135d 00000df1 00000000 e81c d2 40524052 t0:0
mc 07 00000c0e 000013cb 00000e73 00000000 e81f d3 001f759f t0:0
mr 07 00000b78 00001367 00000df1 00000000 e81f d3 40524052 t0:0
mc 07 00000c1c 000013ae 00000e7c 00000000 e822 d4 001f7603 t0:0
mr 07 00000b86 0000134a 00000dfa 00000000 e822 d4 40524052 t0:0
mc 07 00000c17 000013cb 00000e7c 00000000 e825 d5 001f7667 t0:0
mr 07 00000b81 00001367 00000dfa 00000000 e825 d5 40524052 t0:0
mc 07 00000c12 000013aa 00000e73 00000000 e828 d6 001f76cb t0:0
mr 07 00000b7c 00001346 00000df1 00000000 e828 d6 40524052 t0:0
mc 07 00000c20 000013e7 00000e7c 00000000 e82b d7 001f772f t0:0
mr 07 00000b8a 00001383 00000dfa 00000000 e82b d7 40524052 t0:0
mc 07 00000c4f 000013c1 00000e52 00000000 e82e d8 001f7793 t0:0
mr 07 00000bb9 0000135d 00000dd0 00000000 e82e d8 40524052 t0:0
mc 07 00000c38 000013f0 00000e1a 00000000 e831 d9 001f77f7 t0:0
mr 07 00000ba2 0000138c 00000d98 00000000 e831 d9 40524052 t0:0
mc 07 00000c12 000013b8 00000e57 00000000 e834 da 001f785b t0:0
mr 07 00000b7c 00001354 00000dd5 00000000 e834 da 40524052 t0:0
mc 07 00000c12 000013d9 00000e69 00000000 e837 db 001f78bf t0:0
mr 07 00000b7c 00001375 00000de7 00000000 e837 db 40524052 t0:0
mc 07 00000c20 000013cf 00000e57 00000000 e83a dc 001f7923 t0:0
mr 07 00000b8a 0000136b 00000dd5 00000000 e83a dc 40524052 t0:0
mc 07 00000c0e 000013eb 00000e52 00000000 e83d dd 001f7987 t0:0
mr 07 00000b78 00001387 00000dd0 00000000 e83d dd 40524052 t0:0
mc 07 00000c38 000013cf 00000e65 00000000 e840 de 001f79eb t0:0
mr 07 00000ba2 0000136b 00000de3 00000000 e840 de 40524052 t0:0
mc 07 00000c09 000013cf 00000e6e 00000000 e843 df 001f7a4f t0:0
mr 07 00000b73 0000136b 00000dec 00000000 e843 df 40524052 t0:0
mc 07 00000c09 000013d4 00000e6e 00000000 e846 e0 001f7ab3 t0:0
mr 07 00000b73 00001370 00000dec 00000000 e846 e0 40524052 t0:0
mc 07 00000c2a 000013cf 00000e6e 00000000 e849 e1 001f7b17 t0:0
mr 07 00000b94 0000136b 00000dec 00000000 e849 e1 40524052 t0:0
mc 07 00000c33 000013cf 00000e3b 00000000 e84c e2 001f7b7b t0:0
mr 07 00000b9d 0000136b 00000db9 00000000 e84c e2 40524052 t0:0
mc 07 00000c2a 000013cf 00000e2d 00000000 e84f e3 001f7bdf t0:0
mr 07 00000b94 0000136b 00000dab 00000000 e84f e3 40524052 t0:0
mc 07 00000c2e 000013c6 00000e60 00000000 e852 e4 001f7c43 t0:0
mr 07 00000b98 00001362 00000dde 00000000 e852 e4 40524052 t0:0
mc 07 00000c20 000013d9 00000e73 00000000 e855 e5 001f7ca7 t0:0
mr 07 00000b8a 00001375 00000df1 00000000 e855 e5 40524052 t0:0
mc 07 00000c54 000013cf 00000e73 00000000 e858 e6 001f7d0b t0:0
mr 07 00000bbe 0000136b 00000df1 00000000 e858 e6 40524052 t0:0
mc 07 00000c2a 000013d9 00000e65 00000000 e85b e7 001f7d6f t0:0
mr 07 00000b94 00001375 00000de3 00000000 e85b e7 40524052 t0:0
mc 07 00000c59 000013bd 00000e3b 00000000 e85e e8 001f7dd3 t0:0
mr 07 00000bc3 00001359 00000db9 00000000 e85e e8 40524052 t0:0
mc 07 00000c20 000013cf 00000e3b 00000000 e861 e9 001f7e37 t0:0
mr 07 00000b8a 0000136b 00000db9 00000000 e861 e9 40524052 t0:0
mc 07 00000c25 000013cb 00000e57 00000000 e864 ea 001f7e9b t0:0
mr 07 00000b8f 00001367 00000dd5 00000000 e864 ea 40524052 t0:0
mc 07 00000c2a 000013c1 00000e60 00000000 e867 eb 001f7eff t0:0
mr 07 00000b94 0000135d 00000dde 00000000 e867 eb 40524052 t0:0
mc 07 00000c00 000013b8 00000e4d 00000000 e86a ec 001f7f63 t0:0
mr 07 00000b6a 00001354 00000dcb 00000000 e86a ec 40524052 t0:0
mc 07 00000c59 000013c6 00000e57 00000000 e86d ed 001f7fc7 t0:0
mr 07 00000bc3 00001362 00000dd5 00000000 e86d ed 40524052 t0:0
mc 07 00000c12 000013d4 00000e3b 00000000 e870 ee 001f802b t0:0
mr 07 00000b7c 00001370 00000db9 00000000 e870 ee 40524052 t0:0
mc 07 00000c66 000013eb 00000e78 00000000 e873 ef 001f808f t0:0
mr 07 00000bda 00001387 00000df6 00000000 e873 ef 40524052 t0:0
mc 07 00000c09 000013cb 00000e57 00000000 e876 f0 001f80f3 t0:0
mr 07 00000b73 00001367 00000dd5 00000000 e876 f0 40524052 t0:0
mc 07 00000c09 000013d4 00000e60 00000000 e879 f1 001f8157 t0:0
mr 07 00000b73 00001370 00000dde 00000000 e879 f1 40524052 t0:0
mc 07 00000c1c 000013d4 00000e69 00000000 e87c f2 001f81bb t0:0
mr 07 00000b86 00001370 00000de7 00000000 e87c f2 40524052 t0:0
mc 07 00000c25 000013c1 00000e6e 00000000 e87f f3 001f821f t0:0
mr 07 00000b8f 0000135d 00000dec 00000000 e87f f3 40524052 t0:0
mc 07 00000c1c 000013d9 00000e49 00000000 e882 f4 001f8283 t0:0
mr 07 00000b86 00001375 00000dc7 00000000 e882 f4 40524052 t0:0
mc 07 00000c20 000013c6 00000e6e 00000000 e885 f5 001f82e7 t0:0
mr 07 00000b8a 00001362 00000dec 00000000 e885 f5 40524052 t0:0
mc 07 00000c09 000013cf 00000e57 00000000 e888 f6 001f834b t0:0
mr 07 00000b73 0000136b 00000dd5 00000000 e888 f6 40524052 t0:0
mc 07 00000c2a 000013cf 00000e1e 00000000 e88b f7 001f83af t0:0
mr 07 00000b94 0000136b 00000d9c 00000000 e88b f7 40524052 t0:0
mc 07 00000c17 000013ae 00000e73 00000000 e88e f8 001f8413 t0:0
mr 07 00000b81 0000134a 00000df1 00000000 e88e f8 40524052 t0:0
mc 07 00000c20 000013bd 00000e78 00000000 e891 f9 001f8477 t0:0
mr 07 00000b8a 00001359 00000df6 00000000 e891 f9 40524052 t0:0
mc 07 00000c09 00001397 00000e60 00000000 e894 fa 001f84db t0:0
mr 07 00000b73 00001333 00000dde 00000000 e894 fa 40524052 t0:0
mc 07 00000c00 000013c1 00000e69 00000000 e897 fb 001f853f t0:0
mr 07 00000b6a 0000135d 00000de7 00000000 e897 fb 40524052 t0:0
mc 07 00000c09 000013f5 00000e31 00000000 e89a fc 001f85a3 t0:0
mr 07 00000b73 00001391 00000daf 00000000 e89a fc 40524052 t0:0
mc 07 00000c09 000013d4 00000e2d 00000000 e89d fd 001f8607 t0:0
mr 07 00000b73 00001370 00000dab 00000000 e89d fd 40524052 t0:0
mc 07 00000c04 000013cf 00000e60 00000000 e8a0 fe 001f866b t0:0
mr 07 00000b6e 0000136b 00000dde 00000000 e8a0 fe 40524052 t0:0
mc 07 00000c2e 000013d9 00000e36 00000000 e8a3 ff 001f86cf t0:0
mr 07 00000b98 00001375 00000db4 00000000 e8a3 ff 40524052 t0:0
mc 07 00000c17 000013bd 00000e28 00000000 e8a6 00 001f8733 t0:0
mr 07 00000b81 00001359 00000da6 00000000 e8a6 00 40524052 t0:0
mc 07 00000be3 000013b8 00000e69 00000000 e8a9 01 001f8797 t0:0
mr 07 00000b4d 00001354 00000de7 00000000 e8a9 01 40524052 t0:0
mc 07 00000c17 000013c6 00000e60 00000000 e8ac 02 001f87fb t0:0
mr 07 00000b81 00001362 00000dde 00000000 e8ac 02 40524052 t0:0
mc 07 00000c20 000013c1 00000e6e 00000000 e8af 03 001f885f t0:0
mr 07 00000b8a 0000135d 00000dec 00000000 e8af 03 40524052 t0:0
mc 07 00000c38 000013b3 00000e3b 00000000 e8b2 04 001f88c3 t0:0
mr 07 00000ba2 0000134f 00000db9 00000000 e8b2 04 40524052 t0:0
mc 07 00000c09 000013d9 00000e3b 00000000 e8b5 05 001f8927 t0:0
mr 07 00000b73 00001375 00000db9 00000000 e8b5 05 40524052 t0:0
mc 07 00000c59 000013d9 00000e65 00000000 e8b8 06 001f898b t0:0
mr 07 00000bc3 00001375 00000de3 00000000 e8b8 06 40524052 t0:0
mc 07 00000c33 000013cb 00000e1e 00000000 e8bb 07 001f89ef t0:0
mr 07 00000b9d 00001367 00000d9c 00000000 e8bb 07 40524052 t0:0
mc 07 00000bfb 000013c1 00000e65 00000000 e8be 08 001f8a53 t0:0
mr 07 00000b65 0000135d 00000de3 00000000 e8be 08 40524052 t0:0
mc 07 00000c1c 000013dd 00000e10 00000000 e8c1 09 001f8ab7 t0:0
mr 07 00000b86 00001379 00000d8e 00000000 e8c1 09 40524052 t0:0
mc 07 00000c12 000013c1 00000e57 00000000 e8c4 0a 001f8b1b t0:0
mr 07 00000b7c 0000135d 00000dd5 00000000 e8c4 0a 40524052 t0:0
mc 07 00000c2e 000013b8 00000e4d 00000000 e8c7 0b 001f8b7f t0:0
mr 07 00000b98 00001354 00000dcb 00000000 e8c7 0b 40524052 t0:0
mc 07 00000c12 000013f0 00000e5b 00000000 e8ca 0c 001f8be3 t0:0
mr 07 00000b7c 0000138c 00000dd9 00000000 e8ca 0c 40524052 t0:0
mc 07 00000c0e 000013b3 00000e3f 00000000 e8cd 0d 001f8c47 t0:0
mr 07 00000b78 0000134f 00000dbd 00000000 e8cd 0d 40524052 t0:0
mc 07 00000c12 000013dd 00000e31 00000000 e8d0 0e 001f8cab t0:0
mr 07 00000b7c 00001379 00000daf 00000000 e8d0 0e 40524052 t0:0
mc 07 00000c20 000013c6 00000e31 00000000 e8d3 0f 001f8d0f t0:0
mr 07 00000b8a 00001362 00000daf 00000000 e8d3 0f 40524052 t0:0
mc 07 00000c20 000013cf 00000e60 00000000 e8d6 10 001f8d73 t0:0
mr 07 00000b8a 0000136b 00000dde 00000000 e8d6 10 40524052 t0:0
mc 07 00000bf2 000013b8 00000e6e 00000000 e8d9 11 001f8dd7 t0:0
mr 07 00000b5c 00001354 00000dec 00000000 e8d9 11 40524052 t0:0
mc 07 00000c0e 000013d4 00000e31 00000000 e8dc 12 001f8e3b t0:0
mr 07 00000b78 00001370 00000daf 00000000 e8dc 12 40524052 t0:0
mc 07 00000c46 000013e2 00000e36 00000000 e8df 13 001f8e9f t0:0
mr 07 00000bb0 0000137e 00000db4 00000000 e8df 13 40524052 t0:0
mc 07 00000c1c 000013c6 00000e73 00000000 e8e2 14 001f8f03 t0:0
mr 07 00000b86 00001362 00000df1 00000000 e8e2 14 40524052 t0:0
mc 07 00000c12 000013cb 00000e60 00000000 e8e5 15 001f8f67 t0:0
mr 07 00000b7c 00001367 00000dde 00000000 e8e5 15 40524052 t0:0
mc 07 00000c0e 000013e7 00000e65 00000000 e8e8 16 001f8fcb t0:0
mr 07 00000b78 00001383 00000de3 00000000 e8e8 16 40524052 t0:0
mc 07 00000c1c 000013cb 00000e49 00000000 e8eb 17 001f902f t0:0
mr 07 00000b86 00001367 00000dc7 00000000 e8eb 17 40524052 t0:0
mc 07 00000c04 000013cb 00000e57 00000000 e8ee 18 001f9093 t0:0
mr 07 00000b6e 00001367 00000dd5 00000000 e8ee 18 40524052 t0:0
mc 07 00000c4b 000013d4 00000e5b 00000000 e8f1 19 001f90f7 t0:0
mr 07 00000bb5 00001370 00000dd9 00000000 e8f1 19 40524052 t0:0
mc 07 00000c1c 000013c1 00000e65 00000000 e8f4 1a 001f915b t0:0
mr 07 00000b86 0000135d 00000de3 00000000 e8f4 1a 40524052 t0:0
mc 07 00000c25 000013c1 00000e69 00000000 e8f7 1b 001f91bf t0:0
mr 07 00000b8f 0000135d 00000de7 00000000 e8f7 1b 40524052 t0:0
mc 07 00000c12 000013d4 00000e3b 00000000 e8fa 1c 001f9223 t0:0
mr 07 00000b7c 00001370 00000db9 00000000 e8fa 1c 40524052 t0:0
mc 07 00000c0e 000013a5 00000e65 00000000 e8fd 1d 001f9287 t0:0
mr 07 00000b78 00001341 00000de3 00000000 e8fd 1d 40524052 t0:0
mc 07 00000c2e 000013dd 00000e4d 00000000 e900 1e 001f92eb t0:0
mr 07 00000b98 00001379 00000dcb 00000000 e900 1e 40524052 t0:0
mc 07 00000c0e 000013d4 00000e5b 00000000 e903 1f 001f934f t0:0
mr 07 00000b78 00001370 00000dd9 00000000 e903 1f 40524052 t0:0
mc 07 00000c12 000013ae 00000e5b 00000000 e906 20 001f93b3 t0:0
mr 07 00000b7c 0000134a 00000dd9 00000000 e906 20 40524052 t0:0
mc 07 00000c09 000013cf 00000e44 00000000 e909 21 001f9417 t0:0
mr 07 00000b73 0000136b 00000dc2 00000000 e909 21 40524052 t0:0
mc 07 00000c04 000013c6 00000e52 00000000 e90c 22 001f947b t0:0
mr 07 00000b6e 00001362 00000dd0 00000000 e90c 22 40524052 t0:0
mc 07 00000c1c 000013cb 00000e6e 00000000 e90f 23 001f94df t0:0
mr 07 00000b86 00001367 00000dec 00000000 e90f 23 40524052 t0:0
mc 07 00000c04 000013b3 00000e3b 00000000 e912 24 001f9543 t0:0
mr 07 00000b6e 0000134f 00000db9 00000000 e912 24 40524052 t0:0
mc 07 00000c59 000013dd 00000e4d 00000000 e915 25 001f95a7 t0:0
mr 07 00000bc3 00001379 00000dcb 00000000 e915 25 40524052 t0:0
mc 07 00000bfb 000013d9 00000e57 00000000 e918 26 001f960b t0:0
mr 07 00000b65 00001375 00000dd5 00000000 e918 26 40524052 t0:0
mc 07 00000c0e 000013b8 00000e57 00000000 e91b 27 001f966f t0:0
mr 07 00000b78 00001354 00000dd5 00000000 e91b 27 40524052 t0:0
mc 07 00000c25 000013c6 00000e60 00000000 e91e 28 001f96d3 t0:0
mr 07 00000b8f 00001362 00000dde 00000000 e91e 28 40524052 t0:0
mc 07 00000c54 000013c1 00000e36 00000000 e921 29 001f9737 t0:0
mr 07 00000bbe 0000135d 00000db4 00000000 e921 29 40524052 t0:0
mc 07 00000c3d 000013d9 00000e3f 00000000 e924 2a 001f979b t0:0
mr 07 00000ba7 00001375 00000dbd 00000000 e924 2a 40524052 t0:0
mc 07 00000c04 000013d4 00000e5b 00000000 e927 2b 001f97ff t0:0
mr 07 00000b6e 00001370 00000dd9 00000000 e927 2b 40524052 t0:0
mc 07 00000c25 000013b3 00000e57 00000000 e92a 2c 001f9863 t0:0
mr 07 00000b8f 0000134f 00000dd5 00000000 e92a 2c 40524052 t0:0
mc 07 00000c17 000013cb 00000e57 00000000 e92d 2d 001f98c7 t0:0
mr 07 00000b81 00001367 00000dd5 00000000 e92d 2d 40524052 t0:0
mc 07 00000c20 000013aa 00000e49 00000000 e930 2e 001f992b t0:0
mr 07 00000b8a 00001346 00000dc7 00000000 e930 2e 40524052 t0:0
mc 07 00000c2a 000013b8 00000e60 00000000 e933 2f 001f998f t0:0
mr 07 00000b94 00001354 00000dde 00000000 e933 2f 40524052 t0:0
mc 07 00000c25 000013c1 00000e1a 00000000 e936 30 001f99f3 t0:0
mr 07 00000b8f 0000135d 00000d98 00000000 e936 30 40524052 t0:0
mc 07 00000c12 000013bd 00000e5b 00000000 e939 31 001f9a57 t0:0
mr 07 00000b7c 00001359 00000dd9 00000000 e939 31 40524052 t0:0
mc 07 00000c25 000013b3 00000e28 00000000 e93c 32 001f9abb t0:0
mr 07 00000b8f 0000134f 00000da6 00000000 e93c 32 40524052 t0:0
mc 07 00000bfb 000013a5 00000e4d 00000000 e93f 33 001f9b1f t0:0
mr 07 00000b65 00001341 00000dcb 00000000 e93f 33 40524052 t0:0
mc 07 00000c5d 000013b8 00000e60 00000000 e942 34 001f9b83 t0:0
mr 07 00000bc7 00001354 00000dde 00000000 e942 34 40524052 t0:0
mc 07 00000c20 000013bd 00000e3f 00000000 e945 35 001f9be7 t0:0
mr 07 00000b8a 00001359 00000dbd 00000000 e945 35 40524052 t0:0
mc 07 00000c20 000013b8 00000e3f 00000000 e948 36 001f9c4b t0:0
mr 07 00000b8a 00001354 00000dbd 00000000 e948 36 40524052 t0:0
mc 07 00000c25 000013dd 00000e31 00000000 e94b 37 001f9caf t0:0
mr 07 00000b8f 00001379 00000daf 00000000 e94b 37 40524052 t0:0
mc 07 00000c00 000013bd 00000e44 00000000 e94e 38 001f9d13 t0:0
mr 07 00000b6a 00001359 00000dc2 00000000 e94e 38 40524052 t0:0
mc 07 00000c0e 000013cf 00000e73 00000000 e951 39 001f9d77 t0:0
mr 07 00000b78 0000136b 00000df1 00000000 e951 39 40524052 t0:0
mc 07 00000c12 000013bd 00000e49 00000000 e954 3a 001f9ddb t0:0
mr 07 00000b7c 00001359 00000dc7 00000000 e954 3a 40524052 t0:0
mc 07 00000c2e 000013c1 00000e57 00000000 e957 3b 001f9e3f t0:0
mr 07 00000b98 0000135d 00000dd5 00000000 e957 3b 40524052 t0:0
mc 07 00000c33 000013bd 00000e81 00000000 e95a 3c 001f9ea3 t0:0
mr 07 00000b9d 00001359 00000dff 00000000 e95a 3c 40524052 t0:0
mc 07 00000c0e 000013cb 00000e28 00000000 e95d 3d 001f9f07 t0:0
mr 07 00000b78 00001367 00000da6 00000000 e95d 3d 40524052 t0:0
mc 07 00000c0e 000013d4 00000e4d 00000000 e960 3e 001f9f6b t0:0
mr 07 00000b78 00001370 00000dcb 00000000 e960 3e 40524052 t0:0
mc 07 00000c04 000013bd 00000e44 00000000 e963 3f 001f9fcf t0:0
mr 07 00000b6e 00001359 00000dc2 00000000 e963 3f 40524052 t0:0
mc 07 00000bf6 000013d4 00000e57 00000000 e966 40 001fa033 t0:0
mr 07 00000b60 00001370 00000dd5 00000000 e966 40 40524052 t0:0
mc 07 00000c12 000013cb 00000e49 00000000 e969 41 001fa097 t0:0
mr 07 00000b7c 00001367 00000dc7 00000000 e969 41 40524052 t0:0
mc 07 00000c20 000013e7 00000e52 00000000 e96c 42 001fa0fb t0:0
mr 07 00000b8a 00001383 00000dd0 00000000 e96c 42 40524052 t0:0
mc 07 00000c20 000013c6 00000e2d 00000000 e96f 43 001fa15f t0:0
mr 07 00000b8a 00001362 00000dab 00000000 e96f 43 40524052 t0:0
mc 07 00000c3d 000013b8 00000e3f 00000000 e972 44 001fa1c3 t0:0
mr 07 00000ba7 00001354 00000dbd 00000000 e972 44 40524052 t0:0
mc 07 00000c17 000013bd 00000e31 00000000 e975 45 001fa227 t0:0
mr 07 00000b81 00001359 00000daf 00000000 e975 45 40524052 t0:0
mc 07 00000c17 000013c1 00000e2d 00000000 e978 46 001fa28b t0:0
mr 07 00000b81 0000135d 00000dab 00000000 e978 46 40524052 t0:0
mc 07 00000c3d 000013b3 00000e31 00000000 e97b 47 001fa2ef t0:0
mr 07 00000ba7 0000134f 00000daf 00000000 e97b 47 40524052 t0:0
mc 07 00000c54 000013cf 00000e31 00000000 e97e 48 001fa353 t0:0
mr 07 00000bbe 0000136b 00000daf 00000000 e97e 48 40524052 t0:0
mc 07 00000c00 000013dd 00000e57 00000000 e981 49 001fa3b7 t0:0
mr 07 00000b6a 00001379 00000dd5 00000000 e981 49 40524052 t0:0
mc 07 00000c2a 000013c1 00000e3b 00000000 e984 4a 001fa41b t0:0
mr 07 00000b94 0000135d 00000db9 00000000 e984 4a 40524052 t0:0
mc 07 00000c2a 000013b8 00000e57 00000000 e987 4b 001fa47f t0:0
mr 07 00000b94 00001354 00000dd5 00000000 e987 4b 40524052 t0:0
mc 07 00000c25 000013cb 00000e36 00000000 e98a 4c 001fa4e3 t0:0
mr 07 00000b8f 00001367 00000db4 00000000 e98a 4c 40524052 t0:0
mc 07 00000bf6 000013cb 00000e44 00000000 e98d 4d 001fa547 t0:0
mr 07 00000b60 00001367 00000dc2 00000000 e98d 4d 40524052 t0:0
mc 07 00000c17 000013cb 00000e78 00000000 e990 4e 001fa5ab t0:0
mr 07 00000b81 00001367 00000df6 00000000 e990 4e 40524052 t0:0
mc 07 00000c09 000013c6 00000e49 00000000 e993 4f 001fa60f t0:0
mr 07 00000b73 00001362 00000dc7 00000000 e993 4f 40524052 t0:0
mc 07 00000c00 000013b8 00000e65 00000000 e996 50 001fa673 t0:0
mr 07 00000b6a 00001354 00000de3 00000000 e996 50 40524052 t0:0
mc 07 00000c12 000013bd 00000e78 00000000 e999 51 001fa6d7 t0:0
mr 07 00000b7c 00001359 00000df6 00000000 e999 51 40524052 t0:0
mc 07 00000c4b 000013b8 00000e57 00000000 e99c 52 001fa73b t0:0
mr 07 00000bb5 00001354 00000dd5 00000000 e99c 52 40524052 t0:0
mc 07 00000c1c 000013b3 00000e36 00000000 e99f 53 001fa79f t0:0
mr 07 00000b86 0000134f 00000db4 00000000 e99f 53 40524052 t0:0
mc 07 00000c25 000013b8 00000e52 00000000 e9a2 54 001fa803 t0:0
mr 07 00000b8f 00001354 00000dd0 00000000 e9a2 54 40524052 t0:0
mc 07 00000c41 000013aa 00000e65 00000000 e9a5 55 001fa867 t0:0
mr 07 00000bab 00001346 00000de3 00000000 e9a5 55 40524052 t0:0
mc 07 00000c17 000013aa 00000e36 00000000 e9a8 56 001fa8cb t0:0
mr 07 00000b81 00001346 00000db4 00000000 e9a8 56 40524052 t0:0
mc 07 00000c20 000013c6 00000e3b 00000000 e9ab 57 001fa92f t0:0
mr 07 00000b8a 00001362 00000db9 00000000 e9ab 57 40524052 t0:0
mc 07 00000c2e 000013b8 00000e65 00000000 e9ae 58 001fa993 t0:0
mr 07 00000b98 00001354 00000de3 00000000 e9ae 58 40524052 t0:0
mc 07 00000c2a 000013d4 00000e57 00000000 e9b1 59 001fa9f7 t0:0
mr 07 00000b94 00001370 00000dd5 00000000 e9b1 59 40524052 t0:0
mc 07 00000c12 000013d4 00000e31 00000000 e9b4 5a 001faa5b t0:0
mr 07 00000b7c 00001370 00000daf 00000000 e9b4 5a 40524052 t0:0
mc 07 00000c25 000013c1 00000e4d 00000000 e9b7 5b 001faabf t0:0
mr 07 00000b8f 0000135d 00000dcb 00000000 e9b7 5b 40524052 t0:0
mc 07 00000c04 000013b8 00000e4d 00000000 e9ba 5c 001fab23 t0:0
mr 07 00000b6e 00001354 00000dcb 00000000 e9ba 5c 40524052 t0:0
mc 07 00000c0e 000013d4 00000e4d 00000000 e9bd 5d 001fab87 t0:0
mr 07 00000b78 00001370 00000dcb 00000000 e9bd 5d 40524052 t0:0
mc 07 00000c33 000013aa 00000e57 00000000 e9c0 5e 001fabeb t0:0
mr 07 00000b9d 00001346 00000dd5 00000000 e9c0 5e 40524052 t0:0
mc 07 00000c20 000013d9 00000e44 00000000 e9c3 5f 001fac4f t0:0
mr 07 00000b8a 00001375 00000dc2 00000000 e9c3 5f 40524052 t0:0
mc 07 00000bf6 000013b3 00000e31 00000000 e9c6 60 001facb3 t0:0
mr 07 00000b60 0000134f 00000daf 00000000 e9c6 60 40524052 t0:0
mc 07 00000c04 000013c1 00000e49 00000000 e9c9 61 001fad17 t0:0
mr 07 00000b6e 0000135d 00000dc7 00000000 e9c9 61 40524052 t0:0
mc 07 00000c3d 000013bd 00000e15 00000000 e9cc 62 001fad7b t0:0
mr 07 00000ba7 00001359 00000d93 00000000 e9cc 62 40524052 t0:0
mc 07 00000c04 000013a5 00000e60 00000000 e9cf 63 001faddf t0:0
mr 07 00000b6e 00001341 00000dde 00000000 e9cf 63 40524052 t0:0
mc 07 00000c12 000013dd 00000e73 00000000 e9d2 64 001fae43 t0:0
mr 07 00000b7c 00001379 00000df1 00000000 e9d2 64 40524052 t0:0
mc 07 00000c20 000013cf 00000e57 00000000 e9d5 65 001faea7 t0:0
mr 07 00000b8a 0000136b 00000dd5 00000000 e9d5 65 40524052 t0:0
mc 07 00000c04 000013b3 00000e49 00000000 e9d8 66 001faf0b t0:0
mr 07 00000b6e 0000134f 00000dc7 00000000 e9d8 66 40524052 t0:0
mc 07 00000c2a 000013d4 00000e31 00000000 e9db 67 001faf6f t0:0
mr 07 00000b94 00001370 00000daf 00000000 e9db 67 40524052 t0:0
mc 07 00000c12 000013cb 00000e31 00000000 e9de 68 001fafd3 t0:0
mr 07 00000b7c 00001367 00000daf 00000000 e9de 68 40524052 t0:0
mc 07 00000c09 000013e7 00000e2d 00000000 e9e1 69 001fb037 t0:0
mr 07 00000b73 00001383 00000dab 00000000 e9e1 69 40524052 t0:0
mc 07 00000c0e 000013ae 00000e65 00000000 e9e4 6a 001fb09b t0:0
mr 07 00000b78 0000134a 00000de3 00000000 e9e4 6a 40524052 t0:0
mc 07 00000c0e 000013cb 00000e69 00000000 e9e7 6b 001fb0ff t0:0
mr 07 00000b78 00001367 00000de7 00000000 e9e7 6b 40524052 t0:0
mc 07 00000c17 000013c1 00000e2d 00000000 e9ea 6c 001fb163 t0:0
mr 07 00000b81 0000135d 00000dab 00000000 e9ea 6c 40524052 t0:0
mc 07 00000c04 000013bd 00000e7c 00000000 e9ed 6d 001fb1c7 t0:0
mr 07 00000b6e 00001359 00000dfa 00000000 e9ed 6d 40524052 t0:0
mc 07 00000c20 000013d9 00000e57 00000000 e9f0 6e 001fb22b t0:0
mr 07 00000b8a 00001375 00000dd5 00000000 e9f0 6e 40524052 t0:0
mc 07 00000c1c 000013cb 00000e57 00000000 e9f3 6f 001fb28f t0:0
mr 07 00000b86 00001367 00000dd5 00000000 e9f3 6f 40524052 t0:0
mc 07 00000c25 000013dd 00000e69 00000000 e9f6 70 001fb2f3 t0:0
mr 07 00000b8f 00001379 00000de7 00000000 e9f6 70 40524052 t0:0
mc 07 00000c04 000013cb 00000e81 00000000 e9f9 71 001fb357 t0:0
mr 07 00000b6e 00001367 00000dff 00000000 e9f9 71 40524052 t0:0
mc 07 00000c20 000013d4 00000e65 00000000 e9fc 72 001fb3bb t0:0
mr 07 00000b8a 00001370 00000de3 00000000 e9fc 72 40524052 t0:0
mc 07 00000c09 000013cb 00000e60 00000000 e9ff 73 001fb41f t0:0
mr 07 00000b73 00001367 00000dde 00000000 e9ff 73 40524052 t0:0
mc 07 00000c04 000013cf 00000e69 00000000 ea02 74 001fb483 t0:0
mr 07 00000b6e 0000136b 00000de7 00000000 ea02 74 40524052 t0:0
mc 07 00000bf6 000013cf 00000e36 00000000 ea05 75 001fb4e7 t0:0
mr 07 00000b60 0000136b 00000db4 00000000 ea05 75 40524052 t0:0
mc 07 00000c17 000013c6 00000e65 00000000 ea08 76 001fb54b t0:0
mr 07 00000b81 00001362 00000de3 00000000 ea08 76 40524052 t0:0
mc 07 00000c20 000013eb 00000e78 00000000 ea0b 77 001fb5af t0:0
mr 07 00000b8a 00001387 00000df6 00000000 ea0b 77 40524052 t0:0
mc 07 00000c12 000013dd 00000e36 00000000 ea0e 78 001fb613 t0:0
mr 07 00000b7c 00001379 00000db4 00000000 ea0e 78 40524052 t0:0
mc 07 00000c09 000013cf 00000e28 00000000 ea11 79 001fb677 t0:0
mr 07 00000b73 0000136b 00000da6 00000000 ea11 79 40524052 t0:0
mc 07 00000c25 000013dd 00000e28 00000000 ea14 7a 001fb6db t0:0
mr 07 00000b8f 00001379 00000da6 00000000 ea14 7a 40524052 t0:0
mc 07 00000c41 000013cb 00000e60 00000000 ea17 7b 001fb73f t0:0
mr 07 00000bab 00001367 00000dde 00000000 ea17 7b 40524052 t0:0
mc 07 00000c0e 000013c6 00000e7c 00000000 ea1a 7c 001fb7a3 t0:0
mr 07 00000b78 00001362 00000dfa 00000000 ea1a 7c 40524052 t0:0
mc 07 00000bed 000013ae 00000e73 00000000 ea1d 7d 001fb807 t0:0
mr 07 00000b57 0000134a 00000df1 00000000 ea1d 7d 40524052 t0:0
mc 07 00000c04 000013cb 00000e6e 00000000 ea20 7e 001fb86b t0:0
mr 07 00000b6e 00001367 00000dec 00000000 ea20 7e 40524052 t0:0
mc 07 00000c20 000013cf 00000e7c 00000000 ea23 7f 001fb8cf t0:0
mr 07 00000b8a 0000136b 00000dfa 00000000 ea23 7f 40524052 t0:0
mc 07 00000c25 000013c6 00000e78 00000000 ea26 80 001fb933 t0:0
mr 07 00000b8f 00001362 00000df6 00000000 ea26 80 40524052 t0:0
mc 07 00000c54 000013c6 00000e57 00000000 ea29 81 001fb997 t0:0
mr 07 00000bbe 00001362 00000dd5 00000000 ea29 81 40524052 t0:0
mc 07 00000c1c 000013cb 00000e65 00000000 ea2c 82 001fb9fb t0:0
mr 07 00000b86 00001367 00000de3 00000000 ea2c 82 40524052 t0:0
mc 07 00000bfb 000013b8 00000e23 00000000 ea2f 83 001fba5f t0:0
mr 07 00000b65 00001354 00000da1 00000000 ea2f 83 40524052 t0:0
mc 07 00000c4b 000013bd 00000e10 00000000 ea32 84 001fbac3 t0:0
mr 07 00000bb5 00001359 00000d8e 00000000 ea32 84 40524052 t0:0
mc 07 00000c46 000013c6 00000e81 00000000 ea35 85 001fbb27 t0:0
mr 07 00000bb0 00001362 00000dff 00000000 ea35 85 40524052 t0:0
mc 07 00000c04 000013d4 00000e94 00000000 ea38 86 001fbb8b t0:0
mr 07 00000b6e 00001370 00000e12 00000000 ea38 86 40524052 t0:0
mc 07 00000c25 000013ae 00000e8a 00000000 ea3b 87 001fbbef t0:0
mr 07 00000b8f 0000134a 00000e08 00000000 ea3b 87 40524052 t0:0
mc 07 00000c0e 000013cf 00000e69 00000000 ea3e 88 001fbc53 t0:0
mr 07 00000b78 0000136b 00000de7 00000000 ea3e 88 40524052 t0:0
mc 07 00000c0e 000013bd 00000e73 00000000 ea41 89 001fbcb7 t0:0
mr 07 00000b78 00001359 00000df1 00000000 ea41 89 40524052 t0:0
mc 07 00000bf6 000013cb 00000e3b 00000000 ea44 8a 001fbd1b t0:0
mr 07 00000b60 00001367 00000db9 00000000 ea44 8a 40524052 t0:0
mc 07 00000bf6 000013d9 00000e57 00000000 ea47 8b 001fbd7f t0:0
mr 07 00000b60 00001375 00000dd5 00000000 ea47 8b 40524052 t0:0
mc 07 00000c4b 000013cb 00000e49 00000000 ea4a 8c 001fbde3 t0:0
mr 07 00000bb5 00001367 00000dc7 00000000 ea4a 8c 40524052 t0:0
mc 07 00000c12 000013f5 00000e69 00000000 ea4d 8d 001fbe47 t0:0
mr 07 00000b7c 00001391 00000de7 00000000 ea4d 8d 40524052 t0:0
mc 07 00000c00 000013cb 00000e6e 00000000 ea50 8e 001fbeab t0:0
mr 07 00000b6a 00001367 00000dec 00000000 ea50 8e 40524052 t0:0
mc 07 00000bf2 000013cb 00000e6e 00000000 ea53 8f 001fbf0f t0:0
mr 07 00000b5c 00001367 00000dec 00000000 ea53 8f 40524052 t0:0
mc 07 00000bf2 000013cb 00000e65 00000000 ea56 90 001fbf73 t0:0
mr 07 00000b5c 00001367 00000de3 00000000 ea56 90 40524052 t0:0
mc 07 00000c3d 000013ae 00000e65 00000000 ea59 91 001fbfd7 t0:0
mr 07 00000ba7 0000134a 00000de3 00000000 ea59 91 40524052 t0:0
