2071.0,4075.0,0.0,0.0,
2012.0,4228.0,0.0,0.0,
2064.0,4109.0,0.0,0.0,
2063.0,4160.0,0.0,0.0,
2023.0,4149.0,2012.0,4075.0,
2013.0,4186.0,2013.0,4109.0,
1994.0,4137.0,2013.0,4137.0,
1930.0,4210.0,2013.0,4149.0,
1944.0,4264.0,2013.0,4160.0,
1893.0,4391.0,2012.0,4186.0,
1801.0,4389.0,1994.0,4186.0,
1770.0,4422.0,1944.0,4210.0,
1837.0,4225.0,1930.0,4225.0,
1637.0,2863.0,1893.0,4225.0,
1752.0,4119.0,1837.0,4225.0,
1871.0,4178.0,1837.0,4225.0,
1869.0,4145.0,1837.0,4225.0,
1815.0,4185.0,1815.0,4185.0,
1605.0,2779.0,1801.0,4178.0,
1852.0,4164.0,1815.0,4164.0,
1595.0,2763.0,1815.0,4145.0,
1771.0,4874.0,1771.0,4145.0,
1740.0,4320.0,1771.0,4164.0,
1618.0,4419.0,1771.0,4178.0,
1537.0,4519.0,1740.0,4185.0,
1349.0,4376.0,1618.0,4320.0,
1575.0,4507.0,1605.0,4376.0,
1707.0,4230.0,1618.0,4376.0,
1717.0,4274.0,1618.0,4376.0,
1741.0,4195.0,1707.0,4376.0,
1756.0,4191.0,1707.0,4320.0,
1735.0,4145.0,1707.0,4274.0,
1677.0,4115.0,1707.0,4230.0,
1701.0,4122.0,1707.0,4195.0,
1839.0,4104.0,1717.0,4191.0,
1668.0,4130.0,1717.0,4145.0,
1601.0,4110.0,1717.0,4130.0,
1620.0,4072.0,1701.0,4122.0,
1573.0,4142.0,1677.0,4122.0,
1622.0,4107.0,1668.0,4115.0,
1650.0,4152.0,1650.0,4115.0,
1646.0,4130.0,1646.0,4122.0,
1664.0,4148.0,1646.0,4130.0,
1664.0,4109.0,1646.0,4130.0,
1633.0,4121.0,1633.0,4121.0,
1596.0,4114.0,1633.0,4121.0,
1603.0,4129.0,1633.0,4129.0,
1564.0,4141.0,1633.0,4129.0,
1552.0,4146.0,1633.0,4130.0,
1528.0,4149.0,1603.0,4130.0,
1531.0,4114.0,1596.0,4129.0,
1492.0,4139.0,1564.0,4129.0,
1459.0,4159.0,1552.0,4139.0,
1432.0,4128.0,1531.0,4139.0,
1297.0,4103.0,1528.0,4139.0,
1315.0,4226.0,1492.0,4141.0,
958.0,2633.0,1459.0,4139.0,
1523.0,4144.0,1459.0,4139.0,
1366.0,4110.0,1432.0,4128.0,
1539.0,4134.0,1432.0,4134.0,
1447.0,4091.0,1432.0,4128.0,
1289.0,4106.0,1366.0,4110.0,
859.0,2546.0,1315.0,4106.0,
1289.0,4087.0,1315.0,4106.0,
1325.0,4132.0,1325.0,4106.0,
1526.0,4081.0,1366.0,4106.0,
1401.0,4066.0,1366.0,4091.0,
1346.0,4110.0,1346.0,4091.0,
1398.0,4064.0,1346.0,4087.0,
1386.0,4094.0,1346.0,4087.0,
1391.0,4119.0,1386.0,4087.0,
1344.0,4013.0,1386.0,4087.0,
1180.0,3978.0,1386.0,4081.0,
1297.0,4009.0,1386.0,4066.0,
1337.0,3976.0,1346.0,4064.0,
1368.0,4015.0,1346.0,4015.0,
1411.0,4048.0,1368.0,4015.0,
1417.0,4026.0,1368.0,4015.0,
1140.0,3996.0,1344.0,4013.0,
1233.0,4032.0,1337.0,4013.0,
1251.0,4029.0,1297.0,4015.0,
1255.0,3997.0,1297.0,4015.0,
1225.0,3998.0,1255.0,4015.0,
1178.0,3979.0,1251.0,4015.0,
1198.0,3907.0,1233.0,3998.0,
1224.0,3936.0,1225.0,3997.0,
1197.0,3935.0,1224.0,3996.0,
969.0,2844.0,1224.0,3979.0,
1218.0,3917.0,1218.0,3936.0,
1204.0,3921.0,1204.0,3935.0,
1199.0,3940.0,1199.0,3935.0,
1224.0,3883.0,1199.0,3921.0,
1198.0,3931.0,1199.0,3921.0,
963.0,3924.0,1199.0,3924.0,
1194.0,3981.0,1198.0,3924.0,
1173.0,3908.0,1198.0,3921.0,
1144.0,3873.0,1198.0,3921.0,
1172.0,3891.0,1194.0,3921.0,
1201.0,3892.0,1194.0,3908.0,
1202.0,3871.0,1194.0,3892.0,
1190.0,3857.0,1190.0,3892.0,
1207.0,3887.0,1190.0,3891.0,
1205.0,3879.0,1194.0,3887.0,
850.0,2741.0,1190.0,3879.0,
1010.0,3760.0,1190.0,3873.0,
808.0,3509.0,1190.0,3871.0,
766.0,3647.0,1190.0,3857.0,
743.0,3768.0,1010.0,3768.0,
853.0,3508.0,853.0,3760.0,
863.0,3526.0,853.0,3647.0,
888.0,3563.0,853.0,3563.0,
854.0,3556.0,853.0,3556.0,
845.0,3581.0,853.0,3563.0,
830.0,3559.0,845.0,3559.0,
618.0,3749.0,845.0,3563.0,
773.0,3524.0,845.0,3559.0,
752.0,3515.0,845.0,3556.0,
697.0,3494.0,830.0,3556.0,
472.0,2759.0,773.0,3556.0,
447.0,2784.0,752.0,3524.0,
681.0,3520.0,697.0,3520.0,
659.0,3430.0,681.0,3515.0,
632.0,3442.0,659.0,3494.0,
620.0,3424.0,659.0,3442.0,
611.0,3391.0,632.0,3430.0,
563.0,3392.0,620.0,3424.0,
609.0,3448.0,611.0,3424.0,
577.0,3423.0,611.0,3424.0,
603.0,3449.0,611.0,3430.0,
578.0,3389.0,609.0,3424.0,
547.0,3375.0,603.0,3423.0,
569.0,3396.0,578.0,3396.0,
561.0,3409.0,577.0,3396.0,
518.0,3344.0,569.0,3396.0,
429.0,3362.0,569.0,3396.0,
887.0,3569.0,569.0,3396.0,
520.0,3346.0,561.0,3389.0,
409.0,3343.0,547.0,3375.0,
516.0,3359.0,520.0,3362.0,
543.0,3353.0,520.0,3359.0,
495.0,3563.0,518.0,3359.0,
623.0,3378.0,518.0,3359.0,
587.0,3348.0,520.0,3359.0,
548.0,3356.0,543.0,3356.0,
477.0,3332.0,520.0,3353.0,
508.0,3312.0,516.0,3353.0,
479.0,3301.0,516.0,3353.0,
452.0,3294.0,508.0,3348.0,
407.0,3260.0,495.0,3332.0,
339.0,3193.0,479.0,3312.0,
534.0,3063.0,479.0,3301.0,
639.0,3351.0,479.0,3301.0,
721.0,3326.0,479.0,3301.0,
553.0,3203.0,508.0,3294.0,
575.0,3337.0,534.0,3294.0,
579.0,3333.0,553.0,3294.0,
375.0,3237.0,553.0,3260.0,
630.0,3350.0,575.0,3326.0,
155.0,3373.0,575.0,3333.0,
184.0,3181.0,575.0,3333.0,
106.0,3138.0,553.0,3326.0,
172.0,3135.0,375.0,3237.0,
404.0,3221.0,375.0,3237.0,
69.0,3123.0,184.0,3221.0,
86.0,3112.0,172.0,3181.0,
158.0,3134.0,158.0,3138.0,
149.0,3127.0,155.0,3135.0,
211.0,3133.0,158.0,3134.0,
470.0,3204.0,158.0,3134.0,
219.0,3159.0,172.0,3134.0,
200.0,3160.0,200.0,3134.0,
200.0,3169.0,200.0,3134.0,
203.0,3187.0,200.0,3159.0,
173.0,3169.0,200.0,3160.0,
155.0,3149.0,200.0,3160.0,
153.0,3087.0,200.0,3160.0,
183.0,3062.0,200.0,3160.0,
132.0,3050.0,183.0,3159.0,
154.0,3018.0,173.0,3149.0,
108.0,3018.0,155.0,3087.0,
125.0,3018.0,154.0,3062.0,
96.0,2963.0,153.0,3050.0,
89.0,2972.0,132.0,3018.0,
97.0,2957.0,125.0,3018.0,
57.0,2969.0,108.0,3018.0,
29.0,2929.0,97.0,2972.0,
10.0,2903.0,96.0,2969.0,
-39.0,2905.0,89.0,2963.0,
-36.0,2885.0,57.0,2957.0,
24.0,2872.0,29.0,2929.0,
-52.0,2880.0,24.0,2905.0,
17.0,2886.0,17.0,2903.0,
-12.0,2912.0,10.0,2903.0,
-118.0,2907.0,-12.0,2903.0,
-89.0,2949.0,-36.0,2903.0,
-100.0,2937.0,-39.0,2905.0,
-97.0,2905.0,-52.0,2905.0,
-113.0,2906.0,-89.0,2906.0,
-110.0,2921.0,-97.0,2907.0,
-134.0,2921.0,-100.0,2912.0,
-116.0,2882.0,-110.0,2912.0,
-119.0,2891.0,-113.0,2907.0,
-83.0,2854.0,-110.0,2906.0,
-91.0,2816.0,-110.0,2905.0,
-87.0,2808.0,-110.0,2891.0,
-108.0,2803.0,-110.0,2882.0,
-106.0,2669.0,-108.0,2854.0,
-106.0,2798.0,-106.0,2816.0,
-109.0,2795.0,-106.0,2808.0,
-159.0,2780.0,-106.0,2803.0,
-143.0,2745.0,-106.0,2798.0,
-120.0,2729.0,-108.0,2795.0,
-170.0,2733.0,-109.0,2780.0,
24.0,2757.0,-109.0,2757.0,
-198.0,2748.0,-120.0,2748.0,
-207.0,2740.0,-143.0,2748.0,
-199.0,2710.0,-159.0,2745.0,
-238.0,2709.0,-170.0,2740.0,
-42.0,2676.0,-170.0,2733.0,
-236.0,2667.0,-198.0,2729.0,
-244.0,2683.0,-199.0,2710.0,
-257.0,2619.0,-207.0,2709.0,
-273.0,2614.0,-236.0,2683.0,
-263.0,2573.0,-238.0,2676.0,
-236.0,2494.0,-238.0,2667.0,
-224.0,2551.0,-238.0,2619.0,
-272.0,2577.0,-244.0,2614.0,
-270.0,2577.0,-257.0,2577.0,
-269.0,2539.0,-263.0,2577.0,
-225.0,2620.0,-263.0,2577.0,
-268.0,2600.0,-268.0,2577.0,
-227.0,2585.0,-263.0,2577.0,
-265.0,2580.0,-265.0,2577.0,
-246.0,2560.0,-265.0,2577.0,
-305.0,2574.0,-268.0,2577.0,
-310.0,2544.0,-268.0,2577.0,
-297.0,2505.0,-268.0,2574.0,
-354.0,2621.0,-268.0,2580.0,
-338.0,2487.0,-297.0,2574.0,
-308.0,2500.0,-305.0,2560.0,
-366.0,2497.0,-308.0,2544.0,
-150.0,2484.0,-308.0,2505.0,
7.0,2468.0,-308.0,2500.0,
19.0,2446.0,-308.0,2497.0,
-43.0,2464.0,-297.0,2487.0,
35.0,2416.0,-150.0,2484.0,
20.0,2410.0,-43.0,2468.0,
3.0,2196.0,3.0,2464.0,
-120.0,2364.0,3.0,2446.0,
-96.0,2426.0,3.0,2426.0,
-146.0,2452.0,3.0,2426.0,
-220.0,2309.0,-43.0,2416.0,
-237.0,2304.0,-96.0,2410.0,
-299.0,2314.0,-120.0,2364.0,
-274.0,2259.0,-146.0,2314.0,
-272.0,2443.0,-220.0,2314.0,
-273.0,2277.0,-237.0,2314.0,
-300.0,2251.0,-272.0,2309.0,
-271.0,2298.0,-272.0,2304.0,
-256.0,2299.0,-272.0,2299.0,
-319.0,2097.0,-273.0,2298.0,
-256.0,2167.0,-273.0,2277.0,
-284.0,2101.0,-273.0,2259.0,
-305.0,2118.0,-273.0,2251.0,
-255.0,2128.0,-273.0,2167.0,
-283.0,2095.0,-283.0,2128.0,
-213.0,2060.0,-271.0,2118.0,
-237.0,2045.0,-256.0,2101.0,
-272.0,2314.0,-272.0,2101.0,
-226.0,1971.0,-256.0,2101.0,
-186.0,2011.0,-255.0,2095.0,
-174.0,2060.0,-237.0,2060.0,
-83.0,2016.0,-226.0,2060.0,
-150.0,2042.0,-213.0,2045.0,
-99.0,2006.0,-186.0,2042.0,
-146.0,1988.0,-174.0,2016.0,
-126.0,1968.0,-150.0,2011.0,
-130.0,1867.0,-146.0,2006.0,
-148.0,1910.0,-146.0,2006.0,
-136.0,1934.0,-136.0,1988.0,
-219.0,2018.0,-136.0,1988.0,
-143.0,2142.0,-143.0,1988.0,
-206.0,2130.0,-143.0,1988.0,
-254.0,2136.0,-146.0,1988.0,
-220.0,2093.0,-148.0,2018.0,
-256.0,2030.0,-206.0,2030.0,
-237.0,1969.0,-219.0,2030.0,
-259.0,1938.0,-220.0,2030.0,
-284.0,1940.0,-237.0,2030.0,
-279.0,1860.0,-254.0,2030.0,
-261.0,1965.0,-256.0,1969.0,
-305.0,1944.0,-259.0,1965.0,
-332.0,1966.0,-261.0,1965.0,
-239.0,1954.0,-261.0,1954.0,
-237.0,1962.0,-261.0,1954.0,
-239.0,1949.0,-261.0,1949.0,
-254.0,1928.0,-261.0,1949.0,
-213.0,1885.0,-254.0,1949.0,
-218.0,1822.0,-239.0,1949.0,
-112.0,1833.0,-239.0,1944.0,
-86.0,1812.0,-237.0,1928.0,
-145.0,1804.0,-218.0,1885.0,
-130.0,1797.0,-213.0,1833.0,
-153.0,1760.0,-153.0,1822.0,
-139.0,1752.0,-145.0,1812.0,
-121.0,1736.0,-139.0,1804.0,
-137.0,1731.0,-137.0,1797.0,
-152.0,1716.0,-137.0,1760.0,
-195.0,1730.0,-139.0,1752.0,
-188.0,1721.0,-145.0,1736.0,
-218.0,1720.0,-152.0,1731.0,
-199.0,1726.0,-153.0,1730.0,
-204.0,1702.0,-188.0,1726.0,
-256.0,1684.0,-195.0,1721.0,
-165.0,1587.0,-195.0,1720.0,
-87.0,1679.0,-195.0,1716.0,
-222.0,1627.0,-199.0,1702.0,
-255.0,1705.0,-204.0,1702.0,
-268.0,1693.0,-218.0,1693.0,
-409.0,1740.0,-222.0,1693.0,
-259.0,1643.0,-255.0,1684.0,
-65.0,1694.0,-255.0,1684.0,
-186.0,1641.0,-222.0,1679.0,
-202.0,1606.0,-222.0,1679.0,
-194.0,1600.0,-222.0,1643.0,
-175.0,1627.0,-202.0,1643.0,
-153.0,1656.0,-194.0,1643.0,
-155.0,1621.0,-186.0,1641.0,
-105.0,1241.0,-175.0,1627.0,
-119.0,1295.0,-155.0,1621.0,
-102.0,1279.0,-155.0,1606.0,
-74.0,1274.0,-153.0,1600.0,
-129.0,1541.0,-129.0,1541.0,
-68.0,1272.0,-119.0,1295.0,
-96.0,1238.0,-105.0,1279.0,
-111.0,1232.0,-105.0,1274.0,
-118.0,1273.0,-105.0,1273.0,
-119.0,1294.0,-111.0,1274.0,
-110.0,1298.0,-110.0,1274.0,
-125.0,1304.0,-111.0,1274.0,
-121.0,1269.0,-118.0,1273.0,
-122.0,1233.0,-118.0,1272.0,
-118.0,1248.0,-118.0,1269.0,
-119.0,1228.0,-119.0,1269.0,
-131.0,1229.0,-119.0,1269.0,
-131.0,1266.0,-121.0,1266.0,
-107.0,1228.0,-121.0,1248.0,
-87.0,1209.0,-121.0,1233.0,
-109.0,1246.0,-119.0,1233.0,
-106.0,1200.0,-118.0,1229.0,
-94.0,1187.0,-109.0,1228.0,
-73.0,1210.0,-107.0,1228.0,
-70.0,1169.0,-106.0,1210.0,
-106.0,1228.0,-106.0,1210.0,
-113.0,1190.0,-106.0,1209.0,
-62.0,1104.0,-94.0,1200.0,
-126.0,1171.0,-106.0,1190.0,
-76.0,1109.0,-94.0,1187.0,
-101.0,1145.0,-94.0,1171.0,
-34.0,874.0,-76.0,1169.0,
-97.0,1117.0,-97.0,1145.0,
-95.0,1060.0,-97.0,1117.0,
-78.0,1074.0,-95.0,1109.0,
-191.0,1102.0,-95.0,1104.0,
-127.0,1084.0,-97.0,1102.0,
-202.0,1071.0,-97.0,1084.0,
-181.0,1094.0,-101.0,1084.0,
-162.0,1077.0,-127.0,1077.0,
-177.0,1048.0,-162.0,1077.0,
-145.0,1031.0,-162.0,1074.0,
-141.0,1028.0,-162.0,1074.0,
-136.0,1023.0,-162.0,1071.0,
-92.0,1043.0,-145.0,1048.0,
-80.0,1005.0,-145.0,1043.0,
-38.0,1017.0,-141.0,1031.0,
-68.0,996.0,-136.0,1028.0,
17.0,790.0,-92.0,1023.0,
-1.0,981.0,-80.0,1017.0,
80.0,971.0,-68.0,1005.0,
-116.0,942.0,-68.0,996.0,
-87.0,947.0,-68.0,981.0,
-96.0,916.0,-68.0,971.0,
-73.0,902.0,-68.0,947.0,
-79.0,903.0,-73.0,942.0,
-39.0,931.0,-73.0,931.0,
-107.0,927.0,-79.0,931.0,
-97.0,876.0,-87.0,927.0,
-73.0,866.0,-87.0,916.0,
779.0,-824.0,-79.0,903.0,
-101.0,884.0,-79.0,902.0,
-99.0,860.0,-79.0,884.0,
-89.0,858.0,-89.0,876.0,
-137.0,892.0,-97.0,876.0,
793.0,-847.0,-97.0,866.0,
-88.0,887.0,-89.0,866.0,
-72.0,837.0,-88.0,860.0,
223.0,769.0,-88.0,858.0,
199.0,723.0,-88.0,858.0,
327.0,779.0,-72.0,837.0,
529.0,647.0,199.0,779.0,
239.0,588.0,223.0,769.0,
438.0,750.0,239.0,750.0,
536.0,903.0,239.0,769.0,
565.0,735.0,327.0,750.0,
516.0,709.0,438.0,735.0,
365.0,688.0,438.0,723.0,
293.0,805.0,438.0,735.0,
549.0,778.0,516.0,735.0,
298.0,1164.0,438.0,750.0,
539.0,680.0,516.0,750.0,
518.0,691.0,518.0,735.0,
570.0,694.0,518.0,709.0,
506.0,520.0,516.0,694.0,
581.0,652.0,518.0,691.0,
603.0,654.0,539.0,691.0,
605.0,640.0,549.0,680.0,
671.0,686.0,570.0,680.0,
574.0,679.0,574.0,679.0,
644.0,681.0,581.0,679.0,
561.0,710.0,581.0,679.0,
554.0,662.0,581.0,662.0,
607.0,569.0,603.0,662.0,
1005.0,-583.0,605.0,662.0,
607.0,572.0,607.0,662.0,
664.0,503.0,607.0,662.0,
743.0,498.0,607.0,572.0,
585.0,481.0,607.0,569.0,
971.0,-540.0,607.0,503.0,
621.0,278.0,621.0,498.0,
632.0,378.0,632.0,481.0,
651.0,366.0,651.0,378.0,
638.0,351.0,638.0,378.0,
594.0,287.0,638.0,366.0,
635.0,295.0,635.0,351.0,
814.0,436.0,635.0,351.0,
674.0,194.0,638.0,295.0,
711.0,155.0,638.0,295.0,
729.0,231.0,651.0,295.0,
741.0,21.0,674.0,287.0,
746.0,195.0,711.0,231.0,
785.0,109.0,729.0,195.0,
811.0,165.0,741.0,194.0,
826.0,230.0,746.0,194.0,
842.0,332.0,746.0,194.0,
766.0,253.0,766.0,195.0,
875.0,223.0,785.0,223.0,
853.0,257.0,811.0,223.0,
869.0,249.0,826.0,230.0,
889.0,306.0,842.0,249.0,
828.0,173.0,842.0,249.0,
784.0,183.0,842.0,249.0,
833.0,186.0,842.0,249.0,
807.0,92.0,833.0,223.0,
894.0,264.0,853.0,223.0,
920.0,228.0,853.0,228.0,
940.0,214.0,869.0,214.0,
901.0,205.0,889.0,205.0,
979.0,137.0,894.0,186.0,
976.0,148.0,901.0,186.0,
979.0,167.0,920.0,186.0,
1024.0,132.0,940.0,167.0,
978.0,167.0,976.0,167.0,
972.0,115.0,976.0,167.0,
967.0,153.0,976.0,153.0,
966.0,91.0,976.0,148.0,
948.0,82.0,976.0,137.0,
1009.0,60.0,976.0,132.0,
979.0,78.0,978.0,115.0,
1010.0,42.0,978.0,91.0,
1135.0,-327.0,978.0,82.0,
1020.0,30.0,979.0,78.0,
868.0,71.0,979.0,71.0,
1042.0,13.0,1009.0,60.0,
1163.0,-336.0,1010.0,42.0,
1062.0,31.0,1020.0,31.0,
1059.0,-5.0,1042.0,30.0,
1156.0,103.0,1059.0,30.0,
1105.0,-77.0,1062.0,13.0,
1091.0,-27.0,1062.0,13.0,
1141.0,-52.0,1091.0,-5.0,
1141.0,-40.0,1105.0,-27.0,
1147.0,-40.0,1141.0,-40.0,
1145.0,-75.0,1141.0,-40.0,
1172.0,-44.0,1141.0,-40.0,
1153.0,-22.0,1145.0,-40.0,
1190.0,-84.0,1145.0,-44.0,
1226.0,-95.0,1147.0,-44.0,
1357.0,-462.0,1153.0,-52.0,
1220.0,-133.0,1172.0,-75.0,
1246.0,-108.0,1190.0,-84.0,
1326.0,-156.0,1220.0,-95.0,
1362.0,-186.0,1226.0,-108.0,
1342.0,-185.0,1246.0,-133.0,
1101.0,-81.0,1246.0,-133.0,
1286.0,-145.0,1286.0,-145.0,
1437.0,-47.0,1326.0,-145.0,
1443.0,-263.0,1326.0,-145.0,
1389.0,-183.0,1342.0,-156.0,
1350.0,-171.0,1350.0,-171.0,
1255.0,-105.0,1350.0,-171.0,
1208.0,-92.0,1342.0,-145.0,
1222.0,-106.0,1286.0,-106.0,
1578.0,-310.0,1350.0,-145.0,
1607.0,-96.0,1389.0,-106.0,
1435.0,-188.0,1389.0,-171.0,
1447.0,-173.0,1389.0,-171.0,
1577.0,-276.0,1435.0,-171.0,
1505.0,-204.0,1447.0,-173.0,
1434.0,-198.0,1447.0,-188.0,
1449.0,-212.0,1449.0,-198.0,
1574.0,-263.0,1505.0,-204.0,
1655.0,-282.0,1505.0,-204.0,
1593.0,-261.0,1505.0,-212.0,
1658.0,-112.0,1574.0,-212.0,
1590.0,-227.0,1577.0,-227.0,
1579.0,-227.0,1579.0,-227.0,
1596.0,-230.0,1590.0,-227.0,
1524.0,-239.0,1590.0,-230.0,
1531.0,-198.0,1590.0,-230.0,
1534.0,-200.0,1590.0,-227.0,
1592.0,-214.0,1590.0,-227.0,
1713.0,-502.0,1590.0,-227.0,
1636.0,-235.0,1590.0,-227.0,
1695.0,-230.0,1592.0,-230.0,
1733.0,-260.0,1596.0,-230.0,
1679.0,-285.0,1636.0,-235.0,
1703.0,-221.0,1679.0,-230.0,
1702.0,-258.0,1695.0,-235.0,
1636.0,-240.0,1695.0,-240.0,
1687.0,-238.0,1695.0,-240.0,
1670.0,-221.0,1687.0,-238.0,
1690.0,-249.0,1690.0,-240.0,
1725.0,-267.0,1690.0,-249.0,
1785.0,-296.0,1690.0,-249.0,
1788.0,-297.0,1702.0,-249.0,
1755.0,-287.0,1702.0,-258.0,
1690.0,-250.0,1690.0,-250.0,
1785.0,-243.0,1725.0,-250.0,
1838.0,-301.0,1755.0,-267.0,
1865.0,-278.0,1785.0,-278.0,
1880.0,-297.0,1785.0,-287.0,
1876.0,-274.0,1788.0,-287.0,
1750.0,-215.0,1788.0,-278.0,
1903.0,-332.0,1838.0,-278.0,
1921.0,-279.0,1865.0,-278.0,
1927.0,-292.0,1876.0,-279.0,
1945.0,-283.0,1880.0,-283.0,
2032.0,-185.0,1903.0,-279.0,
2018.0,-343.0,1921.0,-283.0,
2032.0,-320.0,1927.0,-283.0,
2053.0,-279.0,1945.0,-283.0,
2049.0,-305.0,2018.0,-292.0,
2064.0,-316.0,2032.0,-292.0,
2104.0,-314.0,2032.0,-305.0,
2116.0,-316.0,2049.0,-314.0,
2190.0,-378.0,2053.0,-316.0,
2156.0,-366.0,2064.0,-316.0,
2114.0,-309.0,2104.0,-316.0,
2077.0,-303.0,2104.0,-314.0,
2127.0,-321.0,2114.0,-316.0,
2206.0,-412.0,2116.0,-316.0,
2433.0,-464.0,2127.0,-321.0,
2091.0,-286.0,2127.0,-321.0,
1973.0,-220.0,2127.0,-321.0,
2091.0,-308.0,2114.0,-309.0,
2176.0,-324.0,2114.0,-309.0,
2226.0,-334.0,2127.0,-321.0,
2234.0,-313.0,2176.0,-321.0,
2303.0,-390.0,2206.0,-324.0,
2376.0,-402.0,2226.0,-324.0,
2055.0,-207.0,2176.0,-313.0,
2182.0,-421.0,2182.0,-324.0,
2158.0,-273.0,2182.0,-324.0,
2217.0,-240.0,2217.0,-324.0,
2291.0,-299.0,2226.0,-313.0,
2333.0,-310.0,2234.0,-310.0,
2177.0,-232.0,2217.0,-299.0,
2235.0,-231.0,2217.0,-273.0,
2169.0,-207.0,2182.0,-240.0,
2398.0,-325.0,2217.0,-273.0,
2407.0,-323.0,2235.0,-273.0,
2422.0,-295.0,2291.0,-295.0,
2404.0,-302.0,2333.0,-299.0,
2429.0,-316.0,2398.0,-302.0,
2424.0,-296.0,2404.0,-296.0,
2453.0,-299.0,2407.0,-299.0,
2339.0,-242.0,2407.0,-299.0,
2363.0,-250.0,2407.0,-299.0,
2393.0,-264.0,2407.0,-296.0,
2404.0,-245.0,2404.0,-295.0,
2447.0,-269.0,2404.0,-269.0,
2435.0,-254.0,2424.0,-264.0,
2455.0,-245.0,2424.0,-254.0,
2430.0,-221.0,2430.0,-250.0,
2445.0,-204.0,2430.0,-245.0,
2378.0,-170.0,2430.0,-245.0,
2404.0,-153.0,2430.0,-245.0,
2484.0,-187.0,2435.0,-221.0,
2474.0,-217.0,2445.0,-217.0,
2548.0,-213.0,2445.0,-213.0,
2714.0,-445.0,2455.0,-213.0,
2626.0,-252.0,2474.0,-213.0,
2611.0,-273.0,2484.0,-213.0,
2645.0,-278.0,2548.0,-217.0,
2655.0,-244.0,2611.0,-244.0,
2685.0,-226.0,2626.0,-244.0,
2715.0,-308.0,2645.0,-252.0,
2690.0,-260.0,2655.0,-260.0,
2538.0,-248.0,2655.0,-260.0,
2762.0,-326.0,2655.0,-260.0,
2727.0,-314.0,2685.0,-273.0,
2769.0,-312.0,2690.0,-278.0,
2781.0,-353.0,2715.0,-308.0,
2785.0,-331.0,2727.0,-312.0,
2754.0,-317.0,2754.0,-314.0,
2767.0,-321.0,2762.0,-317.0,
2712.0,-300.0,2762.0,-317.0,
2673.0,-282.0,2762.0,-317.0,
2697.0,-254.0,2754.0,-314.0,
2711.0,-297.0,2754.0,-312.0,
2812.0,-289.0,2754.0,-300.0,
2849.0,-284.0,2754.0,-297.0,
2862.0,-355.0,2754.0,-297.0,
2839.0,-317.0,2767.0,-297.0,
2952.0,-338.0,2812.0,-297.0,
3032.0,-353.0,2839.0,-297.0,
2924.0,-356.0,2849.0,-317.0,
3007.0,-373.0,2862.0,-338.0,
3035.0,-340.0,2924.0,-340.0,
3027.0,-307.0,2952.0,-340.0,
3035.0,-316.0,3007.0,-340.0,
3061.0,-335.0,3027.0,-338.0,
3013.0,-267.0,3027.0,-338.0,
3111.0,-422.0,3032.0,-340.0,
3068.0,-343.0,3035.0,-340.0,
3115.0,-387.0,3035.0,-340.0,
3130.0,-338.0,3061.0,-338.0,
3146.0,-372.0,3068.0,-338.0,
3238.0,-389.0,3111.0,-343.0,
3257.0,-325.0,3115.0,-343.0,
3230.0,-428.0,3130.0,-372.0,
3267.0,-429.0,3146.0,-387.0,
3152.0,-396.0,3152.0,-387.0,
3124.0,-385.0,3152.0,-387.0,
3153.0,-361.0,3153.0,-385.0,
3221.0,-382.0,3221.0,-385.0,
3235.0,-407.0,3230.0,-389.0,
3220.0,-358.0,3221.0,-385.0,
3171.0,-310.0,3220.0,-385.0,
3186.0,-336.0,3186.0,-382.0,
3173.0,-328.0,3173.0,-361.0,
3245.0,-325.0,3186.0,-358.0,
3255.0,-283.0,3220.0,-336.0,
3245.0,-266.0,3221.0,-328.0,
3271.0,-250.0,3235.0,-325.0,
3308.0,-315.0,3245.0,-315.0,
3275.0,-226.0,3245.0,-310.0,
3286.0,-209.0,3255.0,-283.0,
3270.0,-190.0,3270.0,-266.0,
3282.0,-178.0,3271.0,-250.0,
3260.0,-142.0,3271.0,-226.0,
3270.0,-164.0,3271.0,-209.0,
3330.0,-193.0,3275.0,-193.0,
3366.0,-178.0,3282.0,-190.0,
3361.0,-195.0,3282.0,-190.0,
3440.0,-265.0,3286.0,-190.0,
3479.0,-285.0,3330.0,-190.0,
3447.0,-256.0,3361.0,-193.0,
3457.0,-207.0,3366.0,-195.0,
3467.0,-221.0,3440.0,-207.0,
3514.0,-245.0,3447.0,-221.0,
3533.0,-240.0,3457.0,-240.0,
3533.0,-233.0,3467.0,-240.0,
3553.0,-245.0,3479.0,-245.0,
3530.0,-266.0,3514.0,-245.0,
3561.0,-266.0,3530.0,-245.0,
3592.0,-213.0,3533.0,-240.0,
3661.0,-358.0,3533.0,-245.0,
3624.0,-280.0,3553.0,-245.0,
3628.0,-263.0,3561.0,-263.0,
3636.0,-248.0,3592.0,-263.0,
3608.0,-265.0,3608.0,-265.0,
3745.0,-386.0,3624.0,-266.0,
3632.0,-229.0,3628.0,-265.0,
3667.0,-258.0,3632.0,-263.0,
3653.0,-209.0,3636.0,-263.0,
3675.0,-171.0,3636.0,-258.0,
3673.0,-146.0,3653.0,-248.0,
3706.0,-201.0,3667.0,-229.0,
3752.0,-181.0,3673.0,-209.0,
3737.0,-157.0,3675.0,-201.0,
3767.0,-175.0,3675.0,-181.0,
3742.0,-209.0,3706.0,-181.0,
3768.0,-168.0,3737.0,-175.0,
3763.0,-187.0,3742.0,-175.0,
3768.0,-187.0,3752.0,-181.0,
3796.0,-221.0,3763.0,-187.0,
3825.0,-218.0,3767.0,-187.0,
3833.0,-242.0,3768.0,-187.0,
3832.0,-261.0,3768.0,-209.0,
3839.0,-221.0,3796.0,-218.0,
3763.0,-226.0,3796.0,-221.0,
3839.0,-234.0,3825.0,-221.0,
3910.0,-262.0,3832.0,-226.0,
3749.0,-258.0,3832.0,-234.0,
3894.0,-281.0,3833.0,-242.0,
3873.0,-290.0,3839.0,-258.0,
3860.0,-291.0,3839.0,-261.0,
4034.0,-330.0,3860.0,-262.0,
4011.0,-331.0,3873.0,-281.0,
4002.0,-383.0,3894.0,-290.0,
4027.0,-310.0,3910.0,-291.0,
4053.0,-338.0,4002.0,-310.0,
4179.0,-165.0,4011.0,-310.0,
4071.0,-346.0,4027.0,-330.0,
4055.0,-289.0,4034.0,-330.0,
4059.0,-321.0,4053.0,-330.0,
4011.0,-310.0,4053.0,-321.0,
3998.0,-280.0,4053.0,-310.0,
3994.0,-288.0,4053.0,-310.0,
4033.0,-315.0,4053.0,-310.0,
4027.0,-276.0,4033.0,-289.0,
4038.0,-272.0,4033.0,-289.0,
4059.0,-280.0,4033.0,-288.0,
4063.0,-300.0,4033.0,-288.0,
4102.0,-273.0,4033.0,-280.0,
4225.0,-383.0,4038.0,-280.0,
4125.0,-296.0,4059.0,-288.0,
4151.0,-283.0,4063.0,-283.0,
4025.0,-231.0,4063.0,-280.0,
4193.0,-253.0,4102.0,-280.0,
4245.0,-304.0,4125.0,-283.0,
4263.0,-288.0,4151.0,-288.0,
4243.0,-287.0,4193.0,-287.0,
4242.0,-327.0,4225.0,-288.0,
4270.0,-258.0,4242.0,-287.0,
4293.0,-302.0,4243.0,-287.0,
4283.0,-343.0,4245.0,-288.0,
4325.0,-277.0,4263.0,-288.0,
4346.0,-295.0,4270.0,-295.0,
4361.0,-276.0,4283.0,-288.0,
4377.0,-279.0,4293.0,-287.0,
4344.0,-283.0,4325.0,-283.0,
4371.0,-268.0,4344.0,-279.0,
4372.0,-361.0,4346.0,-283.0,
4424.0,-313.0,4361.0,-283.0,
4448.0,-321.0,4371.0,-283.0,
4430.0,-293.0,4372.0,-293.0,
4425.0,-293.0,4377.0,-293.0,
4457.0,-323.0,4424.0,-293.0,
4479.0,-316.0,4425.0,-313.0,
4473.0,-320.0,4430.0,-316.0,
4499.0,-340.0,4448.0,-320.0,
4508.0,-324.0,4457.0,-320.0,
4531.0,-319.0,4473.0,-320.0,
4549.0,-308.0,4479.0,-319.0,
4543.0,-333.0,4499.0,-320.0,
4411.0,-280.0,4499.0,-320.0,
4595.0,-334.0,4508.0,-320.0,
4604.0,-334.0,4531.0,-324.0,
4596.0,-423.0,4543.0,-333.0,
4647.0,-358.0,4549.0,-333.0,
4656.0,-362.0,4595.0,-334.0,
4651.0,-382.0,4596.0,-334.0,
4704.0,-376.0,4604.0,-358.0,
4737.0,-408.0,4647.0,-362.0,
4756.0,-403.0,4651.0,-376.0,
4873.0,-185.0,4656.0,-376.0,
4819.0,-306.0,4704.0,-376.0,
4832.0,-314.0,4737.0,-362.0,
4772.0,-495.0,4756.0,-376.0,
4822.0,-351.0,4772.0,-376.0,
4746.0,-479.0,4772.0,-376.0,
4899.0,-195.0,4819.0,-351.0,
4957.0,-204.0,4822.0,-314.0,
4982.0,-211.0,4832.0,-306.0,
5004.0,-254.0,4832.0,-306.0,
4972.0,-274.0,4899.0,-274.0,
5031.0,-245.0,4957.0,-254.0,
4997.0,-225.0,4972.0,-245.0,
4975.0,-206.0,4975.0,-225.0,
4988.0,-216.0,4982.0,-216.0,
5009.0,-201.0,4988.0,-216.0,
5027.0,-133.0,4997.0,-216.0,
5052.0,-125.0,5004.0,-216.0,
5090.0,-142.0,5009.0,-206.0,
5112.0,-164.0,5027.0,-201.0,
5099.0,-178.0,5027.0,-178.0,
5031.0,-207.0,5031.0,-178.0,
5076.0,-248.0,5052.0,-178.0,
5093.0,-306.0,5076.0,-178.0,
5070.0,-330.0,5076.0,-178.0,
5088.0,-391.0,5088.0,-207.0,
5101.0,-391.0,5090.0,-248.0,
5330.0,-530.0,5093.0,-306.0,
5167.0,-446.0,5093.0,-330.0,
5256.0,-480.0,5093.0,-391.0,
5267.0,-462.0,5101.0,-391.0,
5393.0,-241.0,5167.0,-391.0,
5375.0,-213.0,5256.0,-391.0,
5413.0,-231.0,5267.0,-391.0,
5434.0,-269.0,5330.0,-391.0,
5395.0,-272.0,5375.0,-272.0,
5343.0,-308.0,5375.0,-272.0,
5321.0,-339.0,5375.0,-272.0,
5321.0,-394.0,5375.0,-272.0,
5334.0,-269.0,5375.0,-269.0,
5355.0,-378.0,5355.0,-272.0,
5342.0,-187.0,5343.0,-272.0,
5469.0,-44.0,5343.0,-272.0,
5392.0,-200.0,5343.0,-272.0,
5402.0,-203.0,5343.0,-269.0,
5415.0,-232.0,5355.0,-232.0,
5454.0,-208.0,5392.0,-208.0,
5465.0,-263.0,5402.0,-208.0,
5450.0,-276.0,5415.0,-208.0,
5457.0,-291.0,5450.0,-208.0,
5350.0,-298.0,5450.0,-232.0,
5505.0,-280.0,5450.0,-263.0,
5514.0,-285.0,5454.0,-276.0,
5537.0,-279.0,5457.0,-279.0,
5636.0,-249.0,5465.0,-279.0,
5642.0,-220.0,5505.0,-279.0,
5660.0,-236.0,5514.0,-279.0,
5611.0,-238.0,5537.0,-279.0,
5660.0,-121.0,5611.0,-249.0,
5672.0,-244.0,5636.0,-244.0,
5665.0,-197.0,5642.0,-238.0,
5619.0,-190.0,5642.0,-236.0,
5755.0,-177.0,5660.0,-220.0,
5700.0,-214.0,5660.0,-214.0,
5726.0,-264.0,5665.0,-214.0,
5744.0,-285.0,5672.0,-214.0,
5735.0,-292.0,5700.0,-214.0,
5697.0,-307.0,5700.0,-244.0,
5708.0,-326.0,5708.0,-264.0,
5777.0,-268.0,5726.0,-268.0,
5793.0,-257.0,5735.0,-268.0,
5728.0,-251.0,5728.0,-268.0,
5760.0,-247.0,5735.0,-268.0,
5728.0,-279.0,5735.0,-279.0,
5776.0,-228.0,5735.0,-268.0,
5817.0,-215.0,5760.0,-257.0,
5856.0,-179.0,5776.0,-251.0,
5893.0,-195.0,5777.0,-247.0,
5958.0,-170.0,5793.0,-228.0,
5927.0,-154.0,5817.0,-215.0,
5903.0,-168.0,5856.0,-195.0,
5842.0,-285.0,5856.0,-195.0,
5923.0,-409.0,5893.0,-195.0,
5949.0,-299.0,5903.0,-195.0,
6048.0,-291.0,5923.0,-195.0,
6007.0,-250.0,5927.0,-250.0,
6007.0,-256.0,5949.0,-256.0,
5971.0,-338.0,5949.0,-285.0,
6054.0,-290.0,5971.0,-290.0,
6018.0,-306.0,6007.0,-291.0,
6137.0,-206.0,6007.0,-291.0,
6154.0,-223.0,6018.0,-290.0,
5949.0,-238.0,6018.0,-256.0,
5960.0,-227.0,6007.0,-250.0,
6010.0,-237.0,6010.0,-238.0,
6048.0,-107.0,6018.0,-237.0,
6009.0,-326.0,6018.0,-237.0,
6008.0,-365.0,6010.0,-237.0,
5975.0,-326.0,6009.0,-237.0,
5996.0,-329.0,6008.0,-238.0,
5983.0,-333.0,5996.0,-326.0,
6004.0,-439.0,6004.0,-326.0,
6082.0,-301.0,6008.0,-326.0,
6080.0,-292.0,6008.0,-326.0,
6004.0,-329.0,6004.0,-329.0,
6094.0,-289.0,6004.0,-329.0,
6115.0,-275.0,6004.0,-326.0,
6100.0,-228.0,6080.0,-301.0,
6097.0,-274.0,6082.0,-292.0,
6110.0,-289.0,6094.0,-289.0,
6159.0,-266.0,6097.0,-289.0,
6152.0,-297.0,6100.0,-289.0,
6225.0,-30.0,6110.0,-275.0,
6204.0,-77.0,6115.0,-274.0,
6193.0,-101.0,6152.0,-266.0,
6175.0,-97.0,6159.0,-228.0,
6223.0,-143.0,6175.0,-143.0,
6177.0,-122.0,6177.0,-122.0,
6210.0,-121.0,6193.0,-121.0,
6246.0,-113.0,6204.0,-113.0,
6175.0,-106.0,6204.0,-106.0,
6229.0,-105.0,6204.0,-106.0,
6196.0,-128.0,6196.0,-113.0,
6217.0,-147.0,6210.0,-121.0,
6250.0,-102.0,6217.0,-121.0,
6276.0,-86.0,6217.0,-113.0,
6330.0,-107.0,6229.0,-107.0,
6283.0,-120.0,6246.0,-107.0,
6414.0,-68.0,6250.0,-106.0,
6535.0,-26.0,6276.0,-105.0,
6490.0,-31.0,6283.0,-102.0,
6510.0,-9.0,6330.0,-86.0,
6471.0,-9.0,6414.0,-68.0,
6531.0,19.0,6471.0,-31.0,
6550.0,31.0,6490.0,-26.0,
6601.0,66.0,6510.0,-9.0,
6543.0,45.0,6531.0,-9.0,
6539.0,75.0,6535.0,19.0,
6591.0,62.0,6539.0,31.0,
6590.0,59.0,6543.0,45.0,
6643.0,120.0,6550.0,59.0,
6624.0,121.0,6590.0,62.0,
6506.0,188.0,6590.0,66.0,
6490.0,164.0,6590.0,75.0,
6500.0,186.0,6543.0,120.0,
6508.0,224.0,6539.0,121.0,
6622.0,225.0,6590.0,164.0,
6669.0,240.0,6590.0,186.0,
6737.0,413.0,6622.0,188.0,
6738.0,318.0,6622.0,224.0,
6858.0,265.0,6622.0,225.0,
6750.0,317.0,6669.0,240.0,
6690.0,323.0,6690.0,265.0,
6660.0,344.0,6690.0,317.0,
6657.0,340.0,6690.0,318.0,
6793.0,374.0,6737.0,323.0,
6636.0,357.0,6737.0,340.0,
6600.0,371.0,6690.0,340.0,
6554.0,369.0,6660.0,344.0,
6556.0,379.0,6657.0,357.0,
6559.0,327.0,6636.0,357.0,
6577.0,365.0,6600.0,365.0,
6586.0,303.0,6586.0,365.0,
6571.0,284.0,6577.0,365.0,
6569.0,305.0,6571.0,357.0,
6517.0,267.0,6569.0,327.0,
6575.0,138.0,6569.0,305.0,
6513.0,184.0,6569.0,303.0,
6521.0,182.0,6569.0,284.0,
6540.0,205.0,6569.0,267.0,
6593.0,210.0,6569.0,210.0,
6603.0,236.0,6569.0,210.0,
6641.0,390.0,6569.0,210.0,
6592.0,306.0,6575.0,210.0,
6536.0,272.0,6575.0,210.0,
6651.0,296.0,6592.0,236.0,
6673.0,352.0,6593.0,272.0,
6606.0,318.0,6603.0,296.0,
6618.0,324.0,6606.0,306.0,
6658.0,324.0,6618.0,318.0,
6673.0,365.0,6641.0,324.0,
6943.0,567.0,6651.0,324.0,
6726.0,408.0,6658.0,324.0,
6714.0,454.0,6673.0,352.0,
6767.0,471.0,6673.0,365.0,
6692.0,449.0,6692.0,408.0,
6883.0,560.0,6714.0,449.0,
6705.0,461.0,6714.0,454.0,
6702.0,504.0,6714.0,461.0,
6683.0,488.0,6714.0,471.0,
6672.0,476.0,6705.0,471.0,
6710.0,521.0,6705.0,476.0,
6665.0,550.0,6702.0,488.0,
6659.0,538.0,6692.0,504.0,
6681.0,551.0,6683.0,521.0,
6657.0,551.0,6681.0,521.0,
6665.0,563.0,6672.0,538.0,
6666.0,578.0,6666.0,550.0,
6606.0,617.0,6665.0,551.0,
6536.0,643.0,6665.0,551.0,
6552.0,664.0,6659.0,563.0,
6541.0,677.0,6657.0,578.0,
6489.0,672.0,6606.0,617.0,
6748.0,624.0,6606.0,624.0,
6699.0,619.0,6606.0,624.0,
6672.0,659.0,6606.0,643.0,
6697.0,644.0,6606.0,644.0,
6637.0,677.0,6637.0,659.0,
6930.0,838.0,6672.0,664.0,
6582.0,667.0,6672.0,667.0,
6518.0,681.0,6672.0,667.0,
6542.0,702.0,6672.0,667.0,
6509.0,629.0,6637.0,667.0,
6511.0,689.0,6582.0,677.0,
6504.0,724.0,6542.0,681.0,
6501.0,743.0,6518.0,689.0,
6509.0,745.0,6511.0,702.0,
6465.0,717.0,6509.0,702.0,
6393.0,745.0,6509.0,717.0,
6443.0,723.0,6504.0,723.0,
6485.0,756.0,6501.0,724.0,
6524.0,777.0,6501.0,743.0,
6433.0,744.0,6485.0,744.0,
6397.0,737.0,6465.0,744.0,
6374.0,761.0,6443.0,745.0,
6433.0,782.0,6433.0,745.0,
6372.0,771.0,6433.0,756.0,
6340.0,787.0,6433.0,761.0,
6378.0,798.0,6397.0,771.0,
6381.0,791.0,6381.0,777.0,
6380.0,734.0,6380.0,771.0,
6359.0,779.0,6378.0,779.0,
6355.0,775.0,6374.0,779.0,
6347.0,782.0,6372.0,782.0,
6318.0,786.0,6359.0,782.0,
6268.0,819.0,6355.0,786.0,
6281.0,836.0,6355.0,786.0,
6249.0,815.0,6347.0,786.0,
6239.0,851.0,6318.0,786.0,
6231.0,877.0,6281.0,815.0,
6161.0,836.0,6268.0,819.0,
6151.0,848.0,6249.0,836.0,
6141.0,862.0,6239.0,836.0,
6129.0,892.0,6231.0,848.0,
6149.0,881.0,6161.0,851.0,
6124.0,869.0,6151.0,862.0,
6102.0,869.0,6149.0,869.0,
6142.0,866.0,6142.0,869.0,
6124.0,866.0,6141.0,866.0,
6163.0,854.0,6141.0,866.0,
6098.0,835.0,6129.0,866.0,
6077.0,837.0,6124.0,866.0,
6053.0,815.0,6124.0,866.0,
6089.0,854.0,6102.0,854.0,
6093.0,736.0,6098.0,854.0,
6071.0,764.0,6093.0,837.0,
6065.0,781.0,6089.0,835.0,
6071.0,792.0,6077.0,815.0,
6030.0,787.0,6071.0,792.0,
5991.0,715.0,6071.0,787.0,
6007.0,749.0,6065.0,781.0,
6009.0,771.0,6065.0,771.0,
6041.0,802.0,6041.0,771.0,
6031.0,814.0,6031.0,781.0,
6036.0,848.0,6031.0,787.0,
5996.0,788.0,6030.0,788.0,
6022.0,782.0,6022.0,787.0,
5988.0,772.0,6009.0,782.0,
5969.0,748.0,6009.0,782.0,
5978.0,793.0,6009.0,788.0,
5978.0,812.0,5996.0,793.0,
5966.0,795.0,5988.0,793.0,
5932.0,811.0,5978.0,793.0,
5890.0,777.0,5978.0,788.0,
5892.0,765.0,5969.0,782.0,
5909.0,772.0,5966.0,777.0,
5871.0,784.0,5932.0,784.0,
5866.0,747.0,5909.0,784.0,
5861.0,669.0,5892.0,777.0,
5789.0,697.0,5890.0,772.0,
5803.0,667.0,5871.0,765.0,
5796.0,696.0,5866.0,747.0,
5756.0,683.0,5861.0,697.0,
5755.0,670.0,5803.0,696.0,
5710.0,691.0,5796.0,691.0,
5687.0,715.0,5789.0,691.0,
5699.0,695.0,5756.0,691.0,
5644.0,666.0,5755.0,691.0,
5656.0,545.0,5710.0,683.0,
5666.0,605.0,5699.0,683.0,
5647.0,683.0,5687.0,683.0,
5628.0,766.0,5666.0,683.0,
5639.0,773.0,5656.0,691.0,
5614.0,749.0,5647.0,695.0,
5654.0,747.0,5647.0,695.0,
5625.0,734.0,5644.0,734.0,
5577.0,717.0,5639.0,734.0,
5552.0,761.0,5628.0,747.0,
5577.0,751.0,5625.0,749.0,
5555.0,778.0,5614.0,751.0,
5564.0,804.0,5577.0,751.0,
5515.0,813.0,5577.0,751.0,
5528.0,795.0,5564.0,761.0,
5353.0,763.0,5555.0,763.0,
5533.0,735.0,5552.0,763.0,
5489.0,730.0,5533.0,763.0,
5482.0,693.0,5528.0,763.0,
5500.0,793.0,5515.0,778.0,
5461.0,736.0,5500.0,763.0,
5460.0,770.0,5489.0,763.0,
5455.0,802.0,5482.0,763.0,
5442.0,795.0,5461.0,763.0,
5436.0,797.0,5461.0,770.0,
5420.0,778.0,5460.0,778.0,
5411.0,756.0,5455.0,778.0,
5417.0,770.0,5442.0,778.0,
5385.0,768.0,5436.0,770.0,
5377.0,784.0,5420.0,778.0,
5329.0,757.0,5417.0,778.0,
5330.0,785.0,5411.0,778.0,
5356.0,763.0,5385.0,770.0,
5296.0,812.0,5377.0,770.0,
5293.0,792.0,5356.0,770.0,
5279.0,790.0,5330.0,784.0,
5287.0,879.0,5329.0,785.0,
5230.0,788.0,5296.0,788.0,
5224.0,803.0,5293.0,790.0,
5190.0,796.0,5287.0,792.0,
5166.0,808.0,5279.0,796.0,
5201.0,817.0,5230.0,803.0,
5007.0,813.0,5224.0,803.0,
5130.0,778.0,5201.0,803.0,
5160.0,797.0,5190.0,803.0,
5124.0,781.0,5166.0,797.0,
5245.0,686.0,5166.0,797.0,
5111.0,820.0,5160.0,797.0,
5097.0,807.0,5130.0,807.0,
5055.0,814.0,5124.0,807.0,
4986.0,790.0,5111.0,797.0,
4887.0,826.0,5111.0,797.0,
4945.0,808.0,5097.0,807.0,
4884.0,821.0,5055.0,808.0,
4871.0,790.0,4986.0,808.0,
4887.0,763.0,4945.0,808.0,
4840.0,793.0,4887.0,807.0,
4848.0,774.0,4887.0,793.0,
4829.0,823.0,4884.0,793.0,
4806.0,782.0,4871.0,793.0,
4778.0,787.0,4848.0,790.0,
4783.0,813.0,4840.0,790.0,
4794.0,778.0,4829.0,787.0,
4760.0,785.0,4806.0,785.0,
4760.0,753.0,4794.0,785.0,
4759.0,795.0,4783.0,785.0,
4757.0,788.0,4778.0,787.0,
4760.0,758.0,4760.0,785.0,
4768.0,771.0,4760.0,785.0,
4755.0,748.0,4760.0,778.0,
4699.0,782.0,4760.0,778.0,
4718.0,773.0,4759.0,773.0,
4706.0,770.0,4757.0,771.0,
4680.0,810.0,4755.0,773.0,
4683.0,783.0,4718.0,773.0,
4653.0,776.0,4706.0,773.0,
4694.0,734.0,4699.0,773.0,
4638.0,766.0,4694.0,773.0,
4646.0,714.0,4683.0,773.0,
4641.0,715.0,4680.0,770.0,
4638.0,737.0,4653.0,766.0,
4621.0,811.0,4646.0,766.0,
4613.0,820.0,4641.0,766.0,
4659.0,865.0,4641.0,766.0,
4631.0,842.0,4638.0,766.0,
4660.0,817.0,4638.0,811.0,
4587.0,808.0,4638.0,811.0,
4610.0,848.0,4631.0,817.0,
4596.0,839.0,4621.0,820.0,
4573.0,861.0,4613.0,839.0,
4566.0,849.0,4610.0,842.0,
4590.0,781.0,4596.0,842.0,
4567.0,732.0,4590.0,839.0,
4571.0,727.0,4587.0,817.0,
4651.0,604.0,4587.0,808.0,
4530.0,822.0,4573.0,822.0,
4539.0,841.0,4571.0,822.0,
4589.0,830.0,4571.0,822.0,
4507.0,902.0,4567.0,822.0,
4505.0,968.0,4567.0,822.0,
4590.0,836.0,4567.0,830.0,
4686.0,654.0,4571.0,830.0,
4524.0,797.0,4539.0,830.0,
4525.0,887.0,4530.0,836.0,
4423.0,1022.0,4525.0,841.0,
4507.0,856.0,4524.0,856.0,
4350.0,1146.0,4507.0,887.0,
4350.0,1144.0,4507.0,887.0,
4364.0,1070.0,4507.0,887.0,
4304.0,1038.0,4423.0,1022.0,
4352.0,1043.0,4364.0,1038.0,
4385.0,1064.0,4364.0,1043.0,
4371.0,1086.0,4364.0,1064.0,
4319.0,1237.0,4352.0,1070.0,
4334.0,1191.0,4350.0,1086.0,
4372.0,1126.0,4352.0,1086.0,
4337.0,1130.0,4352.0,1086.0,
4316.0,1119.0,4337.0,1119.0,
4294.0,1175.0,4337.0,1126.0,
4308.0,1155.0,4334.0,1130.0,
4302.0,1196.0,4319.0,1155.0,
4300.0,1181.0,4316.0,1175.0,
4280.0,1140.0,4308.0,1155.0,
4282.0,1097.0,4302.0,1140.0,
4323.0,1034.0,4302.0,1140.0,
4351.0,1016.0,4302.0,1140.0,
4280.0,1106.0,4300.0,1140.0,
4400.0,980.0,4302.0,1106.0,
4384.0,1002.0,4302.0,1097.0,
4405.0,1031.0,4323.0,1034.0,
4510.0,1107.0,4351.0,1034.0,
4438.0,1057.0,4384.0,1034.0,
4448.0,999.0,4400.0,1031.0,
4470.0,993.0,4405.0,1016.0,
4546.0,1024.0,4438.0,1024.0,
4550.0,978.0,4448.0,1002.0,
4493.0,987.0,4470.0,1002.0,
4513.0,1013.0,4493.0,1013.0,
4599.0,1026.0,4510.0,1013.0,
4485.0,1040.0,4493.0,1013.0,
4465.0,990.0,4493.0,999.0,
4506.0,959.0,4506.0,993.0,
4543.0,961.0,4513.0,990.0,
4567.0,889.0,4513.0,987.0,
4562.0,844.0,4513.0,987.0,
3992.0,1277.0,4513.0,990.0,
4018.0,1418.0,4506.0,990.0,
4018.0,1429.0,4485.0,990.0,
4338.0,866.0,4465.0,961.0,
4003.0,1481.0,4338.0,961.0,
4004.0,1412.0,4018.0,1277.0,
4022.0,1458.0,4018.0,1412.0,
4025.0,1549.0,4018.0,1418.0,
4039.0,1536.0,4018.0,1429.0,
4052.0,1558.0,4022.0,1458.0,
4036.0,1524.0,4025.0,1481.0,
4005.0,1527.0,4025.0,1524.0,
4009.0,1562.0,4022.0,1527.0,
4030.0,1552.0,4025.0,1536.0,
4040.0,1561.0,4030.0,1549.0,
4064.0,1552.0,4036.0,1552.0,
4099.0,1618.0,4039.0,1552.0,
4077.0,1680.0,4040.0,1558.0,
4155.0,2342.0,4040.0,1561.0,
4105.0,1573.0,4064.0,1562.0,
4122.0,1620.0,4077.0,1573.0,
4786.0,789.0,4099.0,1573.0,
4216.0,1708.0,4105.0,1618.0,
4205.0,1754.0,4122.0,1620.0,
4197.0,1814.0,4155.0,1680.0,
4082.0,1960.0,4155.0,1708.0,
4847.0,810.0,4197.0,1708.0,
4193.0,1688.0,4197.0,1688.0,
4009.0,1655.0,4197.0,1688.0,
4041.0,1656.0,4197.0,1688.0,
4076.0,1707.0,4193.0,1707.0,
3869.0,1728.0,4082.0,1707.0,
3873.0,1767.0,4076.0,1707.0,
3821.0,1776.0,4041.0,1707.0,
3892.0,1730.0,4009.0,1707.0,
3971.0,1769.0,3971.0,1728.0,
3984.0,1826.0,3971.0,1730.0,
4005.0,1817.0,3971.0,1767.0,
4032.0,1813.0,3971.0,1769.0,
3842.0,1899.0,3892.0,1776.0,
3824.0,2025.0,3892.0,1813.0,
3855.0,1941.0,3892.0,1817.0,
3852.0,1924.0,3892.0,1826.0,
4290.0,1077.0,3971.0,1826.0,
4320.0,1080.0,3984.0,1826.0,
4323.0,1125.0,4005.0,1817.0,
4279.0,1135.0,4032.0,1813.0,
4321.0,1022.0,4279.0,1135.0,
4245.0,1153.0,4279.0,1135.0,
4063.0,1840.0,4279.0,1135.0,
3960.0,1928.0,4279.0,1135.0,
4015.0,1910.0,4279.0,1135.0,
3965.0,1968.0,4245.0,1153.0,
4107.0,1629.0,4107.0,1629.0,
4357.0,1261.0,4107.0,1629.0,
4332.0,1346.0,4107.0,1629.0,
4304.0,1387.0,4107.0,1629.0,
4236.0,1529.0,4107.0,1629.0,
4208.0,1587.0,4208.0,1587.0,
4210.0,1600.0,4210.0,1587.0,
4212.0,1616.0,4212.0,1587.0,
4209.0,1678.0,4212.0,1587.0,
4153.0,1813.0,4212.0,1587.0,
4135.0,1846.0,4210.0,1600.0,
4005.0,2196.0,4209.0,1616.0,
3993.0,2192.0,4208.0,1678.0,
3993.0,2177.0,4153.0,1813.0,
4028.0,2166.0,4135.0,1846.0,
3923.0,2323.0,4028.0,2166.0,
4058.0,2121.0,4028.0,2166.0,
4056.0,2096.0,4028.0,2166.0,
4066.0,2066.0,4028.0,2166.0,
4067.0,2080.0,4028.0,2166.0,
4105.0,2066.0,4056.0,2121.0,
4069.0,2134.0,4058.0,2121.0,
4054.0,2144.0,4058.0,2121.0,
4000.0,2308.0,4058.0,2121.0,
4069.0,2183.0,4066.0,2121.0,
4026.0,2251.0,4066.0,2134.0,
3989.0,2343.0,4066.0,2144.0,
4034.0,2327.0,4054.0,2183.0,
4038.0,2328.0,4038.0,2251.0,
4025.0,2352.0,4034.0,2308.0,
3964.0,2458.0,4026.0,2327.0,
4029.0,2367.0,4026.0,2328.0,
4041.0,2365.0,4029.0,2343.0,
4123.0,2307.0,4029.0,2343.0,
4062.0,2335.0,4034.0,2343.0,
4077.0,2358.0,4038.0,2352.0,
4069.0,2387.0,4041.0,2358.0,
4074.0,2438.0,4062.0,2365.0,
3979.0,2218.0,4062.0,2365.0,
4020.0,2485.0,4062.0,2365.0,
4032.0,2488.0,4062.0,2365.0,
4039.0,2493.0,4062.0,2387.0,
4015.0,2520.0,4039.0,2438.0,
4082.0,2717.0,4039.0,2485.0,
4027.0,2556.0,4032.0,2488.0,
4034.0,2565.0,4032.0,2493.0,
4032.0,2574.0,4032.0,2520.0,
4070.0,2460.0,4032.0,2520.0,
4082.0,2447.0,4034.0,2520.0,
4045.0,2598.0,4039.0,2556.0,
4056.0,2578.0,4045.0,2565.0,
4039.0,2641.0,4045.0,2574.0,
4033.0,2680.0,4039.0,2574.0,
4022.0,2696.0,4039.0,2578.0,
4019.0,2740.0,4039.0,2598.0,
4000.0,2780.0,4039.0,2641.0,
4006.0,2804.0,4033.0,2680.0,
3999.0,2827.0,4022.0,2696.0,
4034.0,2707.0,4022.0,2707.0,
4013.0,2784.0,4019.0,2740.0,
4033.0,2845.0,4019.0,2780.0,
4058.0,2718.0,4019.0,2780.0,
4063.0,2792.0,4019.0,2784.0,
4051.0,2818.0,4033.0,2792.0,
4115.0,2998.0,4034.0,2804.0,
4036.0,2873.0,4036.0,2818.0,
4014.0,2865.0,4036.0,2818.0,
4001.0,2867.0,4036.0,2845.0,
3984.0,2888.0,4036.0,2865.0,
3986.0,2971.0,4036.0,2867.0,
3999.0,2942.0,4014.0,2873.0,
4075.0,3184.0,4014.0,2888.0,
4014.0,2963.0,4014.0,2942.0,
4006.0,2970.0,4006.0,2942.0,
4105.0,3257.0,4006.0,2963.0,
4006.0,2925.0,4006.0,2963.0,
4001.0,2962.0,4006.0,2963.0,
4027.0,2992.0,4006.0,2970.0,
4005.0,3020.0,4006.0,2970.0,
4023.0,3034.0,4014.0,2992.0,
4001.0,3023.0,4006.0,2992.0,
4027.0,3046.0,4006.0,3020.0,
4028.0,2961.0,4023.0,3020.0,
4028.0,3051.0,4023.0,3020.0,
4180.0,2714.0,4027.0,3020.0,
4019.0,3034.0,4027.0,3023.0,
4167.0,2692.0,4027.0,3023.0,
3928.0,2702.0,4027.0,3023.0,
3960.0,3121.0,4027.0,3023.0,
3951.0,3263.0,4027.0,3034.0,
3915.0,3356.0,4019.0,3034.0,
3734.0,3519.0,3960.0,3051.0,
3891.0,3358.0,3951.0,3121.0,
3892.0,3401.0,3928.0,3263.0,
3884.0,3417.0,3915.0,3356.0,
3882.0,3476.0,3892.0,3358.0,
3892.0,3397.0,3892.0,3397.0,
3888.0,3535.0,3891.0,3401.0,
4079.0,3638.0,3891.0,3417.0,
3916.0,3575.0,3891.0,3476.0,
3948.0,3502.0,3892.0,3476.0,
3928.0,3488.0,3892.0,3488.0,
3982.0,3412.0,3916.0,3488.0,
3928.0,3454.0,3928.0,3488.0,
3889.0,3432.0,3928.0,3488.0,
3864.0,3408.0,3928.0,3488.0,
3887.0,3479.0,3928.0,3479.0,
3844.0,3481.0,3916.0,3479.0,
3830.0,3506.0,3889.0,3479.0,
3826.0,3519.0,3887.0,3479.0,
3809.0,3498.0,3864.0,3479.0,
3837.0,3492.0,3844.0,3481.0,
3843.0,3580.0,3843.0,3492.0,
3838.0,3610.0,3838.0,3498.0,
3860.0,3692.0,3838.0,3506.0,
3857.0,3685.0,3838.0,3519.0,
3856.0,3641.0,3838.0,3580.0,
3822.0,3766.0,3838.0,3610.0,
3816.0,3808.0,3838.0,3641.0,
3824.0,3815.0,3838.0,3685.0,
3748.0,3824.0,3838.0,3692.0,
3874.0,3816.0,3838.0,3766.0,
3768.0,3511.0,3824.0,3766.0,
3760.0,3411.0,3822.0,3766.0,
3789.0,3911.0,3816.0,3808.0,
3771.0,3884.0,3789.0,3815.0,
3770.0,3930.0,3771.0,3816.0,
3761.0,3921.0,3770.0,3824.0,
3757.0,3936.0,3768.0,3884.0,
3700.0,3891.0,3768.0,3891.0,
3594.0,3304.0,3761.0,3891.0,
3586.0,3349.0,3760.0,3891.0,
3711.0,3779.0,3757.0,3891.0,
3790.0,3878.0,3757.0,3884.0,
3697.0,3876.0,3711.0,3878.0,
3671.0,3857.0,3700.0,3876.0,
3618.0,3916.0,3697.0,3876.0,
3613.0,3957.0,3671.0,3876.0,
3641.0,3821.0,3641.0,3857.0,
3553.0,3961.0,3641.0,3876.0,
3560.0,3951.0,3641.0,3878.0,
3572.0,3897.0,3618.0,3897.0,
3575.0,3910.0,3613.0,3910.0,
3550.0,3975.0,3575.0,3916.0,
3600.0,3956.0,3575.0,3951.0,
3654.0,3922.0,3575.0,3951.0,
3699.0,3835.0,3575.0,3922.0,
3718.0,3836.0,3575.0,3922.0,
3673.0,3651.0,3600.0,3910.0,
3472.0,3667.0,3600.0,3897.0,
3532.0,3764.0,3600.0,3836.0,
3536.0,3796.0,3600.0,3835.0,
3521.0,3944.0,3600.0,3835.0,
3525.0,3980.0,3536.0,3835.0,
3419.0,4389.0,3532.0,3835.0,
3493.0,4005.0,3525.0,3836.0,
3485.0,4021.0,3521.0,3944.0,
3490.0,4043.0,3493.0,3980.0,
3462.0,4041.0,3493.0,4005.0,
3393.0,4039.0,3490.0,4021.0,
3347.0,4065.0,3485.0,4039.0,
3403.0,4059.0,3462.0,4041.0,
3351.0,4123.0,3419.0,4043.0,
3424.0,4096.0,3424.0,4043.0,
3441.0,4122.0,3424.0,4059.0,
3403.0,4114.0,3403.0,4065.0,
3421.0,4099.0,3403.0,4096.0,
3381.0,4151.0,3403.0,4099.0,
3385.0,4173.0,3403.0,4114.0,
3362.0,4154.0,3403.0,4122.0,
3354.0,4130.0,3385.0,4123.0,
3375.0,4103.0,3385.0,4122.0,
3335.0,4148.0,3381.0,4130.0,
3307.0,4158.0,3375.0,4148.0,
3335.0,4147.0,3362.0,4148.0,
3351.0,4140.0,3354.0,4148.0,
3120.0,2984.0,3351.0,4147.0,
3228.0,4161.0,3335.0,4147.0,
2914.0,2457.0,3335.0,4140.0,
3178.0,4163.0,3307.0,4147.0,
3197.0,4133.0,3228.0,4147.0,
3176.0,4090.0,3197.0,4140.0,
3166.0,4172.0,3178.0,4140.0,
3178.0,4091.0,3178.0,4133.0,
3206.0,4140.0,3178.0,4133.0,
3231.0,4281.0,3178.0,4140.0,
3224.0,4127.0,3178.0,4133.0,
3047.0,4824.0,3178.0,4140.0,
3415.0,4111.0,3197.0,4133.0,
3192.0,4345.0,3192.0,4140.0,
3573.0,4584.0,3206.0,4172.0,
3333.0,4753.0,3224.0,4281.0,
3145.0,4182.0,3224.0,4281.0,
3157.0,4319.0,3224.0,4319.0,
3123.0,4224.0,3192.0,4319.0,
3113.0,4053.0,3157.0,4319.0,
3063.0,4049.0,3157.0,4224.0,
3063.0,4015.0,3145.0,4224.0,
3215.0,4661.0,3145.0,4224.0,
3258.0,4831.0,3145.0,4224.0,
3083.0,4228.0,3123.0,4224.0,
3084.0,4215.0,3113.0,4224.0,
2792.0,2438.0,3084.0,4215.0,
3052.0,4216.0,3083.0,4215.0,
3011.0,4179.0,3063.0,4215.0,
2988.0,4110.0,3063.0,4215.0,
3013.0,4196.0,3052.0,4215.0,
2985.0,4133.0,3013.0,4196.0,
2960.0,4122.0,3011.0,4179.0,
3019.0,4040.0,3011.0,4133.0,
3017.0,4108.0,3011.0,4122.0,
3010.0,4043.0,3011.0,4122.0,
3042.0,4010.0,3011.0,4110.0,
2952.0,4024.0,3010.0,4108.0,
2886.0,4030.0,3010.0,4043.0,
2870.0,4063.0,2985.0,4043.0,
2864.0,3991.0,2960.0,4040.0,
3016.0,4066.0,3010.0,4040.0,
3033.0,3986.0,3010.0,4030.0,
3020.0,3995.0,3010.0,4024.0,
2977.0,4057.0,2977.0,4024.0,
2924.0,4086.0,2952.0,4030.0,
2724.0,4017.0,2924.0,4030.0,
2892.0,4037.0,2924.0,4037.0,
2916.0,4058.0,2924.0,4037.0,
2856.0,4045.0,2924.0,4045.0,
2785.0,3986.0,2916.0,4037.0,
2775.0,3997.0,2892.0,4037.0,
2914.0,4002.0,2892.0,4037.0,
2781.0,3998.0,2856.0,4017.0,
2782.0,4040.0,2785.0,4017.0,
2774.0,4056.0,2785.0,4037.0,
2746.0,4111.0,2782.0,4040.0,
2732.0,4071.0,2781.0,4040.0,
2739.0,4060.0,2775.0,4040.0,
2717.0,4102.0,2774.0,4056.0,
2692.0,4161.0,2746.0,4060.0,
2708.0,4115.0,2739.0,4071.0,
2453.0,2478.0,2732.0,4071.0,
2700.0,4097.0,2717.0,4097.0,
2666.0,4136.0,2708.0,4102.0,
2667.0,4187.0,2700.0,4102.0,
2340.0,2414.0,2692.0,4102.0,
2594.0,4179.0,2667.0,4115.0,
2607.0,4152.0,2666.0,4136.0,
2575.0,4146.0,2607.0,4136.0,
2561.0,4148.0,2594.0,4146.0,
2516.0,4111.0,2594.0,4146.0,
2482.0,4220.0,2575.0,4148.0,
2496.0,4145.0,2561.0,4148.0,
2474.0,4157.0,2516.0,4148.0,
2418.0,4186.0,2516.0,4152.0,
2389.0,4163.0,2496.0,4152.0,
2425.0,4128.0,2482.0,4148.0,
2419.0,4056.0,2474.0,4148.0,
2398.0,4073.0,2425.0,4145.0,
2415.0,4067.0,2419.0,4145.0,
2640.0,4054.0,2419.0,4128.0,
2366.0,4092.0,2418.0,4092.0,
2615.0,4124.0,2418.0,4092.0,
2383.0,4123.0,2415.0,4092.0,
2429.0,4093.0,2419.0,4092.0,
2436.0,4035.0,2419.0,4073.0,
2288.0,4038.0,2415.0,4073.0,
2373.0,4081.0,2415.0,4081.0,
2323.0,4198.0,2383.0,4092.0,
2321.0,4126.0,2373.0,4093.0,
2306.0,4193.0,2373.0,4123.0,
2302.0,4253.0,2323.0,4123.0,
2256.0,4248.0,2321.0,4126.0,
2169.0,4331.0,2306.0,4193.0,
2197.0,4297.0,2302.0,4198.0,
2179.0,4277.0,2302.0,4248.0,
2079.0,3684.0,2256.0,4248.0,
2126.0,4277.0,2197.0,4253.0,
2114.0,4233.0,2179.0,4253.0,
2099.0,4181.0,2169.0,4253.0,
2096.0,4200.0,2126.0,4248.0,
2118.0,4159.0,2118.0,4233.0,
2122.0,4140.0,2118.0,4200.0,
2089.0,4127.0,2114.0,4181.0,
2109.0,4128.0,2109.0,4159.0,
2111.0,4209.0,2111.0,4181.0,
2064.0,4159.0,2109.0,4159.0,
2134.0,4485.0,2109.0,4159.0,
2071.0,4223.0,2109.0,4159.0,
2037.0,4277.0,2109.0,4159.0,
1999.0,4348.0,2089.0,4209.0,
2068.0,4491.0,2071.0,4223.0,
2016.0,4200.0,2068.0,4223.0,
1983.0,4172.0,2064.0,4223.0,
1973.0,4245.0,2037.0,4245.0,
1939.0,4241.0,2016.0,4245.0,
1942.0,4279.0,1999.0,4245.0,
1954.0,4222.0,1983.0,4245.0,
1898.0,4229.0,1973.0,4241.0,
1894.0,4143.0,1954.0,4229.0,
2047.0,4121.0,1954.0,4222.0,
1916.0,4111.0,1942.0,4222.0,
1859.0,4218.0,1939.0,4222.0,
1896.0,4126.0,1916.0,4218.0,
1867.0,4197.0,1898.0,4197.0,
1903.0,4085.0,1898.0,4143.0,
1869.0,4131.0,1896.0,4131.0,
1847.0,4159.0,1894.0,4131.0,
1818.0,4155.0,1869.0,4131.0,
1820.0,4139.0,1867.0,4139.0,
1789.0,4175.0,1859.0,4155.0,
1817.0,4165.0,1847.0,4155.0,
1807.0,4150.0,1820.0,4155.0,
1795.0,4154.0,1818.0,4154.0,
1812.0,4163.0,1817.0,4155.0,
1799.0,4146.0,1812.0,4155.0,
1770.0,4143.0,1807.0,4154.0,
1746.0,4160.0,1799.0,4154.0,
1736.0,4096.0,1795.0,4154.0,
1729.0,4117.0,1795.0,4150.0,
1681.0,4165.0,1770.0,4150.0,
1663.0,4122.0,1746.0,4146.0,
1652.0,4095.0,1736.0,4143.0,
1628.0,4117.0,1729.0,4122.0,
1639.0,4160.0,1681.0,4122.0,
1513.0,4170.0,1663.0,4122.0,
1656.0,4141.0,1656.0,4122.0,
1616.0,4190.0,1652.0,4141.0,
1614.0,4152.0,1639.0,4152.0,
1603.0,4170.0,1628.0,4152.0,
1614.0,4144.0,1616.0,4152.0,
1597.0,4100.0,1614.0,4152.0,
1621.0,4129.0,1614.0,4152.0,
1568.0,4158.0,1614.0,4152.0,
1560.0,4151.0,1614.0,4151.0,
1560.0,4105.0,1603.0,4151.0,
1545.0,4100.0,1597.0,4144.0,
1521.0,4134.0,1568.0,4134.0,
1468.0,4094.0,1560.0,4129.0,
1466.0,4079.0,1560.0,4105.0,
1454.0,4134.0,1545.0,4129.0,
1429.0,4127.0,1521.0,4127.0,
1407.0,4147.0,1468.0,4127.0,
1427.0,4115.0,1466.0,4115.0,
1452.0,4115.0,1454.0,4115.0,
1467.0,4044.0,1454.0,4115.0,
1430.0,4074.0,1452.0,4115.0,
1465.0,4086.0,1452.0,4115.0,
1342.0,4035.0,1430.0,4115.0,
1430.0,4074.0,1430.0,4086.0,
1429.0,4056.0,1430.0,4074.0,
1433.0,3995.0,1430.0,4074.0,
1359.0,4043.0,1430.0,4056.0,
1338.0,4013.0,1430.0,4044.0,
1378.0,4035.0,1429.0,4043.0,
1421.0,4028.0,1421.0,4035.0,
1133.0,2499.0,1378.0,4035.0,
1480.0,4074.0,1421.0,4035.0,
1237.0,4025.0,1378.0,4028.0,
1219.0,4017.0,1359.0,4025.0,
1216.0,4026.0,1338.0,4026.0,
972.0,2869.0,1237.0,4025.0,
1201.0,3981.0,1219.0,4025.0,
1205.0,3957.0,1216.0,4017.0,
1186.0,3977.0,1205.0,3981.0,
1181.0,3919.0,1205.0,3981.0,
1202.0,3925.0,1202.0,3977.0,
1206.0,3910.0,1202.0,3957.0,
1172.0,3932.0,1201.0,3932.0,
1174.0,3949.0,1186.0,3932.0,
1207.0,3961.0,1201.0,3949.0,
1207.0,3925.0,1202.0,3932.0,
1200.0,3921.0,1200.0,3925.0,
1205.0,3957.0,1202.0,3925.0,
1181.0,3937.0,1202.0,3932.0,
1195.0,3867.0,1200.0,3932.0,
1181.0,3874.0,1195.0,3932.0,
1183.0,3895.0,1195.0,3925.0,
1170.0,3882.0,1195.0,3921.0,
1309.0,3906.0,1195.0,3906.0,
977.0,3901.0,1183.0,3901.0,
1184.0,3852.0,1183.0,3895.0,
1163.0,3806.0,1181.0,3882.0,
1177.0,3767.0,1181.0,3874.0,
1165.0,3764.0,1177.0,3874.0,
1113.0,3801.0,1170.0,3852.0,
1065.0,3755.0,1165.0,3806.0,
1022.0,3702.0,1163.0,3801.0,
993.0,3686.0,1113.0,3767.0,
955.0,3670.0,1113.0,3764.0,
921.0,3673.0,1065.0,3755.0,
905.0,3670.0,1022.0,3702.0,
864.0,3672.0,993.0,3686.0,
809.0,3622.0,955.0,3673.0,
781.0,3591.0,921.0,3672.0,
783.0,3615.0,905.0,3670.0,
788.0,3565.0,864.0,3670.0,
753.0,3538.0,809.0,3622.0,
752.0,3562.0,788.0,3615.0,
765.0,3569.0,783.0,3591.0,
743.0,3568.0,781.0,3569.0,
704.0,3500.0,765.0,3568.0,
705.0,3508.0,753.0,3565.0,
700.0,3492.0,752.0,3562.0,
663.0,3468.0,743.0,3538.0,
681.0,3472.0,705.0,3508.0,
688.0,3473.0,704.0,3500.0,
705.0,3472.0,704.0,3492.0,
636.0,3424.0,700.0,3473.0,
702.0,3441.0,700.0,3472.0,
543.0,3611.0,688.0,3472.0,
645.0,3429.0,681.0,3472.0,
631.0,3413.0,663.0,3468.0,
610.0,3393.0,645.0,3441.0,
581.0,3392.0,636.0,3429.0,
579.0,3372.0,631.0,3424.0,
525.0,3365.0,610.0,3413.0,
521.0,3372.0,581.0,3393.0,
451.0,3299.0,579.0,3392.0,
437.0,3299.0,579.0,3372.0,
357.0,3251.0,525.0,3372.0,
347.0,3227.0,521.0,3365.0,
338.0,3185.0,451.0,3299.0,
564.0,3345.0,451.0,3299.0,
310.0,3247.0,437.0,3299.0,
209.0,3191.0,357.0,3251.0,
214.0,3204.0,347.0,3247.0,
281.0,3228.0,338.0,3228.0,
645.0,3327.0,338.0,3228.0,
610.0,3309.0,338.0,3228.0,
593.0,3296.0,338.0,3247.0,
313.0,3186.0,313.0,3247.0,
112.0,3143.0,310.0,3228.0,
245.0,3184.0,281.0,3204.0,
130.0,3165.0,281.0,3204.0,
168.0,3128.0,281.0,3186.0,
172.0,3124.0,245.0,3184.0,
228.0,3124.0,228.0,3165.0,
228.0,3170.0,228.0,3165.0,
165.0,3161.0,172.0,3161.0,
439.0,3283.0,172.0,3161.0,
34.0,3192.0,172.0,3165.0,
202.0,3185.0,172.0,3165.0,
165.0,3177.0,172.0,3170.0,
190.0,3144.0,190.0,3170.0,
158.0,3095.0,190.0,3170.0,
128.0,3065.0,165.0,3170.0,
138.0,3035.0,165.0,3161.0,
136.0,3038.0,158.0,3144.0,
115.0,3024.0,138.0,3095.0,
140.0,2999.0,140.0,3065.0,
97.0,2961.0,138.0,3038.0,
68.0,2982.0,136.0,3035.0,
43.0,2981.0,128.0,3024.0,
6.0,2952.0,115.0,2999.0,
12.0,2910.0,97.0,2982.0,
17.0,2928.0,68.0,2981.0,
-48.0,2692.0,43.0,2961.0,
-38.0,2902.0,17.0,2952.0,
-72.0,2895.0,12.0,2928.0,
-62.0,2896.0,6.0,2910.0,
-97.0,2894.0,-38.0,2902.0,
-77.0,2916.0,-48.0,2902.0,
-117.0,2905.0,-62.0,2902.0,
-124.0,2920.0,-72.0,2902.0,
-115.0,2893.0,-77.0,2896.0,
-111.0,2959.0,-97.0,2902.0,
-106.0,2920.0,-106.0,2905.0,
-123.0,2911.0,-111.0,2911.0,
-108.0,2934.0,-111.0,2916.0,
-122.0,2888.0,-115.0,2916.0,
-125.0,2861.0,-117.0,2911.0,
-122.0,2806.0,-122.0,2911.0,
-119.0,2846.0,-119.0,2893.0,
-129.0,2826.0,-122.0,2888.0,
-142.0,2787.0,-122.0,2861.0,
-102.0,2805.0,-122.0,2846.0,
-100.0,2764.0,-122.0,2826.0,
-146.0,2750.0,-122.0,2806.0,
-133.0,2752.0,-125.0,2805.0,
-132.0,2737.0,-129.0,2787.0,
-161.0,2735.0,-132.0,2764.0,
-190.0,2748.0,-133.0,2752.0,
-227.0,2753.0,-142.0,2752.0,
-232.0,2854.0,-146.0,2752.0,
-253.0,2752.0,-161.0,2752.0,
-263.0,2734.0,-190.0,2750.0,
-267.0,2683.0,-227.0,2748.0,
-255.0,2645.0,-232.0,2737.0,
-273.0,2657.0,-253.0,2735.0,
-252.0,2620.0,-253.0,2734.0,
-305.0,2619.0,-255.0,2683.0,
-275.0,2590.0,-263.0,2657.0,
-298.0,2586.0,-267.0,2645.0,
-283.0,2580.0,-273.0,2620.0,
-280.0,2561.0,-275.0,2619.0,
-252.0,2633.0,-275.0,2619.0,
-238.0,2681.0,-275.0,2619.0,
-264.0,2607.0,-275.0,2607.0,
-296.0,2527.0,-280.0,2590.0,
-249.0,2514.0,-275.0,2586.0,
-210.0,2548.0,-264.0,2580.0,
-223.0,2311.0,-252.0,2561.0,
-236.0,2546.0,-249.0,2548.0,
-290.0,2558.0,-249.0,2548.0,
-275.0,2552.0,-249.0,2548.0,
-247.0,2289.0,-249.0,2546.0,
-376.0,2418.0,-249.0,2527.0,
-384.0,2465.0,-249.0,2514.0,
-343.0,2500.0,-275.0,2500.0,
35.0,2347.0,-275.0,2465.0,
2.0,2388.0,-275.0,2465.0,
-17.0,2386.0,-275.0,2418.0,
29.0,2382.0,-247.0,2388.0,
6.0,2487.0,-17.0,2388.0,
0.0,2399.0,0.0,2399.0,
-44.0,2377.0,0.0,2388.0,
-70.0,2379.0,0.0,2386.0,
-333.0,2366.0,0.0,2382.0,
-358.0,2390.0,-17.0,2386.0,
-462.0,2417.0,-44.0,2386.0,
-290.0,2395.0,-70.0,2390.0,
-264.0,2368.0,-264.0,2390.0,
-250.0,2334.0,-264.0,2379.0,
-306.0,2317.0,-290.0,2377.0,
-319.0,2254.0,-306.0,2368.0,
-294.0,2198.0,-306.0,2366.0,
-145.0,2241.0,-294.0,2334.0,
-265.0,2274.0,-290.0,2317.0,
-289.0,2251.0,-289.0,2274.0,
-315.0,2202.0,-289.0,2254.0,
-316.0,2172.0,-294.0,2251.0,
-308.0,2184.0,-306.0,2241.0,
-211.0,1881.0,-294.0,2202.0,
-254.0,2174.0,-289.0,2198.0,
-286.0,2205.0,-286.0,2202.0,
-257.0,2149.0,-286.0,2184.0,
-235.0,2099.0,-286.0,2174.0,
-150.0,1964.0,-257.0,2172.0,
-186.0,2103.0,-254.0,2149.0,
-134.0,2095.0,-235.0,2103.0,
-81.0,2045.0,-211.0,2099.0,
-123.0,2046.0,-186.0,2099.0,
-132.0,2032.0,-150.0,2095.0,
-111.0,2019.0,-134.0,2046.0,
-104.0,1980.0,-132.0,2045.0,
-187.0,2007.0,-132.0,2032.0,
-129.0,1957.0,-129.0,2032.0,
-172.0,1950.0,-129.0,2019.0,
-193.0,1947.0,-129.0,2007.0,
-194.0,1855.0,-132.0,1980.0,
-242.0,1788.0,-172.0,1957.0,
-276.0,2156.0,-187.0,1957.0,
-228.0,2084.0,-193.0,1957.0,
-240.0,1810.0,-194.0,1950.0,
-240.0,2053.0,-228.0,1950.0,
-295.0,1935.0,-240.0,1947.0,
-255.0,2000.0,-240.0,1947.0,
-263.0,1963.0,-242.0,1963.0,
-287.0,1969.0,-255.0,1969.0,
-276.0,1990.0,-263.0,1990.0,
-241.0,1963.0,-255.0,1969.0,
-217.0,1918.0,-255.0,1963.0,
-226.0,1926.0,-255.0,1963.0,
-207.0,1834.0,-255.0,1963.0,
-219.0,1850.0,-241.0,1963.0,
-229.0,1803.0,-229.0,1926.0,
-134.0,1782.0,-226.0,1918.0,
-173.0,1824.0,-219.0,1850.0,
-159.0,1835.0,-217.0,1835.0,
-174.0,1837.0,-207.0,1835.0,
-152.0,1804.0,-174.0,1834.0,
-140.0,1901.0,-173.0,1834.0,
-142.0,1716.0,-159.0,1824.0,
-115.0,1732.0,-152.0,1804.0,
-178.0,1717.0,-152.0,1804.0,
-146.0,1716.0,-152.0,1804.0,
-175.0,1684.0,-152.0,1732.0,
-201.0,1632.0,-152.0,1717.0,
-161.0,1435.0,-152.0,1716.0,
-246.0,1656.0,-161.0,1716.0,
-206.0,1728.0,-175.0,1716.0,
-216.0,1685.0,-178.0,1685.0,
-241.0,1760.0,-201.0,1685.0,
-234.0,1733.0,-206.0,1685.0,
-270.0,1706.0,-216.0,1685.0,
-233.0,1645.0,-233.0,1685.0,
-230.0,1662.0,-233.0,1685.0,
-274.0,1618.0,-234.0,1685.0,
-210.0,1675.0,-233.0,1685.0,
-199.0,1653.0,-233.0,1675.0,
-156.0,1636.0,-233.0,1662.0,
-170.0,1586.0,-230.0,1653.0,
-193.0,1570.0,-210.0,1645.0,
-202.0,1491.0,-202.0,1636.0,
-169.0,1582.0,-199.0,1618.0,
-132.0,1554.0,-193.0,1586.0,
-136.0,1537.0,-170.0,1582.0,
-112.0,1403.0,-169.0,1570.0,
-129.0,1371.0,-156.0,1554.0,
-93.0,1313.0,-136.0,1537.0,
-124.0,1271.0,-132.0,1491.0,
-117.0,1293.0,-129.0,1403.0,
-129.0,1287.0,-129.0,1371.0,
-127.0,1279.0,-127.0,1313.0,
-50.0,1307.0,-124.0,1307.0,
-162.0,1485.0,-124.0,1307.0,
-144.0,1264.0,-127.0,1293.0,
-198.0,1303.0,-127.0,1293.0,
-157.0,1268.0,-129.0,1287.0,
-125.0,1210.0,-129.0,1287.0,
-149.0,1225.0,-144.0,1279.0,
-140.0,1398.0,-144.0,1279.0,
-157.0,1170.0,-149.0,1268.0,
-124.0,1166.0,-149.0,1264.0,
-101.0,1159.0,-144.0,1225.0,
-115.0,1178.0,-140.0,1210.0,
-142.0,1179.0,-140.0,1179.0,
-123.0,1257.0,-125.0,1179.0,
-124.0,1224.0,-124.0,1179.0,
-116.0,1251.0,-124.0,1179.0,
-114.0,1198.0,-123.0,1179.0,
-92.0,1221.0,-116.0,1198.0,
-99.0,1211.0,-115.0,1211.0,
-132.0,1179.0,-116.0,1211.0,
-123.0,1163.0,-123.0,1211.0,
-142.0,1307.0,-123.0,1221.0,
-108.0,1095.0,-116.0,1211.0,
-146.0,1043.0,-116.0,1198.0,
-154.0,1141.0,-123.0,1179.0,
885.0,-913.0,-123.0,1163.0,
-178.0,1075.0,-132.0,1141.0,
-164.0,1085.0,-142.0,1095.0,
-31.0,940.0,-142.0,1085.0,
-106.0,1054.0,-142.0,1075.0,
-80.0,1033.0,-108.0,1054.0,
-109.0,1041.0,-109.0,1043.0,
-57.0,1061.0,-106.0,1054.0,
-66.0,1059.0,-80.0,1054.0,
-64.0,1019.0,-80.0,1054.0,
-106.0,1026.0,-80.0,1041.0,
-95.0,1016.0,-80.0,1033.0,
-43.0,968.0,-80.0,1033.0,
-113.0,996.0,-80.0,1026.0,
-72.0,939.0,-72.0,1019.0,
-101.0,948.0,-72.0,1016.0,
-65.0,913.0,-72.0,996.0,
203.0,938.0,-72.0,968.0,
-69.0,905.0,-72.0,948.0,
-46.0,922.0,-69.0,939.0,
256.0,940.0,-65.0,939.0,
796.0,-745.0,-65.0,938.0,
-36.0,693.0,-46.0,922.0,
-119.0,909.0,-46.0,913.0,
-106.0,880.0,-46.0,909.0,
-129.0,859.0,-46.0,905.0,
-134.0,858.0,-69.0,880.0,
-70.0,842.0,-70.0,859.0,
-84.0,864.0,-84.0,859.0,
-105.0,878.0,-105.0,859.0,
110.0,756.0,-105.0,859.0,
70.0,801.0,-105.0,859.0,
86.0,836.0,-84.0,858.0,
415.0,702.0,-70.0,842.0,
51.0,725.0,51.0,836.0,
415.0,656.0,70.0,801.0,
300.0,731.0,86.0,756.0,
182.0,780.0,110.0,756.0,
494.0,686.0,182.0,731.0,
508.0,743.0,300.0,731.0,
509.0,745.0,415.0,731.0,
567.0,704.0,415.0,725.0,
419.0,725.0,419.0,725.0,
473.0,540.0,473.0,725.0,
533.0,693.0,494.0,725.0,
474.0,716.0,494.0,716.0,
542.0,722.0,508.0,716.0,
582.0,645.0,509.0,716.0,
571.0,661.0,533.0,704.0,
685.0,629.0,542.0,693.0,
651.0,668.0,542.0,668.0,
629.0,636.0,571.0,661.0,
635.0,654.0,582.0,661.0,
587.0,590.0,587.0,654.0,
596.0,605.0,596.0,645.0,
655.0,534.0,629.0,636.0,
571.0,557.0,629.0,629.0,
661.0,427.0,635.0,605.0,
582.0,377.0,629.0,590.0,
958.0,-524.0,629.0,557.0,
577.0,414.0,596.0,534.0,
650.0,355.0,596.0,427.0,
622.0,356.0,622.0,414.0,
747.0,193.0,650.0,377.0,
691.0,251.0,650.0,356.0,
428.0,213.0,650.0,355.0,
-519.0,647.0,622.0,355.0,
870.0,400.0,650.0,355.0,
847.0,408.0,650.0,356.0,
869.0,416.0,691.0,356.0,
768.0,173.0,747.0,356.0,
760.0,207.0,760.0,251.0,
774.0,239.0,768.0,251.0,
840.0,244.0,774.0,244.0,
850.0,258.0,840.0,258.0,
864.0,278.0,847.0,258.0,
833.0,247.0,840.0,247.0,
882.0,245.0,840.0,245.0,
861.0,240.0,840.0,244.0,
982.0,-37.0,850.0,244.0,
850.0,251.0,850.0,245.0,
863.0,223.0,861.0,245.0,
861.0,205.0,861.0,245.0,
884.0,211.0,863.0,240.0,
874.0,249.0,863.0,240.0,
868.0,202.0,868.0,223.0,
881.0,191.0,868.0,211.0,
902.0,215.0,874.0,211.0,
940.0,168.0,874.0,211.0,
916.0,164.0,881.0,205.0,
946.0,187.0,884.0,202.0,
950.0,133.0,902.0,191.0,
968.0,149.0,916.0,187.0,
961.0,159.0,940.0,168.0,
962.0,98.0,946.0,164.0,
937.0,85.0,946.0,159.0,
969.0,108.0,950.0,149.0,
971.0,107.0,961.0,133.0,
976.0,99.0,962.0,108.0,
1001.0,94.0,968.0,107.0,
985.0,83.0,969.0,99.0,
1007.0,20.0,971.0,98.0,
996.0,39.0,976.0,94.0,
1057.0,-27.0,985.0,85.0,
1070.0,-73.0,996.0,83.0,
1039.0,-12.0,1001.0,39.0,
1091.0,-33.0,1007.0,20.0,
1091.0,25.0,1039.0,20.0,
1112.0,-30.0,1057.0,-12.0,
1109.0,-16.0,1070.0,-16.0,
1105.0,-28.0,1091.0,-27.0,
1118.0,-14.0,1091.0,-27.0,
1106.0,-57.0,1105.0,-28.0,
1203.0,101.0,1106.0,-16.0,
1214.0,-53.0,1109.0,-28.0,
1184.0,-71.0,1112.0,-28.0,
1201.0,-83.0,1118.0,-30.0,
1213.0,-81.0,1184.0,-53.0,
1219.0,-124.0,1201.0,-57.0,
1248.0,-133.0,1203.0,-71.0,
1491.0,-713.0,1213.0,-81.0,
1442.0,-149.0,1214.0,-83.0,
1396.0,-209.0,1219.0,-124.0,
1347.0,10.0,1248.0,-124.0,
1309.0,-159.0,1309.0,-133.0,
1420.0,-198.0,1347.0,-149.0,
1382.0,-181.0,1382.0,-159.0,
1306.0,-133.0,1382.0,-159.0,
1311.0,-156.0,1382.0,-159.0,
1522.0,-243.0,1382.0,-159.0,
1480.0,-214.0,1382.0,-181.0,
1516.0,-231.0,1382.0,-181.0,
1320.0,-150.0,1382.0,-181.0,
1409.0,-191.0,1409.0,-191.0,
1284.0,-67.0,1382.0,-181.0,
1339.0,-159.0,1339.0,-159.0,
1468.0,-237.0,1409.0,-191.0,
1607.0,-334.0,1468.0,-214.0,
1781.0,-362.0,1468.0,-214.0,
1575.0,-274.0,1468.0,-231.0,
1547.0,-230.0,1468.0,-230.0,
1459.0,-209.0,1468.0,-230.0,
1306.0,-124.0,1468.0,-230.0,
1445.0,-182.0,1468.0,-230.0,
1505.0,-218.0,1505.0,-230.0,
1547.0,-238.0,1547.0,-230.0,
1596.0,-244.0,1547.0,-230.0,
1589.0,-257.0,1547.0,-230.0,
1629.0,-253.0,1547.0,-230.0,
1625.0,-228.0,1547.0,-228.0,
1613.0,-235.0,1589.0,-235.0,
1557.0,-220.0,1589.0,-235.0,
1567.0,-204.0,1589.0,-235.0,
1660.0,-249.0,1596.0,-238.0,
1768.0,-287.0,1613.0,-244.0,
1861.0,-107.0,1625.0,-235.0,
1778.0,-284.0,1629.0,-235.0,
1758.0,-281.0,1660.0,-235.0,
1533.0,-197.0,1660.0,-235.0,
1730.0,-257.0,1730.0,-249.0,
1642.0,-220.0,1730.0,-249.0,
1637.0,-207.0,1730.0,-249.0,
1612.0,-202.0,1730.0,-220.0,
1851.0,-317.0,1730.0,-220.0,
1833.0,-346.0,1730.0,-257.0,
1828.0,-285.0,1730.0,-257.0,
1766.0,-275.0,1730.0,-257.0,
1789.0,-281.0,1766.0,-275.0,
1839.0,-280.0,1789.0,-280.0,
1916.0,-331.0,1828.0,-281.0,
1941.0,-332.0,1833.0,-285.0,
1976.0,-302.0,1839.0,-302.0,
1960.0,-311.0,1839.0,-302.0,
1968.0,-312.0,1916.0,-302.0,
1972.0,-274.0,1941.0,-302.0,
2002.0,-290.0,1960.0,-302.0,
2000.0,-281.0,1968.0,-302.0,
2007.0,-298.0,1972.0,-302.0,
1971.0,-304.0,1972.0,-302.0,
2013.0,-316.0,1976.0,-302.0,
1775.0,-178.0,1972.0,-298.0,
1819.0,-206.0,1972.0,-290.0,
1845.0,-205.0,1972.0,-281.0,
1837.0,-208.0,1971.0,-281.0,
1863.0,-202.0,1863.0,-208.0,
1858.0,-209.0,1858.0,-208.0,
1832.0,-259.0,1845.0,-208.0,
1920.0,-278.0,1845.0,-208.0,
1970.0,-264.0,1845.0,-208.0,
1995.0,-292.0,1858.0,-209.0,
2011.0,-279.0,1863.0,-259.0,
2033.0,-273.0,1920.0,-264.0,
2013.0,-291.0,1970.0,-273.0,
2076.0,-303.0,1995.0,-278.0,
2075.0,-285.0,2011.0,-279.0,
2108.0,-297.0,2013.0,-285.0,
2171.0,-292.0,2033.0,-291.0,
2206.0,-282.0,2075.0,-291.0,
2090.0,-241.0,2076.0,-285.0,
2171.0,-277.0,2090.0,-285.0,
2239.0,-243.0,2108.0,-285.0,
2207.0,-250.0,2171.0,-282.0,
2267.0,-273.0,2171.0,-277.0,
2357.0,-169.0,2206.0,-273.0,
2340.0,-305.0,2207.0,-273.0,
2352.0,-318.0,2239.0,-273.0,
2106.0,-210.0,2239.0,-250.0,
2128.0,-210.0,2239.0,-250.0,
2140.0,-233.0,2239.0,-243.0,
2114.0,-289.0,2207.0,-250.0,
2213.0,-156.0,2213.0,-233.0,
2234.0,-228.0,2213.0,-228.0,
2309.0,-287.0,2213.0,-233.0,
2363.0,-200.0,2213.0,-228.0,
2357.0,-274.0,2213.0,-228.0,
2372.0,-245.0,2234.0,-233.0,
2359.0,-251.0,2309.0,-245.0,
2396.0,-273.0,2357.0,-251.0,
2409.0,-274.0,2359.0,-251.0,
2438.0,-255.0,2363.0,-255.0,
2437.0,-267.0,2372.0,-267.0,
2489.0,-260.0,2396.0,-260.0,
2508.0,-320.0,2409.0,-267.0,
2511.0,-268.0,2437.0,-267.0,
2558.0,-293.0,2438.0,-268.0,
2575.0,-286.0,2489.0,-273.0,
2445.0,-226.0,2489.0,-268.0,
2682.0,-336.0,2508.0,-268.0,
2570.0,-235.0,2511.0,-268.0,
2470.0,-243.0,2511.0,-268.0,
2528.0,-224.0,2528.0,-268.0,
2535.0,-265.0,2535.0,-265.0,
2563.0,-242.0,2558.0,-243.0,
2568.0,-255.0,2563.0,-243.0,
2599.0,-261.0,2563.0,-243.0,
2681.0,-397.0,2568.0,-255.0,
2648.0,-279.0,2568.0,-255.0,
2655.0,-299.0,2568.0,-261.0,
2648.0,-281.0,2599.0,-265.0,
2674.0,-302.0,2648.0,-279.0,
2788.0,-469.0,2648.0,-281.0,
2716.0,-309.0,2655.0,-299.0,
2743.0,-316.0,2674.0,-302.0,
2757.0,-326.0,2681.0,-309.0,
2776.0,-327.0,2716.0,-309.0,
2803.0,-297.0,2743.0,-309.0,
2802.0,-304.0,2757.0,-309.0,
2806.0,-296.0,2776.0,-309.0,
2813.0,-332.0,2788.0,-316.0,
2826.0,-334.0,2802.0,-316.0,
2800.0,-322.0,2802.0,-322.0,
2846.0,-318.0,2803.0,-322.0,
2878.0,-332.0,2806.0,-322.0,
2878.0,-315.0,2813.0,-318.0,
2960.0,-370.0,2826.0,-322.0,
2986.0,-381.0,2846.0,-332.0,
2985.0,-370.0,2878.0,-332.0,
2959.0,-338.0,2878.0,-334.0,
2980.0,-354.0,2959.0,-338.0,
2975.0,-316.0,2960.0,-338.0,
3017.0,-339.0,2975.0,-339.0,
3041.0,-336.0,2980.0,-339.0,
3059.0,-342.0,2985.0,-342.0,
3074.0,-325.0,2986.0,-339.0,
3046.0,-315.0,3017.0,-338.0,
3089.0,-328.0,3041.0,-336.0,
3097.0,-365.0,3046.0,-336.0,
3109.0,-376.0,3059.0,-336.0,
3137.0,-377.0,3074.0,-339.0,
2995.0,-360.0,3074.0,-342.0,
3198.0,-402.0,3089.0,-360.0,
3219.0,-424.0,3097.0,-365.0,
3180.0,-411.0,3109.0,-376.0,
3204.0,-408.0,3137.0,-377.0,
3196.0,-395.0,3180.0,-395.0,
3235.0,-429.0,3196.0,-402.0,
3255.0,-432.0,3198.0,-408.0,
3317.0,-537.0,3204.0,-411.0,
3275.0,-414.0,3219.0,-414.0,
3358.0,-451.0,3235.0,-424.0,
3499.0,-623.0,3255.0,-429.0,
3254.0,-401.0,3255.0,-429.0,
3295.0,-439.0,3275.0,-432.0,
3293.0,-385.0,3293.0,-432.0,
3273.0,-331.0,3293.0,-432.0,
3326.0,-401.0,3295.0,-414.0,
3381.0,-357.0,3295.0,-401.0,
3370.0,-296.0,3326.0,-401.0,
3344.0,-250.0,3326.0,-385.0,
3377.0,-268.0,3326.0,-357.0,
3396.0,-263.0,3344.0,-331.0,
3401.0,-280.0,3370.0,-296.0,
3287.0,-235.0,3370.0,-280.0,
3445.0,-248.0,3377.0,-268.0,
3448.0,-222.0,3381.0,-263.0,
3468.0,-222.0,3396.0,-250.0,
3478.0,-221.0,3401.0,-248.0,
3653.0,-442.0,3445.0,-248.0,
3492.0,-236.0,3448.0,-236.0,
3504.0,-237.0,3468.0,-236.0,
3515.0,-227.0,3478.0,-235.0,
3499.0,-219.0,3492.0,-227.0,
3556.0,-283.0,3499.0,-227.0,
3430.0,-212.0,3499.0,-227.0,
3529.0,-222.0,3504.0,-227.0,
3572.0,-297.0,3515.0,-236.0,
3545.0,-225.0,3515.0,-227.0,
3573.0,-256.0,3529.0,-227.0,
3585.0,-271.0,3545.0,-227.0,
3544.0,-236.0,3545.0,-236.0,
3538.0,-250.0,3545.0,-250.0,
3581.0,-271.0,3545.0,-250.0,
3486.0,-233.0,3545.0,-250.0,
3725.0,-371.0,3572.0,-256.0,
3636.0,-249.0,3573.0,-250.0,
3676.0,-248.0,3581.0,-250.0,
3727.0,-289.0,3585.0,-250.0,
3681.0,-217.0,3636.0,-249.0,
3701.0,-240.0,3676.0,-249.0,
3731.0,-247.0,3681.0,-248.0,
3749.0,-226.0,3701.0,-247.0,
3790.0,-262.0,3725.0,-248.0,
3740.0,-218.0,3727.0,-247.0,
3810.0,-245.0,3731.0,-245.0,
3858.0,-228.0,3740.0,-240.0,
3856.0,-245.0,3749.0,-240.0,
3870.0,-238.0,3790.0,-240.0,
3861.0,-212.0,3810.0,-238.0,
3862.0,-235.0,3856.0,-235.0,
3863.0,-232.0,3858.0,-235.0,
4015.0,-405.0,3861.0,-235.0,
3872.0,-236.0,3862.0,-236.0,
3886.0,-223.0,3863.0,-235.0,
3855.0,-274.0,3863.0,-236.0,
3891.0,-276.0,3870.0,-236.0,
3975.0,-205.0,3872.0,-235.0,
3892.0,-262.0,3886.0,-236.0,
3880.0,-265.0,3886.0,-262.0,
3943.0,-273.0,3891.0,-265.0,
3932.0,-281.0,3891.0,-265.0,
3958.0,-293.0,3892.0,-273.0,
3949.0,-312.0,3932.0,-274.0,
3933.0,-301.0,3933.0,-276.0,
3937.0,-273.0,3937.0,-273.0,
3926.0,-307.0,3933.0,-281.0,
3984.0,-309.0,3937.0,-293.0,
3952.0,-294.0,3943.0,-294.0,
3998.0,-271.0,3949.0,-294.0,
4020.0,-281.0,3952.0,-294.0,
4008.0,-288.0,3952.0,-294.0,
4044.0,-311.0,3984.0,-294.0,
4066.0,-321.0,3998.0,-294.0,
4106.0,-327.0,4008.0,-307.0,
4102.0,-318.0,4020.0,-309.0,
3956.0,-240.0,4020.0,-294.0,
4187.0,-303.0,4044.0,-303.0,
4199.0,-300.0,4066.0,-303.0,
4235.0,-329.0,4102.0,-311.0,
4239.0,-305.0,4106.0,-311.0,
4272.0,-300.0,4187.0,-305.0,
4279.0,-308.0,4199.0,-305.0,
4327.0,-307.0,4235.0,-305.0,
4378.0,-299.0,4239.0,-303.0,
4391.0,-312.0,4272.0,-305.0,
4414.0,-309.0,4279.0,-307.0,
4428.0,-319.0,4327.0,-308.0,
4406.0,-323.0,4378.0,-308.0,
4373.0,-342.0,4378.0,-309.0,
4347.0,-292.0,4378.0,-309.0,
4377.0,-317.0,4378.0,-312.0,
4417.0,-309.0,4391.0,-312.0,
4387.0,-303.0,4391.0,-312.0,
4359.0,-269.0,4387.0,-309.0,
4429.0,-302.0,4387.0,-309.0,
4445.0,-312.0,4387.0,-309.0,
4436.0,-280.0,4387.0,-303.0,
4439.0,-295.0,4417.0,-302.0,
4405.0,-276.0,4417.0,-302.0,
4425.0,-307.0,4425.0,-302.0,
4450.0,-304.0,4429.0,-302.0,
4459.0,-305.0,4436.0,-302.0,
4509.0,-350.0,4439.0,-304.0,
4564.0,-239.0,4445.0,-304.0,
4655.0,-420.0,4450.0,-304.0,
4539.0,-321.0,4459.0,-305.0,
4560.0,-313.0,4509.0,-307.0,
4613.0,-325.0,4539.0,-313.0,
4599.0,-297.0,4560.0,-313.0,
4698.0,-157.0,4564.0,-313.0,
4624.0,-335.0,4599.0,-321.0,
4623.0,-377.0,4613.0,-321.0,
4650.0,-362.0,4623.0,-325.0,
4624.0,-372.0,4623.0,-325.0,
4655.0,-371.0,4624.0,-335.0,
4645.0,-361.0,4624.0,-361.0,
4803.0,-500.0,4645.0,-362.0,
4687.0,-382.0,4650.0,-371.0,
4678.0,-389.0,4650.0,-372.0,
4775.0,-255.0,4655.0,-372.0,
4750.0,-241.0,4678.0,-371.0,
4742.0,-396.0,4687.0,-372.0,
4828.0,-292.0,4742.0,-371.0,
4895.0,-333.0,4750.0,-361.0,
4846.0,-395.0,4775.0,-382.0,
5044.0,-189.0,4775.0,-333.0,
4990.0,-224.0,4828.0,-292.0,
5037.0,-159.0,4846.0,-255.0,
5013.0,-140.0,4895.0,-241.0,
5072.0,-197.0,4990.0,-224.0,
5049.0,-197.0,5013.0,-197.0,
5025.0,-191.0,5025.0,-197.0,
4975.0,-140.0,5025.0,-191.0,
5024.0,-132.0,5025.0,-189.0,
5087.0,-135.0,5025.0,-159.0,
5088.0,-165.0,5037.0,-159.0,
5130.0,-172.0,5049.0,-165.0,
5096.0,-213.0,5072.0,-172.0,
5128.0,-220.0,5087.0,-172.0,
5124.0,-327.0,5088.0,-172.0,
5135.0,-363.0,5096.0,-172.0,
5129.0,-396.0,5124.0,-213.0,
5162.0,-417.0,5128.0,-220.0,
5117.0,-475.0,5128.0,-327.0,
5355.0,-542.0,5129.0,-363.0,
5207.0,-444.0,5129.0,-396.0,
5273.0,-247.0,5135.0,-396.0,
5348.0,-187.0,5162.0,-396.0,
5335.0,-225.0,5207.0,-396.0,
5304.0,-224.0,5273.0,-396.0,
5383.0,-251.0,5304.0,-251.0,
5394.0,-316.0,5335.0,-251.0,
5390.0,-337.0,5348.0,-251.0,
5112.0,-375.0,5335.0,-251.0,
5448.0,-405.0,5348.0,-251.0,
5274.0,-285.0,5348.0,-285.0,
5437.0,-228.0,5383.0,-285.0,
5460.0,-204.0,5390.0,-285.0,
5427.0,-197.0,5394.0,-285.0,
5458.0,-207.0,5427.0,-285.0,
5486.0,-193.0,5437.0,-228.0,
5498.0,-242.0,5448.0,-228.0,
5502.0,-232.0,5458.0,-228.0,
5619.0,-297.0,5460.0,-228.0,
5622.0,-341.0,5486.0,-228.0,
5501.0,-293.0,5498.0,-232.0,
5401.0,-323.0,5498.0,-242.0,
5423.0,-306.0,5498.0,-293.0,
5547.0,-301.0,5501.0,-297.0,
5637.0,-244.0,5502.0,-297.0,
5620.0,-210.0,5547.0,-297.0,
5657.0,-195.0,5619.0,-297.0,
5668.0,-224.0,5620.0,-293.0,
5654.0,-156.0,5620.0,-244.0,
5726.0,-292.0,5637.0,-244.0,
5655.0,-222.0,5654.0,-224.0,
5692.0,-208.0,5655.0,-222.0,
5752.0,-201.0,5657.0,-210.0,
5781.0,-212.0,5668.0,-210.0,
5776.0,-249.0,5692.0,-212.0,
5792.0,-301.0,5726.0,-222.0,
5824.0,-164.0,5752.0,-212.0,
5877.0,-269.0,5776.0,-222.0,
5878.0,-216.0,5781.0,-216.0,
5862.0,-220.0,5792.0,-216.0,
5908.0,-204.0,5824.0,-216.0,
5973.0,-169.0,5862.0,-216.0,
5815.0,-203.0,5862.0,-216.0,
5789.0,-256.0,5862.0,-216.0,
5853.0,-232.0,5862.0,-216.0,
5878.0,-209.0,5877.0,-216.0,
5874.0,-220.0,5874.0,-216.0,
5896.0,-218.0,5874.0,-218.0,
5881.0,-192.0,5878.0,-209.0,
5939.0,-145.0,5878.0,-209.0,
6015.0,-145.0,5878.0,-209.0,
6023.0,-136.0,5881.0,-209.0,
5995.0,-251.0,5896.0,-209.0,
6008.0,-291.0,5939.0,-209.0,
6152.0,-310.0,5995.0,-218.0,
6025.0,-246.0,6008.0,-218.0,
6065.0,-174.0,6015.0,-192.0,
6079.0,-194.0,6023.0,-194.0,
5995.0,-281.0,6023.0,-246.0,
5991.0,-375.0,6023.0,-251.0,
6084.0,-253.0,6025.0,-253.0,
6041.0,-233.0,6041.0,-253.0,
6002.0,-226.0,6041.0,-246.0,
6096.0,-244.0,6041.0,-244.0,
6087.0,-192.0,6065.0,-233.0,
6163.0,-241.0,6079.0,-241.0,
6064.0,-311.0,6064.0,-244.0,
6033.0,-333.0,6064.0,-244.0,
6050.0,-321.0,6064.0,-244.0,
6052.0,-324.0,6052.0,-244.0,
6057.0,-314.0,6057.0,-311.0,
6075.0,-321.0,6064.0,-314.0,
6057.0,-324.0,6057.0,-321.0,
6091.0,-334.0,6057.0,-321.0,
6085.0,-311.0,6057.0,-321.0,
6099.0,-294.0,6057.0,-321.0,
6098.0,-298.0,6075.0,-321.0,
6132.0,-281.0,6085.0,-314.0,
6163.0,-268.0,6091.0,-311.0,
6185.0,-237.0,6098.0,-298.0,
6149.0,-266.0,6099.0,-294.0,
6268.0,-261.0,6132.0,-281.0,
6174.0,-276.0,6149.0,-276.0,
6167.0,-282.0,6163.0,-276.0,
6248.0,-54.0,6167.0,-268.0,
6263.0,-24.0,6174.0,-266.0,
6240.0,-40.0,6185.0,-261.0,
6223.0,-96.0,6223.0,-237.0,
6223.0,-91.0,6223.0,-96.0,
6233.0,-135.0,6233.0,-96.0,
6204.0,-112.0,6223.0,-96.0,
6202.0,-126.0,6223.0,-96.0,
6166.0,-161.0,6223.0,-96.0,
6163.0,-255.0,6223.0,-112.0,
6194.0,-131.0,6204.0,-126.0,
6224.0,-112.0,6204.0,-126.0,
6238.0,-137.0,6204.0,-131.0,
6215.0,-131.0,6204.0,-131.0,
6279.0,-92.0,6204.0,-131.0,
6314.0,-56.0,6215.0,-131.0,
6327.0,-98.0,6224.0,-131.0,
6344.0,-72.0,6238.0,-112.0,
6464.0,-37.0,6279.0,-98.0,
6385.0,-46.0,6314.0,-92.0,
6454.0,-29.0,6327.0,-72.0,
6446.0,-27.0,6344.0,-56.0,
6489.0,14.0,6385.0,-46.0,
6497.0,4.0,6446.0,-37.0,
6516.0,3.0,6454.0,-29.0,
6548.0,77.0,6464.0,-27.0,
6542.0,77.0,6489.0,3.0,
6506.0,53.0,6497.0,4.0,
6546.0,88.0,6506.0,14.0,
6556.0,88.0,6516.0,53.0,
6589.0,130.0,6542.0,77.0,
6614.0,182.0,6546.0,77.0,
6552.0,105.0,6548.0,88.0,
6491.0,147.0,6548.0,88.0,
6835.0,100.0,6552.0,100.0,
6669.0,194.0,6556.0,105.0,
6627.0,198.0,6589.0,130.0,
6612.0,215.0,6612.0,147.0,
6679.0,218.0,6614.0,182.0,
6721.0,259.0,6627.0,194.0,
6791.0,315.0,6669.0,198.0,
6704.0,291.0,6679.0,215.0,
6646.0,261.0,6679.0,218.0,
6664.0,332.0,6669.0,259.0,
6643.0,343.0,6664.0,261.0,
6629.0,370.0,6664.0,291.0,
6600.0,387.0,6664.0,315.0,
6610.0,352.0,6646.0,332.0,
6585.0,391.0,6643.0,343.0,
6578.0,347.0,6629.0,347.0,
6579.0,383.0,6610.0,352.0,
6571.0,337.0,6600.0,352.0,
6557.0,331.0,6585.0,352.0,
6604.0,355.0,6585.0,355.0,
6581.0,252.0,6581.0,352.0,
6589.0,298.0,6581.0,347.0,
6569.0,296.0,6579.0,337.0,
6587.0,268.0,6579.0,331.0,
6562.0,176.0,6579.0,298.0,
6564.0,214.0,6571.0,296.0,
6557.0,206.0,6569.0,268.0,
6597.0,230.0,6581.0,252.0,
6598.0,238.0,6581.0,238.0,
6619.0,262.0,6587.0,238.0,
6649.0,291.0,6587.0,238.0,
6677.0,409.0,6597.0,238.0,
6642.0,274.0,6598.0,238.0,
6615.0,310.0,6615.0,262.0,
6625.0,304.0,6619.0,274.0,
6596.0,334.0,6619.0,291.0,
6587.0,343.0,6619.0,304.0,
6580.0,308.0,6619.0,308.0,
6570.0,324.0,6615.0,310.0,
6574.0,411.0,6596.0,324.0,
6539.0,348.0,6587.0,324.0,
6629.0,386.0,6587.0,334.0,
6661.0,411.0,6587.0,343.0,
6768.0,462.0,6587.0,348.0,
6719.0,423.0,6587.0,386.0,
6666.0,429.0,6629.0,411.0,
6693.0,482.0,6661.0,411.0,
6710.0,468.0,6666.0,423.0,
6681.0,389.0,6681.0,423.0,
6727.0,496.0,6693.0,429.0,
6697.0,508.0,6697.0,462.0,
6689.0,529.0,6697.0,468.0,
6673.0,548.0,6693.0,482.0,
6692.0,528.0,6692.0,496.0,
6681.0,603.0,6692.0,508.0,
6633.0,609.0,6689.0,528.0,
6621.0,565.0,6681.0,529.0,
6648.0,607.0,6681.0,548.0,
6731.0,642.0,6681.0,565.0,
6631.0,599.0,6673.0,599.0,
6539.0,603.0,6648.0,603.0,
6645.0,663.0,6645.0,603.0,
6766.0,662.0,6645.0,607.0,
6777.0,662.0,6645.0,609.0,
6754.0,673.0,6648.0,642.0,
6563.0,662.0,6648.0,662.0,
6964.0,843.0,6731.0,662.0,
6655.0,686.0,6655.0,662.0,
6601.0,696.0,6655.0,663.0,
6604.0,673.0,6655.0,673.0,
6545.0,564.0,6655.0,673.0,
6509.0,697.0,6604.0,673.0,
6521.0,683.0,6601.0,683.0,
6491.0,717.0,6563.0,686.0,
6461.0,703.0,6545.0,696.0,
6499.0,727.0,6521.0,696.0,
6485.0,702.0,6509.0,697.0,
6442.0,729.0,6499.0,702.0,
6462.0,745.0,6491.0,703.0,
6430.0,716.0,6485.0,716.0,
6434.0,738.0,6462.0,717.0,
6448.0,730.0,6461.0,727.0,
6432.0,715.0,6448.0,727.0,
6412.0,732.0,6442.0,729.0,
6429.0,675.0,6434.0,729.0,
6429.0,748.0,6432.0,730.0,
6406.0,768.0,6430.0,732.0,
6405.0,764.0,6429.0,732.0,
6395.0,774.0,6429.0,738.0,
6402.0,777.0,6412.0,748.0,
6365.0,779.0,6406.0,764.0,
6373.0,817.0,6405.0,768.0,
6376.0,790.0,6402.0,774.0,
6375.0,788.0,6395.0,777.0,
6357.0,815.0,6376.0,779.0,
6322.0,809.0,6375.0,788.0,
6297.0,842.0,6373.0,790.0,
6280.0,832.0,6365.0,809.0,
6256.0,839.0,6357.0,815.0,
6242.0,821.0,6322.0,817.0,
6228.0,835.0,6297.0,821.0,
6232.0,859.0,6280.0,832.0,
6202.0,838.0,6256.0,835.0,
6157.0,891.0,6242.0,838.0,
6194.0,888.0,6232.0,839.0,
6160.0,866.0,6228.0,839.0,
6164.0,934.0,6202.0,859.0,
6132.0,878.0,6194.0,866.0,
6144.0,882.0,6164.0,878.0,
6123.0,871.0,6160.0,878.0,
6128.0,858.0,6157.0,878.0,
6135.0,869.0,6144.0,878.0,
6034.0,750.0,6135.0,871.0,
6103.0,845.0,6132.0,869.0,
6105.0,846.0,6128.0,869.0,
6077.0,797.0,6123.0,858.0,
6103.0,748.0,6105.0,846.0,
6065.0,789.0,6103.0,845.0,
6096.0,781.0,6103.0,797.0,
6067.0,772.0,6096.0,789.0,
6064.0,707.0,6077.0,781.0,
6026.0,713.0,6077.0,781.0,
6061.0,775.0,6067.0,775.0,
6053.0,770.0,6065.0,772.0,
6018.0,787.0,6064.0,772.0,
6044.0,798.0,6061.0,775.0,
6033.0,810.0,6053.0,775.0,
6051.0,814.0,6051.0,775.0,
6043.0,811.0,6044.0,787.0,
5925.0,790.0,6043.0,790.0,
6020.0,769.0,6043.0,790.0,
5991.0,778.0,6033.0,790.0,
6013.0,805.0,6020.0,798.0,
6003.0,814.0,6020.0,805.0,
5991.0,796.0,6013.0,805.0,
6001.0,818.0,6003.0,805.0,
5966.0,831.0,6001.0,805.0,
5965.0,815.0,5991.0,805.0,
5968.0,832.0,5991.0,814.0,
5957.0,810.0,5991.0,814.0,
5912.0,760.0,5968.0,814.0,
5889.0,725.0,5966.0,814.0,
5891.0,726.0,5965.0,810.0,
5857.0,680.0,5957.0,810.0,
5856.0,729.0,5912.0,760.0,
5821.0,716.0,5891.0,729.0,
5822.0,692.0,5889.0,726.0,
5793.0,705.0,5857.0,725.0,
5765.0,677.0,5856.0,716.0,
5759.0,657.0,5822.0,705.0,
5720.0,688.0,5821.0,692.0,
5685.0,603.0,5793.0,688.0,
5657.0,499.0,5765.0,688.0,
5658.0,545.0,5759.0,677.0,
5621.0,448.0,5720.0,657.0,
5683.0,885.0,5685.0,657.0,
5637.0,745.0,5683.0,657.0,
5641.0,767.0,5658.0,657.0,
5602.0,732.0,5657.0,688.0,
5686.0,702.0,5657.0,702.0,
5565.0,758.0,5641.0,732.0,
5560.0,709.0,5637.0,732.0,
5554.0,720.0,5621.0,732.0,
5670.0,637.0,5637.0,732.0,
5505.0,706.0,5602.0,720.0,
5520.0,784.0,5565.0,720.0,
5489.0,863.0,5560.0,720.0,
5489.0,821.0,5554.0,720.0,
5487.0,778.0,5520.0,758.0,
5493.0,757.0,5505.0,757.0,
5458.0,734.0,5493.0,757.0,
5466.0,775.0,5489.0,775.0,
5461.0,729.0,5489.0,775.0,
5433.0,701.0,5487.0,775.0,
5448.0,709.0,5466.0,757.0,
5447.0,803.0,5461.0,757.0,
5425.0,771.0,5458.0,757.0,
5455.0,884.0,5455.0,757.0,
5426.0,797.0,5448.0,771.0,
5396.0,792.0,5447.0,775.0,
5419.0,817.0,5433.0,792.0,
5397.0,767.0,5426.0,792.0,
5360.0,769.0,5425.0,792.0,
5367.0,770.0,5419.0,792.0,
5376.0,843.0,5397.0,792.0,
5336.0,769.0,5396.0,792.0,
5348.0,756.0,5376.0,770.0,
5314.0,794.0,5367.0,770.0,
5321.0,790.0,5360.0,770.0,
5284.0,771.0,5348.0,770.0,
5241.0,805.0,5336.0,771.0,
5237.0,786.0,5321.0,786.0,
5237.0,801.0,5314.0,790.0,
5073.0,801.0,5284.0,790.0,
5188.0,813.0,5241.0,794.0,
5153.0,795.0,5237.0,795.0,
5177.0,802.0,5237.0,801.0,
5146.0,811.0,5188.0,801.0,
5142.0,803.0,5177.0,802.0,
5136.0,819.0,5153.0,802.0,
5095.0,796.0,5146.0,802.0,
5081.0,780.0,5142.0,802.0,
5097.0,884.0,5142.0,803.0,
5054.0,794.0,5136.0,802.0,
5049.0,801.0,5097.0,802.0,
5046.0,761.0,5095.0,801.0,
4999.0,791.0,5081.0,796.0,
4961.0,802.0,5054.0,796.0,
4948.0,812.0,5049.0,796.0,
4935.0,794.0,5046.0,794.0,
4918.0,790.0,4999.0,794.0,
4908.0,780.0,4961.0,794.0,
4914.0,765.0,4948.0,791.0,
4906.0,754.0,4935.0,790.0,
4881.0,768.0,4918.0,790.0,
4867.0,720.0,4914.0,780.0,
4836.0,757.0,4908.0,768.0,
4790.0,759.0,4906.0,765.0,
4795.0,747.0,4881.0,759.0,
4788.0,769.0,4867.0,759.0,
4777.0,767.0,4836.0,759.0,
4750.0,768.0,4795.0,759.0,
4781.0,756.0,4790.0,759.0,
4766.0,797.0,4788.0,759.0,
4760.0,748.0,4781.0,759.0,
4721.0,755.0,4777.0,759.0,
4706.0,756.0,4766.0,756.0,
4701.0,761.0,4760.0,761.0,
4694.0,762.0,4750.0,761.0,
4702.0,788.0,4721.0,761.0,
4691.0,745.0,4706.0,756.0,
4649.0,738.0,4702.0,756.0,
4669.0,761.0,4701.0,756.0,
4642.0,757.0,4694.0,757.0,
4632.0,769.0,4691.0,761.0,
4619.0,778.0,4669.0,761.0,
4607.0,742.0,4649.0,761.0,
4650.0,812.0,4649.0,761.0,
4631.0,832.0,4642.0,761.0,
4608.0,851.0,4632.0,769.0,
4643.0,893.0,4632.0,778.0,
4584.0,833.0,4631.0,812.0,
4572.0,786.0,4619.0,812.0,
4576.0,813.0,4608.0,813.0,
4558.0,827.0,4607.0,827.0,
4596.0,850.0,4596.0,832.0,
4602.0,910.0,4596.0,833.0,
4575.0,831.0,4584.0,833.0,
4578.0,700.0,4578.0,831.0,
4538.0,738.0,4576.0,827.0,
4581.0,799.0,4576.0,813.0,
4537.0,796.0,4576.0,813.0,
4525.0,836.0,4575.0,827.0,
4508.0,828.0,4575.0,828.0,
4646.0,743.0,4575.0,799.0,
4561.0,894.0,4561.0,799.0,
4615.0,848.0,4561.0,799.0,
4576.0,895.0,4561.0,828.0,
4533.0,948.0,4561.0,836.0,
4567.0,908.0,4561.0,848.0,
4661.0,796.0,4567.0,848.0,
4490.0,965.0,4567.0,894.0,
4389.0,1087.0,4567.0,895.0,
4364.0,1209.0,4561.0,908.0,
4324.0,1182.0,4533.0,948.0,
4458.0,1063.0,4490.0,965.0,
4346.0,1157.0,4458.0,1063.0,
4337.0,1133.0,4389.0,1087.0,
4316.0,1104.0,4364.0,1104.0,
4347.0,1060.0,4347.0,1104.0,
4402.0,917.0,4347.0,1104.0,
4398.0,864.0,4347.0,1104.0,
4408.0,989.0,4347.0,1063.0,
4438.0,1036.0,4398.0,1060.0,
4393.0,1055.0,4393.0,1055.0,
4390.0,1121.0,4393.0,1055.0,
4361.0,1151.0,4393.0,1055.0,
4360.0,1111.0,4393.0,1055.0,
4356.0,1073.0,4393.0,1055.0,
4363.0,1118.0,4390.0,1073.0,
4308.0,1044.0,4363.0,1073.0,
4270.0,964.0,4361.0,1073.0,
4329.0,972.0,4360.0,1073.0,
4348.0,1034.0,4356.0,1073.0,
4370.0,1063.0,4356.0,1063.0,
4432.0,1068.0,4356.0,1063.0,
4435.0,1004.0,4356.0,1044.0,
4287.0,850.0,4348.0,1034.0,
4425.0,1018.0,4348.0,1018.0,
4466.0,1094.0,4370.0,1018.0,
4463.0,1111.0,4425.0,1034.0,
4500.0,1096.0,4432.0,1063.0,
4516.0,1054.0,4435.0,1063.0,
4552.0,993.0,4463.0,1054.0,
4582.0,994.0,4466.0,1018.0,
4532.0,1011.0,4500.0,1018.0,
4489.0,1029.0,4500.0,1029.0,
4517.0,995.0,4516.0,1029.0,
4469.0,987.0,4516.0,1011.0,
4450.0,1003.0,4516.0,1003.0,
4439.0,921.0,4516.0,995.0,
4576.0,1032.0,4517.0,995.0,
4696.0,805.0,4517.0,995.0,
4757.0,763.0,4517.0,995.0,
4184.0,1014.0,4489.0,995.0,
4030.0,1242.0,4469.0,995.0,
4033.0,1288.0,4450.0,1003.0,
3996.0,1395.0,4439.0,1014.0,
4287.0,1017.0,4287.0,1017.0,
4012.0,1392.0,4184.0,1032.0,
4064.0,1506.0,4064.0,1242.0,
4074.0,1561.0,4064.0,1288.0,
4069.0,1532.0,4064.0,1392.0,
4075.0,1507.0,4064.0,1395.0,
4055.0,1608.0,4064.0,1506.0,
3992.0,1502.0,4064.0,1506.0,
4050.0,1537.0,4064.0,1507.0,
4033.0,1595.0,4055.0,1532.0,
4042.0,1538.0,4055.0,1537.0,
4048.0,1660.0,4050.0,1538.0,
4042.0,1474.0,4048.0,1537.0,
4028.0,1495.0,4042.0,1537.0,
4014.0,1495.0,4042.0,1537.0,
4036.0,1540.0,4036.0,1537.0,
4022.0,1516.0,4036.0,1537.0,
4013.0,1502.0,4033.0,1516.0,
4016.0,1563.0,4028.0,1516.0,
4030.0,1566.0,4028.0,1516.0,
3982.0,1624.0,4022.0,1516.0,
4031.0,1592.0,4022.0,1540.0,
3993.0,1590.0,4016.0,1563.0,
4029.0,1570.0,4022.0,1566.0,
4000.0,1573.0,4016.0,1570.0,
3945.0,1598.0,4013.0,1573.0,
3963.0,1600.0,4000.0,1590.0,
3929.0,1607.0,3993.0,1592.0,
3898.0,1702.0,3982.0,1598.0,
3974.0,1611.0,3974.0,1598.0,
3942.0,1763.0,3963.0,1600.0,
4008.0,1752.0,3963.0,1607.0,
4016.0,1740.0,3963.0,1611.0,
3983.0,1795.0,3963.0,1702.0,
4016.0,1812.0,3974.0,1740.0,
3977.0,1864.0,3977.0,1752.0,
3936.0,1812.0,3977.0,1763.0,
3996.0,1922.0,3983.0,1795.0,
3807.0,2039.0,3983.0,1812.0,
3844.0,1964.0,3983.0,1812.0,
3870.0,1927.0,3977.0,1864.0,
3984.0,1702.0,3977.0,1864.0,
4335.0,1119.0,3977.0,1864.0,
4351.0,1117.0,3977.0,1864.0,
4331.0,1251.0,3984.0,1812.0,
3980.0,1885.0,3984.0,1885.0,
4195.0,896.0,3984.0,1702.0,
4021.0,1802.0,4021.0,1702.0,
3990.0,1964.0,4021.0,1702.0,
3999.0,1912.0,4021.0,1702.0,
4103.0,1695.0,4103.0,1695.0,
4151.0,1615.0,4103.0,1695.0,
4286.0,1328.0,4103.0,1695.0,
4230.0,1458.0,4103.0,1695.0,
4184.0,1458.0,4151.0,1615.0,
4169.0,1547.0,4151.0,1615.0,
4204.0,1622.0,4169.0,1615.0,
4196.0,1570.0,4184.0,1570.0,
4138.0,1433.0,4184.0,1547.0,
3988.0,2057.0,4184.0,1547.0,
3950.0,2197.0,4184.0,1547.0,
3946.0,2253.0,4169.0,1570.0,
3928.0,2288.0,4138.0,1622.0,
4091.0,2109.0,4091.0,2057.0,
3993.0,2173.0,3993.0,2109.0,
3992.0,2195.0,3992.0,2173.0,
4013.0,2170.0,3992.0,2173.0,
4023.0,2193.0,3992.0,2193.0,
4075.0,2089.0,3993.0,2193.0,
4072.0,2061.0,4013.0,2173.0,
4009.0,1872.0,4013.0,2170.0,
4077.0,2051.0,4023.0,2109.0,
4025.0,2161.0,4023.0,2161.0,
4158.0,2066.0,4025.0,2089.0,
3951.0,2353.0,4025.0,2089.0,
3998.0,2353.0,4025.0,2089.0,
3887.0,2519.0,4025.0,2089.0,
4007.0,2333.0,4009.0,2161.0,
4019.0,2390.0,4009.0,2333.0,
4030.0,2392.0,4019.0,2353.0,
4067.0,2342.0,4019.0,2353.0,
4061.0,2439.0,4019.0,2353.0,
4238.0,2182.0,4019.0,2353.0,
4092.0,2354.0,4030.0,2354.0,
4099.0,2379.0,4061.0,2379.0,
4094.0,2372.0,4067.0,2372.0,
4104.0,2341.0,4092.0,2372.0,
4074.0,2424.0,4092.0,2372.0,
4064.0,2513.0,4092.0,2372.0,
4055.0,2492.0,4092.0,2379.0,
4097.0,2731.0,4094.0,2379.0,
4016.0,2533.0,4092.0,2424.0,
4055.0,2478.0,4074.0,2478.0,
4006.0,2561.0,4064.0,2492.0,
4135.0,2367.0,4064.0,2492.0,
4077.0,2458.0,4064.0,2492.0,
4067.0,2442.0,4064.0,2492.0,
4094.0,2482.0,4067.0,2482.0,
4088.0,2500.0,4077.0,2482.0,
4091.0,2513.0,4077.0,2482.0,
4075.0,2526.0,4077.0,2482.0,
4073.0,2549.0,4077.0,2500.0,
4051.0,2575.0,4077.0,2500.0,
4044.0,2629.0,4075.0,2513.0,
4055.0,2704.0,4073.0,2526.0,
4050.0,2726.0,4073.0,2549.0,
4054.0,2727.0,4055.0,2575.0,
4046.0,2773.0,4054.0,2629.0,
4080.0,2737.0,4054.0,2704.0,
4092.0,2760.0,4054.0,2726.0,
4085.0,2717.0,4054.0,2726.0,
4068.0,2713.0,4055.0,2726.0,
4095.0,2723.0,4068.0,2726.0,
4062.0,2764.0,4068.0,2727.0,
4075.0,2786.0,4075.0,2737.0,
4028.0,2850.0,4075.0,2760.0,
4031.0,2860.0,4075.0,2760.0,
4060.0,2787.0,4068.0,2764.0,
4035.0,2842.0,4062.0,2786.0,
4021.0,2914.0,4060.0,2787.0,
4022.0,2939.0,4035.0,2842.0,
4011.0,2967.0,4031.0,2850.0,
4024.0,2872.0,4028.0,2860.0,
4004.0,2974.0,4024.0,2872.0,
4032.0,2973.0,4024.0,2914.0,
4044.0,2926.0,4024.0,2926.0,
4026.0,3013.0,4024.0,2939.0,
4037.0,2855.0,4024.0,2939.0,
4016.0,2877.0,4024.0,2939.0,
4019.0,2918.0,4024.0,2926.0,
4013.0,2917.0,4024.0,2918.0,
4043.0,2870.0,4026.0,2918.0,
4023.0,2949.0,4026.0,2918.0,
4015.0,2929.0,4023.0,2918.0,
4025.0,2990.0,4023.0,2918.0,
3993.0,3066.0,4019.0,2918.0,
3982.0,3178.0,4016.0,2929.0,
3924.0,2859.0,4015.0,2929.0,
3959.0,3149.0,4013.0,2949.0,
3933.0,3217.0,3993.0,2990.0,
3904.0,3197.0,3982.0,3066.0,
4047.0,2851.0,3982.0,3066.0,
3964.0,3218.0,3964.0,3149.0,
3973.0,3194.0,3964.0,3178.0,
3912.0,2879.0,3959.0,3178.0,
4007.0,3314.0,3959.0,3194.0,
3970.0,3341.0,3964.0,3197.0,
3992.0,3393.0,3970.0,3217.0,
3957.0,3391.0,3970.0,3218.0,
4092.0,3487.0,3973.0,3314.0,
3954.0,3346.0,3970.0,3341.0,
3930.0,3357.0,3970.0,3346.0,
3940.0,3361.0,3957.0,3357.0,
3927.0,3335.0,3957.0,3357.0,
3894.0,3394.0,3954.0,3361.0,
3905.0,3441.0,3940.0,3391.0,
3863.0,3449.0,3930.0,3391.0,
3993.0,3609.0,3930.0,3394.0,
3810.0,3471.0,3927.0,3394.0,
3843.0,3495.0,3905.0,3441.0,
3840.0,3605.0,3894.0,3449.0,
3840.0,3506.0,3863.0,3471.0,
3823.0,3602.0,3843.0,3495.0,
3835.0,3578.0,3840.0,3506.0,
3828.0,3618.0,3840.0,3578.0,
3840.0,3701.0,3840.0,3602.0,
3838.0,3724.0,3838.0,3602.0,
3854.0,3728.0,3840.0,3605.0,
3837.0,3723.0,3838.0,3618.0,
3774.0,4054.0,3837.0,3701.0,
3720.0,3772.0,3835.0,3723.0,
3840.0,3806.0,3837.0,3724.0,
3782.0,3880.0,3837.0,3728.0,
3856.0,3960.0,3838.0,3772.0,
3817.0,3894.0,3837.0,3806.0,
3762.0,3890.0,3817.0,3880.0,
3758.0,3874.0,3782.0,3880.0,
3732.0,3903.0,3774.0,3890.0,
3705.0,3942.0,3762.0,3890.0,
3695.0,3923.0,3762.0,3894.0,
3503.0,2827.0,3758.0,3894.0,
3576.0,4329.0,3732.0,3903.0,
3668.0,3846.0,3705.0,3894.0,
3605.0,3774.0,3695.0,3890.0,
3627.0,3680.0,3668.0,3874.0,
3607.0,3703.0,3627.0,3846.0,
3627.0,3776.0,3627.0,3776.0,
3675.0,3740.0,3627.0,3774.0,
3673.0,3809.0,3627.0,3774.0,
3658.0,3820.0,3627.0,3776.0,
3619.0,3866.0,3627.0,3776.0,
3535.0,3915.0,3627.0,3776.0,
3528.0,3866.0,3627.0,3809.0,
3557.0,3850.0,3619.0,3820.0,
3579.0,3766.0,3619.0,3820.0,
3590.0,3748.0,3590.0,3820.0,
3600.0,3822.0,3590.0,3822.0,
3609.0,3823.0,3590.0,3823.0,
3562.0,4090.0,3579.0,3850.0,
3744.0,3814.0,3579.0,3823.0,
3754.0,3739.0,3590.0,3822.0,
3749.0,3794.0,3600.0,3814.0,
3649.0,3772.0,3609.0,3794.0,
3622.0,3845.0,3622.0,3814.0,
3557.0,3957.0,3622.0,3822.0,
3536.0,4000.0,3622.0,3823.0,
3496.0,4082.0,3622.0,3845.0,
3462.0,4091.0,3622.0,3845.0,
3466.0,4087.0,3557.0,3957.0,
3555.0,4079.0,3555.0,4000.0,
3566.0,4052.0,3555.0,4052.0,
3524.0,4061.0,3536.0,4061.0,
3326.0,4140.0,3524.0,4079.0,
3299.0,4102.0,3496.0,4082.0,
3440.0,4104.0,3466.0,4087.0,
3465.0,4109.0,3465.0,4091.0,
3313.0,4125.0,3465.0,4102.0,
3387.0,4181.0,3440.0,4104.0,
3402.0,4130.0,3402.0,4109.0,
3382.0,4186.0,3387.0,4125.0,
3392.0,4136.0,3387.0,4130.0,
3383.0,4089.0,3387.0,4125.0,
3399.0,4147.0,3392.0,4130.0,
3389.0,4044.0,3389.0,4130.0,
3432.0,4075.0,3389.0,4130.0,
3441.0,4108.0,3392.0,4130.0,
3396.0,4123.0,3396.0,4123.0,
3418.0,4074.0,3396.0,4108.0,
3368.0,4092.0,3396.0,4092.0,
3228.0,4373.0,3396.0,4092.0,
3329.0,4154.0,3396.0,4108.0,
3308.0,4098.0,3389.0,4098.0,
3272.0,4118.0,3368.0,4108.0,
3300.0,4082.0,3329.0,4108.0,
3304.0,4076.0,3308.0,4098.0,
3293.0,4073.0,3304.0,4092.0,
3272.0,4056.0,3300.0,4092.0,
3288.0,4114.0,3293.0,4098.0,
3294.0,4202.0,3294.0,4098.0,
3371.0,4504.0,3294.0,4098.0,
3243.0,4087.0,3293.0,4087.0,
3373.0,4608.0,3294.0,4087.0,
3248.0,4095.0,3293.0,4095.0,
3238.0,4497.0,3288.0,4114.0,
3092.0,4089.0,3272.0,4114.0,
3174.0,4282.0,3248.0,4202.0,
3138.0,4209.0,3243.0,4209.0,
3121.0,4295.0,3238.0,4282.0,
3188.0,4184.0,3188.0,4209.0,
3125.0,4212.0,3174.0,4212.0,
3036.0,4090.0,3138.0,4209.0,
2906.0,2811.0,3125.0,4209.0,
3120.0,4267.0,3121.0,4209.0,
3085.0,4217.0,3121.0,4212.0,
3077.0,4151.0,3120.0,4209.0,
3036.0,4184.0,3085.0,4184.0,
3041.0,4090.0,3077.0,4184.0,
3175.0,4011.0,3077.0,4151.0,
3026.0,4027.0,3041.0,4090.0,
3043.0,4027.0,3043.0,4090.0,
3108.0,4008.0,3077.0,4090.0,
2927.0,3496.0,3043.0,4027.0,
3007.0,3948.0,3041.0,4027.0,
2986.0,3639.0,3036.0,4011.0,
3037.0,4013.0,3037.0,4011.0,
2999.0,4018.0,3026.0,4011.0,
3184.0,3996.0,3026.0,4008.0,
3021.0,4001.0,3021.0,4001.0,
3032.0,4012.0,3021.0,4001.0,
2988.0,4045.0,3007.0,4001.0,
2991.0,4003.0,3007.0,4003.0,
2968.0,4035.0,2999.0,4012.0,
2959.0,4056.0,2999.0,4013.0,
2904.0,3985.0,2991.0,4012.0,
2848.0,4001.0,2988.0,4003.0,
2903.0,3979.0,2968.0,4003.0,
2877.0,4012.0,2959.0,4012.0,
2885.0,4007.0,2904.0,4007.0,
2876.0,3981.0,2903.0,4003.0,
2892.0,4033.0,2892.0,4007.0,
2993.0,4021.0,2892.0,4007.0,
2764.0,3582.0,2885.0,4001.0,
2798.0,4116.0,2877.0,4007.0,
2815.0,4051.0,2877.0,4012.0,
2782.0,4159.0,2876.0,4021.0,
2746.0,4093.0,2815.0,4033.0,
2770.0,4116.0,2798.0,4051.0,
2751.0,4172.0,2782.0,4093.0,
2602.0,4081.0,2770.0,4093.0,
2756.0,4099.0,2764.0,4099.0,
2737.0,4128.0,2756.0,4116.0,
2710.0,4128.0,2751.0,4116.0,
2644.0,4231.0,2746.0,4128.0,
2608.0,4238.0,2737.0,4128.0,
2589.0,4235.0,2710.0,4128.0,
2534.0,4169.0,2644.0,4169.0,
2454.0,4270.0,2608.0,4169.0,
2505.0,4343.0,2608.0,4231.0,
2607.0,4147.0,2607.0,4231.0,
2571.0,4099.0,2589.0,4231.0,
2543.0,4133.0,2571.0,4231.0,
2675.0,4063.0,2571.0,4169.0,
2557.0,4084.0,2557.0,4147.0,
2546.0,4044.0,2546.0,4133.0,
2399.0,4063.0,2546.0,4099.0,
2543.0,3991.0,2546.0,4084.0,
2548.0,3962.0,2548.0,4063.0,
2521.0,4033.0,2546.0,4063.0,
2513.0,4019.0,2543.0,4044.0,
2480.0,4096.0,2543.0,4044.0,
2434.0,4060.0,2521.0,4044.0,
2440.0,4094.0,2513.0,4044.0,
2448.0,4125.0,2480.0,4060.0,
2438.0,4173.0,2480.0,4060.0,
2352.0,4301.0,2448.0,4094.0,
2219.0,4337.0,2440.0,4096.0,
2311.0,4123.0,2438.0,4123.0,
2275.0,4202.0,2434.0,4125.0,
2188.0,4320.0,2352.0,4173.0,
2084.0,4475.0,2311.0,4202.0,
2117.0,4449.0,2275.0,4301.0,
2101.0,4501.0,2219.0,4320.0,
2179.0,4369.0,2188.0,4337.0,
2165.0,4431.0,2179.0,4369.0,
2052.0,4505.0,2165.0,4431.0,
2082.0,4411.0,2117.0,4431.0,
2073.0,4444.0,2101.0,4444.0,
2100.0,4362.0,2100.0,4444.0,
2218.0,4259.0,2101.0,4431.0,
2089.0,4228.0,2100.0,4411.0,
2111.0,4188.0,2100.0,4369.0,
2119.0,4129.0,2100.0,4362.0,
2090.0,4126.0,2090.0,4259.0,
1928.0,4123.0,2090.0,4228.0,
2090.0,4157.0,2090.0,4188.0,
2044.0,4192.0,2090.0,4188.0,
2090.0,4180.0,2090.0,4180.0,
2072.0,4246.0,2090.0,4180.0,
2078.0,4205.0,2090.0,4180.0,
2063.0,4185.0,2078.0,4180.0,
2074.0,4189.0,2074.0,4185.0,
2037.0,4296.0,2072.0,4189.0,
2062.0,4220.0,2072.0,4192.0,
2078.0,4177.0,2072.0,4192.0,
2070.0,4169.0,2072.0,4189.0,
2093.0,4180.0,2072.0,4189.0,
1856.0,2916.0,2070.0,4185.0,
2085.0,4228.0,2070.0,4185.0,
2079.0,4187.0,2074.0,4187.0,
2083.0,4185.0,2078.0,4185.0,
2066.0,4168.0,2078.0,4180.0,
2063.0,4205.0,2078.0,4180.0,
2070.0,4181.0,2070.0,4181.0,
1972.0,4163.0,2070.0,4181.0,
2088.0,4193.0,2070.0,4185.0,
2046.0,4192.0,2070.0,4187.0,
2056.0,4200.0,2066.0,4187.0,
2069.0,4161.0,2066.0,4185.0,
2075.0,4212.0,2066.0,4192.0,
2064.0,4170.0,2064.0,4192.0,
2049.0,4175.0,2064.0,4181.0,
2067.0,4223.0,2064.0,4192.0,
1968.0,4145.0,2064.0,4192.0,
2077.0,4181.0,2064.0,4181.0,
2065.0,4197.0,2065.0,4181.0,
2063.0,4159.0,2065.0,4175.0,
2083.0,4183.0,2065.0,4181.0,
2060.0,4198.0,2064.0,4181.0,
2070.0,4228.0,2065.0,4183.0,
2056.0,4193.0,2065.0,4193.0,
2036.0,4213.0,2063.0,4193.0,
2073.0,4217.0,2065.0,4197.0,
2082.0,4183.0,2065.0,4197.0,
2057.0,4203.0,2063.0,4198.0,
2082.0,4171.0,2070.0,4198.0,
2070.0,4196.0,2070.0,4198.0,
2074.0,4224.0,2070.0,4203.0,
2053.0,4166.0,2070.0,4196.0,
2064.0,4195.0,2070.0,4196.0,
2092.0,4184.0,2073.0,4195.0,
2070.0,4213.0,2070.0,4195.0,
2049.0,4226.0,2070.0,4196.0,
2075.0,4169.0,2070.0,4195.0,
1881.0,2883.0,2070.0,4195.0,
2089.0,4144.0,2070.0,4184.0,
2081.0,4176.0,2070.0,4176.0,
2072.0,4214.0,2072.0,4184.0,
2044.0,4243.0,2072.0,4184.0,
2073.0,4181.0,2072.0,4181.0,
2067.0,4204.0,2072.0,4181.0,
2053.0,4206.0,2072.0,4181.0,
2075.0,4182.0,2072.0,4182.0,
1933.0,4190.0,2072.0,4190.0,
2202.0,4179.0,2072.0,4190.0,
1981.0,4299.0,2067.0,4204.0,
2069.0,4182.0,2067.0,4190.0,
2106.0,4186.0,2069.0,4186.0,
2061.0,4205.0,2067.0,4190.0,
2076.0,4198.0,2069.0,4190.0,
2076.0,4190.0,2075.0,4190.0,
2078.0,4224.0,2076.0,4190.0,
2057.0,4187.0,2076.0,4190.0,
2084.0,4216.0,2076.0,4198.0,
1947.0,4221.0,2076.0,4198.0,
2080.0,4216.0,2076.0,4205.0,
2075.0,4178.0,2076.0,4205.0,
2063.0,4209.0,2076.0,4209.0,
2059.0,4166.0,2075.0,4209.0,
2072.0,4203.0,2072.0,4209.0,
1986.0,4354.0,2063.0,4209.0,
2084.0,4168.0,2072.0,4209.0,
2048.0,4241.0,2063.0,4209.0,
2070.0,4185.0,2070.0,4203.0,
2076.0,4181.0,2070.0,4185.0,
2112.0,4212.0,2070.0,4203.0,
2078.0,4227.0,2072.0,4203.0,
2068.0,4178.0,2072.0,4203.0,
2089.0,4193.0,2076.0,4193.0,
2045.0,4208.0,2076.0,4193.0,
