2.063,2.012,6.169,0.40259945823870313,2.0744548369926616
2.016,2.044,6.155,0.4077107785608171,2.057492161390646
2.007,1.998,6.174,0.3908235415481412,2.0654989612459858
2.016,2.002,6.146,0.4068026914189395,2.066534789279572
2.087,2.04,6.183,0.40236369552890805,2.0735222752036235
2.073,2.007,6.211,0.38186782883469444,2.0777265102450775
1.979,2.021,6.197,0.3784238340854215,2.054459458810539
2.026,2.016,6.202,0.3813761835101537,2.0657300770470832
2.016,2.007,6.197,0.38143182253873015,2.0655190418238267
2.035,2.049,6.193,0.391513424017919,2.0605505426897164
2.101,2.021,6.169,0.4088770184848273,2.08053299626222
2.007,2.04,6.193,0.3866294086267372,2.056449686911716
2.101,2.04,6.193,0.3991637789118552,2.0765334618406746
1.993,2.012,6.183,0.3862226579559039,2.0594385343304067
2.091,2.054,6.16,0.41644808222504387,2.071375750864031
2.068,2.058,6.211,0.3879331414417986,2.0656895584660417
2.124,2.03,6.193,0.40097020116864507,2.0836206693184987
2.007,2.007,6.207,0.3751358746141797,2.063587709285309
2.105,2.049,6.202,0.3963158249073959,2.075512811547875
2.021,2.058,6.155,0.4102160080708413,2.0555770730610834
2.138,2.073,6.164,0.42331061048830537,2.0775325157458657
2.03,1.998,6.221,0.369836046031001,2.0705224301961334
2.016,2.016,6.183,0.3897588829849032,2.063551487121764
2.007,2.026,6.179,0.3919301075473327,2.0594443477119246
2.054,2.058,6.169,0.4074534801966429,2.0626577823415624
2.082,0,6.146,2.026,2.035,6.169,0.4007088518064778,2.061591314102919
1.998,2.035,6.202,0.3801923407853028,2.0555838818862666
1.988,2.04,6.174,0.39384282692578915,2.052307655593871
2.068,2.04,6.146,0.41863583754989514,2.069450592792516
2.021,2.035,6.197,0.3857695657967087,2.0605502077359916
2.063,2.035,6.132,0.42442681362852586,2.0694427453008593
2.105,2.058,6.193,0.402091896960749,2.073592399039437
2.129,2.016,6.202,0.39523046652465066,2.0876525850877785
2.044,2.03,6.188,0.3927470494631365,2.0665491961094027
2.068,2.012,6.207,0.3838932986443093,2.075575890430424
2.091,2.016,6.15,0.41653772065788414,2.079478692387015
2.087,2.002,6.188,0.39483118408345125,2.081732553735196
2.021,1.998,6.16,0.3998033264363114,2.0684994979018327
2.044,2.03,6.174,0.3998830157891902,2.066530102435199
2.012,2.016,6.174,0.39382617550097093,2.062676886478814
2.035,2.049,6.202,0.38692300874386504,2.0605615337736105
2.082,2.054,6.179,0.4055787255890513,2.069475162086831
2.012,2.073,6.179,0.39880759356147993,2.0504706846144747
2.03,2.035,6.202,0.38440693500971745,2.0624921136743666
2.091,2.021,6.183,0.40040241289445105,2.0784538940284865
2.021,2.035,6.169,0.4000506798283639,2.0605160344783484
2.115,2.04,6.16,0.41784080406367385,2.0795080405752815
2.026,2.016,6.164,0.40076567883431974,2.0656789545820398
2.016,2.021,6.169,0.39755584796895543,2.0624535207968804
2.049,2.002,6.197,0.3851496767825493,2.073685554165002
2.03,2.012,6.179,0.3931217577821653,2.0674236460616076
2.11,2.035,6.164,0.41447337115961486,2.0794819433548635
2.002,2.007,6.174,0.39134105557406834,2.0624629453471264
2.087,2.021,6.174,0.4044457291493348,2.077596304739006
2.101,1.983,6.183,0.39680100598215323,2.0888064047839596
2.002,2.016,6.169,0.39506788265489085,2.060508508068224
2.04,2.054,6.174,0.40252015316561907,2.060529170642273
2.044,2.03,6.188,0.3927470494631365,2.0665491961094027
2.058,2.049,6.169,0.40679415019125437,2.065431706443368
2.087,2.016,6.188,0.3966610491666464,2.078699193810168
1.965,2.007,6.188,0.3793769929900554,2.054415878291692
2.035,2.054,6.169,0.4044045199501615,2.059452580429728
2.03,2.058,6.164,0.40681979259214884,2.0575209197125006
2.077,2.016,6.179,0.39990156302553553,2.076572614630754
2.068,1.993,6.174,0.39824646143826126,2.0796480437553497
2.026,1.998,6.183,0.3887265205848114,2.0696076284096954
2.063,2.007,6.183,0.39481242517696796,2.0755597863128767
1.998,2.021,6.183,0.38805427932379716,2.0585783312628156
2.049,2.016,6.174,0.3987109993883573,2.0706172525940176
2.077,2.054,6.183,0.4028719121373168,2.0684126595991312
2.04,2.012,6.174,0.39699430206543185,2.069559633596218
2.044,2.021,6.183,0.3941139494196637,2.0684824298548508
2.063,2.063,6.179,0.40422847880887064,2.0635192187446827
2.11,2.016,6.174,0.406896734041794,2.0835076697592285
2.101,2.035,6.183,0.403593611352891,2.077568539430055
2.058,2.068,6.164,0.411856666588808,2.0613732231460173
2.021,2.016,6.179,0.39245805862426114,2.0646235801823183
2.063,2.04,6.169,0.4062725027493878,2.068422361611281
2.054,2.03,6.164,0.4063035952458161,2.0686494736285375
2.096,2.044,6.183,0.40410577094593697,2.074597669376389
2.007,2.016,6.179,0.3906190359226615,2.061602854796055
2.002,2.063,6.188,0.3915758442471738,2.050444020005635
2.016,2.049,6.169,0.40124017265848977,2.0564378843635827
2.082,2.049,6.179,0.4049163914016389,2.0705327942506284
2.082,1.988,6.188,0.3923370632174361,2.0837243042124878
2.016,2.026,6.179,0.3931113254851322,2.06138778727188
2.012,1.988,6.174,0.3901812558330024,2.068756995092197
2.063,2.007,6.174,0.3993997697282578,2.075545564725858
2.04,2.021,6.183,0.39358326787847026,2.0676269695231553
2.082,2.021,6.193,0.3940957789079465,2.0765717945409405
2.077,2.044,6.183,0.40154776003244413,2.0705523740133818
2.026,2.021,6.188,0.38918025277616014,2.0646308731307177
2.077,2.044,6.174,0.4061282505420402,2.070539261744614
2.082,2.04,6.188,0.3991452898624083,2.0724745245035625
2.087,2.04,6.169,0.40948666891990176,2.0735008962221113
2.096,2.03,6.179,0.4042952266381832,2.0775599879577067
2.058,2.016,6.183,0.3953216468696555,2.072548182005423
2.068,2.021,6.169,0.4044437680548718,2.073571127804063
2.026,2.035,6.183,0.393572221432483,2.0616087514309824
2.04,1.993,6.169,0.3970707988217627,2.0736767852785998
2.101,2.026,6.183,0.4024092810232858,2.0794785169084937
2.002,2.016,6.155,0.40220784730626996,2.0604914376200854
2.026,2.035,6.174,0.3981607167094561,2.0615975396607813
2.035,2.002,6.197,0.38328937828241477,2.0706906100245575
2.068,2.021,6.179,0.399350898140306,2.073586441375849
2.016,2.044,6.164,0.40312717230589684,2.0575024726033515
2.002,2.016,6.179,0.38996437996336525,2.0605207126478247
2.058,2.044,6.174,0.4035885898351869,2.066508873966368
2.026,2.026,6.193,0.3872854301984025,2.063558701359058
2.026,2.007,6.183,0.38989954513619834,2.067653253093883
2.04,2.016,6.16,0.40465116004298757,2.0686746047254063
2.091,1.993,6.16,0.4084613389484468,2.084482289575492
2.049,2.03,6.169,0.403093489672516,2.0675907537965665
1.988,2.021,6.169,0.393897222378236,2.0563900736998284
1.998,2.04,6.193,0.3854499201987629,2.0545000284060313
2.068,2.026,6.174,0.4025534209232706,2.072500610128248
2.087,2.049,6.188,0.401008985323332,2.0716166377386176
2.087,2.012,6.193,0.39358917661643117,2.0795728777393645
2.044,2.035,6.183,0.39595467701292214,2.0654669409702437
2.03,1.993,6.179,0.3906465351899085,2.0715491191956015
2.096,2.054,6.174,0.41000660014617357,2.072471013841795
2.087,2.026,6.183,0.4005198434883431,2.0765326332959666
2.054,2.04,6.193,0.3928478125205512,2.066540815180886
2.073,2.016,6.174,0.4019120979462362,2.0757181742122572
2.063,2.002,6.188,0.39161036152713885,2.076652734936444
2.105,2.044,6.193,0.40023477280288106,2.0765543580025523
2.021,2.016,6.193,0.38531227019182285,2.064642058598864
2.04,2.035,6.164,0.40510403869521755,2.0645864436081394
2.049,2.03,6.202,0.3862711025781915,2.067636607402443
2.04,2.026,6.188,0.3916898475403045,2.0665552973913646
2.063,2.021,6.183,0.3966443738799941,2.072531134391124
2.096,2.04,6.207,0.391356250608843,2.075477966741634
2.096,2.063,6.183,0.4066254441223438,2.0705744437240314
2.021,2.049,6.197,0.38762194229816255,2.057546994313902
2.082,2.03,6.169,0.40749912586941006,2.0745942203091188
2.026,2.054,6.179,0.39812280844679754,2.0575329008473426
2.021,2.035,6.193,0.3878111299616253,2.0605453213110985
2.087,2.044,6.188,0.4003470924749039,2.072672101855089
2.016,2.007,6.193,0.38347537407438353,2.065513673033066
2.012,2.058,6.183,0.39477220303722893,2.0536675278383414
2.068,2.026,6.183,0.3979693233744661,2.0725141593385095
2.068,2.03,6.174,0.40307880287906145,2.0716392855351415
2.035,2.044,6.183,0.3959495842994846,2.0616090614207843
2.073,2.007,6.183,0.39615063036566894,2.077680841677401
2.087,2.026,6.193,0.3954263775259126,2.0765486377842666
2.077,2.03,6.169,0.40682851595725666,2.0735377155687487
2.054,2.054,6.197,0.3926639898226009,2.063547689004423
2.058,2.016,6.188,0.3927724092657061,2.072555722281748
2.026,2.026,6.188,0.38983702622481337,2.0635522331854257
2.026,2.035,6.202,0.3838776094287861,2.061632444977477
2.04,2.035,6.179,0.3974627820430187,2.0646061945537553
2.054,2.03,6.183,0.3966260800178643,2.068676337843793
2.063,2.016,6.183,0.39598909636990304,2.0736112610342388
2.082,2.054,6.188,0.40099889850981096,2.0694880377136102
2.073,2.04,6.174,0.4050643805133363,2.070550297932788
2.087,2.016,6.188,0.3966610491666464,2.078699193810168
2.016,2.026,6.193,0.38596659030478336,2.061405172671081
2.035,2.049,6.193,0.391513424017919,2.0605505426897164
2.087,2.03,6.197,0.3939149326301343,2.075693311859042
2.03,2.03,6.197,0.386299416370931,2.0635615772327216
2.044,2.044,6.193,0.39204553374458745,2.063548324056917
2.044,2.03,6.174,0.3998830157891902,2.066530102435199
2.073,2.03,6.164,0.4088371044687715,2.07268378544622
2.054,2.026,6.202,0.38641090419828195,2.0695651726093485
2.091,2.04,6.193,0.39781186843293415,2.074380791828258
1.998,2.044,6.155,0.4053585735155549,2.0536020737775393
2.03,2.04,6.174,0.3993472118085218,2.0613831214680167
2.049,2.012,6.188,0.3910494034314386,2.071503206355547
2.044,2.03,6.197,0.3881566095098356,2.0665614785389113
2.054,2.021,6.183,0.39544376009502263,2.0706163494317398
2.054,2.026,6.164,0.4057788147829433,2.0695106266118795
2.058,2.04,6.207,0.3862428009143491,2.067412117661964
2.054,2.021,6.169,0.4025774883955318,2.070595894065646
2.063,2.044,6.174,0.4042553766529328,2.0675718128401006
2.058,2.063,6.179,0.40356132374487513,2.0624561409866
2.082,2.026,6.193,0.39475292830615033,2.075493196474286
2.04,2.021,6.169,0.40071990717316514,2.0676075077764104
2.063,2.035,6.169,0.40561402668851004,2.0694957154701985
2.044,2.026,6.193,0.38967057468493244,2.06741779382209
2.012,2.016,6.207,0.3769737207683764,2.0627189239135166
2.077,2.054,6.183,0.4028719121373168,2.0684126595991312
2.049,2.026,6.183,0.3954346978378351,2.0684717561131136
2.016,2.054,6.216,0.37792657532578194,2.0554208371656486
2.044,2.007,6.207,0.38003075777828527,2.071546943368954
2.063,2.054,6.188,0.3984511628592735,2.065451203224849
2.044,2.012,6.193,0.38783337377545096,2.0704425982555903
2.077,2.04,6.174,0.40560036856005205,2.0713968151261315
2.03,2.03,6.197,0.386299416370931,2.0635615772327216
2.068,2.035,6.202,0.38947086989573315,2.0706050004294925
2.054,2.058,6.202,0.3906472664890512,2.0626997017523574
2.058,2.03,6.197,0.3900224834351344,2.0695481375486273
2.002,2.021,6.207,0.3763161173938839,2.0594740940475043
1.993,2.016,6.164,0.39644506453409845,2.058550832701881
2.04,2.082,6.207,0.38944124927447693,2.0546098466877383
2.063,2.058,6.183,0.40152809425861385,2.0645904666863855
2.044,2.044,6.183,0.39714261683688107,2.063535405527454
2.091,2.016,6.179,0.4017840705553479,2.07952716775938
2.073,2.049,6.193,0.39658069791735345,2.068649091897244
2.058,2.044,6.193,0.39391057990113615,2.066534755829888
2.096,2.04,6.188,0.40103268386067814,2.075448087522042
2.054,2.026,6.202,0.38641090419828195,2.0695651726093485
2.035,2.068,6.211,0.384861932377854,2.0565162629981946
2.091,2.026,6.174,0.4056398943053876,2.0773610355195182
1.993,2.044,6.15,0.4072549609650886,2.05251237354662
2.082,2.035,6.179,0.40306776343534195,2.0735345471121573
2.058,2.044,6.16,0.4107129474221824,2.0664898209590077
2.002,2.035,6.211,0.37611753865500414,2.05646141849278
2.058,2.035,6.174,0.40240185813811835,2.0684399608530275
2.063,2.035,6.164,0.4081586700646578,2.069488551813147
2.04,2.012,6.179,0.3944447476824593,2.069566820749464
2.063,2.04,6.169,0.4062725027493878,2.068422361611281
2.021,2.035,6.16,0.4046361446131524,2.0605050659912387
2.044,2.012,6.164,0.4026207538378257,2.070400319215787
2.068,2.03,6.174,0.40307880287906145,2.0716392855351415
2.082,2.03,6.141,0.42173388405515233,2.0745507336793105
2.035,2.021,6.188,0.390370350087538,2.0665629422065743
2.087,2.058,6.197,0.39762215569697634,2.0697236407305826
2.101,2.044,6.179,0.4068162303822152,2.0756686128330286
2.044,2.016,6.183,0.39345867190957257,2.0695626242701204
2.068,2.049,6.188,0.3984570817288347,2.067582033319792
2.054,2.035,6.174,0.40186922544921977,2.0675884259679003
2.04,2.021,6.193,0.3884821487415375,2.0676408795725294
2.087,2.016,6.207,0.38697531747021113,2.0787306035096247
2.049,2.012,6.188,0.3910494034314386,2.071503206355547
2.073,2.073,6.202,0.3951927270573528,2.0635430406688675
2.068,2.063,6.169,0.40998334891897653,2.0645675102106265
2.077,2.007,6.174,0.4012726436173652,2.078512550800454
2.054,2.044,6.197,0.391337764521573,2.0656881980691604
2.058,2.04,6.169,0.40560608440115126,2.067359555887135
2.063,2.016,6.155,0.4102491701262012,2.0735683582568494
2.058,2.016,6.15,0.41212815645679307,2.0724984532650477
2.082,2.03,6.179,0.40240965524398575,2.0746097615489503
2.054,2.054,6.164,0.4094672996129243,2.0635051076284046
2.077,2.03,6.179,0.40173831707164903,2.0735530082291045
2.077,2.04,6.179,0.4030556484014567,2.0714042024924844
2.073,2.04,6.188,0.39793649175241524,2.0705707075944386
2.044,2.021,6.155,0.40837978265950553,2.068442950817111
2.021,2.04,6.155,0.40784001974970013,2.0594259667892105
2.077,2.04,6.211,0.38675205565548393,2.071451518831822
2.068,2.026,6.197,0.39083377830809835,2.07253524543374
2.091,2.026,6.15,0.41784441040360676,2.077322179700305
2.063,2.049,6.221,0.38096357616147997,2.066565373270953
2.073,2.016,6.216,0.38049609007574126,2.0757846866940213
2.063,2.044,6.174,0.4042553766529328,2.0675718128401006
2.058,2.03,6.207,0.3849212894493503,2.069562497690972
2.054,2.04,6.197,0.39080851360842916,2.0665462696008308
2.068,2.03,6.188,0.39594779664479257,2.0716600722540077
2.026,2.021,6.179,0.3937719595341756,2.0646190006578755
2.058,2.021,6.202,0.38628736331387953,2.071496197560014
2.035,2.012,6.183,0.3917422249639857,2.0685017371139547
2.063,2.035,6.183,0.3984851014732526,2.069515782825777
2.077,2.016,6.225,0.37643921817155945,2.076646391690887
2.101,2.035,6.193,0.39850351141586676,2.077584764676428
2.049,2.007,6.188,0.39039576725852626,2.0725866025921817
2.063,2.03,6.207,0.38559050256651034,2.0706262318004347
2.007,2.035,6.155,0.4053486654316467,2.057480053951845
2.082,2.035,6.197,0.393900648389947,2.073562067403654
2.068,2.049,6.183,0.4010031153973051,2.0675750995879203
2.04,2.035,6.179,0.3974627820430187,2.0646061945537553
2.049,2.04,6.202,0.38759186865580153,2.0654864525976095
2.068,2.016,6.155,0.41091566456764994,2.0746290661006213
2.096,2.002,6.136,0.42250374302900257,2.0835356364237176
2.04,2.049,6.183,0.39727345716496254,2.061609200695755
2.068,2.012,6.164,0.40581299282710015,2.075507984128071
2.101,2.035,6.169,0.4107148013233808,2.0775458317775954
2.026,2.049,6.16,0.4071382998287955,2.0585795521005763
2.054,2.035,6.169,0.4044152712340853,2.0675814872581553
2.03,2.049,6.193,0.39085143901549485,2.0594777351960443
2.007,2.044,6.207,0.3800098210674867,2.055607190244639
2.096,2.054,6.197,0.3983059048153941,2.0725055108480674
2.054,2.03,6.15,0.41342757106484457,2.068629695347624
2.049,2.04,6.197,0.39014201905894524,2.0654797588805742
2.03,2.054,6.193,0.3915148087382148,2.058408438078199
2.021,2.026,6.169,0.3988682396826813,2.062452387475831
2.03,2.03,6.197,0.386299416370931,2.0635615772327216
1.998,2.026,6.202,0.37900545046821194,2.057521688935621
2.068,2.021,6.188,0.39476480040822226,2.073600228396209
2.063,2.049,6.188,0.3977881627670196,2.066520388741314
2.016,2.063,6.169,0.40309542883306015,2.053449905744239
2.049,2.026,6.164,0.40511476278034225,2.0684449757982635
2.035,2.002,6.211,0.3761362119376081,2.07071114118486
2.016,2.058,6.197,0.3881581714774494,2.054545671083229
2.068,2.026,6.197,0.39083377830809835,2.07253524543374
2.068,2.021,6.155,0.4115688246689775,2.073549698304073
2.091,2.049,6.193,0.3990031451496854,2.0724824376527304
2.035,2.03,6.221,0.3747057789919519,2.06466618804295
2.049,2.04,6.179,0.399316502722753,2.0654556779955624
2.073,2.021,6.207,0.3857466566410384,2.074689721968418
2.049,2.021,6.216,0.3779379449789006,2.0695976668112643
2.058,2.016,6.188,0.3927724092657061,2.072555722281748
2.03,2.044,6.179,0.3973271951871114,2.0605316225866948
2.04,2.03,6.207,0.38252123955853684,2.065719173428563
2.049,2.035,6.211,0.3823381538192354,2.0665729732893334
2.044,2.002,6.216,0.37477758281868495,2.07264620005709
2.068,2.016,6.193,0.39155990995526596,2.07468825460853
2.026,2.049,6.16,0.4071382998287955,2.0585795521005763
2.058,2.007,6.202,0.3844513924504069,2.0745263121188007
2.082,2.035,6.179,0.40306776343534195,2.0735345471121573
2.077,2.035,6.202,0.3906795321167065,2.072512367980164
2.049,2.03,6.193,0.39086219029941827,2.0676240939458634
2.077,2.007,6.146,0.41552335108130833,2.078466368465284
2.054,2.04,6.169,0.40507374729496304,2.066508114466362
2.058,2.035,6.207,0.3855814908701067,2.068486466890438
2.012,2.026,6.188,0.387992958848681,2.0605357187127185
2.068,2.016,6.164,0.40633525529253217,2.0746430774936404
2.077,2.04,6.16,0.4127216553021138,2.071376138927217
2.049,2.021,6.179,0.3968173928253889,2.0695444877948512
2.049,2.044,6.183,0.39780696799139914,2.064603240841246
2.049,2.007,6.174,0.39753555701277055,2.072565465982242
2.077,2.054,6.183,0.4028719121373168,2.0684126595991312
2.04,2.021,6.174,0.39817176888596834,2.067614456745498
2.049,2.016,6.197,0.38698145287022206,2.07065089381206
2.091,2.04,6.188,0.4003576326708971,2.074373053672732
2.091,2.04,6.164,0.4125670502351251,2.0743359295896266
2.049,2.03,6.197,0.3888219988318653,2.067629654750965
2.012,2.068,6.216,0.3792669314930545,2.0515704635206125
2.058,2.016,6.197,0.38818193747349117,2.07256929847465
2.063,2.049,6.193,0.3952410284666385,2.066527199219605
2.082,2.077,6.211,0.39235584737309864,2.0646211929840876
2.054,2.026,6.136,0.42002263050196503,2.069470497990903
2.021,2.044,6.179,0.3961403239061176,2.0585969112818394
2.058,2.054,6.193,0.39523621322361047,2.064394457858278
2.03,2.04,6.183,0.39475992923082587,2.061394284503741
2.03,2.026,6.193,0.38781421635608543,2.0644181877837204
2.091,2.03,6.188,0.39903895614200363,2.0765221912617924
2.04,2.016,6.202,0.38323193373918096,2.0687341062846776
2.119,2.035,6.174,0.41061166890781764,2.081450836025957
2.073,2.035,6.146,0.4186460237974609,2.071582243071433
2.044,2.049,6.193,0.3927077973443418,2.062477338090819
2.054,2.016,6.216,0.3779480778936291,2.0717456418606432
2.035,2.077,6.197,0.39320423554195033,2.0545880923262163
2.03,2.002,6.16,0.4015071091466504,2.0695644799924784
2.077,2.04,6.202,0.39134047002996214,2.0714382046385813
2.054,2.03,6.169,0.4037579123913419,2.0686565406803665
2.026,2.044,6.155,0.40902388350815283,2.059643680596442
2.096,2.044,6.183,0.40410577094593697,2.074597669376389
2.101,2.03,6.193,0.3978443556986853,2.0786336370305687
2.044,2.012,6.207,0.3806858334362411,2.0704630283021253
2.049,2.054,6.207,0.38689853798462837,2.0624938418325534
2.063,2.002,6.207,0.3819139568096308,2.076683277462912
2.058,2.044,6.193,0.39391057990113615,2.066534755829888
2.077,2.044,6.197,0.3944178180026592,2.0705727814181496
2.021,2.035,6.202,0.38321695462940236,2.060556317883246
2.054,2.049,6.174,0.4037168106789342,2.064586833234705
2.049,2.021,6.183,0.3947783005741818,2.069550232429816
2.035,2.012,6.202,0.3820436029468366,2.0685285853548367
2.03,2.049,6.169,0.4030827383885922,2.059449076320869
2.054,2.04,6.193,0.3928478125205512,2.066540815180886
2.063,2.058,6.188,0.3989823587951235,2.064597044397137
2.068,2.044,6.164,0.4100112144558771,2.068618984009553
2.03,2.04,6.179,0.39679901528117617,2.061389322233836
2.021,2.026,6.207,0.37947605286432445,2.062500561856786
2.044,2.016,6.188,0.3909083983904931,2.0695698109540808
2.044,2.049,6.197,0.3906684406868459,2.062482404980799
