1.474,3.224,5.224,0.983833387081979,1.6565628301230764
1.479,3.191,5.233,0.9744342773403124,1.667165401135424
1.479,3.224,5.242,0.9757053404997004,1.6572356976937401
1.512,3.21,5.228,0.9827714404752141,1.6668888500122738
1.535,3.186,5.224,0.9826208416984095,1.6778527599246356
1.521,3.219,5.238,0.9803201345444562,1.6656172874832376
1.483,3.196,5.233,0.975604923845002,1.6663166850675337
1.488,3.2,5.242,0.9724215369682412,1.665865121076689
1.455,3.163,5.238,0.9654066314700022,1.6716562335241012
1.455,3.196,5.261,0.9599709584213564,1.6616512730154787
1.451,3.2,5.266,0.95793095567972,1.6597867473883927
1.493,3.21,5.261,0.9654960861208074,1.6635545132015181
1.469,3.2,5.21,0.9860275199634531,1.6630491737891706
1.507,3.21,5.247,0.973337278082082,1.6659366582527138
1.479,3.243,5.252,0.9741654736984051,1.6514576056486139
1.488,3.186,5.238,0.971975376132593,1.6700652550804447
1.526,3.215,5.247,0.9758136946832483,1.667577940310079
1.502,3.233,5.233,0.9834269959250889,1.6583372208886316
1.441,3.205,5.228,0.9760497669596963,1.6570033299864184
1.497,3.215,5.219,0.9866043118017135,1.6630077129969918
1.474,3.182,5.228,0.9748883612808389,1.6690831026369979
1.446,3.196,5.214,0.9815940841478473,1.6605848411810238
1.512,3.2,5.252,0.9697123802371896,1.6697034708462484
1.502,3.21,0,1.479,3.196,0,1.493,3.2,5.261,0.9638151733302286,1.6665399348345333
1.488,3.2,5.238,0.9743206135924868,1.6658935476885832
1.46,3.191,5.252,0.9638300536162511,1.6640017139557408
1.451,3.196,5.252,0.9639302836594904,1.6610870016280233
1.516,3.177,5.238,0.9728472272369756,1.6772908700331424
1.465,3.229,5.238,0.9772890526672683,1.653519566417718
1.512,3.182,5.252,0.9666966108424399,1.6750560691491954
1.469,3.191,5.247,0.9669520429507505,1.6654670931608944
1.446,3.215,5.219,0.9824083193045267,1.6548556606529825
1.512,3.21,5.247,0.9737652001872904,1.6667571481130465
1.497,3.229,5.238,0.9799581312771544,1.6586834823087837
1.516,3.224,5.252,0.9740949743001165,1.663200280767213
1.512,3.186,5.219,0.9830108804036174,1.6740949863998618
1.521,3.186,5.242,0.9728849037086782,1.6754152338494865
1.46,3.182,5.247,0.964703458681701,1.6667231175003543
1.455,3.224,5.247,0.971346330818801,1.6533641955831337
1.479,3.21,5.238,0.9752477275756709,1.6614566379286835
1.469,3.2,5.238,0.9727391148173082,1.6628453485743515
1.526,3.205,5.242,0.9765019724704013,1.6705922645904838
1.469,3.233,5.2,0.9963122391357014,1.6532371150916028
1.493,3.191,5.252,0.9665837373760175,1.6692856664400384
1.455,3.224,5.242,0.9737243982259495,1.653401395654998
1.483,3.219,5.228,0.9818405465184629,1.6594795059962684
1.451,3.177,5.27,0.9521693372722023,1.6666269455204932
1.512,3.219,0,1.488,3.215,0,1.535,3.196,5.233,0.980035696607048,1.6748243523342115
1.521,3.215,5.252,0.9730097601656458,1.666715116006144
1.446,3.2,5.256,0.9622883672581212,1.6590744616496513
1.446,3.191,5.247,0.965065949202665,1.6618336204218902
1.488,3.233,5.247,0.9756038058120008,1.6559555141525486
1.507,3.191,5.261,0.9634992079065858,1.6715010663240542
1.512,3.191,5.247,0.9705762438150369,1.6724162754559666
1.488,3.191,5.224,0.97945464355703,1.6686758181263344
1.465,3.186,5.238,0.9700641175907796,1.6663878633453513
1.516,3.191,5.256,0.9666482490152033,1.6730113132406794
1.507,3.196,5.214,0.9866263589664076,1.670339105178481
1.451,3.224,5.252,0.9686399811914906,1.6526937835107232
1.479,3.2,5.224,0.9802131028011369,1.6645453780927
1.507,3.172,5.233,0.9736149250790204,1.677336655860623
1.474,3.215,5.219,0.984689564113404,1.6592959541527028
1.469,3.196,5.252,0.9654117523000315,1.663938505015224
1.502,3.21,5.238,0.9771812031593226,1.6651819563741572
1.526,3.186,5.256,0.9666766441118863,1.676145841766879
1.451,3.177,5.233,0.9697930464493463,1.6668991985178543
1.516,3.205,5.256,0.9689976462431469,1.6688441874546927
1.437,3.215,5.233,0.9750314791776403,1.6533406634393177
1.474,3.196,5.238,0.9724821099798815,1.6648379147327097
1.483,3.229,5.247,0.9745085083226052,1.6563456498639988
1.502,3.21,5.233,0.9795520740624203,1.6652170367915247
1.46,3.191,5.242,0.9685881722041018,1.6640748924379374
1.488,3.172,5.238,0.9696370082130955,1.674226711474269
1.497,3.238,5.261,0.9705607684973594,1.6558211486435024
1.451,3.196,5.252,0.9639302836594904,1.6610870016280233
1.521,3.196,5.224,0.9830863424170375,1.6725666891547286
1.451,3.177,5.233,0.9697930464493463,1.6668991985178543
1.465,3.205,5.247,0.9689699225890868,1.6606478442134627
1.455,3.186,5.252,0.962582123558732,1.6647043519555103
1.516,3.2,5.252,0.9700564245224582,1.6703610706065668
1.488,3.196,5.238,0.9736498467680007,1.6670865053012511
1.46,3.172,5.242,0.9654124824180069,1.669737650939363
1.465,3.21,5.214,0.9854815327538448,1.6593933785994146
1.474,3.191,5.252,0.9649891072553146,1.666228757963397
1.483,3.186,5.228,0.9763037927655427,1.6693320770662903
1.437,3.177,5.247,0.9619962795242388,1.6646102166577226
1.483,3.215,5.242,0.9745231840830085,1.660576130432915
1.474,3.196,5.238,0.9724821099798815,1.6648379147327097
1.488,0,5.242,1.474,0,5.238,1.469,3.2,5.224,0.9793873364067034,1.662947188277916
1.446,3.21,5.233,0.9749154330232251,1.6562503184174842
1.455,3.191,5.238,0.9700813903842209,1.6633146795042435
1.526,3.182,5.228,0.9792807399462209,1.6775215738751454
1.46,3.21,5.256,0.9651157888138059,1.6582902690346295
1.507,3.229,5.256,0.9722675511843043,1.6601937215244407
1.493,3.205,5.252,0.9689327532182328,1.6651114520100034
1.488,3.205,5.256,0.9666094877847601,1.6642731430180764
1.488,3.186,5.261,0.9610445872495429,1.6699027240794917
1.488,0,5.242,1.493,3.196,5.233,0.9764426174094676,1.6679300596609814
1.451,3.2,5.242,0.969361202931646,1.659964612431773
1.507,3.205,5.238,0.9767662134443637,1.6674908949896319
1.483,3.2,5.242,0.9720024407499022,1.6650589601724655
1.502,3.186,5.242,0.9712585232126383,1.6723042368797583
1.502,3.229,5.247,0.9761125419514749,1.659436858572673
1.483,3.196,5.247,0.9689560488416623,1.6662167343463965
1.441,3.21,5.256,0.9635626658759935,1.6552934040238743
1.516,3.186,5.242,0.9724545278932704,1.6745927779329317
1.497,3.196,5.233,0.9767796227425314,1.668578461120614
1.516,3.177,5.242,0.9709502524721761,1.6772635949134767
1.46,3.205,5.261,0.9618941561025358,1.6597506840880294
1.432,3.2,5.233,0.9721114642590041,1.657062011548966
1.512,3.229,5.252,0.9745948013837777,1.6610445565863552
1.451,3.21,5.247,0.9686617890098694,1.6569326298991605
1.451,3.219,5.214,0.9858575792915308,1.6544794551419644
1.507,3.2,5.233,0.9782975696321902,1.6690158660327974
1.535,3.182,5.238,0.9753250553044204,1.6789449456029282
1.516,3.21,5.219,0.9873732284160687,1.6676087160380852
1.521,3.182,5.238,0.9741123405306763,1.6766295055205838
1.469,3.229,5.256,0.9690628627714899,1.6540270179704002
1.526,3.21,5.228,0.9839722366974962,1.6691982599275221
1.437,3.215,5.233,0.9750314791776403,1.6533406634393177
1.535,3.215,5.242,0.9789653226194313,1.6691097064604854
1.507,3.196,5.238,0.9752562035077101,1.6701723493805725
1.512,3.224,5.261,0.9694786798260244,1.6624779930953963
1.521,3.186,5.242,0.9728849037086782,1.6754152338494865
1.488,3.21,5.238,0.9759999701294366,1.6629075260953547
1.465,3.191,5.228,0.9756520777648602,1.6649693268336236
1.502,3.243,5.233,0.9851174452673589,1.6553375705076945
1.512,3.21,5.228,0.9827714404752141,1.6668888500122738
1.54,3.224,5.228,0.9875423354981182,1.6673558814976717
1.465,3.196,5.252,0.9650805931897383,1.6633017350168149
1.53,3.177,5.242,0.9721595727417797,1.6795704606509159
1.488,3.224,5.242,0.9764584729313377,1.6586897855973417
1.535,3.215,5.228,0.9855918542318546,1.6692042940560878
1.46,3.224,5.228,0.980785207088387,1.6542986493941456
1.46,3.205,5.228,0.9775894315638863,1.6599933269642086
1.469,3.196,5.247,0.9677900227637816,1.6639747597574737
1.465,3.233,5.238,0.97796439929939,1.6523176862394922
1.512,3.2,5.233,0.9787237931785778,1.66983466209317
1.512,3.229,5.233,0.9836025193864337,1.66117703059284
1.469,3.215,5.247,0.9709822837878486,1.6582920784024118
1.451,3.196,5.228,0.9753475578171491,1.6612649022321853
1.446,3.191,5.256,0.9607788231928227,1.6617667067871382
1.516,3.219,5.238,0.979890240929146,1.6647913599029722
1.474,3.219,5.242,0.9744466740478085,1.6579305993751061
1.502,3.219,5.266,0.965401563699355,1.6622962665798375
1.483,3.215,5.252,0.9697724185398201,1.6605043421948487
1.53,3.21,5.214,0.9909383667901229,1.6699570519819182
1.446,3.219,5.233,0.9764295239815578,1.653549726229657
1.521,3.215,5.252,0.9730097601656458,1.666715116006144
1.507,3.177,5.256,0.9635322466251957,1.6756953434538475
1.512,3.168,5.238,0.9710033570446822,1.6793030410842356
1.474,3.2,5.233,0.9755275377787683,1.663679806204457
1.497,3.219,5.242,0.9763745018197524,1.6616489323418635
1.46,3.2,5.242,0.970096856912534,1.6613859554783044
1.507,3.205,5.242,0.9748691322568418,1.6674630562368737
1.479,3.205,5.242,0.9725077830880343,1.6629225528919573
1.441,3.182,5.247,0.96315465405607,1.6637404730469996
1.483,3.238,5.247,0.9760293481622112,1.6536438518929482
1.521,3.191,5.252,0.9689787059874125,1.6738621019203908
1.516,3.2,5.252,0.9700564245224582,1.6703610706065668
1.451,3.177,5.238,0.9674147099808215,1.6668623445934374
1.469,3.186,5.242,0.9684925330989121,1.6669942786979297
1.502,3.182,5.233,0.9748596252138507,1.6735555775253468
1.451,3.158,5.242,0.9623449730185499,1.6724857216091893
1.516,3.21,5.242,0.9764797744851071,1.6674499389039739
1.512,3.196,5.252,0.9690412324828476,1.6708943959076128
1.512,3.224,5.256,0.971852558666722,1.6625127426204769
1.455,3.191,5.224,0.9767353970518426,1.6634179036005063
1.465,3.229,5.228,0.9820376601962879,1.6535933103079532
1.483,3.215,5.228,0.9811674035933452,1.6606767554976718
1.507,3.186,5.247,0.9693112152555026,1.6730845829512992
1.451,3.172,5.256,0.9580093191557881,1.6682194393669254
1.446,3.191,5.256,0.9607788231928227,1.6617667067871382
1.474,3.196,5.261,0.9615449357917424,1.6646721200193835
1.465,3.186,5.256,0.9615011448994256,1.6662571262570764
1.474,3.229,5.266,0.9647211312561049,1.6547567108473265
1.451,3.168,5.233,0.9682921796022245,1.6695790430942763
1.446,3.196,5.238,0.9701874643522546,1.660405638889455
1.512,3.191,5.261,0.9639288243796491,1.672320017446858
1.451,3.224,5.242,0.9733981388947425,1.652768508963887
1.512,3.215,5.252,0.9722341360421373,1.6652301242666814
1.465,3.182,5.261,0.958450768323596,1.6674132484345943
1.474,3.196,5.256,0.9639244087194544,1.6647081287348848
1.451,3.224,5.256,0.9667355846183967,1.6526639149872482
1.437,3.172,5.233,0.9678290013359789,1.6662060815873965
1.465,3.2,5.242,0.9705079929038652,1.6621794738204283
1.516,3.2,5.238,0.9766964919671444,1.6704572519309664
1.455,3.186,5.261,0.9582949130656825,1.664638278853401
1.474,3.196,5.247,0.9682049061372844,1.6647729915453189
1.507,3.191,5.238,0.9744185308617993,1.6716602268591514
1.544,3.177,5.233,0.9776433677482617,1.6819576139462205
1.465,3.21,5.242,0.9721876197472112,1.6591880227268418
1.535,3.191,5.247,0.9725665140867505,1.6762153407882552
1.521,3.182,5.242,0.9722159860596816,1.6766023470503535
1.507,3.215,5.233,0.9808174029206818,1.6645415160463755
1.46,3.191,5.247,0.966209620436795,1.664038293587906
1.465,3.182,5.247,0.9651152214410841,1.6675147240588963
1.451,3.191,5.233,0.9721333904905186,1.6627221021256364
1.483,3.177,5.238,0.9700527463161025,1.671938307687598
1.502,3.21,5.238,0.9771812031593226,1.6651819563741572
1.469,3.2,5.228,0.9774886627633045,1.6629180762993376
1.497,3.191,5.242,0.9716715565182833,1.6700042991510482
1.446,3.196,5.228,0.9749430830645157,1.6604802517351809
1.516,3.233,5.242,0.9803560752659554,1.6605768173030544
1.507,3.238,5.252,0.9756874107311132,1.6575247347684197
1.465,3.191,5.238,0.9709009155802765,1.664896469834645
1.544,3.196,5.228,0.9831864776189668,1.676359434460654
1.455,3.205,5.224,0.9790817488843846,1.6592322286990508
1.469,3.21,5.233,0.9767934184383537,1.6598914017941373
1.437,3.163,5.233,0.9663297220134983,1.668886601909697
1.441,3.182,5.252,0.9607723780214048,1.6637031815996437
1.497,3.21,5.233,0.97912927255534,1.6644025130213294
1.479,3.2,5.247,0.9692925293994298,1.664380102815233
1.479,3.205,5.233,0.9767814843644732,1.6629873184525268
1.497,3.177,5.224,0.9778698853290676,1.6742923567542627
1.451,3.196,5.242,0.9686903273426389,1.661161072331833
1.512,3.196,5.242,0.9737861940750041,1.6709633185910306
1.512,3.205,5.224,0.9838259610955323,1.6684073970636224
1.474,3.196,5.242,0.9705815378657645,1.6648090525446457
1.455,3.21,5.238,0.9732691863915677,1.6576310345014382
1.53,3.224,5.247,0.9776775404445522,1.665556757687898
1.469,3.186,5.228,0.9751443801318503,1.6670956123636635
1.507,3.2,5.228,0.9806671431557649,1.6690506384952821
1.479,3.163,5.224,0.9740334709362846,1.6755547432587476
1.446,0,5.233,1.535,3.2,5.242,0.9764445792863249,1.6735751463127702
1.502,3.205,5.238,0.9763410897345403,1.6666740264571864
1.46,3.196,5.252,0.9646682042351946,1.662508261159142
1.474,3.233,5.252,0.9720565438355949,1.6536574418031886
1.469,3.191,5.238,0.9712306753469112,1.6655322924766722
1.521,3.2,5.252,0.9704880043606982,1.671185480757153
1.502,3.205,5.242,0.9744435215125596,1.6666460214633332
1.474,3.2,5.247,0.9688759177637785,1.6635786564243924
1.451,3.2,5.238,0.9712639747109902,1.659994300323274
1.549,3.215,5.261,0.9711928852666037,1.6713303517258746
1.488,3.196,5.252,0.9669998438275177,1.6669871949311588
1.507,3.186,5.228,0.9783228605243107,1.673215996242945
1.46,3.215,5.247,0.9702398612738931,1.656858193614276
1.46,3.205,5.247,0.9685581598297036,1.6598535219117678
1.516,3.172,5.228,0.9767527969851102,1.6788408852653574
1.512,3.191,5.238,0.9748453615179703,1.6724782270897895
1.451,3.247,5.238,0.9791870700761898,1.6458747362801371
1.483,3.229,5.242,0.9768829159808732,1.6563817150271003
1.493,3.177,5.228,0.9756368447840948,1.6736179024468232
1.474,3.205,5.247,0.9697154657171619,1.6620845712415635
1.488,3.205,5.242,0.9732609155196718,1.6643727099254662
1.516,3.205,5.252,0.9708961419913879,1.6688716903868057
1.451,3.191,5.233,0.9721333904905186,1.6627221021256364
1.479,3.182,5.238,0.9705543259869428,1.6698102032580173
1.54,3.196,5.247,0.973841883622327,1.6755643179092905
1.507,3.2,5.252,0.9692838525199351,1.668883888295553
1.497,3.215,5.247,0.9733278312830813,1.662809719038677
1.544,3.186,5.242,0.9748864016084319,1.6792329500314285
1.465,3.196,5.252,0.9650805931897383,1.6633017350168149
1.507,3.215,5.238,0.9784473090621582,1.6645065853532326
1.465,3.196,5.247,0.9674593630092092,1.663338160205818
1.493,3.182,5.238,0.971726892539826,1.6720619566700599
1.465,3.186,5.242,0.9681623731553745,1.6663587893262806
1.488,3.163,5.242,0.9662373183798229,1.6768684092648993
1.469,3.224,5.261,0.9658397087757821,1.6554914108666097
1.479,3.168,5.247,0.9639401037418193,1.6739076797494616
1.465,0,5.238,1.507,3.177,5.247,0.9678066294656157,1.6757573098084253
1.455,3.2,5.247,0.9673085882242708,1.6605582886695263
1.479,3.2,5.242,0.9716684045366039,1.664415999226537
1.497,3.186,5.242,0.9708346214782247,1.671492045129651
1.479,3.2,5.252,0.9669156372567868,1.6643442248158973
1.483,3.191,5.238,0.9723935715758744,1.6677715727379852
1.483,3.205,5.242,0.9728418193013327,1.6635659753251009
1.521,3.186,5.233,0.9771505305301602,1.675476441572722
1.497,3.2,5.238,0.9750784336605595,1.6673511980614297
1.521,3.186,5.238,0.9747811481225607,1.6754424305278777
1.483,3.182,5.233,0.9732621248092409,1.6704869132275315
1.516,3.191,5.233,0.9775578669182692,1.6731688432950398
1.53,3.191,5.233,0.9787641577205989,1.67547897361249
1.474,3.182,5.261,0.9591994492401396,1.6688461998033823
1.516,3.182,5.242,0.9717856102442738,1.6757803322192035
1.497,3.21,5.261,0.9658358339443528,1.6642051209597077
1.441,3.21,5.224,0.978790780012086,1.6555344304812365
1.479,3.205,5.242,0.9725077830880343,1.6629225528919573
1.474,3.2,5.242,0.9712524134547715,1.6636147646514
1.502,3.186,5.261,0.9622337014500936,1.672172221241057
1.474,3.2,5.247,0.9688759177637785,1.6635786564243924
1.479,3.2,5.252,0.9669156372567868,1.6643442248158973
1.446,3.182,5.228,0.9726007629016687,1.6646625209377346
1.455,3.21,5.266,0.9599408856306839,1.6574237872236417
1.516,3.191,5.242,0.973291462933329,1.6731071580615826
1.46,3.191,5.256,0.9619256706816083,1.663972464114743
1.474,3.182,5.247,0.9658607645691593,1.6689466043958872
1.46,3.191,5.219,0.9795163788088773,1.6642434934819246
1.516,3.215,5.252,0.9725781803274058,1.6658890533481632
1.502,3.196,5.261,0.9639097468057676,1.6691961022689206
1.507,3.177,5.247,0.9678066294656157,1.6757573098084253
1.526,3.205,5.238,0.9783972186713742,1.6706194770011662
1.474,3.2,5.233,0.9755275377787683,1.663679806204457
1.497,3.191,5.242,0.9716715565182833,1.6700042991510482
1.516,3.196,5.242,0.9741292720527541,1.6716202338842951
1.437,3.191,5.242,0.9667194355695082,1.6604655073862784
1.512,3.233,5.252,0.9752705184441842,1.6598468394869539
1.46,3.2,5.242,0.970096856912534,1.6613859554783044
1.535,3.191,5.247,0.9725665140867505,1.6762153407882552
1.488,3.219,5.252,0.9708665324765285,1.6601156305477085
1.46,3.243,5.233,0.9816195241445516,1.6485482508763918
1.497,3.224,5.256,0.9705706244912347,1.660053517566129
1.451,3.196,5.228,0.9753475578171491,1.6612649022321853
1.483,3.191,5.224,0.9790377716602524,1.6678714495205007
1.451,3.191,5.238,0.9697555352405933,1.6626850811381626
1.497,3.205,5.256,0.967371281734946,1.6657331736622776
1.507,3.21,5.233,0.9799765884938143,1.6660342577248215
1.474,3.205,5.219,0.9830097449824106,1.662287344532755
1.479,3.21,5.219,0.9842623480983681,1.6615937120293351
1.488,3.233,5.233,0.9822474804773047,1.6560560806310602
1.502,3.224,5.242,0.9776410789242256,1.660969126847559
1.455,3.191,5.228,0.9748350694069954,1.663388395583991
1.497,3.191,5.233,0.9759421205861583,1.6700674043594799
1.455,3.186,5.228,0.9739986137267728,1.6648808550346306
1.469,3.172,5.233,0.9704317550235597,1.6712268585934176
1.507,3.186,5.233,0.9759528097466333,1.673181389467176
1.488,3.205,5.256,0.9666094877847601,1.6642731430180764
1.502,3.177,5.219,0.9806607037088065,1.6751375196248188
1.507,3.196,5.247,0.9709863015228596,1.6701099185606259
1.451,3.186,5.238,0.9689187372510965,1.6641781374116362
1.497,3.191,5.242,0.9716715565182833,1.6700042991510482
1.497,3.191,5.242,0.9716715565182833,1.6700042991510482
1.493,3.219,5.247,0.973663104120483,1.6609626137556497
1.469,3.2,5.266,0.9594187366394656,1.662642110384107
1.441,3.186,5.238,0.9681090042909374,1.6626131788792329
1.474,3.215,5.238,0.9756732155343295,1.65915785171304
1.465,3.177,5.247,0.9642796909519653,1.6690038706258072
1.497,3.177,5.238,0.9712291689303907,1.674194596212739
1.488,3.186,5.242,0.9700759172197504,1.6700369611864083
1.465,3.219,5.219,0.9846232232609071,1.6566604322121854
1.465,3.215,5.238,0.9749296937806354,1.6577197096398144
1.46,3.168,5.233,0.969025790082137,1.670992824572387
1.502,3.186,5.252,0.9665104493446529,1.672234723109548
1.497,3.196,5.242,0.9725093656377085,1.6685152493448425
1.465,3.219,5.219,0.9846232232609071,1.6566604322121854
1.479,3.196,5.224,0.9795427161894629,1.6657390320711443
1.502,3.205,5.242,0.9744435215125596,1.6666460214633332
1.479,3.182,5.242,0.9686538671391164,1.6697816438271618
1.507,3.229,5.224,0.9874390414314921,1.6604182145918935
1.493,3.2,5.247,0.9704682035943416,1.6666387000620546
1.441,3.172,5.242,0.9638660799554662,1.6667603849359331
1.512,3.196,5.242,0.9737861940750041,1.6709633185910306
1.54,3.224,5.247,0.9785506378433513,1.6672279188358603
1.451,3.205,5.247,0.9678213720305245,1.6584307207239493
1.465,3.224,5.238,0.9764456461082996,1.6550207690798675
1.446,3.215,5.242,0.9714756958739157,1.6546829827039125
1.516,3.224,5.252,0.9740949743001165,1.663200280767213
1.507,3.182,5.21,0.986178476692991,1.6745287736879346
1.544,3.2,5.233,0.9814918448969916,1.6751382696436756
1.437,3.229,5.228,0.9797677135951988,1.6491694057923654
