2.353,3.622,4.212,1.586247251991341,1.7177290096405844
2.283,3.627,4.212,1.5788828603064928,1.6999490491545675
2.316,3.603,4.207,1.5804968771508507,1.714885202150767
2.274,3.631,4.226,1.572890042129501,1.696627978000025
2.321,3.622,4.221,1.5788030609658674,1.710236660016956
2.274,3.58,4.221,1.5658837729949149,1.7121556606264858
2.302,3.599,4.207,1.5781472701579384,1.7128604034689163
2.274,3.627,4.193,1.5855117634957197,1.6979292580013314
2.292,3.622,4.198,1.5846878889558835,1.7035777011291648
2.274,3.613,4.249,1.560357543742385,1.702060565664544
2.269,3.608,4.24,1.5625503001179837,1.7024598236094504
2.302,3.599,4.212,1.576128668267943,1.7128490219408754
2.288,3.627,4.198,1.5851123099403293,1.7011322929639237
2.26,3.641,4.226,1.573061847769529,1.69036746179158
2.255,3.594,4.216,1.5681981653877666,1.7035822964297684
2.283,3.575,4.216,1.5680670352688768,1.715744608682541
2.325,3.613,4.235,1.5720153137853388,1.7138749677311724
2.302,3.58,4.184,1.5840603853371809,1.718674301381678
2.306,3.599,4.24,1.5652650152628385,1.713709670063226
2.264,3.641,4.198,1.58484122516888,1.6913517502293514
2.297,3.58,4.207,1.5742106826860198,1.7174697968881916
2.283,3.622,4.212,1.5779942507668567,1.7014738071899218
2.236,3.613,4.207,1.5730472830378843,1.6935086266375947
2.321,3.613,0,2.292,3.58,0,2.306,3.627,4.226,1.575903034078787,1.7052220334768957
2.274,3.608,4.235,1.5651569016725784,1.7036171540193281
2.316,3.636,4.235,1.5750388999654215,1.7047754782358548
2.292,3.603,4.212,1.5756699625583817,1.7093277511328917
2.349,3.599,4.226,1.576039775787114,1.7237493230655676
2.297,3.608,4.202,1.5811736911011083,1.7089829562066081
2.283,3.599,4.216,1.5723008712365578,1.7084644220685614
2.33,3.641,4.212,1.586884269055819,1.7065592421236229
2.288,3.636,4.202,1.5851008310759946,1.6983760907951464
2.278,3.622,4.254,1.5603859195275938,1.7002234573246813
2.33,3.589,4.212,1.5776601340548486,1.7223742812264484
2.278,3.589,4.226,1.565907803153874,1.7103301267376085
2.311,3.589,4.216,1.5738014275004464,1.7179552098480853
2.316,3.589,4.235,1.5667030728430902,1.719071375620037
2.297,3.613,4.221,1.5743859813110388,1.7074178901351524
2.283,3.627,4.226,1.5732196140534935,1.6999154533361647
2.316,3.575,4.207,1.5755560791890624,1.7233729126364672
2.288,0,4.23,2.269,3.599,4.202,1.5763434512402161,1.705290543483894
2.278,3.627,4.193,1.585972045089841,1.6988463822661295
2.302,3.622,4.212,1.580204962391127,1.7058527798028227
2.274,3.617,4.23,1.5687807444203468,1.700888532347723
2.283,3.613,4.212,1.576396962415509,1.704215679759258
2.306,3.631,4.23,1.5749956655306825,1.703993018518002
2.344,3.65,4.188,1.599815228568766,1.707133642777477
2.339,3.608,4.23,1.5748189374245118,1.7186699631934106
2.306,3.603,4.212,1.5773044735467963,1.712558315802456
2.283,3.622,4.202,1.5820319385251524,1.7014976518392364
2.325,3.608,4.212,1.580427069536496,1.715445359789417
2.321,3.622,4.202,1.5864701161848895,1.7102786371409693
2.278,3.636,4.221,1.576266800481993,1.6960311062103026
2.316,3.617,4.23,1.5736844626362736,1.7105772767643008
2.292,3.599,4.212,1.5749623806322415,1.7105432071282731
2.339,3.608,4.212,1.5820895675177562,1.7187081765647145
2.278,3.613,4.188,1.5855008343633725,1.7031253447984251
2.302,3.575,4.226,1.5662336700279351,1.7200934458727941
2.325,3.599,4.235,1.5695354794690122,1.7181283734207244
2.311,3.636,4.198,1.589395210868665,1.7036988238562587
2.311,3.641,4.202,1.5886745423591286,1.70216334007573
2.306,3.608,4.235,1.5688855794792609,1.710986249040908
2.302,3.617,4.216,1.577701386199336,1.7073664457546318
2.306,3.617,4.184,1.5910662793219856,1.7083638717525567
2.311,3.627,4.24,1.5708204864745472,1.7063485371186473
2.302,3.641,4.207,1.5856044110548229,1.7000678037008852
2.278,3.631,4.24,1.5676757364996365,1.6975117269402533
2.283,3.622,4.249,1.5629998340719276,1.7013847961435478
2.297,3.594,4.226,1.5689994031783796,1.7131811259913228
2.269,3.613,4.202,1.5788221041684043,1.7010306767205368
2.269,3.608,4.216,1.5722782708191996,1.70251883880906
2.288,3.617,4.212,1.5776861392586543,1.7041472152403567
2.321,3.641,4.221,1.5821848375715992,1.7044431056763696
2.288,3.594,4.216,1.5719970404584995,1.7111319782499195
2.283,3.575,4.221,1.5660439328345437,1.7157328456025531
2.321,3.641,4.23,1.5785455202706664,1.7044229633719128
2.302,3.617,4.226,1.5736573482053668,1.7073434218868568
2.283,3.575,4.23,1.5623983583115422,1.7157116184965655
2.292,3.613,4.249,1.56245079819177,1.7061989765203511
2.302,3.631,4.226,1.5761456919482633,1.7030765870256699
2.288,3.603,4.235,1.5658949448723132,1.708352973906841
2.306,3.636,4.24,1.5718342314564548,1.7024441630437819
2.316,3.641,4.221,1.581594545928213,1.7032807908215764
2.297,3.603,4.216,1.5746360816003466,1.7104707389813782
2.274,3.584,4.221,1.5665887566397891,1.7109428238118822
2.288,3.599,4.254,1.5574707603779585,1.7095235630280998
2.33,3.617,4.226,1.5769606381718482,1.7138424631048428
2.264,3.65,4.249,1.5657913002785382,1.6884694372169762
2.311,3.603,4.24,1.5665614613003551,1.7136523072103078
2.325,3.599,4.221,1.5751995625517339,1.718158964925034
2.264,3.617,4.23,1.567629103735765,1.6985997195066076
2.321,3.603,4.226,1.5734122320273507,1.7160038180893809
0,3.57,4.207,2.297,3.622,4.221,1.5759834714951697,1.7046770646967493
2.274,3.613,4.216,1.5737400669885968,1.702141186304381
2.25,3.631,4.249,1.560796518365289,1.6910846187245439
2.278,3.603,4.198,1.579700081175733,1.7061442416297188
2.33,3.627,4.198,1.590033276314245,1.7108588107272513
2.306,3.599,4.216,1.5749810872764698,1.7137642371419652
2.269,3.594,4.212,1.5714195229393333,1.7067855965746617
2.316,3.622,4.216,1.5802329746500003,1.7090863548380346
2.344,3.617,4.207,1.5862974072794351,1.7171519536311772
2.306,3.613,4.226,1.5734166487353267,1.709485992614223
2.297,3.613,4.207,1.5800425377445044,1.7074503180886864
2.316,3.599,4.198,1.5834170887493315,1.7161196483446943
2.311,3.613,4.23,1.5723853303506512,1.7106347506322812
2.255,3.594,4.24,1.558464483621206,1.7035219363808933
2.302,3.608,4.221,1.5740842463810196,1.7100934508404249
2.306,3.603,4.23,1.5700255620852646,1.7125174348336554
2.274,3.617,4.226,1.5704016983866047,1.7008983029571114
2.274,3.627,4.212,1.5778434170908247,1.6978831278630826
2.325,3.613,4.207,1.5833300755545245,1.713936330083343
2.236,3.622,4.249,1.5576019401409855,1.6906522346706954
2.25,3.617,4.24,1.5619669478610678,1.695381492360781
2.292,3.617,4.23,1.5708691760961615,1.7050259406993629
2.297,3.622,4.235,1.570314838692014,1.7046443517114482
2.325,3.622,4.216,1.581295974290472,1.7111780714284948
2.302,3.599,4.254,1.5591100425527535,1.7127525593191988
2.306,3.631,4.235,1.5729704715432806,1.7039814889143152
2.306,3.659,4.226,1.5816118318016965,1.6954446293452665
2.302,3.589,4.216,1.5727460608161852,1.7158746800934024
2.288,3.599,4.254,1.5574707603779585,1.7095235630280998
2.292,3.622,4.259,1.5599829123134115,1.7034336988889824
2.335,3.589,4.226,1.5725994299236954,1.723509237522707
2.325,3.584,4.221,1.572550820755804,1.722706630334003
2.311,3.613,4.216,1.5780471580592481,1.710666367679093
2.269,3.617,4.245,1.5621155427306774,1.6997061214289169
2.26,3.627,4.235,1.566918479678418,1.694622841835467
2.26,3.603,4.212,1.5719791326896952,1.7019947892044793
2.321,3.636,4.23,1.5776542506772346,1.7059491040462769
2.297,3.617,4.23,1.5714528099373872,1.7061792024676696
2.283,3.589,4.207,1.574171534944943,1.7115221065317672
2.316,3.603,4.235,1.5691779781550093,1.7148229201422298
0,3.631,4.23,2.297,3.617,4.245,1.5653701212749722,1.7061440930131964
2.306,3.594,4.202,1.5797483990504464,1.715313529525775
2.269,3.599,4.202,1.5763434512402161,1.705290543483894
2.288,3.641,4.245,1.5685898455864666,1.6967457861336965
2.288,3.65,4.24,1.572225991515947,1.6940054409295058
2.302,3.58,4.24,1.5614405525100585,1.7185476815171052
2.274,3.636,4.23,1.572159628378157,1.6950910035139783
2.325,3.603,4.24,1.568217475651884,1.716902988439095
2.311,3.613,4.245,1.5663053885182812,1.71060068498017
2.302,3.58,4.226,1.567114167303598,1.7185795885138466
2.292,3.645,4.23,1.575852969974598,1.6964813850526348
2.283,3.608,4.249,1.5605150730082114,1.7056488896685462
2.288,3.613,4.216,1.5753599223276893,1.7053557824751604
2.306,3.613,4.216,1.5774602354470657,1.7095087930727217
2.274,3.627,4.221,1.5742030358587111,1.6978611599266553
2.274,3.627,4.235,1.5685300505516448,1.6978268411481654
2.297,3.594,4.193,1.5823248470533324,1.7132568748151353
2.283,3.594,4.207,1.5750542661857774,1.7100044637509202
2.283,3.594,4.212,1.5730342747845771,1.7099926523022548
2.353,3.584,4.216,1.5779091383634007,1.7292512942783327
2.311,3.627,4.212,1.5821484432157025,1.7064121859348813
2.306,3.57,4.207,1.573502602411094,1.7225722360550464
2.255,3.655,4.207,1.5826790594183482,1.684987626109424
2.283,3.599,4.226,1.5682537214105334,1.7084406526606373
2.321,3.636,4.216,1.583313371075444,1.705980346121585
2.288,3.594,4.207,1.575633537043483,1.7111530390270662
2.297,3.599,4.24,1.5642093969693847,1.7116304461233973
2.297,3.641,4.221,1.5793652481009015,1.698879549088397
2.302,3.65,4.207,1.5872103934485382,1.697316776385481
2.306,3.58,4.221,1.5696061798699574,1.719514717185417
2.306,3.627,4.216,1.5799462717133945,1.7052449551233384
2.316,3.603,4.216,1.576864071737565,1.714865257768773
2.269,3.594,4.221,1.567777749990544,1.706763670496205
2.316,3.617,4.226,1.5753030764016887,1.7105862485851349
2.292,3.613,4.226,1.5717794197670731,1.7062532758622924
2.311,3.584,4.23,1.5672565779828378,1.719439339465252
2.325,3.627,4.212,1.5837991197411754,1.7096639185424518
2.316,3.636,4.226,1.5786817716764687,1.7047958324344974
2.339,3.631,4.235,1.5768805821721186,1.7116609999834138
2.288,3.631,4.202,1.5842107678201058,1.699902498973951
2.264,3.613,4.207,1.5762295491807592,1.6998756772362036
2.278,3.603,4.259,1.5549801308850741,1.7059971674095626
2.283,3.622,4.254,1.5609669717219703,1.7013726749613312
2.25,3.584,4.254,1.5504314733558608,1.7053859830429048
2.325,3.599,4.216,1.5772194483536186,1.7181698494934867
2.321,3.599,4.249,1.5633842331532997,1.7171674521785016
2.278,3.636,4.249,1.5649107280204018,1.6959626191176262
2.297,3.608,4.235,1.5678305843677613,1.708906532518136
2.297,3.613,4.202,1.5820597185599372,1.7074618565895125
0,3.603,4.221,2.353,3.584,4.198,1.585161568489313,1.7292877624968137
2.321,3.575,4.221,1.5704920889261424,1.7245017153860775
2.306,3.584,4.212,1.573948504334865,1.7183232548734733
2.306,3.617,4.193,1.587445761248844,1.7083435865135443
2.255,3.608,4.198,1.5779504943131968,1.6993686405237065
2.321,3.622,4.216,1.5808229262076605,1.7102477382133028
2.325,3.641,4.193,1.593946172879753,1.7054358501593094
2.288,3.627,4.221,1.5758238791422243,1.7010778520337189
2.25,3.631,4.24,1.5644557837958837,1.6911079062389278
2.302,3.636,4.226,1.577036043480147,1.7015506979508535
2.335,3.575,4.212,1.5757869304098755,1.7277763933479886
2.325,3.659,4.221,1.5858735160742372,1.6998721039849698
2.302,3.608,4.24,1.5663887528559517,1.7100496976937443
2.311,3.636,4.193,1.591408281325502,1.70371008728118
2.283,3.65,4.226,1.5773192249587853,1.6928876200714962
2.292,3.603,4.23,1.568387556133066,1.709285677216453
2.292,3.641,4.202,1.586456009799787,1.6977703066106917
2.339,3.622,4.221,1.580940569011094,1.7144321260587325
2.306,3.589,4.216,1.573214504888264,1.7167986701203741
2.325,3.575,4.24,1.5632742186620299,1.725389419729926
2.292,3.589,4.226,1.5675330673483785,1.713546301903982
2.278,3.589,4.212,1.5715733937648626,1.7103635892192477
2.316,3.594,4.216,1.5752727150145531,1.7175972226470313
2.306,3.655,4.216,1.584938861512531,1.6966923177962212
2.288,3.608,4.207,1.5781098935651292,1.7068985127695457
2.321,3.617,4.23,1.574275366719424,1.7117387713583254
2.274,3.594,4.212,1.571994831568909,1.7079293982583206
2.321,3.627,4.245,1.5699747975332505,1.7086599380469707
2.292,3.627,4.221,1.5762891847365805,1.7019994009644732
2.33,3.603,4.198,1.5857767836886263,1.7181578144493577
2.288,3.636,4.24,1.569727912730384,1.6982854577126716
2.321,3.627,4.226,1.5776703980060438,1.708702403915276
2.288,3.599,4.221,1.5708583417192326,1.7096016810381593
2.292,3.608,4.212,1.5765552340903815,1.7078074622808124
2.292,3.584,4.226,1.566650972049952,1.7150625504160855
2.269,3.645,4.212,1.5804743307967921,1.6912376180789783
2.325,3.608,4.188,1.5900937369923263,1.7154974026189764
2.321,3.622,4.235,1.5731390446963545,1.710205522808472
2.297,3.641,4.221,1.5793652481009015,1.698879549088397
2.316,3.603,4.249,1.5635000048094823,1.714791525636059
2.316,3.636,4.207,1.5863554926391714,1.7048385609225445
2.283,3.594,4.24,1.5616930564929772,1.7099261042270832
2.311,3.617,4.235,1.5710700406816411,1.7094061380532157
2.245,3.603,4.23,1.562976411172378,1.6985360264635636
2.288,3.589,4.226,1.5670674818809935,1.7126260019648916
2.306,3.622,4.221,1.5770367226720712,1.7067572863298714
2.306,3.627,4.207,1.5835797724121912,1.7052655069210394
2.288,3.636,4.188,1.5907414350807088,1.6984091427568895
2.311,3.617,4.226,1.5747139539372308,1.7094265545382339
2.311,3.631,4.221,1.579224313664706,1.70517218749442
2.325,3.599,4.202,1.5828666865794896,1.7182002098461477
2.274,3.636,4.259,1.560379067506946,1.6950192610503922
2.339,3.631,4.249,1.5712079669501613,1.711630739335737
2.278,3.613,4.202,1.5798574925553661,1.7030918874105307
2.292,3.594,4.249,1.5590862770393692,1.7119750698853002
2.335,3.636,4.207,1.5886030177455677,1.7092623388720465
2.339,3.594,4.207,1.5816291883015496,1.7229671482765736
2.302,3.631,4.24,1.57047393798181,1.7030440340117912
2.306,3.636,4.221,1.5795273383142139,1.702488022194335
2.292,3.641,4.216,1.5808038719366382,1.697737279928247
2.302,3.627,4.212,1.581093571930763,1.704328862899332
2.321,3.622,4.23,1.5751633248228039,1.7102166631205258
2.33,3.608,4.24,1.569697393678279,1.716548406162387
2.288,3.603,4.202,1.5792426186873705,1.7084306657077395
2.325,3.594,4.263,1.55728604677026,1.7195838576658415
2.269,3.636,4.212,1.5788698079792398,1.6939894438721206
2.302,3.589,4.216,1.5727460608161852,1.7158746800934024
2.292,3.636,4.235,1.5722219561186,1.699219595136645
2.306,3.608,4.216,1.576574032740646,1.7110295609896227
2.297,3.599,4.193,1.5832082861937922,1.7117388293249285
2.306,3.669,4.216,1.5874453421875767,1.6924036273069998
2.283,3.617,4.254,1.5600787061333825,1.7028965501913242
2.292,3.631,4.254,1.5636177721253375,1.7007006885997784
2.306,3.641,4.226,1.578396260746004,1.7009497390895063
2.302,3.599,4.249,1.5611418800930696,1.7127641218165321
2.306,3.603,4.226,1.571644868100094,1.712526543973229
2.321,3.622,4.24,1.5711131941344503,1.710194360595531
2.255,3.57,4.23,1.55829412476558,1.7108284990429103
2.288,3.599,4.198,1.5801483776102918,1.7096555647335936
2.349,3.594,4.226,1.575155911372881,1.7252653177969457
2.302,3.608,4.226,1.5720613228158253,1.7100819674219065
2.349,3.603,4.245,1.5690578612561001,1.7224961268615633
2.283,3.636,4.235,1.5711746283623065,1.6971463401555404
2.33,3.622,4.212,1.5835029063669965,1.71235119801318
2.297,3.631,4.207,1.5832397327424408,1.7019654274050318
2.283,3.636,4.198,1.5861350700243637,1.697235322176019
2.269,3.584,4.23,1.5623656649714988,1.7097773403014234
2.274,3.584,4.207,1.5722508847203827,1.7109764318883889
2.274,3.599,4.202,1.5769180480504514,1.7064343279457619
2.316,3.622,4.245,1.5684938508346218,1.7090211194452287
2.292,3.645,4.202,1.587169385712602,1.6965477122353834
2.344,3.599,4.212,1.581093313811654,1.722608443169882
2.292,3.575,4.207,1.5727484097239113,1.717832908229518
2.306,3.659,4.207,1.589287133643533,1.6954886014913992
2.288,3.641,4.202,1.5859917669825958,1.6968486219299823
2.306,3.622,4.226,1.5750142520558754,1.70674583573167
2.297,3.613,4.226,1.5723627748921123,1.707406266277376
2.288,3.65,4.24,1.572225991515947,1.6940054409295058
2.302,3.594,4.216,1.573628909505797,1.7143578307108127
2.321,3.575,4.216,1.572512564303126,1.7245125817638238
2.33,3.599,4.202,1.5834584091400805,1.7193633636990893
2.255,3.627,4.202,1.5797070497075125,1.6935655567502712
2.306,3.631,4.207,1.584291241474047,1.7040457637162765
2.245,3.599,4.235,1.5602387084026261,1.6997403872065198
2.311,3.636,4.23,1.5764739505500887,1.703626188158454
2.278,3.641,4.221,1.5771579614455822,1.6945031097331837
2.335,3.608,4.226,1.5759594525347993,1.7177446327489188
2.302,3.622,4.245,1.5668444662472887,1.7057764384676133
2.288,3.627,4.226,1.573800219643149,1.7010659529698549
2.302,3.613,4.249,1.5636222301930587,1.7085077741046588
2.25,3.599,4.249,1.5551170792239215,1.7008407341523695
2.288,3.575,4.216,1.5686469381894124,1.7168925595659357
2.302,3.641,4.235,1.5742827708205123,1.7000027668229178
2.255,3.575,4.216,1.5648480631186796,1.7093485229864924
2.306,3.613,4.207,1.581094046476111,1.7095292371341049
2.292,3.589,4.212,1.5731959024432773,1.7135788238361294
2.292,3.627,4.221,1.5762891847365805,1.7019994009644732
2.33,3.617,4.24,1.571293742869322,1.7138119073890545
2.302,3.627,4.193,1.5887544680635663,1.7043724500113735
2.306,3.603,4.226,1.571644868100094,1.712526543973229
2.316,3.631,4.216,1.5818331892272923,1.7063436009098296
2.278,3.631,4.24,1.5676757364996365,1.6975117269402533
2.344,3.575,4.221,1.5732267950379857,1.729857446223744
2.283,3.599,4.249,1.558921351054261,1.7083856540029287
2.316,3.622,4.235,1.5725478002133286,1.709043698114679
2.297,3.589,4.212,1.5737782825734061,1.7147304278944457
2.325,3.594,4.221,1.5743157636942584,1.719675933202108
2.292,3.603,4.221,1.5720313219986657,1.7093067498253267
2.306,3.631,4.216,1.5806578277906151,1.704025181709741
2.316,3.599,4.254,1.5607611605568756,1.7159950498314789
2.302,3.599,4.212,1.576128668267943,1.7128490219408754
2.278,3.613,4.24,1.564477061788405,1.7030001766387521
2.316,3.636,4.226,1.5786817716764687,1.7047958324344974
2.278,3.622,4.249,1.5624191354825163,1.7002356992040593
2.302,3.613,4.245,1.5652464265083113,1.7085170604564555
2.316,3.613,4.212,1.5802507108190806,1.7118345645408901
2.311,3.627,4.216,1.580533194325577,1.7064031364168368
2.335,3.617,4.207,1.5852252054390892,1.7150493813420127
2.255,3.622,4.221,1.5711339335074772,1.6950435740137102
2.311,3.603,4.216,1.5762756329130703,1.7137063983392322
2.278,3.613,4.226,1.5701541555725687,1.7030341148468835
2.288,3.617,4.23,1.5704033666737338,1.70410457484932
2.288,3.589,4.216,1.5711141917688878,1.7126494403169816
2.302,3.594,4.254,1.558225803746411,1.7142706645846462
2.288,3.617,4.226,1.5720235298816387,1.704114075546524
2.321,3.622,4.221,1.5788030609658674,1.710236660016956
2.288,3.631,4.249,1.5651830133588582,1.6997904074341432
2.283,3.613,4.212,1.576396962415509,1.704215679759258
2.288,3.622,4.193,1.5862386973545275,1.7026685181285879
2.306,3.636,4.216,1.5815480580811068,1.7024995096467286
2.316,3.603,4.235,1.5691779781550093,1.7148229201422298
2.302,3.631,4.23,1.5745264485081087,1.7030673040652629
2.297,3.594,4.216,1.5730447248773347,1.7132041814008232
2.302,3.58,4.259,1.5537209624644215,1.7185041196181368
2.288,3.599,4.207,1.576517154464139,1.7096345360033303
2.316,3.608,4.23,1.5720883453011048,1.7133147649796276
2.288,3.617,4.216,1.576069517152039,1.7041377647673208
2.292,3.627,4.245,1.566562612004337,1.7019425399434294
2.325,3.617,4.23,1.5747491734551378,1.7126691933781943
2.339,3.641,4.212,1.5879543708716224,1.708660789320436
2.306,3.617,4.212,1.579785452272245,1.708300516858449
2.306,3.589,4.235,1.565525106433275,1.7167556863113724
2.297,3.608,4.235,1.5678305843677613,1.708906532518136
2.33,3.631,4.254,1.5681038964657883,1.7095173719839007
2.33,3.608,4.235,1.5717228155007856,1.7165592981092346
2.325,3.636,4.193,1.5930553415342228,1.7069616676916979
2.335,3.608,4.221,1.5779801307077286,1.7177553497402105
2.297,3.627,4.207,1.5825282636805849,1.7031854861091933
2.278,3.608,4.24,1.563590551373778,1.7045222874707207
2.311,3.641,4.221,1.5810057653394063,1.7021201776238601
2.306,3.622,4.245,1.5673145121520644,1.7067021215357003
2.33,3.613,4.235,1.572609261057833,1.7150394708801429
2.33,3.641,4.249,1.5719155419193556,1.7064778066167914
2.302,3.603,4.235,1.5675305185097133,1.7115811957068692
2.316,3.613,4.221,1.5766152791383503,1.7118145011076351
2.302,3.589,4.226,1.5687013002047216,1.7158519070943343
2.288,3.608,4.226,1.5704275044920977,1.706853729866329
2.302,3.613,4.235,1.5693025318008271,1.7085402159870877
2.283,3.636,4.221,1.5768455205164116,1.697180157642333
2.321,3.617,4.235,1.5722510232804285,1.711727653026277
2.255,3.603,4.24,1.5600564075858958,1.7007849012205856
2.353,3.627,4.226,1.5814859557048477,1.7161782105699483
2.26,3.622,4.226,1.5696798390794005,1.6961714032266244
2.311,3.603,4.202,1.5819253940639033,1.7137377182670444
2.325,3.603,4.23,1.5722675534920423,1.7169249359171304
2.339,3.631,4.226,1.5805207709717053,1.7116803623491605
2.283,3.603,4.235,1.5653137065518943,1.707203327683879
2.325,3.636,4.226,1.579745993423554,1.7068890442157105
2.297,3.641,4.207,1.5850208498558853,1.6989123084744773
2.278,3.617,4.212,1.576528432605416,1.7018495173974415
2.311,3.603,0,2.297,3.641,4.23,1.5757229634886298,1.6988583939416697
2.311,3.627,4.198,1.5877938116578783,1.70644374377173
2.283,3.622,4.24,1.5666550480057813,1.701406559389736
2.274,3.589,4.212,1.5711120352390406,1.7094474658880225
2.335,3.594,4.221,1.5755032707306995,1.7220043973597063
2.316,3.613,4.216,1.5786355968837427,1.7118256563588377
2.316,3.594,4.212,1.5768880231881492,1.7176060633960353
2.288,3.645,4.221,1.5790304899237313,1.6955805939335475
2.335,3.608,4.235,1.5723182595239982,1.7177252876508058
