3.144,5.031,3.645,2.192444842546936,1.4647729973430748
3.149,5.036,3.641,2.195762913869037,1.4644615977680424
3.149,5.013,3.65,2.187508921949851,1.4723914972394867
3.163,5.041,3.627,2.2040962906018042,1.4666879275182036
3.144,5.017,3.636,2.1926332572887017,1.4695740470221956
3.158,5.022,3.622,2.2009552226821794,1.471798515390919
3.111,5.036,3.608,2.2016555876027657,1.453654463671439
3.158,5.036,3.65,2.1939399967510895,1.4670319848255708
3.158,5.013,3.645,2.1907302760679017,1.474935646575034
3.125,5.031,3.631,2.1945021719077396,1.4593713066118756
3.139,5.022,3.636,2.1929366571613365,1.4664380406925537
0,5.05,3.641,3.168,5.031,3.664,2.1893770503252132,1.471619783218807
3.144,5.027,3.636,2.19481211846361,1.4661335146854342
3.125,5.022,3.641,2.188943686213415,1.462487599598229
3.149,5.017,3.636,2.1934201745204263,1.4709909979628755
3.163,5.013,3.641,2.192960506889493,1.4763482196426871
3.144,5.003,3.641,2.1877882383368124,1.4743957162544765
3.144,5.045,3.641,2.19694041923289,1.4599438276031964
3.135,5.017,3.65,2.186178546196025,1.4670510540274027
3.149,5.008,3.622,2.1964871763801725,1.4740597064632566
3.139,5.027,3.669,2.1821203504980606,1.4647757706961926
3.154,5.027,3.631,2.1981840758909925,1.4689597037122137
3.149,5.027,3.627,2.198832415621484,1.4675341041378258
3.139,5.036,3.645,2.1927494725669985,1.4616350200476556
3.154,5.036,3.645,2.1951106483265925,1.4658873678789572
3.163,5.045,3.645,2.198496715997737,1.4653437359344246
3.144,5.041,3.641,2.196067084948425,1.461321992514381
3.13,5.022,3.645,2.188285744382625,1.4639078848368812
3.154,5.045,3.645,2.197074996004844,1.4627875061485798
3.13,5.036,3.617,2.2013989582361497,1.4590365851306704
3.154,5.036,3.631,2.200147157257852,1.465861562338487
3.121,5.036,3.641,2.1913707899833526,1.4565373147880978
3.149,5.045,3.664,2.1894282651979338,1.4614030400090394
3.154,5.031,3.641,2.195460463204515,1.4676014065352847
3.163,5.031,3.631,2.200477668155987,1.470138494172313
3.158,5.055,3.641,2.2013318275647866,1.4604694246228025
3.149,5.059,3.645,2.199346001189103,1.4565426984120435
3.168,5.045,3.65,2.197486076687362,1.4667745086593869
3.139,5.045,3.641,2.196154588903342,1.458527215831027
3.144,5.036,3.636,2.196775006436118,1.463035014291853
3.121,5.036,3.659,2.1848780063654627,1.4565691779240009
3.144,5.05,3.627,2.2030663900314007,1.458194472810957
3.144,5.027,3.617,2.2016316417000437,1.4660982841190553
3.158,5.041,3.608,2.2101138848565562,1.4652311445091246
3.149,5.045,3.674,2.1858083060854434,1.4614206190853765
3.144,5.031,3.627,2.198917964752049,1.4647400350768127
3.154,5.027,3.645,2.193148105883324,1.4689853221563773
3.172,5.055,3.659,2.1970561377477744,1.4644834744309554
3.168,5.045,3.65,2.197486076687362,1.4667745086593869
3.125,5.022,3.622,2.195770750506983,1.4624531961201617
3.13,5.05,3.659,2.1893419018211335,1.4542887680795689
3.168,5.027,3.659,2.190312016246503,1.4729871691280465
3.149,5.041,3.641,2.1968540809365367,1.4627395395901621
3.135,5.031,3.645,2.1910310727729336,1.4622244021066697
3.13,5.045,3.674,2.1828218623563336,1.4560383610158183
3.135,5.041,3.65,2.1914101414113456,1.4587892718342372
3.149,5.05,3.641,2.1988195830579635,1.4596383542881748
3.149,5.036,3.669,2.1856557243934343,1.4645116260439286
3.163,5.083,3.669,2.1981399876992938,1.4522809154516185
3.172,5.059,3.645,2.202981405622769,1.4630786767434525
3.139,5.017,3.664,2.181751560378886,1.4682074915564218
3.139,5.022,3.622,2.1979639932541746,1.466412368225808
3.121,5.05,3.674,2.1825045735855566,1.4517705273164416
3.139,5.045,3.627,2.201188311092556,1.4585012761336715
3.154,5.059,3.645,2.2001342229400556,1.4579617221536527
3.139,5.041,3.631,2.1988780244647383,1.4598870692764547
3.144,5.017,3.645,2.1893943460693843,1.4695902188803895
3.149,5.041,3.65,2.1936111967502465,1.462755943105807
3.111,0,3.664,3.116,5.045,3.645,2.1911137821010187,1.452031327694289
3.13,5.013,3.627,2.1927985690778193,1.466971680990692
3.125,5.017,3.645,2.186414165839386,1.4642150603240414
3.13,5.022,3.613,2.199777687163859,1.4638495164870282
3.144,5.027,3.617,2.2016316417000437,1.4660982841190553
3.144,5.045,3.645,2.195499714810706,1.4599511503991174
3.149,5.055,3.65,2.1966688834272516,1.4579312431531442
3.144,5.055,3.617,2.2077466408848943,1.456451442842684
3.13,5.031,3.631,2.195284560287241,1.4607846280578558
3.163,5.055,3.659,2.1956302900814406,1.461923380143283
3.154,5.059,3.636,2.2033744678158667,1.457944892674112
3.121,5.045,3.627,2.198369834361335,1.4534103172092834
3.144,5.045,3.627,2.2019739197527253,1.4599178122426932
3.125,5.022,3.65,2.185700823513882,1.4625035108931057
3.144,5.041,3.631,2.1996636959557487,1.4613035313140046
3.154,5.027,3.645,2.193148105883324,1.4689853221563773
3.111,5.027,3.645,2.1864075685786837,1.456822038939911
3.13,5.055,3.669,2.1868167458530894,1.452582402119588
3.139,5.041,3.669,2.1851725650855878,1.459955398460339
3.139,5.041,3.659,2.1887891711118583,1.4599378407233934
3.139,5.036,3.622,2.2010174375274763,1.461592678534996
3.158,5.027,3.631,2.198815316290498,1.4700949983153322
3.158,5.022,3.622,2.2009552226821794,1.471798515390919
3.154,5.022,3.645,2.1920585866357865,1.4707055813825558
3.135,5.055,3.674,2.1857896396014485,1.4540062991597804
3.139,5.055,3.631,2.2019368527804546,1.4550613053187054
3.158,5.036,3.641,2.1971824358984047,1.4670155612104285
3.139,5.036,3.641,2.194190087551377,1.461627772527982
3.139,5.013,3.655,2.184132152410617,1.4695674140330814
3.125,5.036,3.669,2.181886574494855,1.4577166351555955
3.144,5.022,3.659,2.1854332710335895,1.4678950910722615
3.139,5.045,3.645,2.19471382024525,1.4585345167010912
3.149,5.041,3.641,2.1968540809365367,1.4627395395901621
3.158,5.05,3.65,2.196996129009968,1.4622095230913963
3.13,5.05,3.627,2.200869638415252,1.4542304412909273
3.154,5.041,3.659,2.191151022540522,1.4641907755213655
3.154,5.017,3.641,2.1924097291500195,1.4724180484583382
3.125,5.059,3.631,2.200617956100703,1.4497198680931582
3.163,5.013,3.645,2.19152058352063,1.4763554344593108
3.154,5.036,3.655,2.19150462545718,1.4659054386499857
3.154,5.045,3.636,2.2003146993200016,1.4627708646808462
3.139,5.036,3.617,2.202809816692295,1.4615832584206763
3.125,5.055,3.659,2.189651386430299,1.451150683500081
3.158,5.027,3.655,2.1901740009574504,1.47013865713504
3.125,5.022,3.641,2.188943686213415,1.462487599598229
3.163,5.045,3.641,2.1999371834171892,1.4653363322415711
3.154,5.036,3.631,2.200147157257852,1.465861562338487
3.144,5.013,3.627,2.194995320693968,1.4709332332155605
3.13,5.036,3.627,2.197812123773464,1.459055250946714
3.168,5.036,3.655,2.193718241404742,1.4698827850528422
3.139,5.031,3.641,2.193099477813377,1.4633494797317879
3.149,5.045,3.636,2.1995266180304527,1.4613522207028387
3.13,5.022,3.664,2.1814278875171897,1.4639410678530609
3.149,5.027,3.627,2.198832415621484,1.4675341041378258
3.116,5.05,3.622,2.200476951248912,1.4502652142809442
3.139,5.017,3.627,2.1950807824821794,1.468141761780604
3.158,5.059,3.645,2.20076563548022,1.4590976789476438
3.144,5.045,3.636,2.1987397007987286,1.4599346054170548
3.125,5.041,3.645,2.191646268658852,1.455951946438854
3.154,5.055,3.631,2.204297367508476,1.459314783128263
3.135,5.045,3.631,2.199123836153999,1.457376246767326
3.139,5.008,3.608,2.1999273688054597,1.471201436497977
3.144,5.013,3.65,2.1867217826279015,1.4709745651478212
3.139,5.027,3.65,2.188984754471367,1.4647425399416936
3.125,5.064,3.65,2.1948691992438984,1.4480295293799088
3.139,5.031,3.65,2.1898566877277523,1.463365651998836
3.158,5.022,3.655,2.18908469228764,1.4718587492578787
3.139,5.017,3.664,2.181751560378886,1.4682074915564218
3.168,5.017,3.659,2.1881341254165423,1.4764262370816166
3.135,5.05,3.659,2.190125925998826,1.4557037423383419
3.149,5.045,3.645,2.1962867742538914,1.461368814226413
3.158,5.036,3.641,2.1971824358984047,1.4670155612104285
3.154,5.031,3.641,2.195460463204515,1.4676014065352847
3.13,5.041,3.641,2.193869705728033,1.4573583511941612
3.144,5.045,3.674,2.1850207747767723,1.4600027941946616
3.139,5.045,3.65,2.192911262883996,1.4585435741563988
3.154,5.036,3.664,2.1882531634877354,1.4659214467963892
3.168,5.031,3.627,2.202705104889479,1.4715521458734668
3.172,5.017,3.627,2.2002873185198095,1.4775055519490776
3.158,5.036,3.669,2.187076047231619,1.4670658628290572
3.158,5.008,3.655,2.186037607497972,1.4766718571614101
3.121,5.013,3.65,2.1831159726588583,1.4644700170024982
3.13,5.027,3.645,2.1893752636301627,1.4621870544634132
3.144,5.031,3.655,2.188838712164536,1.4647908859375336
3.158,5.045,3.636,2.200946000746206,1.4639065191563194
3.149,5.013,3.641,2.190750738693305,1.4723754643044131
3.139,5.055,3.617,2.206961187526706,1.4550347206840823
3.139,5.027,3.655,2.1871808061648137,1.4647513896049524
3.149,5.017,3.65,2.1883796015349257,1.4710161249329534
3.121,5.017,3.65,2.183986652243933,1.463094109090446
3.116,5.036,3.627,2.1956245894573776,1.4551002974886311
3.144,5.027,3.622,2.1998395361492267,1.4661076624875429
3.121,5.05,3.627,2.1994623046400106,1.4516864237314004
3.149,5.05,3.617,2.207440019971286,1.459593078606706
3.163,5.022,3.669,2.1848160759594766,1.4733034511315468
3.168,5.027,3.641,2.1968013885495874,1.4729546125945154
3.13,5.031,3.631,2.195284560287241,1.4607846280578558
3.149,5.017,3.645,2.1901814055125697,1.4710072183625813
3.149,5.017,3.636,2.1934201745204263,1.4709909979628755
3.116,5.022,3.636,2.189337304116458,1.4599376399148756
3.149,5.05,3.641,2.1988195830579635,1.4596383542881748
3.149,5.036,3.641,2.195762913869037,1.4644615977680424
3.172,5.045,3.627,2.206394847130186,1.4678694157728194
3.168,5.036,3.669,2.1886585647747343,1.4699077937018954
3.168,5.05,3.655,2.196774077579954,1.465061081990826
3.154,5.031,3.645,2.194020123741074,1.4676086894719547
3.158,5.041,3.645,2.196833142623153,1.4653010745389026
3.144,5.022,3.645,2.190483305441649,1.467870315062002
3.144,5.055,3.65,2.1958817441053022,1.4565133140636213
3.144,5.022,3.622,2.198749523945447,1.4678283293335113
3.139,5.017,3.655,2.1850027482976784,1.468191881044146
3.149,5.041,3.655,2.1918071153323844,1.4627649504980818
3.154,5.031,3.622,2.2022865159415512,1.4675661516571434
3.135,5.031,3.631,2.1960681235471964,1.4621989878067658
3.158,5.017,3.636,2.1948395572361794,1.473544108089795
3.154,5.027,3.659,2.1880982250176837,1.46901035311672
3.149,5.036,3.641,2.195762913869037,1.4644615977680424
3.149,5.027,3.641,2.1938002182659933,1.4675598178190656
3.163,5.041,3.641,2.1990638491327243,1.4667141380549624
3.154,5.055,3.613,2.2107538198561816,1.4592802076841147
3.139,5.055,3.645,2.196898539213406,1.45508728224833
3.144,5.027,3.641,2.1930132222778815,1.4661426030804474
3.13,5.031,3.617,2.200307829925152,1.4607586883016932
3.149,5.027,3.636,2.1955990356953343,1.4675507025418721
3.163,5.017,3.617,2.2024473350676153,1.4749286225789027
3.154,5.013,3.655,2.186493809308877,1.4738182906956843
3.158,5.05,3.627,2.2052723018913696,1.46216658581209
3.154,5.027,3.622,2.201414103059235,1.4689429214809284
3.149,5.027,3.617,2.202418265408714,1.467515371786291
3.13,5.036,3.631,2.1963753844972884,1.459062630460546
3.172,5.064,3.645,2.20407503801347,1.4613544948185588
3.163,5.045,3.65,2.1966945378743854,1.4653529228362692
3.144,5.013,3.655,2.1849182093035626,1.470983340724019
3.139,5.027,3.645,2.19078693012373,1.4647336150029895
3.163,5.027,3.645,2.194569825876217,1.471540790808232
3.144,5.05,3.631,2.201629585829105,1.458201997354221
3.154,5.045,3.631,2.2021120456546073,1.4627615128886688
3.149,5.017,3.627,2.196653168196607,1.4709745336519433
3.139,5.055,3.627,2.2033738068364195,1.4550537720102767
3.154,5.027,3.645,2.193148105883324,1.4689853221563773
3.149,5.055,3.636,2.2017117235468,1.4579053291096962
3.139,5.064,3.655,2.195258984993609,1.45200109017047
3.135,5.045,3.641,2.1955267656479074,1.4573946696695839
3.121,5.05,3.627,2.1994623046400106,1.4516864237314004
3.116,5.064,3.636,2.1985081921234806,1.4454609469029602
3.144,5.027,3.655,2.1879668630577593,1.4661676493637552
3.111,5.041,3.631,2.194499963203992,1.451974039803055
3.125,5.055,3.65,2.1929012514041597,1.451134582919816
3.154,5.013,3.622,2.19836348274729,1.473758633912906
3.135,5.027,3.636,2.193398609103665,1.4635851801900481
3.144,5.031,3.641,2.193885308142925,1.4647657574596478
3.154,5.022,3.65,2.190256756195156,1.4707145514676225
3.144,5.045,3.65,2.193697238303791,1.4599602354527057
3.125,5.041,3.65,2.1898435647271546,1.455960895310363
3.144,5.036,3.613,2.2050278195791755,1.4629919137773542
3.149,5.045,3.608,2.2095691706480967,1.4612990057736859
3.121,5.036,3.617,2.19999191537404,1.45649327726738
3.135,5.055,3.631,2.2013091580078683,1.4539286109981095
3.139,5.027,3.645,2.19078693012373,1.4647336150029895
3.144,5.05,3.631,2.201629585829105,1.458201997354221
3.149,5.045,3.617,2.206347330923456,1.4613163750367313
3.125,5.045,3.655,2.1889121842713597,1.4545913202407192
3.13,5.055,3.655,2.1918792650355363,1.4525575961647845
3.163,5.017,3.622,2.2006557318314557,1.4749380227670885
3.144,5.022,3.636,2.1937224077579867,1.467854076861293
3.139,5.027,3.622,2.199054005457954,1.4646915823389113
3.13,5.008,3.613,2.196728092087916,1.4686653553534084
3.144,5.055,3.622,2.2059539226005485,1.456461033931828
3.144,5.045,3.659,2.190448322554023,1.4599763978091571
3.125,5.059,3.641,2.197019954276026,1.4497383893664095
3.139,5.036,3.641,2.194190087551377,1.461627772527982
3.163,5.017,3.655,2.188786405500988,1.474998184148828
3.172,5.022,3.65,2.19310421496157,1.4758284814858158
3.121,5.041,3.622,2.1992908269114717,1.4547797269371723
3.135,5.045,3.599,2.2105863485753923,1.4573152039458448
3.116,5.05,3.655,2.188597994528795,1.4503252961214734
3.13,5.041,3.641,2.193869705728033,1.4573583511941612
3.163,5.041,3.622,2.2058902047797186,1.4666784222423532
3.144,5.017,3.645,2.1893943460693843,1.4695902188803895
3.135,5.027,3.631,2.1951958663903848,1.4635760647473786
3.135,5.003,3.631,2.189969860088498,1.4718305616046337
3.117,5.064,3.636,2.1986641678434804,1.445743319895463
3.125,5.041,3.631,2.196684378052695,1.4559264805167063
3.135,5.017,3.655,2.1843747418172437,1.4670598083631
3.139,5.041,3.655,2.190233838619389,1.4599307334329217
3.158,5.045,3.631,2.2027432860541123,1.4638971465336954
3.139,5.022,3.636,2.1929366571613365,1.4664380406925537
3.154,5.027,3.645,2.193148105883324,1.4689853221563773
3.135,5.031,3.641,2.1924716545579424,1.4622172018824282
3.154,5.05,3.641,2.199607742131442,1.461057143237719
3.135,5.017,3.659,2.1829304232174525,1.467066757991817
3.154,5.031,3.627,2.2004926846700923,1.4675755356234523
3.13,5.041,3.636,2.1956691271584603,1.4573492358639932
3.13,5.045,3.636,2.1965425473042575,1.4559707726182751
3.144,5.05,3.622,2.20486078784306,1.4581849975068069
3.135,5.031,3.65,2.1892287471305956,1.462233334096835
3.121,5.041,3.603,2.2060938007240964,1.4547437388931985
3.125,5.05,3.631,2.198650267926051,1.4528241244388302
3.144,5.027,3.655,2.1879668630577593,1.4661676493637552
3.135,5.059,3.613,2.208641730421973,1.4525145753938722
3.135,5.059,3.613,2.208641730421973,1.4525145753938722
3.125,5.036,3.65,2.18875258910067,1.4576834620349148
3.154,5.041,3.65,2.1943994974084284,1.4641745672936637
3.149,5.045,3.631,2.2013240415207065,1.4613428952464556
3.13,5.041,3.655,2.1888218749948667,1.4573834668047105
3.139,5.064,3.636,2.2021075451683596,1.451966019071545
3.168,5.008,3.617,2.201278591386348,1.4794430807167105
3.125,5.055,3.65,2.1929012514041597,1.451134582919816
3.144,5.022,3.603,2.2055495443353084,1.467792425335565
3.135,5.045,3.622,2.2023550969142978,1.4573594018940925
3.121,5.041,3.627,2.1974962585183095,1.4547890089075517
3.135,5.045,3.636,2.1973261914387834,1.4573854967122555
3.135,5.041,3.617,2.203273984991761,1.4587284164489083
3.139,5.031,3.641,2.193099477813377,1.4633494797317879
3.154,5.083,3.65,2.2035855510006446,1.4496877342141197
3.13,5.031,3.645,2.190247281487912,1.4608099645252037
3.154,5.022,3.631,2.197094258022451,1.470680066609651
3.144,5.036,3.655,2.1899290254518657,1.4630694008668093
3.139,5.069,3.65,2.1981577935041177,1.4502664602154043
3.125,5.041,3.645,2.191646268658852,1.455951946438854
3.135,5.041,3.636,2.196452771292986,1.4587638636708515
3.135,5.017,3.622,2.196246960984931,1.4670006344031314
3.139,5.041,3.622,2.2021090147938946,1.4598702398595664
3.116,5.031,3.664,2.1811994274678255,1.4568881866326713
3.158,5.059,3.636,2.204005769242071,1.4590808115412048
3.139,5.041,3.631,2.1988780244647383,1.4598870692764547
3.13,5.059,3.655,2.1927536024809413,1.4511779325272045
3.158,5.036,3.627,2.202214787249581,1.4669895274635316
3.139,5.05,3.631,2.200843914338094,1.4567853203164136
3.149,5.036,3.645,2.19432242657564,1.4644688888729043
3.149,5.045,3.627,2.2027606968069833,1.461335379681235
3.154,5.036,3.636,2.1983500049573914,1.4658708467684767
3.139,5.045,3.636,2.1979539502020784,1.4585180208603814
3.135,5.041,3.664,2.1863536223867643,1.4588140842087913
3.139,5.059,3.627,2.2042486262985728,1.453674114418237
3.13,5.041,3.636,2.1956691271584603,1.4573492358639932
3.125,5.045,3.613,2.2040151782292257,1.454514145056179
3.139,5.045,3.636,2.1979539502020784,1.4585180208603814
3.13,5.041,3.65,2.1906262675057158,1.4573745655988422
3.154,5.073,3.622,2.2114683583812536,1.4530873706608782
3.13,5.041,3.655,2.1888218749948667,1.4573834668047105
3.139,5.036,3.631,2.1977866425298296,1.461609440139295
3.139,5.036,3.641,2.194190087551377,1.461627772527982
3.154,5.045,3.641,2.1985155742944795,1.4627801402994158
3.13,5.073,3.65,2.1976216371137025,1.4463370316172697
3.135,5.05,3.622,2.203447676291087,1.455635809134803
3.144,5.05,3.645,2.196591797052849,1.458227945680731
3.139,5.036,3.659,2.187698385099361,1.4616600047018364
3.144,5.041,3.655,2.191019895512335,1.461347327020999
3.154,5.017,3.603,2.2060336744295435,1.4723472360153214
3.144,5.008,3.655,2.1838304695982806,1.472702103735893
3.144,5.022,3.641,2.191923618165197,1.4678631282507908
3.158,5.045,3.617,2.2077661946112257,1.4638704963286606
3.154,5.064,3.655,2.1976206418918687,1.456255601402403
3.111,5.036,3.636,2.1916107333398958,1.4537061357162326
3.121,5.027,3.622,2.1962358175755305,1.4596022836299272
3.144,5.031,3.627,2.198917964752049,1.4647400350768127
3.149,5.045,3.622,2.204554908529576,1.4613259159727345
3.135,5.05,3.664,2.188318248114964,1.4557126014265236
3.125,5.041,3.641,2.1930871529966427,1.455944732121783
3.111,5.045,3.645,2.1903344587002036,1.4506205005704873
3.13,5.041,3.631,2.1974667664321967,1.4573400434903065
3.125,5.05,3.636,2.196852352401931,1.4528333563547282
3.139,5.036,3.645,2.1927494725669985,1.4616350200476556
3.135,5.036,3.636,2.1953614970761732,1.4604862929710636
3.149,5.041,3.655,2.1918071153323844,1.4627649504980818
3.135,5.031,3.641,2.1924716545579424,1.4622172018824282
3.144,5.045,3.655,2.1918929917922814,1.4599692447370496
3.154,4.998,3.631,2.191870950704651,1.478929550592096
3.154,5.069,3.636,2.2055626729183753,1.4544949652675987
3.158,5.027,3.659,2.188729813607943,1.4701457665689492
0,5.045,3.659,3.144,5.041,3.631,2.1996636959557487,1.4613035313140046
3.135,5.041,3.645,2.1932126791148483,1.4587802662235043
